# Time=0.00500050005001 and Columns are r	p	Paether	ur	alpha	a	b	K	Sr_tilde	tau_tilde
1.001333884533834630e-02	1.199532143119539165e-02	-1.855044313433300979e-02	1.936263018174661806e-05	6.444589130130096155e-01	1.000058338045893613e+00	1.000011015375869894e+00	-1.054713895367955304e-02	2.187212830843135562e-10	1.503538772796059055e-06
3.004001653601504063e-02	1.196679200291684599e-02	-1.852943198934883448e-02	5.807875327166135731e-05	6.446390420020584600e-01	1.000436762566526694e+00	1.000011019695604686e+00	-1.054531613560754852e-02	5.897476237405064510e-09	1.350477369255486389e-05
5.006669422669172975e-02	1.190991351224514674e-02	-1.848745006592411588e-02	9.676564528547023931e-05	6.449990205091422624e-01	1.001192750723722602e+00	1.000011028257367984e+00	-1.054137876792892066e-02	2.722865457149123102e-08	3.736317284791412416e-05
7.009337191736843276e-02	1.182505621327771192e-02	-1.842458197071392481e-02	1.354034804524141859e-04	6.455383778617955759e-01	1.002324573983568889e+00	1.000011041031915848e+00	-1.053540708836559966e-02	7.440924313892220073e-08	7.279224898556663800e-05
9.012004960804512188e-02	1.171276819355406180e-02	-1.834095145486679124e-02	1.739746547024829265e-04	6.462564767026631740e-01	1.003829621570836439e+00	1.000011058000243036e+00	-1.052751415093822890e-02	1.572835128304752240e-07	1.193663951456558288e-04
1.101467272987218110e-01	1.157377213152925924e-02	-1.823672561097973779e-02	2.124624921334743665e-04	6.471524221886911787e-01	1.005704379236799006e+00	1.000011079110012968e+00	-1.051769413584793464e-02	2.852090628383444899e-07	1.765258013801898770e-04
1.301734049893985001e-01	1.140895862299357195e-02	-1.811211577230264352e-02	2.508521199853246033e-04	6.482250548532167977e-01	1.007944401762647102e+00	1.000011104295609243e+00	-1.050598768534051139e-02	4.669304719651101615e-07	2.435829563265006826e-04
1.502000826800751754e-01	1.121937789175355207e-02	-1.796737747589886858e-02	2.891307788515677852e-04	6.494729804417097574e-01	1.010544279313511984e+00	1.000011133479023151e+00	-1.049243880659072800e-02	7.104619020653898728e-07	3.197306860343267351e-04
1.702267603707518784e-01	1.100623001602494232e-02	-1.780281170561712201e-02	3.272881599544895013e-04	6.508945571162445543e-01	1.013497598537546729e+00	1.000011166570429211e+00	-1.047710080067805645e-02	1.022980398032856441e-06	4.040516688825435891e-04
1.902534380614285814e-01	1.077085377768843312e-02	-1.761876649258244110e-02	3.653166929504146837e-04	6.524878711073389681e-01	1.016796899161615420e+00	1.000011203468897714e+00	-1.046003636981063939e-02	1.410731178065883829e-06	4.955293509443803052e-04
2.102801157521052566e-01	1.051471424989866739e-02	-1.741563799097400195e-02	4.032118457288830834e-04	6.542507300992305153e-01	1.020433627069049276e+00	1.000011244062812832e+00	-1.044131822177633319e-02	1.878946235705698963e-06	5.930601705778641881e-04
2.303067934427819596e-01	1.023938925198669345e-02	-1.719387142564350254e-02	4.409723545625636410e-04	6.561806599678033924e-01	1.024398085013366932e+00	1.000011288230754358e+00	-1.042102965362349393e-02	2.431776925972578262e-06	6.954669843072836281e-04
2.503334711334586626e-01	9.946554813855467206e-03	-1.695396236820611441e-02	4.786004796735285772e-04	6.582748846493180483e-01	1.028679382311423751e+00	1.000011335841871851e+00	-1.039926476927910924e-02	3.072241564279816059e-06	8.015135682519924530e-04
2.703601488241353379e-01	9.637969804253784800e-03	-1.669645760540650753e-02	5.161021903036615548e-04	6.605303148827260662e-01	1.033265385047869245e+00	1.000011386756944010e+00	-1.037612868673064466e-02	3.802188073421349796e-06	9.099200505482929165e-04
2.903868265148120131e-01	9.315459888487000878e-03	-1.642195567331179371e-02	5.534873899682478740e-04	6.629435410639114012e-01	1.038142668521747414e+00	1.000011440828668219e+00	-1.035173761731428797e-02	4.622272501625657363e-06	1.019379110626079422e-03
3.104135042054887439e-01	8.980900990720434504e-03	-1.613110729887342470e-02	5.907700657124830999e-04	6.655108192448688786e-01	1.043296473850219286e+00	1.000011497902842716e+00	-1.032621860224118560e-02	5.531952723707884345e-06	1.128572761148925784e-03
3.304401818961654191e-01	8.636202444163057837e-03	-1.582461539604572420e-02	6.279685044113527629e-04	6.682280610309548896e-01	1.048710670829842373e+00	1.000011557818553998e+00	-1.029970903588451996e-02	6.529498192226087621e-06	1.236189508379271357e-03
3.504668595868420944e-01	8.283290018571472929e-03	-1.550323463457205925e-02	6.651054308236301711e-04	6.710908259570662615e-01	1.054367729304544810e+00	1.000011620409475777e+00	-1.027235592526432560e-02	7.612014252051178318e-06	1.340941667247818854e-03
3.704935372775188251e-01	7.924089018720594998e-03	-1.516777058822050411e-02	7.022082402676868866e-04	6.740943133399778242e-01	1.060248701424320261e+00	1.000011685503886971e+00	-1.024431480154036796e-02	8.775482103212636683e-06	1.441582589242457408e-03
3.905202149681955004e-01	7.560507649279795024e-03	-1.481907828642601600e-02	7.393091558468740943e-04	6.772333604913297611e-01	1.066333217248059517e+00	1.000011752926113218e+00	-1.021574839065243767e-02	1.001481208866321328e-05	1.536923545207788790e-03
4.105468926588721756e-01	7.194420840903537756e-03	-1.445806036420191863e-02	7.764455106512659121e-04	6.805024370492196439e-01	1.072599496178811229e+00	1.000011822496293501e+00	-1.018682484595158887e-02	1.132391176395810407e-05	1.625849992272601283e-03
4.305735703495489064e-01	6.827654728869292020e-03	-1.408566453596707402e-02	8.136599625901748834e-04	6.838956469012428263e-01	1.079024376656350315e+00	1.000011894031984205e+00	-1.015771576238052101e-02	1.269576553343019689e-05	1.707336945418301208e-03
4.506002480402255816e-01	6.461971969280900716e-03	-1.370288048657815859e-02	8.510008678086721217e-04	6.874067335111943011e-01	1.085583366412962159e+00	1.000011967347699482e+00	-1.012859386532546230e-02	1.412252778345264295e-05	1.780463170821997964e-03
4.706269257309022569e-01	6.099058068368860136e-03	-1.331073622179740693e-02	8.885225956716273545e-04	6.910290868584957336e-01	1.092250715348397572e+00	1.000012042256610778e+00	-1.009963043848137974e-02	1.559562524774225838e-05	1.844423921102762839e-03
4.906536034215789877e-01	5.740508887818142857e-03	-1.291029384455417289e-02	9.262860434949387852e-04	6.947557540664199838e-01	1.098999512760444608e+00	1.000012118569847175e+00	-1.007099248060428810e-02	1.710587117199508384e-05	1.898541943041295995e-03
5.106802811122557184e-01	5.387819473186833755e-03	-1.250264476970908319e-02	9.643591064138895552e-04	6.985794548308884577e-01	1.105801810193844048e+00	1.000012196098374107e+00	-1.004283974695366864e-02	1.864358578729123015e-05	1.942276507032678371e-03
5.307069588029323937e-01	5.042374333501158622e-03	-1.208890441052487726e-02	1.002817392124478102e-03	7.024926020598859511e-01	1.112628770629112029e+00	1.000012274651970401e+00	-1.001532163481498247e-02	2.019872632169936749e-05	1.975230235127480548e-03
5.507336364936090689e-01	4.705439278111541238e-03	-1.167020647348372166e-02	1.041744909558181857e-03	7.064873235451917255e-01	1.119450844033924586e+00	1.000012354041297957e+00	-9.988574043115124382e-03	2.176101970638266473e-05	1.997153541213755445e-03
5.707603141842857442e-01	4.378154892203541503e-03	-1.124769679443741836e-02	1.081235056177208553e-03	7.105554913436025188e-01	1.126237968561169422e+00	1.000012434076583689e+00	-9.962716242072122697e-03	2.332010194947873276e-05	2.007946542569138959e-03
5.907869918749625304e-01	4.061531705336175919e-03	-1.082252697144963326e-02	1.121391604614395887e-03	7.146887495630882547e-01	1.132959795806594894e+00	1.000012514569894373e+00	-9.937847853755590183e-03	2.486565585302484650e-05	2.007658355922740338e-03
6.108136695656392057e-01	3.756447078570879835e-03	-1.039584765349772094e-02	1.162330051682537203e-03	7.188785524021135132e-01	1.139585937687490391e+00	1.000012595333459320e+00	-9.914046026186043928e-03	2.638755188710459253e-05	1.996483752131732615e-03
6.308403472563158809e-01	3.463643805799872331e-03	-9.968801841447339981e-03	1.204179001163861642e-03	7.231161985809269055e-01	1.146086231574796610e+00	1.000012676182194804e+00	-9.891362876067878729e-03	2.787598238422055134e-05	1.974757209746054454e-03
6.508670249469925562e-01	3.183730394508065172e-03	-9.542518109413812913e-03	1.247081985970444756e-03	7.273928705665554384e-01	1.152431019491225284e+00	1.000012756931679458e+00	-9.869823184033515648e-03	2.932159486680803681e-05	1.942944476844919071e-03
6.708937026376692314e-01	2.917182961276474154e-03	-9.118103949749722242e-03	1.291199375645168870e-03	7.316996756531527479e-01	1.158591436366347427e+00	1.000012837400893195e+00	-9.849422609737087247e-03	3.071561335530171541e-05	1.901631819779121954e-03
6.909203803283459067e-01	2.664348648671141084e-03	-8.696639267843605733e-03	1.336710814391623868e-03	7.360276901984742493e-01	1.164539701732860699e+00	1.000012917409826008e+00	-9.830126235131145251e-03	3.204995450872611849e-05	1.851513203843509940e-03
7.109470580190225819e-01	2.425450443731499896e-03	-8.279170298534399217e-03	1.383817818595175445e-03	7.403679980117719994e-01	1.170249408716985018e+00	1.000012996782476682e+00	-9.811867661178745592e-03	3.331732654588569529e-05	1.793375711224629802e-03
7.309737357096993682e-01	2.200593254825300438e-03	-7.866703857148450371e-03	1.432747024746770445e-03	7.447117308207049646e-01	1.175695803955672636e+00	1.000013075344033719e+00	-9.794548464154831033e-03	3.451131910369880279e-05	1.728083552788095513e-03
7.510004134003760434e-01	1.989771084064158400e-03	-7.460202115685624254e-03	1.483753703555433295e-03	7.490501084949677812e-01	1.180856051980889942e+00	1.000013152924150939e+00	-9.778038371766117204e-03	3.562647147624735356e-05	1.656561069605816091e-03
7.710270910910527187e-01	1.792875117292868107e-03	-7.060577889733264667e-03	1.537126077604247668e-03	7.533744804958119046e-01	1.185709477888650332e+00	1.000013229353660549e+00	-9.762175787369100147e-03	3.665832878044278560e-05	1.579775145397380393e-03
7.910537687817293939e-01	1.609702543495893871e-03	-6.668690758559775444e-03	1.593190059457732111e-03	7.576763499276251146e-01	1.190237782517631127e+00	1.000013304468141628e+00	-9.746768859460255841e-03	3.760347361786466600e-05	1.498717460780916565e-03
8.110804464724060692e-01	1.439965910446819146e-03	-6.285343707838579944e-03	1.652315007771996058e-03	7.619474044916597633e-01	1.194425225140456126e+00	1.000013378104158690e+00	-9.731596947991003749e-03	3.845954444363425186e-05	1.414387013814608985e-03
8.311071241630827444e-01	1.283302823785964194e-03	-5.911280510890312354e-03	1.714920119382533142e-03	7.661795483314688404e-01	1.198258769518044220e+00	1.000013450103120372e+00	-9.716412940196598319e-03	3.922522851509765729e-05	1.327773309110578254e-03
8.511338018537595307e-01	1.139285802137577578e-03	-5.547183891112927173e-03	1.781482115753879169e-03	7.703649181228804377e-01	1.201728190327336021e+00	1.000013520307028614e+00	-9.700945681327921913e-03	3.990024207378330140e-05	1.239840581112324359e-03
8.711604795444362059e-01	1.007432111182549658e-03	-5.193674462627333697e-03	1.852543876450871412e-03	7.744958911435096960e-01	1.204826138085382858e+00	1.000013588562707278e+00	-9.684903281789520452e-03	4.048528676788691220e-05	1.151513368116459900e-03
8.911871572351128812e-01	8.872134140682515603e-04	-4.851310252059704009e-03	1.928724734408231644e-03	7.785650947728608440e-01	1.207548162018294846e+00	1.000013654717056388e+00	-9.667976882039490058e-03	4.098199590301010344e-05	1.063663695130479502e-03
9.112138349257895564e-01	7.780650936451892442e-04	-4.520586864905877002e-03	2.010732113462955929e-03	7.825654182208808818e-01	1.209892691456969427e+00	1.000013718621767467e+00	-9.649845747433037982e-03	4.139286046249161588e-05	9.771000590750413602e-04
9.312405126164662317e-01	6.793951227937880056e-04	-4.201938246195011974e-03	2.099375272367089065e-03	7.864900095317304274e-01	1.211860977579033882e+00	1.000013780128155894e+00	-9.630182980189559011e-03	4.172114897768560489e-05	8.925583427237283049e-04
9.512671903071429069e-01	5.905923818557009489e-04	-3.895738045686092648e-03	2.195580865406692849e-03	7.903322521413916890e-01	1.213456998224489602e+00	1.000013839092533718e+00	-9.608662843730261457e-03	4.197081239783240946e-05	8.106947177574851072e-04
9.712938679978196932e-01	5.110343458686515900e-04	-3.602301127250438079e-03	2.300411090002905772e-03	7.940857664926822546e-01	1.214687329442106556e+00	1.000013895370820638e+00	-9.584969852115628533e-03	4.214638785340326315e-05	7.320805356766089435e-04
9.913205456884963684e-01	4.400940882382165160e-04	-3.321885425876555057e-03	2.415084060200729885e-03	7.977444071148883653e-01	1.215560987925048853e+00	1.000013948824796328e+00	-9.558810561170742737e-03	4.225289280358265892e-05	6.571991509761195395e-04
1.011347223379172933e+00	3.771465707123205797e-04	-3.054694004835459449e-03	2.540997067630637336e-03	8.013022276342999239e-01	1.216089248985886995e+00	1.000013999316825553e+00	-9.529927347950812797e-03	4.229572294266139741e-05	5.864445761165534279e-04
1.031373901069849497e+00	3.215742114963549697e-04	-2.800876987807669315e-03	2.679752138438037164e-03	8.047534765148106617e-01	1.216285444741382005e+00	1.000014046717381033e+00	-9.498116337051377284e-03	4.228054614906995382e-05	5.201218339378570459e-04
1.051400578760526283e+00	2.727717432691277176e-04	-2.560533358649626744e-03	2.833184080027087264e-03	8.080925772215949987e-01	1.216164747216903042e+00	1.000014090900261943e+00	-9.463248360858170227e-03	4.221320390370498002e-05	4.584488508324966599e-04
1.071427256451203069e+00	2.301503903086233769e-04	-2.333712382389949505e-03	3.003389744090382164e-03	8.113141381901169957e-01	1.215743940662115774e+00	1.000014131751942870e+00	-9.425294674700851472e-03	4.209961326554806951e-05	4.015597230357133957e-04
1.091453934141879634e+00	1.931414082512652856e-04	-2.120414640616938556e-03	3.192757556747083825e-03	8.144129454361082043e-01	1.215041187054189287e+00	1.000014169167711353e+00	-9.384355575737770433e-03	4.194567880365094231e-05	3.495091875980460019e-04
1.111480611832556420e+00	1.611990408217272642e-04	-1.920592536861703793e-03	3.403994411464896473e-03	8.173839501475246294e-01	1.214075788054216343e+00	1.000014203063284368e+00	-9.340692183143945587e-03	4.175720836898948911e-05	3.022781370286937389e-04
1.131507289523232984e+00	1.338029545722794339e-04	-1.734149942516100256e-03	3.640146527399430471e-03	8.202223327390341101e-01	1.212867946201912961e+00	1.000014233372213290e+00	-9.294759452161585611e-03	4.153984016713417051e-05	2.597800293032652007e-04
1.151533967213909770e+00	1.104602149097494028e-04	-1.560941305101729406e-03	3.904607969789706482e-03	8.229235497851961068e-01	1.211438527357714623e+00	1.000014260059888027e+00	-9.247237309663080065e-03	4.129897510250016550e-05	2.218680593740767111e-04
1.171560644904586557e+00	9.070686396725361009e-05	-1.400770195020778573e-03	4.201108936389737723e-03	8.254833293153718277e-01	1.209808826012143124e+00	1.000014283121903436e+00	-9.199053939358728393e-03	4.103972092850489343e-05	1.883429702830637000e-04
1.191587322595263121e+00	7.410915311102432514e-05	-1.253387046250664877e-03	4.533671815145782873e-03	8.278978318992011864e-01	1.208000334516716290e+00	1.000014302599675942e+00	-9.151398913492989409e-03	4.076684292695593933e-05	1.589613872118224183e-04
1.211614000285939907e+00	6.026447016103792090e-05	-1.118486777148348411e-03	4.906520288806137144e-03	8.301637767789106226e-01	1.206034517273328444e+00	1.000014318578302364e+00	-9.105716102543950571e-03	4.048472535471844228e-05	1.334445524128366435e-04
1.231640677976616471e+00	4.880198465593967928e-05	-9.957066851635030386e-04	5.323922686775762157e-03	8.322784483689350532e-01	1.203932590819297488e+00	1.000014331201620088e+00	-9.063669448740825640e-03	4.019734031230651433e-05	1.114873205653081427e-04
1.251667355667293258e+00	3.938301531713192717e-05	-8.846245473639872308e-04	5.789949374513604988e-03	8.342399315411397343e-01	1.201715311296628119e+00	1.000014340666592227e+00	-9.027079140626134354e-03	3.990822737663705472e-05	9.276724268076675956e-05
1.271694033357969822e+00	3.170110499320060306e-05	-7.847580102045298043e-04	6.308124126158563653e-03	8.360473122312201966e-01	1.199402771241291799e+00	1.000014347234265077e+00	-8.997824309121759193e-03	3.962048002496907083e-05	7.695352590409699730e-05
1.291720711048646608e+00	2.548177322988045930e-05	-6.955658106564318330e-04	6.880957030850337088e-03	8.377007371945501824e-01	1.197014208661786094e+00	1.000014351216940156e+00	-8.977713539040546586e-03	3.933674226510637138e-05	6.371561409495946299e-05
1.311747388739323394e+00	2.048190911860626868e-05	-6.164511585221312505e-04	7.509361111062840335e-03	8.392015675489316040e-01	1.194567832058426093e+00	1.000014352981772436e+00	-8.968336247408611323e-03	3.905921209386260063e-05	5.273110136101343481e-05
1.331774066429999959e+00	1.648877043166689063e-05	-5.467678234446472990e-04	8.191982343849020867e-03	8.405524280124149206e-01	1.192080665999069478e+00	1.000014352928468853e+00	-8.970908199094679639e-03	3.878965340970886460e-05	4.369268080323410132e-05
1.351800744120676745e+00	1.331857085878299790e-05	-4.858288619217419305e-04	8.924510299560964657e-03	8.417574145200820146e-01	1.189568422025197414e+00	1.000014351485245090e+00	-8.986135030994085032e-03	3.852941385322406658e-05	3.631385505433955046e-05
1.371827421811353309e+00	1.081466421504214442e-05	-4.329180747535548725e-04	9.699081641982370064e-03	8.428220859429708112e-01	1.187045399708199334e+00	1.000014349079072273e+00	-9.014109262278602666e-03	3.827944945384098379e-05	3.033319928156759910e-05
1.391854099502030095e+00	8.845368603301426603e-06	-3.873035559968901584e-04	1.050392689141865787e-02	8.437531618852227577e-01	1.184524421551907514e+00	1.000014346128260900e+00	-9.054256508467516465e-03	3.804035557805392090e-05	2.551706761080071639e-05
1.411880777192706660e+00	7.301508017052776994e-06	-3.482521480471569572e-04	1.132342425835882599e-02	8.445585041655380154e-01	1.182016804129113252e+00	1.000014343011402129e+00	-9.105345785910996803e-03	3.781240555899968936e-05	2.166075674920976677e-05
1.431907454883383446e+00	6.093776390882810041e-06	-3.150439263317165593e-04	1.213869068212991217e-02	8.452472036185427751e-01	1.179532365503038971e+00	1.000014340063672069e+00	-9.165565420231579219e-03	3.759559610048706800e-05	1.858826495299058671e-05
1.451934132574060232e+00	5.150043611349011185e-06	-2.869858769364095198e-04	1.292875051574909201e-02	8.458291052695241508e-01	1.177079466965650800e+00	1.000014337551278221e+00	-9.232651777653897579e-03	3.738969982529318539e-05	1.615088773525701172e-05
1.471960810264736796e+00	4.412721708622972072e-06	-2.634235434739167912e-04	1.367218618078360273e-02	8.463142198591273591e-01	1.174665084708536034e+00	1.000014335677388955e+00	-9.304064739425736696e-03	3.719432200893834311e-05	1.422495629989808801e-05
1.491987487955413583e+00	3.836293429445633140e-06	-2.437497319808831330e-04	1.434903283572384371e-02	8.467129636181800478e-01	1.172294905660178799e+00	1.000014334566211360e+00	-9.377202342049624148e-03	3.700895669285833161e-05	1.270904312850892572e-05
1.512014165646090147e+00	3.385078997279826164e-06	-2.274105150652725436e-04	1.494258494577505210e-02	8.470357846294854776e-01	1.169973440487010130e+00	1.000014334280641126e+00	-9.449613179058900456e-03	3.683303561972958940e-05	1.152093524207289971e-05
1.532040843336766933e+00	3.031286035624035798e-06	-2.139083691460174231e-04	1.544078303522326140e-02	8.472924828768003680e-01	1.167704146863845605e+00	1.000014334815907624e+00	-9.519177086598270415e-03	3.666596750418655730e-05	1.059462167609985463e-05
1.552067521027443719e+00	2.753358120385806874e-06	-2.028024987187714945e-04	1.583694758008425546e-02	8.474923982103724773e-01	1.165489556353580092e+00	1.000014336126256120e+00	-9.584238894677292453e-03	3.650716492910790204e-05	9.877473368164055710e-06
1.572094198718120284e+00	2.534613311790360887e-06	-1.937072071273573059e-04	1.612979091887914787e-02	8.476441672541269456e-01	1.163331399561305046e+00	1.000014338123193403e+00	-9.643664660536866232e-03	3.635606078873589077e-05	9.327725186462753747e-06
1.592120876408797070e+00	2.362147281582579199e-06	-1.862887215228030413e-04	1.632280282838166272e-02	8.477555296788554795e-01	1.161230725222302418e+00	1.000014340704708182e+00	-9.696826611583582792e-03	3.621211740580266159e-05	8.912311013090739488e-06
1.612147554099473634e+00	2.225966325990330676e-06	-1.802609777496711971e-04	1.642321720791718037e-02	8.478333885659431468e-01	1.159188010513339417e+00	1.000014343751289836e+00	-9.743535842229474747e-03	3.607483130167341375e-05	8.605058319488284946e-06
1.632174231790150420e+00	2.118312405439052021e-06	-1.753809288970545354e-04	1.644080250569411941e-02	8.478836436374606045e-01	1.157203260758873364e+00	1.000014347151968686e+00	-9.783942341803528522e-03	3.594373556544771495e-05	8.385219124980962526e-06
1.652200909480826985e+00	2.033143592228607218e-06	-1.714435706522434409e-04	1.638668730834827794e-02	8.479115935091242617e-01	1.155276097968554794e+00	1.000014350794346196e+00	-9.818434720785104361e-03	3.581840108932230621e-05	8.236297668528405237e-06
1.672227587171503771e+00	1.965737173259639038e-06	-1.682772196379955776e-04	1.627236340817459284e-02	8.479216158792445279e-01	1.153405838049628818e+00	1.000014354586011178e+00	-9.847541964528104541e-03	3.569843623155590613e-05	8.145128507124572628e-06
1.692254264862180557e+00	1.912387691194314893e-06	-1.657389593205735453e-04	1.610893460718550857e-02	8.479173059925609879e-01	1.151591557318828896e+00	1.000014358439063944e+00	-9.871858906051637211e-03	3.558348634465859133e-05	8.101158908553027869e-06
1.712280942552857121e+00	1.870177438741952586e-06	-1.637104245092393549e-04	1.590661726489785849e-02	8.479018274714010817e-01	1.149832148950502564e+00	1.000014362288498715e+00	-9.891995070935636486e-03	3.547323149069005823e-05	8.095893581190356436e-06
1.732307620243533908e+00	1.836801713038683892e-06	-1.620940837953566095e-04	1.567446174079566851e-02	8.478778704698443081e-01	1.148126370443382172e+00	1.000014366073395111e+00	-9.908537370563737928e-03	3.536738413414723615e-05	8.122465869131923174e-06
1.752334297934210472e+00	1.810435248069245603e-06	-1.608100102266425040e-04	1.542024512144701993e-02	8.478473388380669551e-01	1.146472882975832386e+00	1.000014369754317789e+00	-9.922024295510313910e-03	3.526568587954161349e-05	8.175306095245294896e-06
1.772360975624887258e+00	1.789629563371661297e-06	-1.597928887202797589e-04	1.515048456181503425e-02	8.478120024075411765e-01	1.144870283797296162e+00	1.000014373292913428e+00	-9.932942005309699021e-03	3.516790496811471138e-05	8.249883886881799184e-06
1.792387653315563822e+00	1.773233579325776670e-06	-1.589895842504772405e-04	1.487052520894198426e-02	8.477733252541178599e-01	1.143317132474111375e+00	1.000014376669576377e+00	-9.941718230456898786e-03	3.507383235537477067e-05	8.342506637087055929e-06
1.812414331006240609e+00	1.760331812376777086e-06	-1.583570364593076614e-04	1.458466910359240178e-02	8.477324619058976829e-01	1.141811972029247224e+00	1.000014379862389058e+00	-9.948722579991933074e-03	3.498327967832146371e-05	8.450160598107636298e-06
1.832441008696917395e+00	1.750195956285006188e-06	-1.578604931992813652e-04	1.429631868172702609e-02	8.476901974278111540e-01	1.140353345625690462e+00	1.000014382865645590e+00	-9.954269050978558145e-03	3.489607585422464098e-05	8.570384510457122572e-06
1.852467686387593959e+00	1.742246723407824339e-06	-1.574719581774183330e-04	1.400812020079537402e-02	8.476472530058958288e-01	1.138939809673779502e+00	1.000014385668351435e+00	-9.958624181181662677e-03	3.481206577010526851e-05	8.701168262618899104e-06
1.872494364078270745e+00	1.736023630926593630e-06	-1.571689450463176609e-04	1.372209594004809678e-02	8.476042972589351576e-01	1.137569943810985418e+00	1.000014388273838817e+00	-9.962012478845030591e-03	3.473110715088101942e-05	8.840871005228294953e-06
1.892521041768947310e+00	1.731160974415329408e-06	-1.569334760287879448e-04	1.343976228233815552e-02	8.475617702594716585e-01	1.136242358484635062e+00	1.000014390677830489e+00	-9.964619598478888923e-03	3.465306989951558013e-05	8.988154558369735271e-06
1.912547719459624096e+00	1.727368672207950230e-06	-1.567512440763758951e-04	1.316223032862604350e-02	8.475198132952436181e-01	1.134955700392640265e+00	1.000014392889186254e+00	-9.966596642642537585e-03	3.457783367372249455e-05	9.141928978177404661e-06
1.932574397150300882e+00	1.724416954295600146e-06	-1.566108081172995655e-04	1.289029105283217951e-02	8.474788330757869748e-01	1.133708656393717318e+00	1.000014394907384752e+00	-9.968071371956075538e-03	3.450528783819178767e-05	9.301307895023886905e-06
1.952601074840977446e+00	1.722124117827720302e-06	-1.565030952729731340e-04	1.262448437306746933e-02	8.474391094510993483e-01	1.132499955979179296e+00	1.000014396744416612e+00	-9.969147854855829605e-03	3.443532879318255189e-05	9.465571776679681848e-06
1.972627752531654233e+00	1.720346720080393945e-06	-1.564209653168216723e-04	1.236515635872984659e-02	8.474006299300815837e-01	1.131328372824274009e+00	1.000014398401571469e+00	-9.969908074193897102e-03	3.436786078865681614e-05	9.634137668561727329e-06
1.992654430222330797e+00	1.718971734871409851e-06	-1.563587583710683050e-04	1.211250400276572478e-02	8.473634988716165495e-01	1.130192725389135955e+00	1.000014399892443118e+00	-9.970419996932390269e-03	3.430279367999618028e-05	9.806534257083045767e-06
2.012681107913007583e+00	1.717910274137570112e-06	-1.563120014243027909e-04	1.186661171101941435e-02	8.473278745434899006e-01	1.129091877016848322e+00	1.000014401218872084e+00	-9.970739420670369363e-03	3.424004363000419541e-05	9.982381326835666342e-06
2.032707785603684147e+00	1.717092575747049498e-06	-1.562772240022772523e-04	1.162747908763218235e-02	8.472936379261268858e-01	1.128024735407678891e+00	1.000014402395095869e+00	-9.970908478210173398e-03	3.417953105469082872e-05	1.016137285239246087e-05
2.052734463294360712e+00	1.716463998869126799e-06	-1.562516535457153944e-04	1.139504370475769891e-02	8.472609752258472016e-01	1.126990251869318449e+00	1.000014403422803566e+00	-9.970964261731310799e-03	3.412118195425250128e-05	1.034326310196457615e-05
2.072761140985037720e+00	1.715981839411308867e-06	-1.562331471655453545e-04	1.116919749143460878e-02	8.472298914282998528e-01	1.125987420157846364e+00	1.000014404316322381e+00	-9.970934853911485665e-03	3.406492526848131072e-05	1.052785523575732280e-05
2.092787818675714284e+00	1.715612790685707427e-06	-1.562200720636843301e-04	1.094980081325293113e-02	8.472001771679477100e-01	1.125015275271207482e+00	1.000014405076746771e+00	-9.970840078996548797e-03	3.401069501309833028e-05	1.071499197116146364e-05
2.112814496366390848e+00	1.715330934328494936e-06	-1.562111170398942548e-04	1.073669181636142424e-02	8.471718847056532997e-01	1.124072891975873123e+00	1.000014405718200328e+00	-9.970698348581838802e-03	3.395842767182211927e-05	1.090454795635003918e-05
2.132841174057067857e+00	1.715116143193651114e-06	-1.562052466962058077e-04	1.052969477994249170e-02	8.471451470114564897e-01	1.123159383392657196e+00	1.000014406240987919e+00	-9.970525286904631176e-03	3.390806393191877447e-05	1.109642355530331336e-05
2.152867851747744421e+00	1.714952824207638971e-06	-1.562017171318728914e-04	1.032862520586272717e-02	8.471197487679092974e-01	1.122273899403710029e+00	1.000014406658864319e+00	-9.970329538357964108e-03	3.385954625633817288e-05	1.129053979487165183e-05
2.172894529438420985e+00	1.714828920892206865e-06	-1.561999228625625597e-04	1.013329499851936197e-02	8.470956882014066824e-01	1.121415625183973086e+00	1.000014406971277525e+00	-9.970119825564690771e-03	3.381282136314605702e-05	1.148683426785846342e-05
2.192921207129097994e+00	1.714735135088948566e-06	-1.561993958471000936e-04	9.943514718881369882e-03	8.470729683219109241e-01	1.120583779607192465e+00	1.000014407191555765e+00	-9.969903120859886780e-03	3.376783701403659636e-05	1.168525781909620531e-05
2.212947884819774558e+00	1.714664308990377378e-06	-1.561997976421019587e-04	9.759096856100697367e-03	8.470514734739423846e-01	1.119777613810966077e+00	1.000014407318276621e+00	-9.969683432733172229e-03	3.372454491944195087e-05	1.188577187263934917e-05
2.232974562510451122e+00	1.714610947667905668e-06	-1.562008461884724570e-04	9.579856587851237615e-03	8.470312345298085521e-01	1.118996409667577963e+00	1.000014407364357538e+00	-9.969465374810887459e-03	3.368289757828804896e-05	1.208834628100239246e-05
2.253001240201127686e+00	1.714570839700511553e-06	-1.562023463931407129e-04	9.405613802608266474e-03	8.470121615673289472e-01	1.118239478432598411e+00	1.000014407327520338e+00	-9.969251134572877301e-03	3.364285104151089128e-05	1.229295759966889589e-05
2.273027917891804695e+00	1.714540767154554319e-06	-1.562041568015464486e-04	9.236193065664441079e-03	8.469941435023735643e-01	1.117506159312362524e+00	1.000014407220309653e+00	-9.969041979077873997e-03	3.360436197192747385e-05	1.249958770576895039e-05
2.293054595582481259e+00	1.714518274382246344e-06	-1.562061419186330021e-04	9.071424948964987994e-03	8.469772460476070464e-01	1.116795818221488101e+00	1.000014407039646169e+00	-9.968840605675573577e-03	3.356739044533685464e-05	1.270822269573695212e-05
2.313081273273157823e+00	1.714501494418488883e-06	-1.562082163016863528e-04	8.911145408994894032e-03	8.469614225886668013e-01	1.116107846459780006e+00	1.000014406797745004e+00	-9.968648006370066025e-03	3.353189659228284744e-05	1.291885200723048970e-05
2.333107950963834831e+00	1.714489008408953433e-06	-1.562103417664992397e-04	8.755196884430636178e-03	8.469464939191535535e-01	1.115441659586267287e+00	1.000014406490775221e+00	-9.968463186859623584e-03	3.349784400871543715e-05	1.313146772207411452e-05
2.353134628654511395e+00	1.714479743098413533e-06	-1.562124621149104395e-04	8.603427394673396691e-03	8.469324712761515661e-01	1.114796696209280347e+00	1.000014406130682154e+00	-9.968287185969157763e-03	3.346519627970117721e-05	1.334606401363771566e-05
2.373161306345187960e+00	1.714472886273949896e-06	-1.562145165370190279e-04	8.455691320379656387e-03	8.469194635081457312e-01	1.114172416974352320e+00	1.000014405712939203e+00	-9.968121910740321626e-03	3.343392006331958872e-05	1.356263671033713006e-05
2.393187984035864524e+00	1.714467827165514186e-06	-1.562165109643441152e-04	8.311848395795693248e-03	8.469072712320144802e-01	1.113568303464377962e+00	1.000014405249278981e+00	-9.967965538134244269e-03	3.340398161470112926e-05	1.378118295114972913e-05
2.413214661726541532e+00	1.714464104847121541e-06	-1.562184561919182670e-04	8.171764574450388063e-03	8.468957108570479564e-01	1.112983857294698398e+00	1.000014404734521190e+00	-9.967816244542952731e-03	3.337535070970260330e-05	1.400170091482487356e-05
2.433241339417218096e+00	1.714461375016746079e-06	-1.562202818983178586e-04	8.035310794957633077e-03	8.468850689395254205e-01	1.112418599116254736e+00	1.000014404180241900e+00	-9.967677696068232007e-03	3.334799644270964621e-05	1.422418960700360519e-05
2.453268017107894661e+00	1.714459379005492994e-06	-1.562219990437465006e-04	7.902363649908449028e-03	8.468752162564097130e-01	1.111872067810128151e+00	1.000014403580666622e+00	-9.967548538211102108e-03	3.332189063427261919e-05	1.444864869360233313e-05
2.473294694798571669e+00	1.714457924723685787e-06	-1.562236552337036781e-04	7.772804472364933971e-03	8.468658414889620456e-01	1.111343819583883175e+00	1.000014402947241976e+00	-9.967425276056198977e-03	3.329700490121675124e-05	1.467507837034235843e-05
2.493321372489248233e+00	1.714456867907927818e-06	-1.562251974274991970e-04	7.646519907193843543e-03	8.468571937250689574e-01	1.110833427256884498e+00	1.000014402273644132e+00	-9.967310897028500150e-03	3.327331386798596836e-05	1.490347926095684426e-05
2.513348050179924797e+00	1.714456103040724669e-06	-1.562266141187233272e-04	7.523400684934757748e-03	8.468493055279141535e-01	1.110340479440119488e+00	1.000014401571249767e+00	-9.967205880799728107e-03	3.325079081205296275e-05	1.513385233764595523e-05
2.533374727870601362e+00	1.714455550553284851e-06	-1.562279767179238995e-04	7.403342529983688268e-03	8.468417691661115354e-01	1.109864579904098925e+00	1.000014400833213468e+00	-9.967105440028141070e-03	3.322941238713296978e-05	1.536619885928050146e-05
2.553401405561278370e+00	1.714455152766629619e-06	-1.562292408616656526e-04	7.286245009555372340e-03	8.468348079847656251e-01	1.109405346832348815e+00	1.000014400070883935e+00	-9.967012248769559560e-03	3.320915446708193406e-05	1.560052032312352546e-05
2.573428083251954934e+00	1.714454866459566645e-06	-1.562303807628795187e-04	7.172012044586306180e-03	8.468285516051898831e-01	1.108962412264301811e+00	1.000014399276914157e+00	-9.966927808357752688e-03	3.318999520285291732e-05	1.583681842732387297e-05
2.593454760942631498e+00	1.714454660923701201e-06	-1.562314584816154139e-04	7.060551049923275563e-03	8.468226534922475013e-01	1.108535421413960664e+00	1.000014398462659493e+00	-9.966848076787248809e-03	3.317191194658930699e-05	1.607509504167130130e-05
2.613481438633308507e+00	1.714454512428011266e-06	-1.562324813156873839e-04	6.951773631148371047e-03	8.468170693924590431e-01	1.108124032178711582e+00	1.000014397620322404e+00	-9.966772485050335445e-03	3.315488523037605042e-05	1.631535218484362435e-05
2.633508116323985071e+00	1.714454404944073532e-06	-1.562333944187328425e-04	6.845594405977627368e-03	8.468120905014682176e-01	1.107727914516800416e+00	1.000014396761274682e+00	-9.966704483680938892e-03	3.313889406196508054e-05	1.655759200654765984e-05
2.653534794014661635e+00	1.714454325966806445e-06	-1.562342280705551127e-04	6.741931718669035359e-03	8.468075509420555091e-01	1.107346750015539172e+00	1.000014395877278695e+00	-9.966642072202512581e-03	3.312391999229778489e-05	1.680181677361292360e-05
2.673561471705338199e+00	1.714454267265404933e-06	-1.562350251738180108e-04	6.640706790387618762e-03	8.468032141288783787e-01	1.106980231318629659e+00	1.000014394979789722e+00	-9.966582484377380091e-03	3.310994377463061451e-05	1.704802885901741315e-05
2.693588149396015208e+00	1.714454221945890283e-06	-1.562357479208951495e-04	6.541844302423274575e-03	8.467992848522000182e-01	1.106628061749760805e+00	1.000014394060129375e+00	-9.966528073886307335e-03	3.309694889009596287e-05	1.729623073325088024e-05
2.713614827086691772e+00	1.714454186292986890e-06	-1.562363905190084336e-04	6.445271341310565560e-03	8.467957919710374926e-01	1.106289954783040486e+00	1.000014393129839974e+00	-9.966479196578087452e-03	3.308491699820515630e-05	1.754642495738048725e-05
2.733641504777368336e+00	1.714454156580947914e-06	-1.562370021252958315e-04	6.350918258187508367e-03	8.467924692706377821e-01	1.105965633715517038e+00	1.000014392179849887e+00	-9.966432674103620909e-03	3.307383285940003747e-05	1.779861417760063467e-05
2.753668182468045345e+00	1.714454131082838134e-06	-1.562375546751889330e-04	6.258717661066133704e-03	8.467894672922895438e-01	1.105654831176857700e+00	1.000014391221806465e+00	-9.966390280867334917e-03	3.306367985664278926e-05	1.805280112073899052e-05
2.773694860158721909e+00	1.714454107879612295e-06	-1.562380397014176132e-04	6.168605021368858687e-03	8.467868324871861141e-01	1.105357288844021069e+00	1.000014390246237728e+00	-9.966352526076624474e-03	3.305444369175706708e-05	1.830898859063195843e-05
2.793721537849398473e+00	1.714454086463588704e-06	-1.562385047870289395e-04	6.080517870706477965e-03	8.467843056882357056e-01	1.105072756987985017e+00	1.000014389264935355e+00	-9.966316365777109360e-03	3.304610875673851390e-05	1.856717946514768551e-05
2.813748215540075037e+00	1.714454065516432578e-06	-1.562389231168780806e-04	5.994396506045033927e-03	8.467820328961144227e-01	1.104800994224536703e+00	1.000014388268031906e+00	-9.966283473810779933e-03	3.303866243126055233e-05	1.882737669366487892e-05
2.833774893230752046e+00	1.714454045281696594e-06	-1.562392676248755682e-04	5.910182908662701441e-03	8.467801599195539097e-01	1.104541767093147886e+00	1.000014387267474936e+00	-9.966255577694257267e-03	3.303208979076684740e-05	1.908958329496952483e-05
2.853801570921428610e+00	1.714454024997298857e-06	-1.562396220607303930e-04	5.827821642987470949e-03	8.467782335919391556e-01	1.104294849842404558e+00	1.000014386253032184e+00	-9.966227312549378117e-03	3.302637899888322636e-05	1.935380235544171949e-05
2.873828248612105174e+00	1.714454004776532564e-06	-1.562399354573549084e-04	5.747258987461900323e-03	8.467765294858838887e-01	1.104060024035671050e+00	1.000014385236804637e+00	-9.966201915510546766e-03	3.302151702696045092e-05	1.962003702753910422e-05
2.893854926302782182e+00	1.714453984339909454e-06	-1.562401751413868619e-04	5.668443345567350349e-03	8.467752250498778999e-01	1.103837078368194780e+00	1.000014384208201879e+00	-9.966181452710110023e-03	3.301749240541112916e-05	1.988829052834061923e-05
2.913881603993458747e+00	1.714453964105447908e-06	-1.562404106935035193e-04	5.591324698686853979e-03	8.467739429611678137e-01	1.103625808297046262e+00	1.000014383179506083e+00	-9.966161482457535151e-03	3.301429255358401862e-05	2.015856613844708197e-05
2.933908281684135311e+00	1.714453943522893091e-06	-1.562406610641077867e-04	5.515855224783231155e-03	8.467725804925614330e-01	1.103426015885680123e+00	1.000014382139765567e+00	-9.966140775247423617e-03	3.301190781149982768e-05	2.043086720082228005e-05
2.953934959374811875e+00	1.714453922998058276e-06	-1.562408272303750017e-04	5.441988397560416912e-03	8.467716742145930953e-01	1.103237509456069354e+00	1.000014381101459904e+00	-9.966125645159217006e-03	3.301032660631143101e-05	2.070519711990584648e-05
2.973961637065488883e+00	1.714453902516921678e-06	-1.562409565342236088e-04	5.369679496561352398e-03	8.467709679671907574e-01	1.103060103458430197e+00	1.000014380053279250e+00	-9.966113052484166721e-03	3.300953883491992914e-05	2.098155936061128077e-05
2.993988314756165448e+00	1.714453882258512182e-06	-1.562411310664450206e-04	5.298885277150427314e-03	8.467700164894279569e-01	1.102893618142600340e+00	1.000014379007919230e+00	-9.966097763147843680e-03	3.300953429635009858e-05	2.125995744773199577e-05
3.014014992446842012e+00	1.714453861820668285e-06	-1.562412830932150454e-04	5.229564247640178243e-03	8.467691871399540826e-01	1.102737879450618852e+00	1.000014377953716282e+00	-9.966084075597292369e-03	3.301030479313628383e-05	2.154039496501774693e-05
3.034041670137519020e+00	1.714453841739700121e-06	-1.562413416303755158e-04	5.161675921727554642e-03	8.467688642950697009e-01	1.102592718704758834e+00	1.000014376903581192e+00	-9.966076519714622828e-03	3.301183985463159305e-05	2.182287555466238732e-05
3.054068347828195584e+00	1.714453821945866386e-06	-1.562414188638465450e-04	5.095181453909948532e-03	8.467684405989470697e-01	1.102457972522047802e+00	1.000014375845503345e+00	-9.966067927197676604e-03	3.301413102704949340e-05	2.210740291655382685e-05
3.074095025518872148e+00	1.714453802434169161e-06	-1.562415318348144933e-04	5.030043288790532821e-03	8.467678228823737330e-01	1.102333482515960972e+00	1.000014374792640437e+00	-9.966057202958678030e-03	3.301717004472003029e-05	2.239398080791836981e-05
3.094121703209549157e+00	1.714453783051170545e-06	-1.562415915554973465e-04	4.966225199681741954e-03	8.467674940371838765e-01	1.102219095231373513e+00	1.000014373732615480e+00	-9.966050016758504909e-03	3.302094941533499081e-05	2.268261304258544967e-05
3.114148380900225721e+00	1.714453764214064759e-06	-1.562415976864874577e-04	4.903691898256523803e-03	8.467674555976245632e-01	1.102114661858537792e+00	1.000014372678830421e+00	-9.966046384860378915e-03	3.302546015683994909e-05	2.297330349070261603e-05
3.134175058590902285e+00	1.714453745755496514e-06	-1.562416472985950927e-04	4.842409533868573257e-03	8.467671818842880116e-01	1.102020038186313222e+00	1.000014371618574316e+00	-9.966040106688231828e-03	3.303069539206679933e-05	2.326605607814453264e-05
3.154201736281578849e+00	1.714453727648432543e-06	-1.562416996586900308e-04	4.782345310671910418e-03	8.467668930410259254e-01	1.101935084327509973e+00	1.000014370565502020e+00	-9.966033776275119715e-03	3.303664813719113405e-05	2.356087478633887145e-05
3.174228413972255858e+00	1.714453709906811408e-06	-1.562416911427624844e-04	4.723467479318179188e-03	8.467669345487522925e-01	1.101859664687846685e+00	1.000014369506550871e+00	-9.966031447412683486e-03	3.304331151315104440e-05	2.385776365162884578e-05
3.194255091662932422e+00	1.714453692781044000e-06	-1.562416782114411603e-04	4.665745203466198539e-03	8.467669997084731337e-01	1.101793647702239198e+00	1.000014368455630631e+00	-9.966029508680071536e-03	3.305067807782522966e-05	2.415672676521686912e-05
3.214281769353608986e+00	1.714453676023088580e-06	-1.562417193326482670e-04	4.609148885350487779e-03	8.467667726729355415e-01	1.101736905818918588e+00	1.000014367399345794e+00	-9.966024229752495217e-03	3.305874237872143844e-05	2.445776827264576432e-05
3.234308447044285995e+00	1.714453659653442920e-06	-1.562416937214433242e-04	4.553649749814572302e-03	8.467669067027568941e-01	1.101689315243462142e+00	1.000014366351872797e+00	-9.966023311453438630e-03	3.306749831891307083e-05	2.476089237376240222e-05
3.254335124734962559e+00	1.714453643911262539e-06	-1.562416486363868949e-04	4.499219812890628556e-03	8.467671469762436676e-01	1.101650755937789050e+00	1.000014365299452868e+00	-9.966023726865939902e-03	3.307693912768675589e-05	2.506610332217420122e-05
3.274361802425639123e+00	1.714453628620119155e-06	-1.562416572355555539e-04	4.445832197454756794e-03	8.467670958372911505e-01	1.101621111371918760e+00	1.000014364256583743e+00	-9.966020814922234641e-03	3.308705989762048390e-05	2.537340542541782580e-05
3.294388480116315687e+00	1.714453613713090178e-06	-1.562416547914529893e-04	4.393460811373834513e-03	8.467671053916741020e-01	1.101600268535741334e+00	1.000014363209126289e+00	-9.966018696386209214e-03	3.309785551094144505e-05	2.568280304440096804e-05
3.314415157806992696e+00	1.714453599289897432e-06	-1.562415826403460958e-04	4.342080294447494063e-03	8.467674921389946041e-01	1.101588117697213987e+00	1.000014362171860460e+00	-9.966021105051337675e-03	3.310932044266369370e-05	2.599430059355174733e-05
3.334441835497669260e+00	1.714453585505137347e-06	-1.562415488870494429e-04	4.291666031376388871e-03	8.467676715961969247e-01	1.101584552426829733e+00	1.000014361130310059e+00	-9.966021148517720946e-03	3.312144904893220406e-05	2.630790254037771448e-05
3.354468513188345824e+00	1.714453572029974792e-06	-1.562415474887681312e-04	4.242194440487138431e-03	8.467676750887997983e-01	1.101589469361252460e+00	1.000014360099563238e+00	-9.966019205669295403e-03	3.313423801784786776e-05	2.662361340571542495e-05
3.374495190879022832e+00	1.714453559041452147e-06	-1.562414910796627984e-04	4.193642379672859154e-03	8.467679778501547849e-01	1.101602768239043906e+00	1.000014359064770764e+00	-9.966020845356143507e-03	3.314768202767183985e-05	2.694143776322382164e-05
3.394521868569699397e+00	1.714453546551550693e-06	-1.562414232464730767e-04	4.145987506490098409e-03	8.467683417142393143e-01	1.101624351669510338e+00	1.000014358041332319e+00	-9.966023281437089848e-03	3.316177669197579309e-05	2.726138023969385931e-05
3.414548546260375961e+00	1.714453534562424647e-06	-1.562414133638674650e-04	4.099208153323525769e-03	8.467683924245051896e-01	1.101654125178735955e+00	1.000014357014046062e+00	-9.966022093493778419e-03	3.317651779764981825e-05	2.758344551464722441e-05
3.434575223951052525e+00	1.714453522836907112e-06	-1.562413625751917098e-04	4.053283453595274595e-03	8.467686641366498623e-01	1.101691996983295230e+00	1.000014355998628535e+00	-9.966023580555774530e-03	3.319190252979019616e-05	2.790763832066821279e-05
3.454601901641729533e+00	1.714453511733366718e-06	-1.562412865395498970e-04	4.008192809771381725e-03	8.467690736592988765e-01	1.101737878044869889e+00	1.000014354979505971e+00	-9.966026733675175525e-03	3.320792533353996448e-05	2.823396344292922517e-05
3.474628579332406098e+00	1.714453500961364760e-06	-1.562412554291605672e-04	3.963916622800548600e-03	8.467692387801855070e-01	1.101791681849762838e+00	1.000014353972724201e+00	-9.966027088536917947e-03	3.322458402475273191e-05	2.856242571972830447e-05
3.494655257023082662e+00	1.714453490622580344e-06	-1.562412205628795352e-04	3.920435637259991196e-03	8.467694253475046562e-01	1.101853324470994044e+00	1.000014352962342423e+00	-9.966027737317861845e-03	3.324187461583392859e-05	2.889303004196352136e-05
3.514681934713759670e+00	1.714453480607134662e-06	-1.562411405347087859e-04	3.877731297677203780e-03	8.467698558950933485e-01	1.101922724351554583e+00	1.000014351964734871e+00	-9.966031318973380890e-03	3.325979442078017082e-05	2.922578135366676083e-05
3.534708612404436234e+00	1.714453471160584259e-06	-1.562410817626339054e-04	3.835785364312050989e-03	8.467701722992138080e-01	1.101999802375195348e+00	1.000014350963598142e+00	-9.966033602774555106e-03	3.327833896170751362e-05	2.956068465154209946e-05
3.554735290095112799e+00	1.714453461938344910e-06	-1.562410484913169973e-04	3.794580498978604617e-03	8.467703497444335481e-01	1.102084481652426229e+00	1.000014349975645089e+00	-9.966034308336958747e-03	3.329750714858207785e-05	2.989774498560035163e-05
3.574761967785789363e+00	1.714453453158761167e-06	-1.562410132836292934e-04	3.754099509600674050e-03	8.467705386127962752e-01	1.102176687599541571e+00	1.000014348984194834e+00	-9.966035181398482865e-03	3.331729493157823026e-05	3.023696745863526438e-05
3.594788645476466371e+00	1.714453444600665952e-06	-1.562409261110144908e-04	3.714325981522600701e-03	8.467710081362114227e-01	1.102276347726296901e+00	1.000014348006303733e+00	-9.966039426911961832e-03	3.333770092946146825e-05	3.057835722689754895e-05
3.614815323167142935e+00	1.714453436641117464e-06	-1.562408615968108598e-04	3.675243577678534695e-03	8.467713562840734065e-01	1.102383391723946504e+00	1.000014347024920980e+00	-9.966042256921114201e-03	3.335872038190115980e-05	3.092191949963633439e-05
3.634842000857819500e+00	1.714453428803121168e-06	-1.562408336897993329e-04	3.636836981755329438e-03	8.467715048987245474e-01	1.102497751252529801e+00	1.000014346057449988e+00	-9.966042803589206939e-03	3.338035373446935776e-05	3.126765953979502888e-05
3.654868678548496508e+00	1.714453421409267657e-06	-1.562407868647483619e-04	3.599090787323112189e-03	8.467717569985355741e-01	1.102619360039037044e+00	1.000014345086467360e+00	-9.966044603766625529e-03	3.340259677419847475e-05	3.161558266358536378e-05
3.674895356239173072e+00	1.714453414180179630e-06	-1.562407177955820413e-04	3.561990421652931008e-03	8.467721290838560178e-01	1.102748153663323460e+00	1.000014344129720900e+00	-9.966047852972961807e-03	3.342544914764007300e-05	3.196569424113645803e-05
3.694922033929849636e+00	1.714453407455387915e-06	-1.562406564595429832e-04	3.525521299299840764e-03	8.467724598269081859e-01	1.102884069665545308e+00	1.000014343169407072e+00	-9.966050650659290938e-03	3.344890668584995060e-05	3.231799969619124157e-05
3.714948711620526201e+00	1.714453400852079359e-06	-1.562406086734582152e-04	3.489669731671087797e-03	8.467727167854952608e-01	1.103027047331785360e+00	1.000014342223647157e+00	-9.966052620568346260e-03	3.347297002244088514e-05	3.267250450674426433e-05
3.734975389311203209e+00	1.714453394679761072e-06	-1.562405703530075614e-04	3.454421933243802170e-03	8.467729231113135802e-01	1.103177027808708743e+00	1.000014341274243268e+00	-9.966054018977581891e-03	3.349763535752403338e-05	3.302921420474661034e-05
3.755002067001879773e+00	1.714453388586528346e-06	-1.562405018111083814e-04	3.419764958354037238e-03	8.467732926339968103e-01	1.103333953889214625e+00	1.000014340339685504e+00	-9.966057386684488636e-03	3.352290349447803306e-05	3.338813437677926851e-05
3.775028744692556337e+00	1.714453382998397459e-06	-1.562404464803050200e-04	3.385685667359478700e-03	8.467735912474566584e-01	1.103497770134324929e+00	1.000014339401388286e+00	-9.966059937879988284e-03	3.354876997661244216e-05	3.374927066376652389e-05
3.795055422383233346e+00	1.714453377434256452e-06	-1.562404044256935178e-04	3.352171919299050222e-03	8.467738172918811701e-01	1.103668422659149106e+00	1.000014338478212306e+00	-9.966061677559413107e-03	3.357523683451135591e-05	3.411262876170870884e-05
3.815082100073909910e+00	1.714453372309632370e-06	-1.562403616316749991e-04	3.319211262587475932e-03	8.467740480930601166e-01	1.103845859260331741e+00	1.000014337551183630e+00	-9.966063490540992206e-03	3.360229981052294636e-05	3.447821442138179098e-05
3.835108777764586474e+00	1.714453367198789515e-06	-1.562403059683179374e-04	3.286792187583856186e-03	8.467743482113376796e-01	1.104030029202548668e+00	1.000014336639548640e+00	-9.966066160070131616e-03	3.362996091616191372e-05	3.484603344910751588e-05
3.855135455455263482e+00	1.714453362561070253e-06	-1.562402268954178001e-04	3.254902846274565671e-03	8.467747758143623349e-01	1.104220883351993088e+00	1.000014335723911962e+00	-9.966070344646809839e-03	3.365821565064161275e-05	3.521609170645805681e-05
3.875162133145940047e+00	1.714453357988324347e-06	-1.562401743327265129e-04	3.223532342771892774e-03	8.467750593247098667e-01	1.104418373962210875e+00	1.000014334823927875e+00	-9.966072833221340313e-03	3.368706621443402581e-05	3.558839511107552252e-05
3.895188810836616611e+00	1.714453353759051784e-06	-1.562402127503484883e-04	3.192669558717060006e-03	8.467748501887212287e-01	1.104622454814468968e+00	1.000014333919799769e+00	-9.966069784184157856e-03	3.371650957613260623e-05	3.596294963636684244e-05
3.915215488527293175e+00	1.714453349335929378e-06	-1.562402567754717704e-04	3.162304317358448445e-03	8.467746101624404886e-01	1.104833080988550487e+00	1.000014333031607361e+00	-9.966058434002153521e-03	3.374654969004579230e-05	3.633976131274590995e-05
3.935242166217970183e+00	1.714453344996176825e-06	-1.562400018760741200e-04	3.132425790567287295e-03	8.467759905838956325e-01	1.105050209163398245e+00	1.000014332139455675e+00	-9.966140369933526588e-03	3.377718080045203497e-05	3.671883622311942536e-05
3.955268843908646748e+00	1.714453341230816795e-06	-1.562393554471690866e-04	3.103023684748986138e-03	8.467794934190253642e-01	1.105273797886328735e+00	1.000014331267077949e+00	-9.966658246922053752e-03	3.380839994499983299e-05	3.710018054086292695e-05
3.975295521599323312e+00	1.714453341416526227e-06	-1.562393200460744603e-04	3.074088122423381322e-03	8.467796854500558856e-01	1.105503802613205799e+00	1.000014330412683394e+00	-9.965641462653681767e-03	3.384020576185289023e-05	3.748380041494612835e-05
3.995322199289999876e+00	1.714584732784533302e-06	-1.562495072802938490e-04	3.045531353289996409e-03	8.467602886662934925e-01	1.105725138389047624e+00	1.000000000000000000e+00	-1.000000000000000021e-02	3.387174561589884471e-05	3.787100112148618141e-05
