# Time=0.00940094009401 and Columns are r	p	Paether	ur	alpha	a	b	K	Sr_tilde	tau_tilde
1.001333884533834630e-02	1.199429345635937699e-02	-1.855324752636915847e-02	2.037106766887225728e-05	6.427353943102911416e-01	1.000068551297580655e+00	1.000021229118624566e+00	-1.109093191785251106e-02	2.301066403101215597e-10	1.503455987663180415e-06
3.004001653601504063e-02	1.196576963439295593e-02	-1.853223721132482224e-02	6.109979873962231389e-05	6.429150561856052937e-01	1.000446974669178868e+00	1.000021236585794338e+00	-1.108766350385744295e-02	6.204080721959035260e-09	1.350403372238426829e-05
5.006669422669172975e-02	1.190889793441389857e-02	-1.849025194621349219e-02	1.017811815795645152e-04	6.432741904593841653e-01	1.001202959450688823e+00	1.000021251057215954e+00	-1.108005880377905920e-02	2.863922574147531571e-08	3.736113179628477944e-05
7.009337191736843276e-02	1.182405052219027281e-02	-1.842737716909481627e-02	1.423807786089401821e-04	6.438123381287256253e-01	1.002334777561102674e+00	1.000021272466124156e+00	-1.106838886373581396e-02	7.824152313933850494e-08	7.278828921922186315e-05
9.012004960804512188e-02	1.171177547769899387e-02	-1.834373780755817890e-02	1.828698499321042162e-04	6.445288256528430848e-01	1.003839818569814080e+00	1.000021300879380792e+00	-1.105302743617031860e-02	1.653211038354316183e-07	1.193599375540790842e-04
1.101467272987218110e-01	1.157279537593237928e-02	-1.823950131174526326e-02	2.232197591706553005e-04	6.454227502889273715e-01	1.005714568042235912e+00	1.000021336201168953e+00	-1.103390622305179536e-02	2.996420616494331444e-07	1.765163167546957305e-04
1.301734049893985001e-01	1.140800066152741592e-02	-1.811487866711201586e-02	2.634042335768228826e-04	6.464929699868393609e-01	1.007954580833563485e+00	1.000021378307755171e+00	-1.101111403075186700e-02	4.902825382895142354e-07	2.435699754613842053e-04
1.502000826800751754e-01	1.121844137923428721e-02	-1.797012536274497640e-02	3.033996951714773354e-04	6.477380988396849171e-01	1.010554447166463810e+00	1.000021427051644540e+00	-1.098473685987133228e-02	7.455057647759336862e-07	3.197138083873726734e-04
1.702267603707518784e-01	1.100531740498889716e-02	-1.780554258965168224e-02	3.431857132839582938e-04	6.491564949122968775e-01	1.013507753764967045e+00	1.000021482263691919e+00	-1.095487902328343144e-02	1.072644475628961544e-06	4.040305695896314751e-04
1.902534380614285814e-01	1.076996729929571676e-02	-1.762147836917555069e-02	3.827453771812704109e-04	6.507462535628912859e-01	1.016807040450144584e+00	1.000021543755296172e+00	-1.092166327913570226e-02	1.478000185881924785e-06	4.955037860549638519e-04
2.102801157521052566e-01	1.051385589875252630e-02	-1.741832882142265587e-02	4.220656953105175009e-04	6.525051934122745312e-01	1.020443753221452532e+00	1.000021611319352299e+00	-1.088523181576307557e-02	1.966758957740401709e-06	5.930299804315783884e-04
2.303067934427819596e-01	1.023856077476610789e-02	-1.719653926531778537e-02	4.611378992968245892e-04	6.544308481918730269e-01	1.024408194971920594e+00	1.000021684732790073e+00	-1.084574712493555949e-02	2.542924340146530377e-06	6.954320950210620420e-04
2.503334711334586626e-01	9.945757701815331059e-03	-1.695660533894203376e-02	4.999577910200194352e-04	6.565204514086259158e-01	1.028689475185303071e+00	1.000021763757344084e+00	-1.080339259782368833e-02	3.209268704798625756e-06	8.014739913459765835e-04
2.703601488241353379e-01	9.637205289455412147e-03	-1.669907381314433836e-02	5.385259798074575922e-04	6.587709283623252032e-01	1.033275460141224400e+00	1.000021848142540248e+00	-1.075837292152140474e-02	3.967302675155431153e-06	9.098758807809759165e-04
2.903868265148120131e-01	9.314728943700867000e-03	-1.642454331105964310e-02	5.768481836290106825e-04	6.611788809421929036e-01	1.038152725365665052e+00	1.000021937626108803e+00	-1.071091402610006849e-02	4.817263620166737781e-06	1.019330522163276742e-03
3.104135042054887439e-01	8.980204332741213366e-03	-1.613366460484704640e-02	6.149354092396764823e-04	6.637405800424150959e-01	1.043306512233867611e+00	1.000022031937342959e+00	-1.066126269230184033e-02	5.758121823122455602e-06	1.128520002220219929e-03
3.304401818961654191e-01	8.635540540352249633e-03	-1.582714067334917152e-02	6.528042216096569417e-04	6.664519524155227970e-01	1.048720690834924252e+00	1.000022130797021402e+00	-1.060968558412199100e-02	6.787605274197865519e-06	1.236132894619881243e-03
3.504668595868420944e-01	8.282663096267166986e-03	-1.550572623870081525e-02	6.904768839956007672e-04	6.693085750161797964e-01	1.054377731336590296e+00	1.000022233921091797e+00	-1.055646782631471797e-02	7.902240534927992558e-06	1.340881573935960103e-03
3.704935372775188251e-01	7.923497077233892724e-03	-1.517022693239932982e-02	7.279816170053898632e-04	6.723056655448982344e-01	1.060258686246134507e+00	1.000022341019873418e+00	-1.050191092124895184e-02	9.097410881063919971e-06	1.441519442673813885e-03
3.905202149681955004e-01	7.559950474053950785e-03	-1.482149786871427531e-02	7.653527229069274213e-04	6.754380803504745900e-01	1.066343186006851740e+00	1.000022451802058621e+00	-1.044633014498299109e-02	1.036742794243528851e-05	1.536857813442552229e-03
4.105468926588721756e-01	7.193898019499566678e-03	-1.446044175980841506e-02	8.026308634752342712e-04	6.787003095388072227e-01	1.072609450433781531e+00	1.000022565973025523e+00	-1.039005124241974311e-02	1.170561860955991954e-05	1.625782175508744352e-03
4.305735703495489064e-01	6.827165668333883518e-03	-1.408800636876188402e-02	8.398632013889477735e-04	6.820864807604275493e-01	1.079034318396085323e+00	1.000022683239144783e+00	-1.033340663019676788e-02	1.310442212963492951e-05	1.707267566221499751e-03
4.506002480402255816e-01	6.461515914544584301e-03	-1.370518147889499168e-02	8.771037345960757629e-04	6.855903600664563502e-01	1.085593298071158452e+00	1.000022803305113062e+00	-1.027673091703072000e-02	1.455550001285104138e-05	1.780392764448590582e-03
4.706269257309022569e-01	6.098634121248193256e-03	-1.331299517774457361e-02	9.144134978434182793e-04	6.892053626597973714e-01	1.092260639805091582e+00	1.000022925878521152e+00	-1.022035604478191244e-02	1.604985232048231761e-05	1.844353026115117845e-03
4.906536034215789877e-01	5.740116026291168863e-03	-1.291250966155545188e-02	9.518610025071648582e-04	6.929245614891942351e-01	1.099009433339361852e+00	1.000023050666118962e+00	-1.016460586139414021e-02	1.757794405222431805e-05	1.898471092411311558e-03
5.106802811122557184e-01	5.387456570566924972e-03	-1.250481642453095399e-02	9.895225537717490007e-04	6.967407045878415417e-01	1.105811730640824608e+00	1.000023177378713157e+00	-1.010979048643406708e-02	1.912983379815564081e-05	1.942206219883089524e-03
5.307069588029323937e-01	5.042040177226930417e-03	-1.209103098216619994e-02	1.027482859563124806e-03	7.006462331394036624e-01	1.112638695084947837e+00	1.000023305726281952e+00	-1.005620033485221318e-02	2.069530967554774860e-05	1.975161009250781582e-03
5.507336364936090689e-01	4.705132587855130784e-03	-1.167228712646249840e-02	1.065835534362934330e-03	7.046333058241842640e-01	1.119460776984274375e+00	1.000023435423295304e+00	-1.000410016598980538e-02	2.226402323127497896e-05	1.997085846459266401e-03
5.707603141842857442e-01	4.377874337083579280e-03	-1.124973081308112792e-02	1.104683958545148821e-03	7.086938246075675796e-01	1.126247914780162507e+00	1.000023566182627555e+00	-9.953723053547258032e-03	2.382562780184349716e-05	2.007880815175965006e-03
5.907869918749625304e-01	4.061275920027098384e-03	-1.082451371269090891e-02	1.144142060180802735e-03	7.128194678495554104e-01	1.132969760274650017e+00	1.000023697721471816e+00	-9.905264714715814739e-03	2.536991046902062837e-05	2.007594993829885707e-03
6.108136695656392057e-01	3.756214678175556852e-03	-1.039778660067312496e-02	1.184335526515911934e-03	7.170017217274734511e-01	1.139595925503691376e+00	1.000023829753966309e+00	-9.858877994957855953e-03	2.688692563109364747e-05	1.996423111284025605e-03
6.308403472563158809e-01	3.463433399368551820e-03	-9.970692578743643036e-03	1.225402979783292261e-03	7.212319195629519619e-01	1.146096247842194771e+00	1.000023961997865252e+00	-9.814668060295926588e-03	2.836711784349664706e-05	1.974699601375632350e-03
6.508670249469925562e-01	3.183540597149541514e-03	-9.544360321439883388e-03	1.267497669219258376e-03	7.255012795749504750e-01	1.152441069199681811e+00	1.000024094165993915e+00	-9.772687997632511711e-03	2.980144343029894082e-05	1.942890165697887771e-03
6.708937026376692314e-01	2.917012404830285257e-03	-9.119897411577074578e-03	1.310789185664094480e-03	7.298009463419272702e-01	1.158601524248891623e+00	1.000024225973735525e+00	-9.732935375031245492e-03	3.118147716194022775e-05	1.901581023229074975e-03
6.909203803283459067e-01	2.664195990954707025e-03	-8.698383877911775031e-03	1.355465796878546582e-03	7.341220320570746027e-01	1.164549832124748718e+00	1.000024357129321029e+00	-9.695349409045360758e-03	3.249951496827851836e-05	1.851466091826813260e-03
7.109470580190225819e-01	2.425314376400052215e-03	-8.280866055567510237e-03	1.401736885017252840e-03	7.384556583792757367e-01	1.170259585390790003e+00	1.000024487342393131e+00	-9.659809286390399347e-03	3.374865781945940240e-05	1.793332406916571965e-03
7.309737357096993682e-01	2.200472509910234454e-03	-7.868350849137582814e-03	1.449836132907647481e-03	7.427929969734744509e-01	1.175706029966175681e+00	1.000024616313115011e+00	-9.626133158476494339e-03	3.492288918475838457e-05	1.728044133935461007e-03
7.510004134003760434e-01	1.989664439275695175e-03	-7.461800511005298175e-03	1.500024923431936144e-03	7.471253087185125707e-01	1.180866329489990596e+00	1.000024743741920075e+00	-9.594078405885322555e-03	3.601713041288884595e-05	1.656525570427052870e-03
7.710270910910527187e-01	1.792781400183184352e-03	-7.062127990597858590e-03	1.552596649190075449e-03	7.514439800304236750e-01	1.185719808008716347e+00	1.000024869317485132e+00	-9.563342543775166238e-03	3.702728781742971645e-05	1.579743558959840208e-03
7.910537687817293939e-01	1.609620634594664552e-03	-6.670192935460680407e-03	1.607881391198258056e-03	7.557405567965730375e-01	1.190248165139752068e+00	1.000024992727825746e+00	-9.533565457297520085e-03	3.795027552439346247e-05	1.498689741769922059e-03
8.110804464724060692e-01	1.439894745476551089e-03	-6.286798390734534697e-03	1.666251717301142849e-03	7.600067726755327380e-01	1.194435658790729660e+00	1.000025113647118546e+00	-9.504332187078979796e-03	3.878402912315672638e-05	1.414363081607341623e-03
8.311071241630827444e-01	1.283241395074881516e-03	-5.912688215232582770e-03	1.728129069343849796e-03	7.642345743274263636e-01	1.198269251204238106e+00	1.000025231748275623e+00	-9.475177128470497687e-03	3.952749446748514162e-05	1.327753051080486071e-03
8.511338018537595307e-01	1.139233159332946489e-03	-5.548545236098235793e-03	1.793991545580469896e-03	7.684161402449783962e-01	1.201738715423995574e+00	1.000025346688658168e+00	-9.445588783277959408e-03	4.018060768948639655e-05	1.239823856086511716e-03
8.711604795444362059e-01	1.007387361374162361e-03	-5.194990112293989236e-03	1.864382573856957761e-03	7.725438962203078352e-01	1.204836700215644818e+00	1.000025458124331301e+00	-9.415016165716902016e-03	4.074425156843835074e-05	1.151500009926084223e-03
8.911871572351128812e-01	8.871757214104147252e-04	-4.852580905037879276e-03	1.939921337721000521e-03	7.766105230987059294e-01	1.207558752986163109e+00	1.000025565694696361e+00	-9.382875993403098219e-03	4.122020497472986554e-05	1.063653516189053431e-03
9.112138349257895564e-01	7.780336785705574063e-04	-4.521813274546026933e-03	2.021314488844426927e-03	7.806089604626981204e-01	1.209903301184846347e+00	1.000025669038792531e+00	-9.348562095570119024e-03	4.161107169180770131e-05	9.770928539400683312e-04
9.312405126164662317e-01	6.793692608888583480e-04	-4.203121253964691058e-03	2.109370050648346363e-03	7.845324043714412277e-01	1.211871594111329609e+00	1.000025767779065822e+00	-9.311456303054825231e-03	4.192020546045965222e-05	8.925538915900985484e-04
9.512671903071429069e-01	5.905714024724011309e-04	-3.896878487337023054e-03	2.205013073422666409e-03	7.883743016700214268e-01	1.213467607749844301e+00	1.000025861540193572e+00	-9.270942645136087679e-03	4.215161884031732513e-05	8.106927898531233459e-04
9.712938679978196932e-01	5.110176305238828915e-04	-3.603399857698131020e-03	2.309303941210662757e-03	7.921283392006361890e-01	1.214697916404098077e+00	1.000025949932529690e+00	-9.226424280459010613e-03	4.230989222279205833e-05	7.320808925226785641e-04
9.913205456884963684e-01	4.400810688573592575e-04	-3.322943343955449269e-03	2.423458853420388907e-03	7.957884321233311686e-01	1.215571535173146200e+00	1.000026032574190982e+00	-9.177345421447793278e-03	4.240007187251617217e-05	6.572015494963564554e-04
1.011347223379172933e+00	3.771367277529852368e-04	-3.055712023938244107e-03	2.548873243498566473e-03	7.993487083833625828e-01	1.216099738047204282e+00	1.000026109075083935e+00	-9.123217752306421457e-03	4.242757214025161060e-05	5.864487715716389842e-04
1.031373901069849497e+00	3.215670719928218936e-04	-2.801856015706998774e-03	2.687147430047490647e-03	8.028034972608162345e-01	1.216295856164850919e+00	1.000026179063398635e+00	-9.063653841212746670e-03	4.239807191265110959e-05	5.201275826817687228e-04
1.051400578760526283e+00	2.727668788206287064e-04	-2.561474293260288665e-03	2.840114805032137226e-03	8.061473148005300349e-01	1.216175061080680742e+00	1.000026242171389024e+00	-8.998406681169848417e-03	4.231741866710502105e-05	4.584559128788680119e-04
1.071427256451203069e+00	2.301474150382058878e-04	-2.334616119311958178e-03	3.009871172636269330e-03	8.093748634201720638e-01	1.215754137192687434e+00	1.000026298067795194e+00	-8.927417468658799260e-03	4.219153131629827300e-05	4.015678644405846240e-04
1.091453934141879634e+00	1.931399767468682503e-04	-2.121282088050175599e-03	3.198804394567126338e-03	8.124810295900652957e-01	1.215051247452103134e+00	1.000026346446648340e+00	-8.850869342563382966e-03	4.202631303759960619e-05	3.495181826555863449e-04
1.111480611832556420e+00	1.611988460736005137e-04	-1.921424527071804306e-03	3.409621326231579777e-03	8.154609006231082757e-01	1.214085695460705105e+00	1.000026387066873079e+00	-8.769247273499411466e-03	4.182756642286847933e-05	3.022877702904713153e-04
1.131507289523232984e+00	1.338037259079529894e-04	-1.734947306182229665e-03	3.645368730569352369e-03	8.183097863496078261e-01	1.212877686888916395e+00	1.000026419744903361e+00	-8.683398755163010407e-03	4.160091989567549686e-05	2.597900974200729085e-04
1.151533967213909770e+00	1.104617159281560853e-04	-1.561704864978706846e-03	3.909441819991140571e-03	8.210232739706261329e-01	1.211448092038053925e+00	1.000026444401460379e+00	-8.594591576948310691e-03	4.135175890682117898e-05	2.218783727673727477e-04
1.171560644904586557e+00	9.070889046431195968e-05	-1.401500687974859558e-03	4.205572533061423431e-03	8.235972836355991422e-01	1.209818211311145308e+00	1.000026461056604754e+00	-8.504558128977053599e-03	4.108516877167625120e-05	1.883533546390274177e-04
1.191587322595263121e+00	7.411153098940885075e-05	-1.254085159066463395e-03	4.537785537896625587e-03	8.260281613120792343e-01	1.208009544432533167e+00	1.000026469880784141e+00	-8.415517480095471153e-03	4.080588401638505071e-05	1.589716847927693578e-04
1.211614000285939907e+00	6.026705331084982522e-05	-1.119153226570402965e-03	4.910307298516389599e-03	8.283127825603039396e-01	1.206043564597291340e+00	1.000026471186956645e+00	-8.330160330855323689e-03	4.051824925534181751e-05	1.334546231651445949e-04
1.231640677976616471e+00	4.880465279704050620e-05	-9.963420637197969044e-04	5.327409349347910807e-03	8.304486883387345308e-01	1.203941498257189879e+00	1.000026465478259796e+00	-8.251586140078762815e-03	4.022618775233139992e-05	1.114970430005782432e-04
1.251667355667293258e+00	3.938567179486856417e-05	-8.852293923119967630e-04	5.793165565137775412e-03	8.324342175362636764e-01	1.201724112200694750e+00	1.000026453427149908e+00	-8.183180219960114327e-03	3.993318113784742981e-05	9.277651449340844196e-05
1.271694033357969822e+00	3.170367452535452144e-05	-7.853328408170999952e-04	6.311103532402681168e-03	8.342686628754937272e-01	1.199411509652662078e+00	1.000026435907833688e+00	-8.128429406600854931e-03	3.964225740785678662e-05	7.696226428780146827e-05
1.291720711048646608e+00	2.548419961168771225e-05	-6.961111176078463303e-04	6.883737414621682489e-03	8.359524131175696260e-01	1.197022938601571607e+00	1.000026413950254156e+00	-8.090680647431713543e-03	3.935598910017944441e-05	6.372375571529138361e-05
1.311747388739323394e+00	2.048415290181742029e-05	-6.169673807464857215e-04	7.511984655110259639e-03	8.374870748964960976e-01	1.194576615857063873e+00	1.000026388746979800e+00	-8.072863161780463592e-03	3.907649925460279121e-05	5.273860194945543221e-05
1.331774066429999959e+00	1.649080660396740148e-05	-5.472553329394141746e-04	8.194496065065132867e-03	8.388755681097195271e-01	1.192089571781708157e+00	1.000026361575556244e+00	-8.077202746170433073e-03	3.880547566475255273e-05	4.369951434681706656e-05
1.351800744120676745e+00	1.332038655738219124e-05	-4.862880387930047549e-04	8.926966597151355862e-03	8.401221578362231268e-01	1.189577520366235319e+00	1.000026333780154930e+00	-8.104967551559507516e-03	3.854419145520315430e-05	3.632001257547319914e-05
1.371827421811353309e+00	1.081625651400243152e-05	-4.333493711760318329e-04	9.701538868745493080e-03	8.412324477020786118e-01	1.187054759825349359e+00	1.000026306670323439e+00	-8.156281369312682467e-03	3.829353210978308250e-05	3.033868722437413782e-05
1.391854099502030095e+00	8.846742416375966646e-06	-3.877074070566276557e-04	1.050644968714173171e-02	8.422132865717507633e-01	1.184534107257169122e+00	1.000026281493032743e+00	-8.230035634162979202e-03	3.805402831256469358e-05	2.552190587795258807e-05
1.411880777192706660e+00	7.302674156917536832e-06	-3.486290041715006953e-04	1.132608308485704394e-02	8.430726203014007325e-01	1.182026870045977507e+00	1.000026259329473977e+00	-8.323915031257395417e-03	3.782589540833581986e-05	2.166497645830610334e-05
1.431907454883383446e+00	6.094749817849298803e-06	-3.153943641626643073e-04	1.214156023451667260e-02	8.438192847321669410e-01	1.179542853801038627e+00	1.000026241082064615e+00	-8.434541158282623380e-03	3.760907973176251843e-05	1.859190600605344334e-05
1.451934132574060232e+00	5.150841899575616841e-06	-2.873106123656963304e-04	1.293190655952673740e-02	8.444627491665039898e-01	1.177090405079396440e+00	1.000026227393163936e+00	-8.557722293041331030e-03	3.740331116615532286e-05	1.615399631281638646e-05
1.471960810264736796e+00	4.413363748205596242e-06	-2.637233143175417164e-04	1.367570081113968737e-02	8.450128435562588303e-01	1.174676484161932155e+00	1.000026218667667610e+00	-8.688790263586177245e-03	3.720815943134942280e-05	1.422758240353339418e-05
1.491987487955413583e+00	3.836798373795453908e-06	-2.440254071424730650e-04	1.435296857100045766e-02	8.454794537036741664e-01	1.172306762268219060e+00	1.000026215028434695e+00	-8.822986709953541812e-03	3.702308911827585679e-05	1.271123829711925277e-05
1.512014165646090147e+00	3.385465450020798317e-06	-2.276630876392498530e-04	1.494698911787472120e-02	8.458723042402890302e-01	1.169985735761913226e+00	1.000026216381927568e+00	-8.955852870429215074e-03	3.684750851310324978e-05	1.152275055609681568e-05
1.532040843336766933e+00	3.031571467925457036e-06	-2.141388934074332404e-04	1.544568325638125822e-02	8.462006332567609812e-01	1.167716850547601659e+00	1.000026222408712195e+00	-9.083560152414535058e-03	3.668080746800864985e-05	1.059610613640508450e-05
1.552067521027443719e+00	2.753558492877040761e-06	-2.030120731642324854e-04	1.584234963281699188e-02	8.464731126894796676e-01	1.165502629546632862e+00	1.000026232660284009e+00	-9.203137292353686522e-03	3.652238388916055915e-05	9.878672696617653905e-06
1.572094198718120284e+00	2.534742872551670163e-06	-1.938969744193443274e-04	1.613567918065215989e-02	8.466976818009172012e-01	1.163344798134642089e+00	1.000026246563784138e+00	-9.312560315154507634e-03	3.637165916854660428e-05	9.328681048856066562e-06
1.592120876408797070e+00	2.362218502514915992e-06	-1.864598255309027634e-04	1.632914323676689511e-02	8.468814244830841220e-01	1.161244402929223263e+00	1.000026263523718262e+00	-9.410716432152741937e-03	3.622808707275808788e-05	8.913060623829047305e-06
1.612147554099473634e+00	2.225989944140962692e-06	-1.804145543162181140e-04	1.642996160009010942e-02	8.470306654977974858e-01	1.159201921648420397e+00	1.000026282914594722e+00	-9.497273030790842618e-03	3.609115753144978247e-05	8.605634358508465983e-06
1.632174231790150420e+00	2.118297532698830190e-06	-1.755180523486308240e-04	1.644789376779874981e-02	8.471509008212390057e-01	1.157217362058721166e+00	1.000026304166875102e+00	-9.572498081957068333e-03	3.596039899284948278e-05	8.385649885650335198e-06
1.652200909480826985e+00	2.033097868265784496e-06	-1.715653125115452755e-04	1.639406401666968632e-02	8.472468523436682553e-01	1.155290349912167391e+00	1.000026326735488080e+00	-9.637071977608368048e-03	3.583537870147948895e-05	8.236607357568733869e-06
1.672227587171503771e+00	1.965666934781485932e-06	-1.683845814250186919e-04	1.627996407389873182e-02	8.473226067319500343e-01	1.153420205486001437e+00	1.000026350167038336e+00	-9.691924374387955732e-03	3.571570290724887157e-05	8.145337630240962335e-06
1.692254264862180557e+00	1.912298147764430763e-06	-1.658328785312370508e-04	1.611670036200607559e-02	8.473815922246592525e-01	1.151606009726121149e+00	1.000026374048055944e+00	-9.738101195139400174e-03	3.560101505787390002e-05	8.101284691046650653e-06
1.712280942552857121e+00	1.870072837632436022e-06	-1.637917892906658028e-04	1.591449402746342862e-02	8.474267151650256569e-01	1.149846660291707456e+00	1.000026398061165223e+00	-9.776673085238113056e-03	3.549099444255380317e-05	8.095950389083769440e-06
1.732307620243533908e+00	1.836685493474948447e-06	-1.621637642283528004e-04	1.568240101385590113e-02	8.474603967600445875e-01	1.148140918914174025e+00	1.000026421921894837e+00	-9.808671818893817049e-03	3.538535272423470868e-05	8.122465608782723158e-06
1.752334297934210472e+00	1.810310175346565875e-06	-1.608687750683052370e-04	1.542820464280262108e-02	8.474846875811563596e-01	1.146487450552132747e+00	1.000026445431875022e+00	-9.835055611188232502e-03	3.528383172720695772e-05	8.175258579648419905e-06
1.772360975624887258e+00	1.789497849751437771e-06	-1.598414806477701231e-04	1.515842776588027796e-02	8.475012551763886348e-01	1.144884855833812054e+00	1.000026468410531777e+00	-9.856687935310857671e-03	3.518619927141558985e-05	8.249797162912173021e-06
1.792387653315563822e+00	1.773096982419475570e-06	-1.590287074415090425e-04	1.487842128075562813e-02	8.475115002014292909e-01	1.143331697202980779e+00	1.000026490750034247e+00	-9.874332959411580984e-03	3.509224713086429772e-05	8.342387272855159749e-06
1.812414331006240609e+00	1.760191722982040616e-06	-1.583873686002045986e-04	1.459249198312523310e-02	8.475165672021740537e-01	1.141826520181306037e+00	1.000026512344949214e+00	-9.888654767194632669e-03	3.500178693367641760e-05	8.450013931413428541e-06
1.832441008696917395e+00	1.750053466660707884e-06	-1.578826442223188323e-04	1.430404693006232832e-02	8.475174224221377894e-01	1.140367869986430804e+00	1.000026533150804919e+00	-9.900224692407474242e-03	3.491464880847753628e-05	8.570214861524825143e-06
1.852467686387593959e+00	1.742102688911440511e-06	-1.574865135554749500e-04	1.401573585635370982e-02	8.475148309393161217e-01	1.138954304786749638e+00	1.000026553112617789e+00	-9.909527581254960402e-03	3.483067767590107588e-05	8.700979114201372387e-06
1.872494364078270745e+00	1.735878714742768324e-06	-1.571764731139730210e-04	1.372958453825326094e-02	8.475094344014831860e-01	1.137584405618348837e+00	1.000026572227639798e+00	-9.916972656658909133e-03	3.474973273705853760e-05	8.840665154230475470e-06
1.892521041768947310e+00	1.731015689395421533e-06	-1.569345189369940015e-04	1.344711182685665550e-02	8.475017650977451078e-01	1.136256784120562857e+00	1.000026590472667953e+00	-9.922901858341201531e-03	3.467168413414791975e-05	8.987934242249622592e-06
1.912547719459624096e+00	1.727223409411260180e-06	-1.567462784182074951e-04	1.316943140847021132e-02	8.474922399887900859e-01	1.134970087903790281e+00	1.000026607870992734e+00	-9.927599478976100594e-03	3.459641315891754521e-05	9.141695980006718980e-06
1.932574397150300882e+00	1.724272011540900797e-06	-1.566003138995733924e-04	1.289733584549229706e-02	8.474812260919527551e-01	1.133723004610452723e+00	1.000026624418059784e+00	-9.931300317731544744e-03	3.452380924132608447e-05	9.301063629989823084e-06
1.952601074840977446e+00	1.721979716262687039e-06	-1.564875419514051341e-04	1.263136704886343512e-02	8.474690064028473913e-01	1.132514264300492179e+00	1.000026640152447577e+00	-9.934197505401148529e-03	3.445377069673032869e-05	9.465317363310502181e-06
1.972627752531654233e+00	1.720203023691525870e-06	-1.564007731714842000e-04	1.237187214832912059e-02	8.474558268036801456e-01	1.131342641150135275e+00	1.000026655079481852e+00	-9.936448878132504714e-03	3.438620193314256970e-05	9.633873986731379566e-06
1.992654430222330797e+00	1.718828860180184065e-06	-1.563343266172232283e-04	1.211904961130147278e-02	8.474418708015508672e-01	1.130206953953092119e+00	1.000026669246006694e+00	-9.938183063311713250e-03	3.432101464323649201e-05	9.806261995398716112e-06
2.012681107913007583e+00	1.717768303355939544e-06	-1.562837238266793474e-04	1.187298451469990558e-02	8.474273263181639759e-01	1.129106066364017114e+00	1.000026682661566024e+00	-9.939504608337918282e-03	3.425812511496624193e-05	9.982101020885938438e-06
2.032707785603684147e+00	1.716951561590777929e-06	-1.562454490150392943e-04	1.163367765849888415e-02	8.474122944975109872e-01	1.128038886260146922e+00	1.000026695376848185e+00	-9.940497657892332153e-03	3.419745575158294169e-05	1.016108491580015351e-05
2.052734463294360712e+00	1.716323974219141739e-06	-1.562167384956401656e-04	1.140106696684729110e-02	8.473969188769588934e-01	1.127004365137537212e+00	1.000026707402179360e+00	-9.941230447873724771e-03	3.413893248075622962e-05	1.034296785122542709e-05
2.072761140985037720e+00	1.715842818619418302e-06	-1.561954342135407246e-04	1.117504541751271861e-02	8.473812669767610828e-01	1.126001496827603976e+00	1.000026718789442048e+00	-9.941757430479009061e-03	3.408248646808600501e-05	1.052755291033254543e-05
2.092787818675714284e+00	1.715474777051949602e-06	-1.561798461959912853e-04	1.095547354258035767e-02	8.473654464687552235e-01	1.125029316438590277e+00	1.000026729547663473e+00	-9.942122575529808992e-03	3.402805159740501220e-05	1.071468274939592700e-05
2.112814496366390848e+00	1.715193919978748023e-06	-1.561686623350957179e-04	1.074219029839814168e-02	8.473495011478286987e-01	1.124086898747998164e+00	1.000026739728423708e+00	-9.942360637316781727e-03	3.397556634662648941e-05	1.090423196830004496e-05
2.132841174057067857e+00	1.714980114419594881e-06	-1.561608567989369162e-04	1.053502003154751718e-02	8.473335202122024290e-01	1.123173356938934830e+00	1.000026749338348786e+00	-9.942499711888975328e-03	3.392497129278377406e-05	1.109610089284150077e-05
2.152867851747744421e+00	1.714817760133333282e-06	-1.561556433251705856e-04	1.033377901044822862e-02	8.473175054772573711e-01	1.122287840865236808e+00	1.000026758427919882e+00	-9.942561446491611846e-03	3.387621111764734297e-05	1.129021051980433450e-05
2.172894529438420985e+00	1.714694798340839333e-06	-1.561524010708960635e-04	1.013827904577658048e-02	8.473015464484808801e-01	1.121429535735697591e+00	1.000026767000820938e+00	-9.942563814635527186e-03	3.382923214963051023e-05	1.148649841824171698e-05
2.192921207129097994e+00	1.714601926338250179e-06	-1.561506603904561335e-04	9.948331385348766279e-03	8.472856463992023413e-01	1.120597660372587567e+00	1.000026775106087173e+00	-9.942520335893562794e-03	3.378398439040444800e-05	1.168491541433781107e-05
2.212947884819774558e+00	1.714531985890434851e-06	-1.561500546724035410e-04	9.763748372298984221e-03	8.472698483906316858e-01	1.119791465931638585e+00	1.000026782744269260e+00	-9.942441993228382999e-03	3.374041914226497553e-05	1.188542291741477485e-05
2.232974562510451122e+00	1.714479479229394574e-06	-1.561503010970978305e-04	9.584345785594259107e-03	8.472541807947576720e-01	1.119010234220473299e+00	1.000026789962880969e+00	-9.942337426541034140e-03	3.369849108134219824e-05	1.208799076842757090e-05
2.253001240201127686e+00	1.714440195605131413e-06	-1.561511804331854991e-04	9.409943327805730950e-03	8.472386923634920297e-01	1.118253276504905136e+00	1.000026796759337477e+00	-9.942213581702937647e-03	3.365815582099217218e-05	1.229259551370721658e-05
2.273027917891804695e+00	1.714410915313063531e-06	-1.561525349254805166e-04	9.240366095225624118e-03	8.472233506739443865e-01	1.117519931919908505e+00	1.000026803179693502e+00	-9.942075202828240185e-03	3.361937213837882604e-05	1.249921902319376025e-05
2.293054595582481259e+00	1.714389184116077811e-06	-1.561542296772114227e-04	9.075444412371859101e-03	8.472082282347465076e-01	1.116809566387443331e+00	1.000026809218337531e+00	-9.941926938870512820e-03	3.358209952324032099e-05	1.270784738759337004e-05
2.313081273273157823e+00	1.714373133751794787e-06	-1.561561757462880877e-04	8.915014762177804128e-03	8.471932875499749160e-01	1.116121571132951962e+00	1.000026814920029539e+00	-9.941771469098130420e-03	3.354630035481146388e-05	1.291847004005677558e-05
2.333107950963834831e+00	1.714361347148289551e-06	-1.561582900056397737e-04	8.758919303615154278e-03	8.471786040566992027e-01	1.115455361722787586e+00	1.000026820276282091e+00	-9.941611898409405401e-03	3.351193757209474110e-05	1.313107905877371335e-05
2.353134628654511395e+00	1.714352750377014330e-06	-1.561605245932571760e-04	8.607006478842072275e-03	8.471641323421797987e-01	1.114810376690160698e+00	1.000026825330730951e+00	-9.941449611193814082e-03	3.347897675101910994e-05	1.334566861422765688e-05
2.373161306345187960e+00	1.714346533086444548e-06	-1.561628308221188119e-04	8.459130393118600641e-03	8.471499278053188364e-01	1.114186076689399618e+00	1.000026830072203055e+00	-9.941286494099270746e-03	3.344738392798899648e-05	1.356223453247661850e-05
2.393187984035864524e+00	1.714342083873308461e-06	-1.561651780632094611e-04	8.315151229695859347e-03	8.471359781272365108e-01	1.113581943228903803e+00	1.000026834543412901e+00	-9.941123572177317305e-03	3.341712756215381485e-05	1.378077395061537791e-05
2.413214661726541532e+00	1.714338944025091728e-06	-1.561675426821301337e-04	8.174934567229782262e-03	8.471222966897038464e-01	1.112997477935327106e+00	1.000026838730658119e+00	-9.940961696006920395e-03	3.338817642828141439e-05	1.400128504579593225e-05
2.433241339417218096e+00	1.714336768893460953e-06	-1.561699065977197227e-04	8.038351723450427172e-03	8.471088780653907024e-01	1.112432201386007291e+00	1.000026842675929339e+00	-9.940801496470457604e-03	3.336050163523150117e-05	1.422376682237216194e-05
2.453268017107894661e+00	1.714335301630571016e-06	-1.561722514617116912e-04	7.905279020710715560e-03	8.470957608131117755e-01	1.111885652476503950e+00	1.000026846363182287e+00	-9.940643782785391069e-03	3.333407441558691584e-05	1.444821894515765105e-05
2.473294694798571669e+00	1.714334350023570944e-06	-1.561745756309167925e-04	7.775598108768439452e-03	8.470828921708135617e-01	1.111357387341916914e+00	1.000026849833827169e+00	-9.940488371312561355e-03	3.330886823171202369e-05	1.467464160894828835e-05
2.493321372489248233e+00	1.714333771937726082e-06	-1.561768582001450396e-04	7.649195244058096775e-03	8.470703568280507634e-01	1.110846978819330477e+00	1.000026853069649446e+00	-9.940336397333417173e-03	3.328485660681854716e-05	1.490303543664876422e-05
2.513348050179924797e+00	1.714333461470636685e-06	-1.561791048692710057e-04	7.525961551405739060e-03	8.470580839473457191e-01	1.110354015448346887e+00	1.000026856111662088e+00	-9.940187335332235571e-03	3.326201505617520682e-05	1.513340139977672277e-05
2.533374727870601362e+00	1.714333341021090242e-06	-1.561813044629648504e-04	7.405792391784389236e-03	8.470461232682525710e-01	1.109878101020521202e+00	1.000026858939590646e+00	-9.940041792276284663e-03	3.324031921541960061e-05	1.536574075656307970e-05
2.553401405561278370e+00	1.714333353021835463e-06	-1.561834584186719515e-04	7.288587556556530046e-03	8.470344438070172011e-01	1.109418853649288828e+00	1.000026861594202732e+00	-9.939899573596665261e-03	3.321974651033240635e-05	1.560005500371104464e-05
2.573428083251954934e+00	1.714333455840848295e-06	-1.561855607037687438e-04	7.174250696838135877e-03	8.470230727473219146e-01	1.108975905397974637e+00	1.000026864053304765e+00	-9.939761010499618618e-03	3.320027444773138728e-05	1.583634583885814342e-05
2.593454760942631498e+00	1.714333618698773615e-06	-1.561876125469907378e-04	7.062689501761290969e-03	8.470119882011291068e-01	1.108548901411538612e+00	1.000026866357530686e+00	-9.939625965321424034e-03	3.318188221036454132e-05	1.607461513134015419e-05
2.613481438633308507e+00	1.714333819783947848e-06	-1.561896106929269918e-04	6.953815165234088040e-03	8.470012086138370977e-01	1.108137499614326282e+00	1.000026868482888576e+00	-9.939494609868709460e-03	3.316454899989536574e-05	1.631486489937894994e-05
2.633508116323985071e+00	1.714334042993664803e-06	-1.561915577739558705e-04	6.847542564384068858e-03	8.469907103321933084e-01	1.107741369896290573e+00	1.000026870469996831e+00	-9.939366739128761494e-03	3.314825561536131752e-05	1.655709729229000901e-05
2.653534794014661635e+00	1.714334277300344518e-06	-1.561934453533887974e-04	6.743789754898010455e-03	8.469805394994793790e-01	1.107360193874789012e+00	1.000026872293144020e+00	-9.939242873048240515e-03	3.313298280898449170e-05	1.680131457652265142e-05
2.673561471705338199e+00	1.714334514578041424e-06	-1.561952849128950120e-04	6.642478140958163815e-03	8.469706280781054142e-01	1.106993664125713428e+00	1.000026873993076437e+00	-9.939122250828833285e-03	3.311871279981525625e-05	1.704751912469716250e-05
2.693588149396015208e+00	1.714334749530290688e-06	-1.561970678894810467e-04	6.543532040418861308e-03	8.469610253937563948e-01	1.106641484005319587e+00	1.000026875542418203e+00	-9.939005406361124326e-03	3.310542785048461030e-05	1.729571340694454506e-05
2.713614827086691772e+00	1.714334978303034803e-06	-1.561988005328568798e-04	6.446878796074410022e-03	8.469516915174596372e-01	1.106303366920735165e+00	1.000026876982121005e+00	-9.938891926182602879e-03	3.309311146862421043e-05	1.754589998402751751e-05
2.733641504777368336e+00	1.714335198630019965e-06	-1.562004756165100996e-04	6.352448417285484067e-03	8.469426702566439369e-01	1.105979036204005173e+00	1.000026878283253762e+00	-9.938782259091033522e-03	3.308174725193857346e-05	1.779808150180921931e-05
2.753668182468045345e+00	1.714335408900890216e-06	-1.562021036935575446e-04	6.260173657732291327e-03	8.469338986749710418e-01	1.105668224418126622e+00	1.000026879487046605e+00	-9.938675715144394338e-03	3.307131989010256171e-05	1.805226068682504466e-05
2.773694860158721909e+00	1.714335608374169433e-06	-1.562036745831562028e-04	6.169989724857181945e-03	8.469254368211008854e-01	1.105370673277544347e+00	1.000026880563070097e+00	-9.938572943858371353e-03	3.306181426180411541e-05	1.830844034261130021e-05
2.793721537849398473e+00	1.714335796612005955e-06	-1.562051988758894432e-04	6.081834299634042776e-03	8.469172221568874726e-01	1.105086132986862646e+00	1.000026881552902092e+00	-9.938473255518548780e-03	3.305321610075709766e-05	1.856662334677135735e-05
2.813748215540075037e+00	1.714335973607951956e-06	-1.562066689411810547e-04	5.995647334800992267e-03	8.469093016627570192e-01	1.104814362201402167e+00	1.000026882424671637e+00	-9.938377127949666462e-03	3.304551147649444483e-05	1.882681264838027886e-05
2.833774893230752046e+00	1.714336139505487406e-06	-1.562080923558136630e-04	5.911371013686114208e-03	8.469016284209907042e-01	1.104555127394584391e+00	1.000026883220384910e+00	-9.938284073918505351e-03	3.303868709627813928e-05	1.908901126599372910e-05
2.853801570921428610e+00	1.714336294631580999e-06	-1.562094646442769468e-04	5.828949620917999244e-03	8.468942327631850953e-01	1.104308202856739252e+00	1.000026883906778963e+00	-9.938194378430419834e-03	3.303273010943308749e-05	1.935322228570667271e-05
2.873828248612105174e+00	1.714336439393779036e-06	-1.562107927492717148e-04	5.748329461216122524e-03	8.468870703990640791e-01	1.104073370084965644e+00	1.000026884526330262e+00	-9.938107581668407728e-03	3.302762814523568975e-05	1.961944885973648502e-05
2.893854926302782182e+00	1.714336574241715195e-06	-1.562120705160793864e-04	5.669458782288431566e-03	8.468801807214513255e-01	1.103850417818555307e+00	1.000026885044432490e+00	-9.938024075145279052e-03	3.302336935313599935e-05	1.988769420490610240e-05
2.913881603993458747e+00	1.714336699702544029e-06	-1.562133058527163801e-04	5.592287656889863290e-03	8.468735168408467739e-01	1.103639141448121475e+00	1.000026885504085694e+00	-9.937943355704415005e-03	3.301994218374550231e-05	2.015796160160421136e-05
2.933908281684135311e+00	1.714336816237433263e-06	-1.562144903745419765e-04	5.516767965504183226e-03	8.468671279418434894e-01	1.103439343083203017e+00	1.000026885869366611e+00	-9.937865949366929408e-03	3.301733572824776627e-05	2.043025439251807375e-05
2.953934959374811875e+00	1.714336924424101928e-06	-1.562156375343550006e-04	5.442853229798642022e-03	8.468609377878516531e-01	1.103250830978799613e+00	1.000026886183877251e+00	-9.937790993232723663e-03	3.301553916418576562e-05	2.070457598188103280e-05
2.973961637065488883e+00	1.714337024658800298e-06	-1.562167353592665449e-04	5.370498675063055394e-03	8.468550140370811885e-01	1.103073419633761265e+00	1.000026886410400717e+00	-9.937719243820822279e-03	3.301454253613399865e-05	2.098092983438192775e-05
2.993988314756165448e+00	1.714337117550328855e-06	-1.562177952333825611e-04	5.299660978990574679e-03	8.468492933142415247e-01	1.102906929230099253e+00	1.000026886593153863e+00	-9.937649981616206510e-03	3.301433563556000714e-05	2.125931947459427156e-05
3.014014992446842012e+00	1.714337203417050862e-06	-1.562188129239898296e-04	5.230298436976267215e-03	8.468438005424110404e-01	1.102751185760693531e+00	1.000026886693668349e+00	-9.937583466266252871e-03	3.301490938863289816e-05	2.153974848602067577e-05
3.034041670137519020e+00	1.714337282849029163e-06	-1.562197899769569539e-04	5.162370639483500334e-03	8.468385243840815813e-01	1.102606020479157456e+00	1.000026886756835376e+00	-9.937519595454193458e-03	3.301625423079832298e-05	2.182222051066920189e-05
3.054068347828195584e+00	1.714337356122557649e-06	-1.562207284951333769e-04	5.095838686937291875e-03	8.468334570384458138e-01	1.102471270055837671e+00	1.000026886742945820e+00	-9.937458239460654139e-03	3.301836180200297036e-05	2.210673924821562886e-05
3.074095025518872148e+00	1.714337423776987299e-06	-1.562216295163833377e-04	5.030664860892528067e-03	8.468285902249840236e-01	1.102346776034409670e+00	1.000026886697597650e+00	-9.937399322504694363e-03	3.302122320622371453e-05	2.239330845566452131e-05
3.094121703209549157e+00	1.714337486046658674e-06	-1.562224918718857470e-04	4.966812843337593472e-03	8.468239340584089447e-01	1.102232385015318616e+00	1.000026886579850283e+00	-9.937342917278393917e-03	3.302483074718210614e-05	2.268193194663071184e-05
3.114148380900225721e+00	1.714337543436250520e-06	-1.562233179697064306e-04	4.904247387298300669e-03	8.468194707392090459e-01	1.102127948118232448e+00	1.000026886436059081e+00	-9.937288872341626736e-03	3.302917610454645080e-05	2.297261359108381893e-05
3.134175058590902285e+00	1.714337596132135921e-06	-1.562241110851124903e-04	4.842934557467060488e-03	8.468151869263731424e-01	1.102033321189571868e+00	1.000026886224067990e+00	-9.937236972363861637e-03	3.303425222621851073e-05	2.326535731468547412e-05
3.154201736281578849e+00	1.714337644587570040e-06	-1.562248687309028886e-04	4.782841394741441272e-03	8.468110921326222895e-01	1.101948364270424197e+00	1.000026885991016190e+00	-9.937187378413835093e-03	3.304005138894505593e-05	2.356016709865418646e-05
3.174228413972255858e+00	1.714337688966082966e-06	-1.562255943773153673e-04	4.723936151987457970e-03	8.468071714712064324e-01	1.101872941826328667e+00	1.000026885693554579e+00	-9.937139865596454971e-03	3.304656707679157272e-05	2.385704697913856176e-05
3.194255091662932422e+00	1.714337729675220365e-06	-1.562262840589935899e-04	4.666187981339062554e-03	8.468034432558381175e-01	1.101806922219385587e+00	1.000026885379618591e+00	-9.937094677737106502e-03	3.305379211995382104e-05	2.415600104716380742e-05
3.214281769353608986e+00	1.714337766861064293e-06	-1.562269472265832534e-04	4.609567154189763566e-03	8.467998596031037772e-01	1.101750177959794685e+00	1.000026885004664745e+00	-9.937051225241820551e-03	3.306172048605817142e-05	2.445703344805740003e-05
3.234308447044285995e+00	1.714337800865482328e-06	-1.562275768335392881e-04	4.554044786787080079e-03	8.467964550459996520e-01	1.101702585179015204e+00	1.000026884617488676e+00	-9.937009946374187469e-03	3.307034561795112881e-05	2.476014838147278877e-05
3.254335124734962559e+00	1.714337831833668624e-06	-1.562281779900027642e-04	4.499593009194823370e-03	8.467932058936485928e-01	1.101664023903099920e+00	1.000026884172336539e+00	-9.936970512042135953e-03	3.307966188253894319e-05	2.506535010084787703e-05
3.274361802425639123e+00	1.714337860063017296e-06	-1.562287493175753368e-04	4.446184746563229366e-03	8.467901168052147653e-01	1.101634377526778286e+00	1.000026883718908577e+00	-9.936933013804126469e-03	3.308966324202576803e-05	2.537264291351473016e-05
3.294388480116315687e+00	1.714337885677404159e-06	-1.562292966722189343e-04	4.393793860199795946e-03	8.467871566652583892e-01	1.101613533105932463e+00	1.000026883210247464e+00	-9.936897078586168913e-03	3.310034451665661552e-05	2.568203118017887382e-05
3.314415157806992696e+00	1.714337908931065728e-06	-1.562298125129457302e-04	4.342394952382030299e-03	8.467843673278711014e-01	1.101601380832086585e+00	1.000026882696942732e+00	-9.936863179825684497e-03	3.311170017542812308e-05	2.599351931509868538e-05
3.334441835497669260e+00	1.714337929953221116e-06	-1.562303057921688083e-04	4.291963474647227106e-03	8.467816991287474560e-01	1.101597814343800108e+00	1.000026882130865102e+00	-9.936830750785951433e-03	3.312372536193292734e-05	2.630711178559739789e-05
3.354468513188345824e+00	1.714337948946721371e-06	-1.562307711306247548e-04	4.242475590847981544e-03	8.467791823744013069e-01	1.101602730200111901e+00	1.000026881563523595e+00	-9.936800129973310733e-03	3.313641507717122477e-05	2.662281311231240566e-05
3.374495190879022832e+00	1.714337966039512304e-06	-1.562312149462706642e-04	4.193908231017138243e-03	8.467767800454856220e-01	1.101616028209269071e+00	1.000026880945612318e+00	-9.936770911946866264e-03	3.314976479640373530e-05	2.694062786870753584e-05
3.394521868569699397e+00	1.714337981395205951e-06	-1.562316334776337411e-04	4.146239004154577204e-03	8.467745166198561435e-01	1.101637610902005404e+00	1.000026880329587531e+00	-9.936743325509004784e-03	3.316376999776333203e-05	2.726056068142295778e-05
3.414548546260375961e+00	1.714337995136545222e-06	-1.562320321524309635e-04	4.099446214465153615e-03	8.467723587277399266e-01	1.101667383875853501e+00	1.000026879664952517e+00	-9.936717038652601378e-03	3.317842648218544344e-05	2.758261622975886220e-05
3.434575223951052525e+00	1.714338007396423655e-06	-1.562324010396981316e-04	4.053508810473383656e-03	8.467703631570092648e-01	1.101705255267534822e+00	1.000026879005144531e+00	-9.936692672062239634e-03	3.319373016111024977e-05	2.790679924613240841e-05
3.454601901641729533e+00	1.714338018313853547e-06	-1.562327583693902530e-04	4.008406361015186443e-03	8.467684276161264734e-01	1.101751136111984497e+00	1.000026878298475141e+00	-9.936669063149872888e-03	3.320967704192227479e-05	2.823311451552061713e-05
3.474628579332406098e+00	1.714338027948540979e-06	-1.562330876157127331e-04	3.964119087153609305e-03	8.467666465989570623e-01	1.101804939814530870e+00	1.000026877599376363e+00	-9.936647273394199481e-03	3.322626367395161323e-05	2.856156687606491149e-05
3.494655257023082662e+00	1.714338036479011061e-06	-1.562334025373814724e-04	3.920627718510011350e-03	8.467649408652241361e-01	1.101866582523049587e+00	1.000026876854968716e+00	-9.936626417938002401e-03	3.324348613154245774e-05	2.889216121842310295e-05
3.514681934713759670e+00	1.714338043913313995e-06	-1.562336910064563529e-04	3.877913652015252746e-03	8.467633791517057418e-01	1.101935982598506669e+00	1.000026876120694519e+00	-9.936607265134936653e-03	3.326134150820282600e-05	2.922490248651067387e-05
3.534708612404436234e+00	1.714338050452583896e-06	-1.562339682935969486e-04	3.835958704432570858e-03	8.467618771858514970e-01	1.102013061001025029e+00	1.000026875342490795e+00	-9.936588856084033194e-03	3.327982599044600762e-05	2.955979567678168040e-05
3.554735290095112799e+00	1.714338056049664532e-06	-1.562342200305083214e-04	3.794745373695829899e-03	8.467605149447511304e-01	1.102097740758120281e+00	1.000026874576831259e+00	-9.936572087891870284e-03	3.329893724764856964e-05	2.989684583913285515e-05
3.574761967785789363e+00	1.714338060937682877e-06	-1.562344618952197942e-04	3.754256482607232475e-03	8.467592047915991627e-01	1.102189947363900524e+00	1.000026873768451230e+00	-9.936555970834834092e-03	3.331867150962796809e-05	3.023605807608044699e-05
3.594788645476466371e+00	1.714338065014744255e-06	-1.562346805592500091e-04	3.714475558076565063e-03	8.467580216116397107e-01	1.102289608243956609e+00	1.000026872974876468e+00	-9.936541358836563018e-03	3.333902702628855621e-05	3.057743754379003357e-05
3.614815323167142935e+00	1.714338068543312836e-06	-1.562348882751502075e-04	3.675386360061465123e-03	8.467568952038757590e-01	1.102396653169202878e+00	1.000026872139663237e+00	-9.936527450760970770e-03	3.336000005503151283e-05	3.092098945124077762e-05
3.634842000857819500e+00	1.714338071381031393e-06	-1.562350730385944706e-04	3.636973370210086487e-03	8.467558945653211877e-01	1.102511013713833865e+00	1.000026871321364919e+00	-9.936515031367896059e-03	3.338158936085082365e-05	3.126671906126887664e-05
3.654868678548496508e+00	1.714338073813949516e-06	-1.562352511439041595e-04	3.599221223967752868e-03	8.467549295665494080e-01	1.102632623686895741e+00	1.000026870462368933e+00	-9.936503060707186849e-03	3.340379122905486877e-05	3.161463168980461667e-05
3.674895356239173072e+00	1.714338075649305165e-06	-1.562354046419189141e-04	3.562115304312431403e-03	8.467541005865206749e-01	1.102761418580050057e+00	1.000026869622293368e+00	-9.936492664251251120e-03	3.342660501628821635e-05	3.196473270688897779e-05
3.694922033929849636e+00	1.714338077215625574e-06	-1.562355520605332579e-04	3.525641049896850038e-03	8.467532992510738987e-01	1.102897336018176633e+00	1.000026868742317721e+00	-9.936482679082533215e-03	3.345002689450197911e-05	3.231702753598827608e-05
3.714948711620526201e+00	1.714338078263954419e-06	-1.562356770607207319e-04	3.489784692466630159e-03	8.467526239576140812e-01	1.103040315197286958e+00	1.000026867883177184e+00	-9.936474134592053475e-03	3.347405685636054001e-05	3.267152165499976788e-05
3.734975389311203209e+00	1.714338079159355277e-06	-1.562357964706711383e-04	3.454532422256585775e-03	8.467519752113558118e-01	1.103190297350571836e+00	1.000026866984818241e+00	-9.936465962692505802e-03	3.349869096542845904e-05	3.302822059558000015e-05
3.755002067001879773e+00	1.714338079604627580e-06	-1.562358955762015340e-04	3.419871264216743645e-03	8.467514391817498876e-01	1.103347225179406088e+00	1.000026866109096302e+00	-9.936459104853235386e-03	3.352392982945650402e-05	3.338712994422714909e-05
3.775028744692556337e+00	1.714338079996547395e-06	-1.562359882661924705e-04	3.385788111530927541e-03	8.467509348068679165e-01	1.103511043333296193e+00	1.000026865194740155e+00	-9.936452667856908796e-03	3.354976940009171351e-05	3.374825534157534690e-05
3.795055422383233346e+00	1.714338079999249642e-06	-1.562360626619384090e-04	3.352270728003376842e-03	8.467505339306422574e-01	1.103681697834066888e+00	1.000026864304727425e+00	-9.936447412349867087e-03	3.357621085093318790e-05	3.411160248353385974e-05
3.815082100073909910e+00	1.714338080034369745e-06	-1.562361317796817574e-04	3.319306667411917565e-03	8.467501567954595076e-01	1.103859136568899668e+00	1.000026863376566544e+00	-9.936442504952024829e-03	3.360325004419344310e-05	3.447717712057515996e-05
3.835108777764586474e+00	1.714338079737148637e-06	-1.562361608410781674e-04	3.286884380949937293e-03	8.467500011837717500e-01	1.104043308707432614e+00	1.000026862474403755e+00	-9.936440166170536908e-03	3.363088865970933821e-05	3.484498505894325580e-05
3.855135455455263482e+00	1.714338079609477055e-06	-1.562362026716010725e-04	3.254991997715180486e-03	8.467497733425005668e-01	1.104234165208379581e+00	1.000026861534456302e+00	-9.936437029252689901e-03	3.365912201667065653e-05	3.521503215989336760e-05
3.875162133145940047e+00	1.714338079122939424e-06	-1.562362789332468881e-04	3.223618717065019484e-03	8.467493618843917602e-01	1.104431658228313573e+00	1.000026860622081903e+00	-9.936431633584322937e-03	3.368795335927746588e-05	3.558732434102595041e-05
3.895188810836616611e+00	1.714338078703021570e-06	-1.562363655253143347e-04	3.192753314841903414e-03	8.467488923090125130e-01	1.104635741644810043e+00	1.000026859672250135e+00	-9.936426114333037768e-03	3.371737862204235149e-05	3.596186757535980961e-05
3.915215488527293175e+00	1.714338078226980160e-06	-1.562362183716653409e-04	3.162385452759326320e-03	8.467496905717938338e-01	1.104846370368672170e+00	1.000026858751638770e+00	-9.936408160916190835e-03	3.374740008553029854e-05	3.633866789510812630e-05
3.935242166217970183e+00	1.714338076501011617e-06	-1.562356470472287147e-04	3.132503875602037514e-03	8.467527869374279481e-01	1.105063501893803091e+00	1.000026857795001556e+00	-9.936678208526211059e-03	3.377800738845794255e-05	3.671773136336701804e-05
3.955268843908646748e+00	1.714338079606382208e-06	-1.562359839762451940e-04	3.103098757323976414e-03	8.467509623228997029e-01	1.105287094555150063e+00	1.000026856883083459e+00	-9.936698710859720798e-03	3.380920257178887981e-05	3.709906428415181190e-05
3.975295521599323312e+00	1.714338091365307146e-06	-1.562384792214603971e-04	3.074162571327487565e-03	8.467374430468487256e-01	1.105517096254546194e+00	1.000026856003884523e+00	-9.934607095689468315e-03	3.384100993294166611e-05	3.748267262865393113e-05
3.995322199289999876e+00	1.714584732784533302e-06	-1.562466682599758603e-04	3.045531353289996409e-03	8.467602886648956106e-01	1.105725138389047624e+00	1.000000000000000000e+00	-1.000000000000000021e-02	3.387174561589884471e-05	3.787100112148618141e-05
