# Time=0.0100010001 and Columns are r	p	Paether	ur	alpha	a	b	K	Sr_tilde	tau_tilde
1.001333884533834630e-02	1.199414947607229699e-02	-1.855336557695794544e-02	2.050786887763011147e-05	6.425274673955705396e-01	1.000069981693662458e+00	1.000022659594375751e+00	-1.116510455684104758e-02	2.316510666791330197e-10	1.503444391663104681e-06
3.004001653601504063e-02	1.196562645453616569e-02	-1.853235550559493433e-02	6.150972702841056127e-05	6.427070717405640732e-01	1.000448404729185947e+00	1.000022667452544534e+00	-1.116166198269690629e-02	6.245682218601942600e-09	1.350393008561131572e-05
5.006669422669172975e-02	1.190875573077150758e-02	-1.849037029142385630e-02	1.024618149313971649e-04	6.430660941675956366e-01	1.001204388576225623e+00	1.000022682613674663e+00	-1.115356326840870847e-02	2.883063847043678738e-08	3.736084598755319200e-05
7.009337191736843276e-02	1.182390974086457679e-02	-1.842749560205228510e-02	1.433276024349365769e-04	6.436040733816903447e-01	1.002336205262590152e+00	1.000022705004506074e+00	-1.114111445582933492e-02	7.876154217414777071e-08	7.278773488195282315e-05
9.012004960804512188e-02	1.171163656186358093e-02	-1.834385632175662695e-02	1.840768876994752106e-04	6.443203376497361745e-01	1.003841244439340086e+00	1.000022734716570216e+00	-1.112473711858589197e-02	1.664117191338421985e-07	1.193590338601208367e-04
1.101467272987218110e-01	1.157265875387813135e-02	-1.823961995432139133e-02	2.246794013946127602e-04	6.452139828671445976e-01	1.005715991624161143e+00	1.000022771648544362e+00	-1.110434990804600244e-02	3.016003723332043122e-07	1.765149900354271318e-04
1.301734049893985001e-01	1.140786673911728735e-02	-1.811499742603344190e-02	2.651073143834420170e-04	6.462838692409733632e-01	1.007956001686796332e+00	1.000022815668840215e+00	-1.108004889810675769e-02	4.934508255048023508e-07	2.435681606454292471e-04
1.502000826800751754e-01	1.121831053589252003e-02	-1.797024427794816429e-02	3.053355760539113351e-04	6.475286097791836948e-01	1.010555864859548070e+00	1.000022866620462025e+00	-1.105192571829075217e-02	7.502600012146977586e-07	3.197114502277080637e-04
1.702267603707518784e-01	1.100518999029637124e-02	-1.780566164565417636e-02	3.453423727200093715e-04	6.489465647253676028e-01	1.013509167879543815e+00	1.000022924323471063e+00	-1.102009168086213152e-02	1.079381609726915928e-06	4.040276236481241362e-04
1.902534380614285814e-01	1.076984363020331431e-02	-1.762159759487624475e-02	3.851095217718198305e-04	6.505358288418672252e-01	1.016808450584351542e+00	1.000022988577423000e+00	-1.098467768905435869e-02	1.487124629805831784e-06	4.955002194254765503e-04
2.102801157521052566e-01	1.051373625738211658e-02	-1.741844820086482781e-02	4.246228747905768787e-04	6.522942227242778390e-01	1.020445158993994683e+00	1.000023059162440608e+00	-1.094583541418558612e-02	1.978668663041142233e-06	5.930257721905433412e-04
2.303067934427819596e-01	1.023844540678338355e-02	-1.719665881634284063e-02	4.638726413955319484e-04	6.542192799993518104e-01	1.024409596026516489e+00	1.000023135842013300e+00	-1.090373811411953983e-02	2.557996957415568957e-06	6.954272364017808359e-04
2.503334711334586626e-01	9.945646815384829795e-03	-1.695672503647562696e-02	5.028537385779731318e-04	6.563082363845492706e-01	1.028690871195866441e+00	1.000023218363848221e+00	-1.085858136729446477e-02	3.227848208995578597e-06	8.014684856418385428e-04
2.703601488241353379e-01	9.637099054755715252e-03	-1.669919366080932846e-02	5.415660452615316629e-04	6.585580174431249212e-01	1.033276850817303583e+00	1.000023306463169614e+00	-1.081058339503281063e-02	3.989686967637021235e-06	9.098697429890658869e-04
2.903868265148120131e-01	9.314627492992649110e-03	-1.642466328048708402e-02	5.800147037951808868e-04	6.609652270996058121e-01	1.038154110458584301e+00	1.000023399863164020e+00	-1.075998509198717278e-02	4.843693430198211624e-06	1.019323778388026708e-03
3.104135042054887439e-01	8.980107760946320905e-03	-1.613378468191377021e-02	6.182103141013489938e-04	6.635261373024107234e-01	1.043307891542874843e+00	1.000023498278694634e+00	-1.070704953411310591e-02	5.788771375661250232e-06	1.128512688861029551e-03
3.304401818961654191e-01	8.635448906118061221e-03	-1.582726082981044183e-02	6.561692004709032905e-04	6.662366764147809040e-01	1.048722064213919891e+00	1.000023601416183849e+00	-1.065206099957487738e-02	6.822574928873871413e-06	1.236125057373282151e-03
3.504668595868420944e-01	8.282576423458034090e-03	-1.550584644073102307e-02	6.939135621097468733e-04	6.690924234266334425e-01	1.054379098700451545e+00	1.000023708977673120e+00	-1.059532342511365979e-02	7.941551770832361992e-06	1.340873266644527877e-03
3.704935372775188251e-01	7.923415356808113930e-03	-1.517034714312983160e-02	7.314717248866235222e-04	6.720885975975148252e-01	1.060260047577380238e+00	1.000023820659903251e+00	-1.053715819500577154e-02	9.141003649300828221e-06	1.441510726058666762e-03
3.905202149681955004e-01	7.559873666259326296e-03	-1.482161804232043703e-02	7.688782729595816613e-04	6.752200576437696888e-01	1.066344541361357923e+00	1.000023936158703552e+00	-1.047790136921619708e-02	1.041516064919433870e-05	1.536848753755071326e-03
4.105468926588721756e-01	7.193826056336495751e-03	-1.446056185156214917e-02	8.061743131356004536e-04	6.784812953473254860e-01	1.072610799946476234e+00	1.000024055167073822e+00	-1.041790015797036152e-02	1.175727050979266585e-05	1.625772843139654169e-03
4.305735703495489064e-01	6.827098456215259341e-03	-1.408812632032036341e-02	8.434076202606736712e-04	6.818664413110635536e-01	1.079035662285013242e+00	1.000024177379897683e+00	-1.035750889059380495e-02	1.315969828343327704e-05	1.707258034301544587e-03
4.506002480402255816e-01	6.461453337099687388e-03	-1.370530124548192605e-02	8.806329511178358650e-04	6.853692629201856290e-01	1.085594636641092681e+00	1.000024302490896577e+00	-1.029708422151940674e-02	1.461403831308251682e-05	1.780383107475649223e-03
4.706269257309022569e-01	6.098576042201907417e-03	-1.331311468317280915e-02	9.179122469650047647e-04	6.889831795631388145e-01	1.092261973448732215e+00	1.000024430197632208e+00	-1.023698000292001462e-02	1.611123266827749935e-05	1.844343318636560737e-03
4.906536034215789877e-01	5.740062292369547611e-03	-1.291262885966527711e-02	9.553150447545068332e-04	6.927012649717833037e-01	1.099010762537628638e+00	1.000024560197246393e+00	-1.017754143483231774e-02	1.764169889979763349e-05	1.898461407789427168e-03
5.106802811122557184e-01	5.387407014368633326e-03	-1.250493523010364275e-02	9.929187942445149608e-04	6.965162721176342275e-01	1.105813055959942837e+00	1.000024692191796127e+00	-1.011909915621917420e-02	1.919546016358811009e-05	1.942196629164206394e-03
5.307069588029323937e-01	5.041994620019461283e-03	-1.209114934711616809e-02	1.030809429095820226e-03	7.004206430182801091e-01	1.112640017172242146e+00	1.000024825882706914e+00	-1.006196277928383259e-02	2.076228154170547182e-05	1.975151580156602089e-03
5.507336364936090689e-01	4.705090842247398875e-03	-1.167240496062322413e-02	1.069081871755268170e-03	7.044065415915070627e-01	1.119462096560044362e+00	1.000024960976553690e+00	-1.000641466483703432e-02	2.233180460791389231e-05	1.997076642511567794e-03
5.707603141842857442e-01	4.377836209546393659e-03	-1.124984806387383483e-02	1.107840845874409922e-03	7.084658710918445568e-01	1.126249232628057984e+00	1.000025097178155020e+00	-9.952703387365747362e-03	2.389368506675673698e-05	2.007871894963261534e-03
5.907869918749625304e-01	4.061241213226612738e-03	-1.082463028805022084e-02	1.147201662809116006e-03	7.125903151651106215e-01	1.132971077227617362e+00	1.000025234196991519e+00	-9.901037809524136646e-03	2.543772459656984253e-05	2.007586410417989530e-03
6.108136695656392057e-01	3.756183193104801425e-03	-1.039790245713242793e-02	1.187291378427984953e-03	7.167713609813335385e-01	1.139597242428481039e+00	1.000025371738877622e+00	-9.851581089149099441e-03	2.695400266314644671e-05	1.996414911770091460e-03
6.308403472563158809e-01	3.463404937257391712e-03	-9.970807617468602224e-03	1.228249980124427416e-03	7.210003483127298551e-01	1.146097565619261571e+00	1.000025509513195354e+00	-9.804445705771490036e-03	2.843299867825583021e-05	1.974691826580005603e-03
6.508670249469925562e-01	3.183514961151257677e-03	-9.544474504121464031e-03	1.270232017115972530e-03	7.252684959048418811e-01	1.152442388702073384e+00	1.000025647223264924e+00	-9.759688603925781650e-03	2.986571102811656526e-05	1.942882849986382002e-03
6.708937026376692314e-01	2.916989401478449484e-03	-9.120010642306506168e-03	1.313408337563984210e-03	7.295669552414069114e-01	1.158602846316682866e+00	1.000025784574494425e+00	-9.717307716633401607e-03	3.124376287907565814e-05	1.901574194454911651e-03
6.909203803283459067e-01	2.664175431400414920e-03	-8.698496127853269644e-03	1.357968355578175173e-03	7.338868387247002856e-01	1.164551157539315707e+00	1.000025921263454354e+00	-9.677238753692573095e-03	3.255950179549372490e-05	1.851459771380452746e-03
7.109470580190225819e-01	2.425296077433387355e-03	-8.280977228435305523e-03	1.404122526398693350e-03	7.382192758461239013e-01	1.170260914845133948e+00	1.000026056987235457e+00	-9.639353628494785539e-03	3.380608297999520439e-05	1.793326609870412452e-03
7.309737357096993682e-01	2.200456294784754706e-03	-7.868460927827690410e-03	1.452105458162739277e-03	7.425554377874680201e-01	1.175707364036307601e+00	1.000026191431243383e+00	-9.603459150235518424e-03	3.497754346731154584e-05	1.728038869269786677e-03
7.510004134003760434e-01	1.989650138346590186e-03	-7.461909400060019910e-03	1.502179368356067841e-03	7.468865941552385035e-01	1.180867668603167608e+00	1.000026324279891909e+00	-9.569297571151297310e-03	3.606885749934547048e-05	1.656520841324351850e-03
7.710270910910527187e-01	1.792768851382737453e-03	-7.062235682360833676e-03	1.554638311435406874e-03	7.512041306007446462e-01	1.185721152414208168e+00	1.000026455203163467e+00	-9.536547263895526344e-03	3.707598043035682106e-05	1.579739363154086806e-03
7.910537687817293939e-01	1.609609683758511959e-03	-6.670299340316397652e-03	1.609812937695445775e-03	7.554996019229049953e-01	1.190249514877477655e+00	1.000026583868835361e+00	-9.504825407180506058e-03	3.799587249541743113e-05	1.498686071939697413e-03
8.110804464724060692e-01	1.439885246545950228e-03	-6.286903513204839672e-03	1.668076200021396038e-03	7.597647404980956143e-01	1.194437013664070957e+00	1.000026709927808399e+00	-9.473690636190136918e-03	3.882650949811666731e-05	1.414359925800918148e-03
8.311071241630827444e-01	1.283233210187968753e-03	-5.912791970191054805e-03	1.729849846399659661e-03	7.639915029261896695e-01	1.198270610751858811e+00	1.000026833027999551e+00	-9.442647856286420435e-03	3.956687356040338967e-05	1.327750393164189510e-03
8.511338018537595307e-01	1.139226158829012136e-03	-5.548647636560988250e-03	1.795612097901748373e-03	7.681720661106113957e-01	1.201740078897641339e+00	1.000026952798509061e+00	-9.411152948874495355e-03	4.021693037669166545e-05	1.239821676206573266e-03
8.711604795444362059e-01	1.007381423720883152e-03	-5.195091073453532091e-03	1.865906453927401168e-03	7.722988669887526081e-01	1.204838066558281628e+00	1.000027068865406266e+00	-9.378619974744996021e-03	4.077758849831758173e-05	1.151498284977781972e-03
8.911871572351128812e-01	8.871707330758776214e-04	-4.852680453606375392e-03	1.941351996997444903e-03	7.763645833255513606e-01	1.207560120818160998e+00	1.000027180834754503e+00	-9.344428416359107023e-03	4.125064608811271778e-05	1.063652220285420981e-03
9.112138349257895564e-01	7.780295338453573116e-04	-4.521911328147483998e-03	2.022655265665619217e-03	7.803621674197780411e-01	1.209904668792277205e+00	1.000027288310714413e+00	-9.307933662584170695e-03	4.163872345085498501e-05	9.770919588761146045e-04
9.312405126164662317e-01	6.793658616774642155e-04	-4.203217844395573839e-03	2.110624013405032039e-03	7.842848124043040325e-01	1.211872959445033260e+00	1.000027390877662237e+00	-9.268478113389962483e-03	4.194518522982422829e-05	8.925533672966691305e-04
9.512671903071429069e-01	5.905686580545412793e-04	-3.896973536025400472e-03	2.206183054782163630e-03	7.881259779813956090e-01	1.213468968429273653e+00	1.000027488121143504e+00	-9.225406801664639417e-03	4.217405354611574261e-05	8.106926048380736242e-04
9.712938679978196932e-01	5.110154573024251745e-04	-3.603493396169275050e-03	2.310392399056040470e-03	7.918793497876951415e-01	1.214699269735891374e+00	1.000027579609682027e+00	-9.178084910616690975e-03	4.232991382690451534e-05	7.320810142951144489e-04
9.913205456884963684e-01	4.400793900896059750e-04	-3.323035302921354458e-03	2.424467953491627262e-03	7.955388543332766460e-01	1.215572878178659444e+00	1.000027664919414638e+00	-9.125921590517381901e-03	4.241781742396554222e-05	6.572019449729348071e-04
1.011347223379172933e+00	3.771354732796952333e-04	-3.055802428678340479e-03	2.549804737561285617e-03	7.990986221489154717e-01	1.216101067510516387e+00	1.000027743616597187e+00	-9.068397642889405516e-03	4.244318023739465705e-05	5.864494074622449973e-04
1.031373901069849497e+00	3.215661779588466782e-04	-2.801944806542860933e-03	2.688002783254341693e-03	8.025529914307200086e-01	1.216297168695875897e+00	1.000027815287187094e+00	-9.005101427559466729e-03	4.241168375966777968e-05	5.201284258544851572e-04
1.051400578760526283e+00	2.727662873997780996e-04	-2.561561488198803825e-03	2.840895089245515891e-03	8.058964856610453253e-01	1.216176353206293914e+00	1.000027879521374397e+00	-8.935770649911332214e-03	4.232917522135556005e-05	4.584569307029621706e-04
1.071427256451203069e+00	2.301470741538442426e-04	-2.334701660035976619e-03	3.010577230303468094e-03	8.091238152931521377e-01	1.215755405470389849e+00	1.000027935949795443e+00	-8.860343395521575252e-03	4.220157479997140520e-05	4.015690251079407410e-04
1.091453934141879634e+00	1.931398397994674838e-04	-2.121365992916352926e-03	3.199436742068741905e-03	8.122298756863525204e-01	1.215052488619384308e+00	1.000027984231494749e+00	-8.779015067881260764e-03	4.203478438899946329e-05	3.495194554802888605e-04
1.111480611832556420e+00	1.611988716649359610e-04	-1.921506737795810682e-03	3.410180345752907276e-03	8.152097638214961250e-01	1.214086906612487748e+00	1.000028024098178481e+00	-8.692302283310207600e-03	4.183460677376868068e-05	3.022891259868356749e-04
1.131507289523232984e+00	1.338038775716837714e-04	-1.735027826037205964e-03	3.645854572887405071e-03	8.180588059372402299e-01	1.212878865693441055e+00	1.000028055346447342e+00	-8.601107191469038737e-03	4.160666797049628567e-05	2.597915083590252245e-04
1.151533967213909770e+00	1.104619618550698200e-04	-1.561783641025627292e-03	3.909854612796103725e-03	8.207725938321530634e-01	1.211449236977184762e+00	1.000028077890048772e+00	-8.506778881757687261e-03	4.135635211820991032e-05	2.218798132104087288e-04
1.171560644904586557e+00	9.070920323067904571e-05	-1.401577712213574996e-03	4.205912278089041396e-03	8.233470731486997041e-01	1.209819321947320780e+00	1.000028091754828763e+00	-8.411160451829567675e-03	4.108874047085257233e-05	1.883548009487817784e-04
1.191587322595263121e+00	7.411188727605306766e-05	-1.254160378121343955e-03	4.538052322516751905e-03	8.257785923004538065e-01	1.208010621676137930e+00	1.000028097135633232e+00	-8.316612120451960175e-03	4.080856406446279439e-05	1.589731156174155411e-04
1.211614000285939907e+00	6.026743362059816577e-05	-1.119226621603205398e-03	4.910501186548871244e-03	8.280640616494103767e-01	1.206044610963241892e+00	1.000028094387912292e+00	-8.225995202365457559e-03	4.052016123823906044e-05	1.334560195939122717e-04
1.231640677976616471e+00	4.880504115896022353e-05	-9.964135789579705704e-04	5.327530595845094211e-03	8.302010224196741950e-01	1.203942518069223810e+00	1.000028084080621937e+00	-8.142604588865839238e-03	4.022744918838884291e-05	1.114983886852466898e-04
1.251667355667293258e+00	3.938605546347342582e-05	-8.852990013546969354e-04	5.793214517427744403e-03	8.321878553198358563e-01	1.201725111720530759e+00	1.000028066973105423e+00	-8.070037952554544314e-03	3.993390096018881115e-05	9.277779573143877189e-05
1.271694033357969822e+00	3.170404366577950190e-05	-7.854004822949390207e-04	6.311080875140758634e-03	8.340238565623808720e-01	1.199412497085380558e+00	1.000028044050649045e+00	-8.011998948447391147e-03	3.964253616601913917e-05	7.696347006062687166e-05
1.291720711048646608e+00	2.548454698107155625e-05	-6.961767603001959128e-04	6.883644126314291019e-03	8.357094601009928958e-01	1.197023923959483982e+00	1.000028016472938042e+00	-7.972040255740144021e-03	3.935591706066427631e-05	6.372487767748334555e-05
1.311747388739323394e+00	2.048447352162641232e-05	-6.170309590694866625e-04	7.511822346276298031e-03	8.372462782524626723e-01	1.194577610650838340e+00	1.000027985580690393e+00	-7.953267661399025801e-03	3.907615697735589491e-05	5.273963436363745676e-05
1.331774066429999959e+00	1.649109743607793548e-05	-5.473168157167132000e-04	8.194267052506193708e-03	8.386372747511321446e-01	1.192090588553548214e+00	1.000027952808527631e+00	-7.958036128107881871e-03	3.880493293515658741e-05	4.370045396300476566e-05
1.351800744120676745e+00	1.332064618169807258e-05	-4.863473629510832344e-04	8.926674389256983311e-03	8.398867229339587182e-01	1.189578572076147589e+00	1.000027919663134091e+00	-7.987680001770027308e-03	3.854350841945121327e-05	3.632085845432514725e-05
1.371827421811353309e+00	1.081648482185626688e-05	-4.334065103903515142e-04	9.701188349640300565e-03	8.410002665521090215e-01	1.187055859151211035e+00	1.000027887609726607e+00	-8.042315032276974029e-03	3.829275897812335638e-05	3.033944050867409887e-05
1.391854099502030095e+00	8.846940318192743919e-06	-3.877623127793564974e-04	1.050604765977705517e-02	8.419847497384127522e-01	1.184535265857794561e+00	1.000027858039567175e+00	-8.120746779215058664e-03	3.805320694514828354e-05	2.552256951832376731e-05
1.411880777192706660e+00	7.302843317718060422e-06	-3.486816680347470314e-04	1.132563834314524384e-02	8.428481492735911962e-01	1.182028097872451999e+00	1.000027832154577023e+00	-8.220499438866671338e-03	3.782505950418983557e-05	2.166555490376403825e-05
1.431907454883383446e+00	6.094892417491546557e-06	-3.154447635495140996e-04	1.214108382546601368e-02	8.435992771882616648e-01	1.179544158511293350e+00	1.000027810951966245e+00	-8.337971684460196431e-03	3.760825657015261182e-05	1.859240487143402101e-05
1.451934132574060232e+00	5.150960429118037247e-06	-2.873587621631674125e-04	1.293141133102903434e-02	8.442476328079431269e-01	1.177091791631510009e+00	1.000027795133994424e+00	-8.468703796724177252e-03	3.740252191163241359e-05	1.615442203845497652e-05
1.471960810264736796e+00	4.413460836437030028e-06	-2.637692229931114588e-04	1.367520104848886538e-02	8.448029878484717425e-01	1.174677954616221376e+00	1.000027785132989955e+00	-8.607737968888317520e-03	3.720742075260166914e-05	1.422794192294590710e-05
1.491987487955413583e+00	3.836876652553185427e-06	-2.440691196210997523e-04	1.435247888988948860e-02	8.452752470285118669e-01	1.172308315835687509e+00	1.000027781062905019e+00	-8.750028376877277622e-03	3.702241337307369856e-05	1.271153872948383153e-05
1.512014165646090147e+00	3.385527449122987880e-06	-2.277046470521849582e-04	1.494652367906297921e-02	8.456740363507465608e-01	1.169987369074335870e+00	1.000027782792997977e+00	-8.890855005872885103e-03	3.684690513647160545e-05	1.152299893812707421e-05
1.532040843336766933e+00	3.031619545586577067e-06	-2.141783680309729471e-04	1.544525452699788137e-02	8.460086185542936565e-01	1.167718558123391981e+00	1.000027789939082590e+00	-9.026171892292203167e-03	3.668028295612596538e-05	1.059630920526295113e-05
1.552067521027443719e+00	2.753594789462165565e-06	-2.030495286644447273e-04	1.584196788423069407e-02	8.462875478514243488e-01	1.165504404363660429e+00	1.000027801972218855e+00	-9.152845633940727768e-03	3.652194295416555413e-05	9.878836729769949464e-06
1.572094198718120284e+00	2.534769291395089149e-06	-1.939324937536439949e-04	1.613535179642042530e-02	8.465187783750148798e-01	1.163346632244850909e+00	1.000027818225755594e+00	-9.268747275588816448e-03	3.637130454680734308e-05	9.328811761014494576e-06
1.592120876408797070e+00	2.362236704202811203e-06	-1.864934867069896842e-04	1.632887492733934784e-02	8.467092629413298654e-01	1.161246288017679706e+00	1.000027838009119874e+00	-9.372711971568931794e-03	3.622782051003316462e-05	8.913163115315512770e-06
1.612147554099473634e+00	2.226001357723905379e-06	-1.804464374903918004e-04	1.642975434849696173e-02	8.468653841129104576e-01	1.159203849505394013e+00	1.000027860600840590e+00	-9.464398315698984918e-03	3.609097943634280193e-05	8.605713105712090472e-06
1.632174231790150420e+00	2.118303370841453811e-06	-1.755482444086586835e-04	1.644774754014568380e-02	8.469924402465401903e-01	1.157219324916311187e+00	1.000027885344168643e+00	-9.544096363192327084e-03	3.596030928227464434e-05	8.385708762536801461e-06
1.652200909480826985e+00	2.033099150847668382e-06	-1.715938810431827681e-04	1.639397699948798304e-02	8.470952991998530468e-01	1.155292340671875140e+00	1.000027911612644704e+00	-9.612531096082135851e-03	3.583537640378947625e-05	8.236649677593190454e-06
1.672227587171503771e+00	1.965664510674350341e-06	-1.684116083312633039e-04	1.627993340795338278e-02	8.471778163177728915e-01	1.153422217828242280e+00	1.000027938884413770e+00	-9.670686272035888126e-03	3.571578680159143501e-05	8.145366199680382466e-06
1.692254264862180557e+00	1.912292719425981177e-06	-1.658584263233299743e-04	1.611672237613428343e-02	8.472435721950737353e-01	1.151608038154543712e+00	1.000027966684891689e+00	-9.719668880818722531e-03	3.560118335441131849e-05	8.101301866926497808e-06
1.712280942552857121e+00	1.870064981829301816e-06	-1.638159291619826141e-04	1.591456475684504060e-02	8.472952761367338326e-01	1.149848700107018784e+00	1.000027994648626350e+00	-9.760609119171993406e-03	3.549124523182479942e-05	8.095958137009585178e-06
1.732307620243533908e+00	1.836675682087688675e-06	-1.621865476460279817e-04	1.568251630642037223e-02	8.473355152411410351e-01	1.148142966169727996e+00	1.000028022449098497e+00	-9.794597432350686875e-03	3.538568372338904330e-05	8.122465557757155177e-06
1.752334297934210472e+00	1.810298792160660249e-06	-1.608902664381489276e-04	1.542836045176475615e-02	8.473661288017215742e-01	1.146489501974024217e+00	1.000028049857281998e+00	-9.822644368088892866e-03	3.528424058586820646e-05	8.175252072239138674e-06
1.772360975624887258e+00	1.789485206182545227e-06	-1.598617319467993873e-04	1.515862017605247754e-02	8.473889292687978303e-01	1.144886908750927468e+00	1.000028076665728127e+00	-9.845662171994428932e-03	3.518668343010714203e-05	8.249785300080824540e-06
1.792387653315563822e+00	1.773083330082417684e-06	-1.590477733003125345e-04	1.487864663715750442e-02	8.474051660561250365e-01	1.143333749458342874e+00	1.000028102749144665e+00	-9.864457455754585199e-03	3.509280400223318690e-05	8.342370953253866719e-06
1.812414331006240609e+00	1.760177264973979685e-06	-1.584052906163425131e-04	1.459274686119834200e-02	8.474161419424676156e-01	1.141828570065727133e+00	1.000028127986211546e+00	-9.879732432247852539e-03	3.500241379866215948e-05	8.449993885401633524e-06
1.832441008696917395e+00	1.750038366460294030e-06	-1.578994793179592116e-04	1.430432817958756514e-02	8.474226108749083330e-01	1.140369916159995611e+00	1.000028152324265562e+00	-9.892089777893886202e-03	3.491534292343150659e-05	8.570191680237989167e-06
1.852467686387593959e+00	1.742087077949253560e-06	-1.575022923488080960e-04	1.401604059139559093e-02	8.474255809873553202e-01	1.138956346226366545e+00	1.000028175699882560e+00	-9.902043662161654630e-03	3.483143628569221074e-05	8.700953274219198482e-06
1.872494364078270745e+00	1.735862698856681897e-06	-1.571912445207010705e-04	1.372991007365785207e-02	8.474254649097758829e-01	1.137586441554063077e+00	1.000028198108295019e+00	-9.910025699999496993e-03	3.475055297086202975e-05	8.840637038268846139e-06
1.892521041768947310e+00	1.730999353399719412e-06	-1.569483166816651736e-04	1.344745575042310612e-02	8.474229884416857317e-01	1.136258813998341388e+00	1.000028219522636652e+00	-9.916398614364455022e-03	3.467256323795719236e-05	8.987904156496287822e-06
1.912547719459624096e+00	1.727206821810394777e-06	-1.567591503649051190e-04	1.316979144554793549e-02	8.474183635026727446e-01	1.134972111336245204e+00	1.000028239968075106e+00	-9.921462444196541344e-03	3.459734821697633880e-05	9.141664168438655183e-06
1.932574397150300882e+00	1.724255227068753936e-06	-1.566122920975685287e-04	1.289770998968122438e-02	8.474121606676600083e-01	1.133725021352726126e+00	1.000028259439283751e+00	-9.925466804454691205e-03	3.452479756332447623e-05	9.301030286262490783e-06
1.952601074840977446e+00	1.721962779466686955e-06	-1.564986677266663631e-04	1.263175336370833506e-02	8.474044823140836069e-01	1.132516274212895580e+00	1.000028277979048585e+00	-9.928615716996561091e-03	3.445480935887672514e-05	9.465282640438704150e-06
1.972627752531654233e+00	1.720185970059699722e-06	-1.564110740143868678e-04	1.237226895334378289e-02	8.473957687409566786e-01	1.131344644184386405e+00	1.000028295593537120e+00	-9.931077305044930248e-03	3.438728831446767907e-05	9.633838005089273563e-06
1.992654430222330797e+00	1.718811718969240222e-06	-1.563438457979472002e-04	1.211945523915032921e-02	8.473859980739354425e-01	1.130208950123861023e+00	1.000028312335093705e+00	-9.932986954167357524e-03	3.432214581754089076e-05	9.806224849138496722e-06
2.012681107913007583e+00	1.717751097677585536e-06	-1.562924855456920457e-04	1.187339756385658550e-02	8.473755688102079242e-01	1.129108055742738870e+00	1.000028328214891182e+00	-9.934456704367688670e-03	3.425929858011526115e-05	9.982062783241535568e-06
2.032707785603684147e+00	1.716934310930758951e-06	-1.562534941027287803e-04	1.163409667843063114e-02	8.473643804470946117e-01	1.128040868953169795e+00	1.000028343289746768e+00	-9.935574803915213013e-03	3.419866858648631827e-05	1.016104564326458204e-05
2.052734463294360712e+00	1.716306693712849391e-06	-1.562240916958837424e-04	1.140149079044879867e-02	8.473527777234691749e-01	1.127006341285241353e+00	1.000028357571886017e+00	-9.936414630784698096e-03	3.414018232010592732e-05	1.034292758702955459e-05
2.072761140985037720e+00	1.715825521450406895e-06	-1.562021293194256442e-04	1.117547277675855384e-02	8.473406659313542644e-01	1.126003466586878776e+00	1.000028371119538795e+00	-9.937033444913066088e-03	3.408377041730776120e-05	1.052751168711253610e-05
2.092787818675714284e+00	1.715457473208099612e-06	-1.561859108159809691e-04	1.095590346023569105e-02	8.473282917126631064e-01	1.125031279985975630e+00	1.000028383943595500e+00	-9.937478269039895853e-03	3.402936741148519009e-05	1.071464059145987647e-05
2.112814496366390848e+00	1.715176618496306883e-06	-1.561741302328156333e-04	1.074262166983026151e-02	8.473155600054430581e-01	1.124088856264734648e+00	1.000028396101964479e+00	-9.937785657433565248e-03	3.397691119612027388e-05	1.090418889329874087e-05
2.132841174057067857e+00	1.714962821873149317e-06	-1.561657522342892017e-04	1.053545204808851131e-02	8.473027153736432115e-01	1.123175308617066603e+00	1.000028407602919112e+00	-9.937985999631328976e-03	3.392634307990351650e-05	1.109605691324104380e-05
2.152867851747744421e+00	1.714800482825992997e-06	-1.561599958099834436e-04	1.033421070307168239e-02	8.472896255289402712e-01	1.122289786894255625e+00	1.000028418503119854e+00	-9.938102017312778688e-03	3.387760707095400673e-05	1.129016564390594400e-05
2.172894529438420985e+00	1.714677540572597577e-06	-1.561562365503432650e-04	1.013870974767534100e-02	8.472765030464313174e-01	1.121431476310534414e+00	1.000028428807591796e+00	-9.938152965640779588e-03	3.383065030963330492e-05	1.148645265114252889e-05
2.192921207129097994e+00	1.714584692536652988e-06	-1.561540050099612326e-04	9.948760251264425133e-03	8.472632488327820344e-01	1.120599595681414540e+00	1.000028438571338940e+00	-9.938153249755825314e-03	3.378542206997407310e-05	1.168486875853548162e-05
2.212947884819774558e+00	1.714514778806135324e-06	-1.561529340026865582e-04	9.764174857115769449e-03	8.472500080505173115e-01	1.119793396164961319e+00	1.000028447795902053e+00	-9.938114537204926005e-03	3.374187451679778468e-05	1.188537537343734268e-05
2.232974562510451122e+00	1.714462301981093907e-06	-1.561527348806864468e-04	9.584769153771190153e-03	8.472367454922351548e-01	1.119012159559729547e+00	1.000028456534533872e+00	-9.938046408988873009e-03	3.369996155661550999e-05	1.208794233517822152e-05
2.253001240201127686e+00	1.714423049889634381e-06	-1.561532020104959984e-04	9.410363132803602898e-03	8.472235233919842567e-01	1.118255197132154377e+00	1.000028464785285287e+00	-9.937955336896314718e-03	3.365963968085944742e-05	1.229254618888045505e-05
2.273027917891804695e+00	1.714393803240005852e-06	-1.561541571854194481e-04	9.240781718407411680e-03	8.472103393178255226e-01	1.117521848006950203e+00	1.000028472599713947e+00	-9.937847726161753645e-03	3.362086695622121561e-05	1.249916880346540408e-05
2.293054595582481259e+00	1.714372106674728110e-06	-1.561554837529038084e-04	9.075855482632155455e-03	8.471972406434128411e-01	1.116811478106063849e+00	1.000028479972498108e+00	-9.937727298427942446e-03	3.358360365420589308e-05	1.270779626889309727e-05
2.313081273273157823e+00	1.714356092307741064e-06	-1.561570743218970009e-04	8.915420764175365637e-03	8.471842257037527357e-01	1.116123478644073685e+00	1.000028486953682849e+00	-9.937598131980179134e-03	3.354781153811999174e-05	1.291841801766987546e-05
2.333107950963834831e+00	1.714344342176796063e-06	-1.561588637229045502e-04	8.759319934039623209e-03	8.471713290572933097e-01	1.115457265187174807e+00	1.000028493534739882e+00	-9.937462326310635835e-03	3.351345424289434573e-05	1.313102612751918011e-05
2.353134628654511395e+00	1.714335782669731411e-06	-1.561607834953797358e-04	8.607401318341222074e-03	8.471585627326293499e-01	1.114812276257590939e+00	1.000028499764390899e+00	-9.937322717393967317e-03	3.348049682986896445e-05	1.334561476851153248e-05
2.373161306345187960e+00	1.714329602758870434e-06	-1.561628016758619250e-04	8.459519193480065716e-03	8.471459447955961286e-01	1.114187972509699698e+00	1.000028505631107345e+00	-9.937180207157001940e-03	3.344890591486646738e-05	1.356217976640571186e-05
2.393187984035864524e+00	1.714325191287145491e-06	-1.561648750903004389e-04	8.315533654366926916e-03	8.471334779731121145e-01	1.113583835440949743e+00	1.000028511182524227e+00	-9.937036706669743341e-03	3.341864954673474226e-05	1.378071825802630291e-05
2.413214661726541532e+00	1.714322088997151450e-06	-1.561669884337928854e-04	8.175310426751880230e-03	8.471211837331055206e-01	1.112999366678418589e+00	1.000028516404287693e+00	-9.936892581759716042e-03	3.338969701904002160e-05	1.400122842032704626e-05
2.433241339417218096e+00	1.714319951468091895e-06	-1.561691127485483738e-04	8.038720750722637767e-03	8.471090618658132509e-01	1.112434086788655963e+00	1.000028521343162113e+00	-9.936749210671147123e-03	3.336201907284722080e-05	1.422370925747835496e-05
2.453268017107894661e+00	1.714318521412782233e-06	-1.561712437379162766e-04	7.905641075022942429e-03	8.470971267465534638e-01	1.111887534668211108e+00	1.000028525982176619e+00	-9.936606533610278097e-03	3.333558740478735296e-05	1.444816043415711895e-05
2.473294694798571669e+00	1.714317606783431532e-06	-1.561733566905241328e-04	7.775952993976146220e-03	8.470854017114557433e-01	1.111359266441469096e+00	1.000028530367395696e+00	-9.936465869072919760e-03	3.331037520195240443e-05	1.467458214503033055e-05
2.493321372489248233e+00	1.714317065178525119e-06	-1.561754565243124546e-04	7.649542844986892583e-03	8.470738792221634839e-01	1.110848854947019904e+00	1.000028534479422193e+00	-9.936326724833023996e-03	3.328635628568177009e-05	1.490297501289729066e-05
2.513348050179924797e+00	1.714316790718264421e-06	-1.561775236546906467e-04	7.526301745064921216e-03	8.470625834604134097e-01	1.110355888714036787e+00	1.000028538363821662e+00	-9.936190203302197252e-03	3.326350610153901713e-05	1.513334000918869204e-05
2.533374727870601362e+00	1.714316705707352105e-06	-1.561795665994763181e-04	7.406125086287534791e-03	8.470514890776622563e-01	1.109879971536023024e+00	1.000028541998896792e+00	-9.936055670265963452e-03	3.324180038631304249e-05	1.536567839204468403e-05
2.553401405561278370e+00	1.714316752501797179e-06	-1.561815688096875032e-04	7.288912687525701990e-03	8.470406349193889683e-01	1.109420721516290342e+00	1.000028545429892279e+00	-9.935924084703387157e-03	3.322121665896021493e-05	1.559999165811030037e-05
2.573428083251954934e+00	1.714316889491267680e-06	-1.561835402629544150e-04	7.174568195757694000e-03	8.470299855553179436e-01	1.108977770720541267e+00	1.000028548632959646e+00	-9.935794769442944652e-03	3.320173238141268688e-05	1.583628150494027109e-05
2.593454760942631498e+00	1.714317085740123282e-06	-1.561854688358307365e-04	7.062999357650742716e-03	8.470195745868537296e-01	1.108550764283802170e+00	1.000028551653159070e+00	-9.935668438973099120e-03	3.318332697799690137e-05	1.607454980183178013e-05
2.613481438633308507e+00	1.714317319544659632e-06	-1.561873574543408264e-04	6.954117335186867088e-03	8.470094029382644329e-01	1.108139360133290063e+00	1.000028554464623465e+00	-9.935544881180931320e-03	3.316597948419204215e-05	1.631479856692889544e-05
2.633508116323985071e+00	1.714317574623936170e-06	-1.561892056563097902e-04	6.847837073982517876e-03	8.469994447693751649e-01	1.107743228149063119e+00	1.000028557112357941e+00	-9.935424087942307941e-03	3.314967100669651316e-05	1.655702994951884511e-05
2.653534794014661635e+00	1.714317840076920929e-06	-1.561910105410077056e-04	6.744076591512177671e-03	8.469897324230125646e-01	1.107362049952036021e+00	1.000028559568571840e+00	-9.935306234427780658e-03	3.313438210401220004e-05	1.680124621598152632e-05
2.673561471705338199e+00	1.714318107584822440e-06	-1.561927677738754938e-04	6.642757369262647371e-03	8.469802720937392726e-01	1.106995518108118803e+00	1.000028561878373301e+00	-9.935191564041035567e-03	3.312009536295258916e-05	1.704744973891474417e-05
2.693588149396015208e+00	1.714318372068633582e-06	-1.561944861816410234e-04	6.543803653417148460e-03	8.469710293083233532e-01	1.106643335977697262e+00	1.000028564012110710e+00	-9.935079512886404660e-03	3.310679268719935917e-05	1.729564298838102054e-05
2.713614827086691772e+00	1.714318629395937045e-06	-1.561961567884266632e-04	6.447142898363111656e-03	8.469620375829531866e-01	1.106305216957998772e+00	1.000028566015093379e+00	-9.934970631317274065e-03	3.309445813986649647e-05	1.754582852513141868e-05
2.733641504777368336e+00	1.714318877598970260e-06	-1.561977809882411010e-04	6.352705010084330230e-03	8.469533015455240621e-01	1.105980884385515672e+00	1.000028567855919315e+00	-9.934864828647358911e-03	3.308307479400359304e-05	1.779800899495707683e-05
2.753668182468045345e+00	1.714319114754196789e-06	-1.561993616630831755e-04	6.260422870439583121e-03	8.469447941038383831e-01	1.105670070813440153e+00	1.000028569580183602e+00	-9.934761896933069769e-03	3.307262800064668157e-05	1.805218712438933702e-05
2.773694860158721909e+00	1.714319340450817089e-06	-1.562009030333243349e-04	6.170231568732457809e-03	8.469364978279050327e-01	1.105372517961241252e+00	1.000028571154806034e+00	-9.934661579388754868e-03	3.306310202560296411e-05	1.830836571689518471e-05
2.793721537849398473e+00	1.714319553872967542e-06	-1.562023978624348987e-04	6.082068943607478982e-03	8.469284529987678445e-01	1.105087976023444218e+00	1.000028572625746737e+00	-9.934564312910692044e-03	3.305448344546931813e-05	1.856654765007703921e-05
2.813748215540075037e+00	1.714319755433945804e-06	-1.562038483886355161e-04	5.995874790847161191e-03	8.469206418390157198e-01	1.104816203661065144e+00	1.000028573958299916e+00	-9.934469957169341642e-03	3.304675749557296928e-05	1.882673587294154000e-05
2.833774893230752046e+00	1.714319944863104097e-06	-1.562052533849316884e-04	5.911591470536806461e-03	8.469130804872866403e-01	1.104556967337169571e+00	1.000028575198888214e+00	-9.934378577524691917e-03	3.303991185712172493e-05	1.908893340404359926e-05
2.853801570921428610e+00	1.714320122942646642e-06	-1.562066173458872892e-04	5.829163091364978136e-03	8.469057304914076045e-01	1.104310041348392391e+00	1.000028576311238426e+00	-9.934289898432419399e-03	3.303393271911599311e-05	1.935314332941304142e-05
2.873828248612105174e+00	1.714320289626481295e-06	-1.562079440977847083e-04	5.748536155813949687e-03	8.468985871710424940e-01	1.104075207181387963e+00	1.000028577342287228e+00	-9.934203649981883377e-03	3.302880883324971526e-05	1.961936880127009122e-05
2.893854926302782182e+00	1.714320445830237330e-06	-1.562092239230887384e-04	5.669658726523695534e-03	8.468916860023522064e-01	1.103852253582150889e+00	1.000028578254244849e+00	-9.934120460016539894e-03	3.302452731397288998e-05	1.988761303637432020e-05
2.913881603993458747e+00	1.714320591651730748e-06	-1.562104673702108346e-04	5.592481068441610727e-03	8.468849905390221089e-01	1.103640975930764601e+00	1.000028579094622838e+00	-9.934039650259230553e-03	3.302107773653232739e-05	2.015787931511581755e-05
2.933908281684135311e+00	1.714320728002403517e-06	-1.562116658711707959e-04	5.516954878880285518e-03	8.468785222424253245e-01	1.103441176343856966e+00	1.000028579824145281e+00	-9.933961766378222868e-03	3.301844814147484469e-05	2.043017098012209540e-05
2.953934959374811875e+00	1.714320855041259814e-06	-1.562128206525118760e-04	5.443033871825750381e-03	8.468723041799325335e-01	1.103252663065751094e+00	1.000028580490983643e+00	-9.933886716765783290e-03	3.301662886550799103e-05	2.070449143562653427e-05
2.973961637065488883e+00	1.714320973661362899e-06	-1.562139412831224812e-04	5.370673063119742359e-03	8.468662567071690850e-01	1.103075250602759017e+00	1.000028581054403398e+00	-9.933813896198163962e-03	3.301560871516321717e-05	2.098084414625676341e-05
2.993988314756165448e+00	1.714321083958996911e-06	-1.562150216366318251e-04	5.299829369284992167e-03	8.468604399081133272e-01	1.102908759126213667e+00	1.000028581563263907e+00	-9.933743691339936774e-03	3.301537895759617364e-05	2.125923263659483726e-05
3.014014992446842012e+00	1.714321186817925112e-06	-1.562160685090931568e-04	5.230460839553295084e-03	8.468547812047804157e-01	1.102753014636703721e+00	1.000028581975409558e+00	-9.933675669458604321e-03	3.301592902385043130e-05	2.153966049007723441e-05
3.034041670137519020e+00	1.714321282280067162e-06	-1.562170700786253829e-04	5.162527325457448406e-03	8.468493863570339952e-01	1.102607848377193278e+00	1.000028582340448668e+00	-9.933610570461472167e-03	3.301725100523363271e-05	2.182213134872590092e-05
3.054068347828195584e+00	1.714321371234693306e-06	-1.562180431547762892e-04	5.095989652059319287e-03	8.468441251479599252e-01	1.102473097026041016e+00	1.000028582614825412e+00	-9.933547338420780151e-03	3.301933482179147093e-05	2.210664891214753853e-05
3.074095025518872148e+00	1.714321453618304873e-06	-1.562189741961014073e-04	5.030810393897861520e-03	8.468391156151102717e-01	1.102348602116131060e+00	1.000028582848937475e+00	-9.933486816891039239e-03	3.302217348309438913e-05	2.239321693736439451e-05
3.094121703209549157e+00	1.714321530329235148e-06	-1.562198749377143503e-04	4.966952925807037976e-03	8.468342364106111742e-01	1.102234210256148872e+00	1.000028582997835258e+00	-9.933428266760272948e-03	3.302575732130651274e-05	2.268183923791767059e-05
3.114148380900225721e+00	1.714321601224233495e-06	-1.562207358465584283e-04	4.904382322267217785e-03	8.468296119763402130e-01	1.102129772554901077e+00	1.000028583112762659e+00	-9.933372288445836001e-03	3.303008015979809101e-05	2.297251968379873026e-05
3.134175058590902285e+00	1.714321667192555126e-06	-1.562215690242171569e-04	4.843064313382708028e-03	8.468250916828251595e-01	1.102035144867328675e+00	1.000028583147389627e+00	-9.933318113587297563e-03	3.303513274053589366e-05	2.326526220059319235e-05
3.154201736281578849e+00	1.714321728011664791e-06	-1.562223656987993096e-04	4.782966282901006914e-03	8.468208132656710463e-01	1.101950187223741384e+00	1.000028583153846462e+00	-9.933266295863711626e-03	3.304090968413148479e-05	2.356007076954742989e-05
3.174228413972255858e+00	1.714321784562324501e-06	-1.562231352236826592e-04	4.724056133100516634e-03	8.468166313788101363e-01	1.101874764098365489e+00	1.000028583084446643e+00	-9.933216243839795498e-03	3.304740210227875765e-05	2.385694942673125430e-05
3.194255091662932422e+00	1.714321836557507614e-06	-1.562238740997867314e-04	4.666303376300728542e-03	8.468126667670479168e-01	1.101808743842358718e+00	1.000028582992214643e+00	-9.933168165367579905e-03	3.305460535015048514e-05	2.415590226319844170e-05
3.214281769353608986e+00	1.714321884856765587e-06	-1.562245744192051274e-04	4.609677926318490188e-03	8.468088572618862608e-01	1.101751998974842550e+00	1.000028582828111690e+00	-9.933122581207431967e-03	3.306251091495718812e-05	2.445693342419737277e-05
3.234308447044285995e+00	1.714321929179985896e-06	-1.562252510149179604e-04	4.554151229647497405e-03	8.468052308339052425e-01	1.101704405616400928e+00	1.000028582646127484e+00	-9.933078533539552515e-03	3.307111461304961707e-05	2.476004710940790036e-05
3.254335124734962559e+00	1.714321970296625552e-06	-1.562258903548812284e-04	4.499695096346396743e-03	8.468017449143335762e-01	1.101665843802202005e+00	1.000028582395856125e+00	-9.933036883359650307e-03	3.308040853633292518e-05	2.506524757219537783e-05
3.274361802425639123e+00	1.714322007950569320e-06	-1.562265075554207657e-04	4.446282752518405414e-03	8.467984410296827136e-01	1.101636196915771970e+00	1.000028582132299393e+00	-9.932996670235848952e-03	3.309038886591645381e-05	2.537253911990757451e-05
3.294388480116315687e+00	1.714322042823102318e-06	-1.562270989337740355e-04	4.393887767315213071e-03	8.467952137806192825e-01	1.101615352022608629e+00	1.000028581803690031e+00	-9.932958130804678265e-03	3.310104829429010329e-05	2.568192611318892126e-05
3.314415157806992696e+00	1.714322074648940390e-06	-1.562276662775056275e-04	4.342485032078943763e-03	8.467921821092979640e-01	1.101603199302822134e+00	1.000028581466030131e+00	-9.932921143420835042e-03	3.311238347686167873e-05	2.599341296630865779e-05
3.334441835497669260e+00	1.714322104080345704e-06	-1.562282040127812601e-04	4.292049718008518998e-03	8.467892411407926812e-01	1.101599632404920426e+00	1.000028581066225941e+00	-9.932886067033042457e-03	3.312438746707716425e-05	2.630700414653432646e-05
3.354468513188345824e+00	1.714322130859003705e-06	-1.562287139917777924e-04	4.242558251823206825e-03	8.467865192434812505e-01	1.101604547876326334e+00	1.000028580661312061e+00	-9.932852779271422392e-03	3.313705730473978168e-05	2.662270417450686555e-05
3.374495190879022832e+00	1.714322155608081826e-06	-1.562291959512134780e-04	4.193987291244176061e-03	8.467838825295979088e-01	1.101617845535461049e+00	1.000028580196865580e+00	-9.932821300797757894e-03	3.315038638232458578e-05	2.694051762363655617e-05
3.394521868569699397e+00	1.714322178051434409e-06	-1.562296573106860761e-04	4.146314700955420346e-03	8.467814189225993937e-01	1.101639427901309087e+00	1.000028579730982470e+00	-9.932791149249841495e-03	3.316437220664492986e-05	2.726044912056489920e-05
3.414548546260375961e+00	1.714322198762177074e-06	-1.562300961505424027e-04	4.099518532352075528e-03	8.467790137870265799e-01	1.101669200581960828e+00	1.000028579207902002e+00	-9.932762460320810477e-03	3.317900859831872108e-05	2.758250334454616942e-05
3.434575223951052525e+00	1.714322217457733279e-06	-1.562305102131306014e-04	4.053577980714120205e-03	8.467768072117631828e-01	1.101707071702154872e+00	1.000028578686811054e+00	-9.932735367044247254e-03	3.319429347440519919e-05	2.790668502799413460e-05
3.454601901641729533e+00	1.714322234701005121e-06	-1.562309035303329494e-04	4.008472371545172136e-03	8.467746478331662496e-01	1.101752952307421207e+00	1.000028578110612187e+00	-9.932709609382292526e-03	3.321022089127596903e-05	2.823299895583800554e-05
3.474628579332406098e+00	1.714322250183933704e-06	-1.562312772724322571e-04	3.964182148998471669e-03	8.467726561141721842e-01	1.101806755791135517e+00	1.000028577539602059e+00	-9.932685124783336567e-03	3.322678925493241584e-05	2.856144996621430614e-05
3.494655257023082662e+00	1.714322264448681526e-06	-1.562316272851663852e-04	3.920687829965692484e-03	8.467707337152821090e-01	1.101868398312128905e+00	1.000028576915346523e+00	-9.932662166583878724e-03	3.324399289564060409e-05	2.889204294974242644e-05
3.514681934713759670e+00	1.714322277191279378e-06	-1.562319619717140128e-04	3.877971004723278214e-03	8.467689544337283492e-01	1.101937798219136511e+00	1.000028576299266447e+00	-9.932640198534899850e-03	3.326183055597533954e-05	2.922478285032437080e-05
3.534708612404436234e+00	1.714322288913089873e-06	-1.562322690733209611e-04	3.836013311696106522e-03	8.467672646750737941e-01	1.102014876483445205e+00	1.000028575631604300e+00	-9.932620012309973864e-03	3.328029692965111408e-05	2.955967466438069014e-05
3.554735290095112799e+00	1.714322299341283487e-06	-1.562325618859159598e-04	3.794797391820015596e-03	8.467657093220375408e-01	1.102099556120301971e+00	1.000028574974925810e+00	-9.932600745943197598e-03	3.329939093732624711e-05	2.989672344178931972e-05
3.574761967785789363e+00	1.714322308922986255e-06	-1.562328291400694462e-04	3.754305939174406529e-03	8.467642348391783980e-01	1.102191762635050365e+00	1.000028574268135406e+00	-9.932583123511478859e-03	3.331910771039449485e-05	3.023593428503680127e-05
3.594788645476466371e+00	1.714322317409433917e-06	-1.562330845987052450e-04	3.714522575993066227e-03	8.467628806619333925e-01	1.102291423440942664e+00	1.000028573574960111e+00	-9.932566276584762349e-03	3.333944635627042680e-05	3.057731235026386050e-05
3.614815323167142935e+00	1.714322325191843041e-06	-1.562333255927190795e-04	3.675430985544092012e-03	8.467615519905535848e-01	1.102398468320387570e+00	1.000028572832992069e+00	-9.932550353055524112e-03	3.336040247011304229e-05	3.092086284642961593e-05
3.634842000857819500e+00	1.714322332025295530e-06	-1.562335412432474114e-04	3.637015717727998514e-03	8.467604060751547923e-01	1.102512828835060299e+00	1.000028572107098501e+00	-9.932536065911741832e-03	3.338197545183013368e-05	3.126659103634064603e-05
3.654868678548496508e+00	1.714322338324016756e-06	-1.562337471874791317e-04	3.599261329389410145e-03	8.467592729684069175e-01	1.102634438805770278e+00	1.000028571333569039e+00	-9.932522417518883234e-03	3.340416088925264555e-05	3.161450223590616266e-05
3.674895356239173072e+00	1.714322343794618856e-06	-1.562339269200938279e-04	3.562153271610858998e-03	8.467583167311669712e-01	1.102763233711316904e+00	1.000028570578447296e+00	-9.932510441522513292e-03	3.342695878385177249e-05	3.196460181513447076e-05
3.694922033929849636e+00	1.714322348886930748e-06	-1.562340974555379925e-04	3.525676906579088433e-03	8.467573782320074738e-01	1.102899151188855953e+00	1.000028569776685305e+00	-9.932499071376794247e-03	3.345036461146855364e-05	3.231689519747771723e-05
3.714948711620526201e+00	1.714322353254219707e-06	-1.562342483828661364e-04	3.489818533420921149e-03	8.467565760197778291e-01	1.103042130421069578e+00	1.000028568995554812e+00	-9.932488959804534195e-03	3.347437901461058831e-05	3.267138786079175545e-05
3.734975389311203209e+00	1.714322357365506299e-06	-1.562343851128193152e-04	3.454564275736154207e-03	8.467558248127236009e-01	1.103192112653745172e+00	1.000028568168645160e+00	-9.932479764794954064e-03	3.349899743763479584e-05	3.302808533672288666e-05
3.755002067001879773e+00	1.714322360859312436e-06	-1.562345007509334169e-04	3.419901203659331951e-03	8.467552093157508786e-01	1.103349040574992168e+00	1.000028567364463550e+00	-9.932471930641888214e-03	3.352422093566915286e-05	3.338699321173142808e-05
3.775028744692556337e+00	1.714322364211123240e-06	-1.562346142701637013e-04	3.385816159883161224e-03	8.467545858215652643e-01	1.103512858846835254e+00	1.000028566515247519e+00	-9.932464241026705762e-03	3.355004498045355472e-05	3.374811712643361580e-05
3.795055422383233346e+00	1.714322367004423389e-06	-1.562347017562170151e-04	3.352296965062143315e-03	8.467541193284019441e-01	1.103683513477867972e+00	1.000028565690742388e+00	-9.932458222278636381e-03	3.357647131785415515e-05	3.411146277671051318e-05
3.815082100073909910e+00	1.714322369771747579e-06	-1.562347871544680943e-04	3.319331098044216426e-03	8.467536513931183118e-01	1.103860952367815562e+00	1.000028564821838994e+00	-9.932452345594901255e-03	3.360349507477998937e-05	3.447703591300420778e-05
3.835108777764586474e+00	1.714322372036343526e-06	-1.562348400218686287e-04	3.286907091348394930e-03	8.467533715496611268e-01	1.104045124673153744e+00	1.000028563979562968e+00	-9.932448556185092745e-03	3.363111876009723265e-05	3.484484234154409146e-05
3.855135455455263482e+00	1.714322374399284446e-06	-1.562348980868193712e-04	3.255013005719629808e-03	8.467530522576567353e-01	1.104235981365072838e+00	1.000028563093384726e+00	-9.932444447658877323e-03	3.365933701183779973e-05	3.521488792354434750e-05
3.875162133145940047e+00	1.714322376279281060e-06	-1.562349536475935872e-04	3.223638079411722014e-03	8.467527555872769174e-01	1.104433474586982378e+00	1.000028562235656837e+00	-9.932440422190087423e-03	3.368815348268992956e-05	3.558717857659477189e-05
3.895188810836616611e+00	1.714322378293888363e-06	-1.562349615908844962e-04	3.192770946531929381e-03	8.467527124875431355e-01	1.104637558229423666e+00	1.000028561334478594e+00	-9.932439987552143731e-03	3.371756262782298205e-05	3.596172027364460488e-05
3.915215488527293175e+00	1.714322380299078352e-06	-1.562348783127201566e-04	3.162401316646700627e-03	8.467531638056671195e-01	1.104848187173370189e+00	1.000028560463665173e+00	-9.932414565372239129e-03	3.374756720630210286e-05	3.633851904734866379e-05
3.935242166217970183e+00	1.714322380128531445e-06	-1.562347875168604750e-04	3.132518314502110053e-03	8.467536525861452112e-01	1.105065319097508159e+00	1.000028559551073393e+00	-9.932684731521300783e-03	3.377816093267295726e-05	3.671758095617471551e-05
3.955268843908646748e+00	1.714322385578765368e-06	-1.562350742045728088e-04	3.103112583365520705e-03	8.467520988325515363e-01	1.105288911887995607e+00	1.000028558686426150e+00	-9.932215843947813858e-03	3.380935107893158633e-05	3.709891233950386074e-05
3.975295521599323312e+00	1.714322401264025558e-06	-1.562356037867610240e-04	3.074174698813340791e-03	8.467492355025626471e-01	1.105518912870115722e+00	1.000028557855265454e+00	-9.930496287780244541e-03	3.384114131384725118e-05	3.748251911352656315e-05
3.995322199289999876e+00	1.714584732784533302e-06	-1.562467585319304852e-04	3.045531353289996409e-03	8.467602886668915696e-01	1.105725138389047624e+00	1.000000000000000000e+00	-1.000000000000000021e-02	3.387174561589884471e-05	3.787100112148618141e-05
