# Time=0.001400140014 and Columns are r	p	Paether	ur	alpha	a	b	K	Sr_tilde	tau_tilde
1.001333884533834630e-02	1.199612529225020305e-02	-1.852818519259958122e-02	1.850094898747610801e-05	6.444530753055669470e-01	1.000050347680647489e+00	1.000003024762065928e+00	-1.011256738215622793e-02	2.089919493303181125e-10	1.503603488159193957e-06
3.004001653601504063e-02	1.196759164141068810e-02	-1.850722020882024713e-02	5.549818720985156000e-05	6.446317598097510704e-01	1.000428771215588375e+00	1.000003026047613597e+00	-1.011212956207551902e-02	5.635552619351019870e-09	1.350535228704693128e-05
5.006669422669172975e-02	1.191070808495366118e-02	-1.846533046505188791e-02	9.248145086362907590e-05	6.449889100037454748e-01	1.001184757580183549e+00	1.000003028613688505e+00	-1.011123286144776853e-02	2.602366009632672033e-08	3.736476927627889835e-05
7.009337191736843276e-02	1.182584341612015130e-02	-1.840259863827188591e-02	1.294418731652127101e-04	6.455240758908495913e-01	1.002316578157975036e+00	1.000003032452898122e+00	-1.010988508694937726e-02	7.113454408237336676e-08	7.279534758657509258e-05
9.012004960804512188e-02	1.171354571546068951e-02	-1.831914879978887439e-02	1.663714675492646412e-04	6.462365813779494816e-01	1.003821622105922184e+00	1.000003037554742180e+00	-1.010809753442239514e-02	1.504127659898502522e-07	1.193714514252006798e-04
1.101467272987218110e-01	1.157453773656004145e-02	-1.821514743078254950e-02	2.032632955803110903e-04	6.471255177789696500e-01	1.005696375194213621e+00	1.000003043904707845e+00	-1.010587348681428813e-02	2.728654558423571249e-07	1.765332334600278248e-04
1.301734049893985001e-01	1.140971018157999409e-02	-1.809080431347254506e-02	2.401117905084266136e-04	6.481897370025738736e-01	1.007936392175646789e+00	1.000003051484759986e+00	-1.010322092737555091e-02	4.469473525578516026e-07	2.435931372729479563e-04
1.502000826800751754e-01	1.122011340120470345e-02	-1.794637354683684474e-02	2.769130169939957252e-04	6.494278445456133086e-01	1.010536263186409212e+00	1.000003060273422006e+00	-1.010014931799808717e-02	6.804530436857227311e-07	3.197439372214498535e-04
1.702267603707518784e-01	1.100694761724485896e-02	-1.778215469378708821e-02	3.136649215653494879e-04	6.508381900884236959e-01	1.013489574839169904e+00	1.000003070245876424e+00	-1.009667016894981277e-02	9.804177296655243823e-07	4.040682545279444511e-04
1.902534380614285814e-01	1.077155176902343421e-02	-1.759849397834556406e-02	3.503675518450622968e-04	6.524188581861910530e-01	1.016788866818831627e+00	1.000003081374071678e+00	-1.009279719166214853e-02	1.353027619605373950e-06	4.955494739179090074e-04
2.102801157521052566e-01	1.051539109830931622e-02	-1.739578551125991329e-02	3.870232673158157614e-04	6.541676569676269093e-01	1.020425584959486320e+00	1.000003093626823381e+00	-1.008854645228369692e-02	1.803540993819681741e-06	5.930839695470536445e-04
2.303067934427819596e-01	1.024004360159400627e-02	-1.717447245679014356e-02	4.236369166753950629e-04	6.560821074538439879e-01	1.024390031958122504e+00	1.000003106969952871e+00	-1.008393651504386167e-02	2.336220676001767554e-06	6.954945322477847514e-04
2.503334711334586626e-01	9.947185491861973775e-03	-1.693504810657089216e-02	4.602160144812768002e-04	6.581594313592264989e-01	1.028671317066918167e+00	1.000003121366390246e+00	-1.007898855133157467e-02	2.954278697782216656e-06	8.015448723139379427e-04
2.703601488241353379e-01	9.638575824302247907e-03	-1.667805677809654219e-02	4.967708867408764757e-04	6.603965399525727475e-01	1.033257306298073441e+00	1.000003136776356438e+00	-1.007372641320802842e-02	3.659833536293280696e-06	9.099550532374017352e-04
2.903868265148120131e-01	9.316040451526435423e-03	-1.640409448616302751e-02	5.333148285013939111e-04	6.627900221080236243e-01	1.038134574869601590e+00	1.000003153157450253e+00	-1.006817665490349241e-02	4.453880537496757565e-06	1.019417692225120433e-03
3.104135042054887439e-01	8.981455483519753050e-03	-1.611380931606717221e-02	5.698642369512252467e-04	6.653361341791497185e-01	1.043288363810090269e+00	1.000003170464850877e+00	-1.006236849709658647e-02	5.336275568868270121e-06	1.128614743280427447e-03
3.304401818961654191e-01	8.636730435621332858e-03	-1.580790144505555758e-02	6.064387737443411100e-04	6.680307895311515809e-01	1.048702542819320849e+00	1.000003188651431563e+00	-1.005633372021249618e-02	6.305732446598874102e-06	1.236234658584381375e-03
3.504668595868420944e-01	8.283791254030200071e-03	-1.548712274700169908e-02	6.430615131861262997e-04	6.708695509261172196e-01	1.054359581638208088e+00	1.000003207667953697e+00	-1.005010648659620566e-02	7.359833859923539858e-06	1.340989704441308784e-03
3.704935372775188251e-01	7.924563412483249733e-03	-1.515227593753805044e-02	6.797591407101458410e-04	6.738476231187787713e-01	1.060240532307220374e+00	1.000003227463196476e+00	-1.004372307739838550e-02	8.495056354503128311e-06	1.441633189886580525e-03
3.905202149681955004e-01	7.560955275585176487e-03	-1.480421320625202597e-02	7.165621507988172417e-04	6.769598492850715798e-01	1.066325024772286634e+00	1.000003247984174948e+00	-1.003722155190425042e-02	9.706808752099000738e-06	1.536976350043385130e-03
4.105468926588721756e-01	7.194841923587346789e-03	-1.444383431187390432e-02	7.535051195443865594e-04	6.802007082093407542e-01	1.072591278320290442e+00	1.000003269176260812e+00	-1.003064131391165348e-02	1.098948462103782637e-05	1.625904613437307742e-03
4.305735703495489064e-01	6.828049629975440835e-03	-1.407208409841466737e-02	7.906269930685762672e-04	6.835643163455493720e-01	1.079016131276104407e+00	1.000003290983430881e+00	-1.002402260803349904e-02	1.233652774557896451e-05	1.707392973787538954e-03
4.506002480402255816e-01	6.462341176862532351e-03	-1.368994944207130478e-02	8.279714777532220116e-04	6.870444310002126187e-01	1.085575091259191494e+00	1.000003313348395428e+00	-1.001740592170250257e-02	1.374051123134265338e-05	1.780520183407652193e-03
4.706269257309022569e-01	6.099402183730751395e-03	-1.329845559431955433e-02	8.655874655350865188e-04	6.906344594241747847e-01	1.092242408064496795e+00	1.000003336212864413e+00	-1.001083134027185885e-02	1.519322862639025343e-05	1.844481488358789634e-03
4.906536034215789877e-01	5.740828612427029999e-03	-1.289866197603110193e-02	9.035295908630510070e-04	6.943274691695079381e-01	1.098991170894368707e+00	1.000003359517683155e+00	-1.000433781540934798e-02	1.668579762712818525e-05	1.898599635930999863e-03
5.106802811122557184e-01	5.388115595473056026e-03	-1.249165739984134209e-02	9.418588451140764376e-04	6.981162049041073070e-01	1.105793431214911804e+00	1.000003383203127649e+00	-9.997962420199494119e-03	1.820877401328700919e-05	1.942333903732983060e-03
5.307069588029323937e-01	5.042647715748247925e-03	-1.207855481281114307e-02	9.806433557193786586e-04	7.019931067414656445e-01	1.112620351946451702e+00	1.000003407209048456e+00	-9.991739539274050244e-03	1.975227619533852171e-05	1.975286927255470032e-03
5.507336364936090689e-01	4.705690843617812980e-03	-1.166048555733192535e-02	1.019959249169672495e-03	7.059503351531739579e-01	1.119442383023585563e+00	1.000003431475179561e+00	-9.985700089565259854e-03	2.130611713441966218e-05	1.997209139485049169e-03
5.707603141842857442e-01	4.378385612871862897e-03	-1.123859328253711508e-02	1.059891716222904207e-03	7.099797968491587952e-01	1.126229462594821040e+00	1.000003455941286923e+00	-9.979870699899849942e-03	2.285994374260146109e-05	2.008000681810116414e-03
5.907869918749625304e-01	4.061742589828699901e-03	-1.081402750851978914e-02	1.100536193528025685e-03	7.140731775330850795e-01	1.132951242289685467e+00	1.000003480547510204e+00	-9.974272978812570231e-03	2.440337958002748118e-05	2.007710699384029213e-03
6.108136695656392057e-01	3.756639161140701896e-03	-1.038793702488623009e-02	1.141999791531963767e-03	7.182219742551254615e-01	1.139577334098261119e+00	1.000003505234486001e+00	-9.968922761444960756e-03	2.592617067092087957e-05	1.996533995063553245e-03
6.308403472563158809e-01	3.463818135887043823e-03	-9.961463117020268737e-03	1.184402881016409764e-03	7.224175344795471521e-01	1.146077575513051228e+00	1.000003529943715552e+00	-9.963829505727491570e-03	2.741832941085813955e-05	1.974805082220140902e-03
6.508670249469925562e-01	3.183888027167547027e-03	-9.535732841593180451e-03	1.227880980560310670e-03	7.266510932556775604e-01	1.152422308726393396e+00	1.000003554617659773e+00	-9.958995684103771895e-03	2.887027621951010419e-05	1.942989745819903883e-03
6.708937026376692314e-01	2.917324948478637429e-03	-9.111852336266598046e-03	1.272586859959583391e-03	7.309138159586520134e-01	1.158582668894980516e+00	1.000003579200103188e+00	-9.954416374541145279e-03	3.027297335654049003e-05	1.901674290427436556e-03
6.909203803283459067e-01	2.664476031502459319e-03	-8.690900396695349847e-03	1.318693016407055741e-03	7.351968378422816253e-01	1.164530875833117207e+00	1.000003603636231420e+00	-9.950078860924383220e-03	3.161805065502381685e-05	1.851552720167606771e-03
7.109470580190225819e-01	2.425564245495605894e-03	-8.273922303920225318e-03	1.366394447007437084e-03	7.394913073180602314e-01	1.170240523011566891e+00	1.000003627872970036e+00	-9.945962464664349564e-03	3.289791748816436130e-05	1.793412156007052633e-03
7.309737357096993682e-01	2.200694475038996421e-03	-7.861924120819530765e-03	1.415911892908025896e-03	7.437884247924729797e-01	1.175686857468818403e+00	1.000003651859014964e+00	-9.942038390186017441e-03	3.410586120920513874e-05	1.728116846926814948e-03
7.510004134003760434e-01	1.989860693317410407e-03	-7.455867434747617817e-03	1.467495494631826250e-03	7.480794829608536922e-01	1.180847044202419927e+00	1.000003675545130255e+00	-9.938269817349066476e-03	3.523612681844838805e-05	1.656591170897414719e-03
7.710270910910527187e-01	1.792954052942741803e-03	-7.056664733720480025e-03	1.521429058272819870e-03	7.523559016225837004e-01	1.185700408828703312e+00	1.000003698884130321e+00	-9.934612001530538500e-03	3.628397898710047708e-05	1.579802046834725493e-03
7.910537687817293939e-01	1.609771706142047037e-03	-6.665175376061720572e-03	1.578034897463980596e-03	7.566092617764925699e-01	1.190228652766807116e+00	1.000003721831135284e+00	-9.931012629502128722e-03	3.724574213837233538e-05	1.498741188437132917e-03
8.110804464724060692e-01	1.440026161143827949e-03	-6.282202302466569771e-03	1.637679482590904696e-03	7.608313331469525043e-01	1.194416035917053920e+00	1.000003744343462619e+00	-9.927412170789066959e-03	3.811882089836277087e-05	1.414407624386736229e-03
8.311071241630827444e-01	1.283354981927186484e-03	-5.908489420593920211e-03	1.700779898328623431e-03	7.650140994884189194e-01	1.198249522719010418e+00	1.000003766380843873e+00	-9.923744500468931889e-03	3.890169791394011266e-05	1.327790887195757965e-03
8.511338018537595307e-01	1.139330643959164668e-03	-5.544719768880041269e-03	1.767811380447561901e-03	7.691497764751316080e-01	1.201718888562500087e+00	1.000003787905229702e+00	-9.919937517566484661e-03	3.959391260085230111e-05	1.239855236289009403e-03
8.711604795444362059e-01	1.007470368818044358e-03	-5.191514352502700144e-03	1.839315979368107232e-03	7.732308264015246291e-01	1.204816784713496070e+00	1.000003808880965517e+00	-9.915914077720532765e-03	4.019601921320254794e-05	1.151525231897370695e-03
8.911871572351128812e-01	8.872457751015493978e-04	-4.849431717846577720e-03	1.915912665238906363e-03	7.772499652149145177e-01	1.207538761162059826e+00	1.000003829274504819e+00	-9.911592954260936214e-03	4.070952884221296086e-05	1.063672917852694988e-03
9.112138349257895564e-01	7.780922010936689283e-04	-4.518968113830835326e-03	1.998308972343357161e-03	7.812001664309478066e-01	1.209883248017246338e+00	1.000003849054565963e+00	-9.906890213441198537e-03	4.113683495733466380e-05	9.771068067824914462e-04
9.312405126164662317e-01	6.794175754728162949e-04	-4.200558273073350460e-03	2.087314532916057473e-03	7.850746574413688395e-01	1.211851497222444785e+00	1.000003868191760237e+00	-9.901720711690197366e-03	4.148112769036801575e-05	8.925627940956171267e-04
9.512671903071429069e-01	5.906107350616700453e-04	-3.894576616634537990e-03	2.183856631749787544e-03	7.888669140445432326e-01	1.213447487365840738e+00	1.000003886658751284e+00	-9.896000185534867266e-03	4.174629732282702669e-05	8.106970611232208312e-04
9.712938679978196932e-01	5.110491123377796686e-04	-3.601338885640506613e-03	2.288998123616498535e-03	7.925706485175775251e-01	1.214677795192159682e+00	1.000003904429838997e+00	-9.889647644959483064e-03	4.193683218495762875e-05	7.320809661560180072e-04
9.913205456884963684e-01	4.401057393253684927e-04	-3.321103970848296449e-03	2.403957807358602251e-03	7.961797975302105090e-01	1.215551438025789466e+00	1.000003921481154467e+00	-9.882588612611518247e-03	4.205771180948819046e-05	6.571978677693680708e-04
1.011347223379172933e+00	3.771555377543498420e-04	-3.054075911412305281e-03	2.530133463927991891e-03	7.996885069781947131e-01	1.216079691699316401e+00	1.000003937790238329e+00	-9.874758933057919963e-03	4.211429999468532662e-05	5.864417799670912845e-04
1.031373901069849497e+00	3.215808873130331829e-04	-2.800405820003017045e-03	2.669127417089408889e-03	8.030911189386337190e-01	1.216275888714630993e+00	1.000003953336336071e+00	-9.866109710798367724e-03	4.211223856565232611e-05	5.201177247771170738e-04
1.051400578760526283e+00	2.727764837739775480e-04	-2.560193681994689125e-03	2.822774378836763291e-03	8.063821602549318124e-01	1.216155201285336496e+00	1.000003968100036333e+00	-9.856613065934322418e-03	4.205734552965500545e-05	4.584436256154855792e-04
1.071427256451203069e+00	2.301535161921602272e-04	-2.333489790207928394e-03	2.993170740479845267e-03	8.095563377355500245e-01	1.215734413614914411e+00	1.000003982063728758e+00	-9.846269172299946387e-03	4.195551806267033905e-05	4.015535737631031866e-04
1.091453934141879634e+00	1.931432067173963240e-04	-2.120295765563083752e-03	3.182703947771224617e-03	8.126085404454929106e-01	1.215031687321973530e+00	1.000003995211390606e+00	-9.835114073646211361e-03	4.181264288071135840e-05	3.495022995230933011e-04
1.111480611832556420e+00	1.611997673501987087e-04	-1.920564961300344920e-03	3.394079466041340434e-03	8.155338539835980116e-01	1.214066323348889531e+00	1.000004007529270433e+00	-9.823228425415608811e-03	4.163451398589640765e-05	3.022706870363070140e-04
1.131507289523232984e+00	1.338028346972010643e-04	-1.734202243521915533e-03	3.630341538907924399e-03	8.183275904675300083e-01	1.212858523072409378e+00	1.000004019005888756e+00	-9.810746216924012136e-03	4.142675925173820787e-05	2.597721844544734703e-04
1.151533967213909770e+00	1.104594459972726495e-04	-1.561063046367152426e-03	3.894881879964625249e-03	8.209853342801609610e-01	1.211429150705986002e+00	1.000004029633024816e+00	-9.797862957522260330e-03	4.119477547964300342e-05	2.218599756021805624e-04
1.171560644904586557e+00	9.070561699183546389e-05	-1.400951803301925301e-03	4.191427963885207067e-03	8.235030118617280293e-01	1.209799498547739161e+00	1.000004039405925083e+00	-9.784841672746581384e-03	4.094367257251052019e-05	1.883347912376371399e-04
1.191587322595263121e+00	7.410757442378762983e-05	-1.253619829786686716e-03	4.523999342789359300e-03	8.258769801680004852e-01	1.207991056220450110e+00	1.000004048324546924e+00	-9.772015367187091711e-03	4.067822631876818898e-05	1.589532432448445217e-04
1.211614000285939907e+00	6.026268325616472685e-05	-1.118762951056372036e-03	4.896816929540114167e-03	8.281041434442710791e-01	1.206025284873477155e+00	1.000004056393911434e+00	-9.759783700070518223e-03	4.040283997351254273e-05	1.334365597150267285e-04
1.231640677976616471e+00	4.880009193590115982e-05	-9.960191972416634378e-04	5.314146752051031319e-03	8.301820835088061790e-01	1.203923397383452443e+00	1.000004063625397954e+00	-9.748602214888825793e-03	4.012151422226527085e-05	1.114795804632832417e-04
1.251667355667293258e+00	3.938109986631236449e-05	-8.849670780350695756e-04	5.780057601123024524e-03	8.321092152906828243e-01	1.201706145964545058e+00	1.000004070036952131e+00	-9.738962477644502388e-03	3.983782553493544674e-05	9.275984112062250406e-05
1.271694033357969822e+00	3.169923236013536704e-05	-7.851249797748458903e-04	6.298072932733159851e-03	8.338849373968509893e-01	1.199393619218184215e+00	1.000004075654117086e+00	-9.731362903242328499e-03	3.955491261219963139e-05	7.694653315016986429e-05
1.291720711048646608e+00	2.547999322354675773e-05	-6.959522957154883451e-04	6.870704084197615073e-03	8.355097943944577166e-01	1.197005051485311222e+00	1.000004080509659943e+00	-9.726271527134594530e-03	3.927547077267080493e-05	6.370908468250597147e-05
1.311747388739323394e+00	2.048025761260129535e-05	-6.168528250140083722e-04	7.498867303813839744e-03	8.369856004967366481e-01	1.194558648226450526e+00	1.000004084643945745e+00	-9.724084116266656919e-03	3.900175388274355269e-05	5.272507433768867485e-05
1.331774066429999959e+00	1.648727116980304273e-05	-5.471808286430285186e-04	8.181213889607772544e-03	8.383155507446135024e-01	1.192071431902158585e+00	1.000004088103661593e+00	-9.725082995239955896e-03	3.873558344706944692e-05	4.368718029181858757e-05
1.351800744120676745e+00	1.331723724394610684e-05	-4.862498712145198101e-04	8.913440900836119146e-03	8.395042553154323794e-01	1.189559113187834249e+00	1.000004090941374990e+00	-9.729402942108139607e-03	3.847836442169520602e-05	3.630889115223669898e-05
1.371827421811353309e+00	1.081350106065414399e-05	-4.333442322245512242e-04	9.687694474708496636e-03	8.405577385382665412e-01	1.187035992184366062e+00	1.000004093213438638e+00	-9.737010433702465370e-03	3.823110765163658135e-05	3.032876929560683997e-05
1.391854099502030095e+00	8.844373819542441145e-06	-3.877323313959172798e-04	1.049221629830030846e-02	8.414833320635942693e-01	1.184514893404308378e+00	1.000004094978999003e+00	-9.747699994469331830e-03	3.799445920752142345e-05	2.551315759883084072e-05
1.411880777192706660e+00	7.300674204303969059e-06	-3.486812678673950855e-04	1.131139693648787990e-02	8.422895346185219623e-01	1.182007136785167223e+00	1.000004096297595568e+00	-9.761108805510983547e-03	3.776873738412329310e-05	2.165734331675395519e-05
1.431907454883383446e+00	6.093092308583595321e-06	-3.154714320471926751e-04	1.212636656070233132e-02	8.429857528632338504e-01	1.179522544912513737e+00	1.000004097228204492e+00	-9.776746171639399963e-03	3.755397775886105635e-05	1.858531722765950799e-05
1.451934132574060232e+00	5.149495495619965289e-06	-2.874100516638018049e-04	1.291616333062402602e-02	8.435820542424276036e-01	1.177069484378033604e+00	1.000004097827024596e+00	-9.794033770562659419e-03	3.734998568021934129e-05	1.614836942449266347e-05
1.471960810264736796e+00	4.412294415988837962e-06	-2.638427748333152111e-04	1.365938362867458351e-02	8.440888094039045164e-01	1.174654937054188775e+00	1.000004098146969778e+00	-9.812349882449009422e-03	3.715639311533774192e-05	1.422282772421858680e-05
1.491987487955413583e+00	3.835971390537612629e-06	-2.441625683178728218e-04	1.433607607026110044e-02	8.445164159006557369e-01	1.172284595432362186e+00	1.000004098235878880e+00	-9.831074460355283817e-03	3.697271512040740748e-05	1.270726312175905823e-05
1.512014165646090147e+00	3.384846970007824995e-06	-2.278156899802922749e-04	1.492954733805563344e-02	8.448749519241972594e-01	1.169962975212702760e+00	1.000004098136547892e+00	-9.849629653511821417e-03	3.679839993295356437e-05	1.151946281920736924e-05
1.532040843336766933e+00	3.031129661831779577e-06	-2.143047104932186342e-04	1.542774767239285701e-02	8.451739665784414601e-01	1.167693538176600931e+00	1.000004097885490717e+00	-9.867514689520020046e-03	3.663286874978377187e-05	1.059341739351320876e-05
1.552067521027443719e+00	2.753264297646815053e-06	-2.031889757097216293e-04	1.582400352446580380e-02	8.454222400477852117e-01	1.165478818872839994e+00	1.000004097513647716e+00	-9.884329949639442461e-03	3.647554329117016852e-05	9.876500335364088914e-06
1.572094198718120284e+00	2.534570401423075953e-06	-1.940829336380786758e-04	1.611702868604412628e-02	8.456277039276841601e-01	1.163320549666118087e+00	1.000004097045812612e+00	-9.899790212267703740e-03	3.632586314279221394e-05	9.326949727670646043e-06
1.592120876408797070e+00	2.362145183220543565e-06	-1.866529551782972304e-04	1.631030953143176171e-02	8.457973413387197548e-01	1.161219779942053831e+00	1.000004096502007167e+00	-9.913723991280294981e-03	3.618329528458189714e-05	8.911703011753416924e-06
1.612147554099473634e+00	2.225996449995513254e-06	-1.806131214750102945e-04	1.641107222893356879e-02	8.459372338646390377e-01	1.159176986571102352e+00	1.000004095897379264e+00	-9.926063041671680590e-03	3.604733953490996926e-05	8.604591303185293605e-06
1.632174231790150420e+00	2.118367576041070117e-06	-1.757205098422174943e-04	1.642907411189362121e-02	8.460525566811786247e-01	1.157192173894836307e+00	1.000004095243901547e+00	-9.936822944876584629e-03	3.591753116694113511e-05	8.384870157831084191e-06
1.652200909480826985e+00	2.033217908594544733e-06	-1.717702742812921403e-04	1.637543062604527103e-02	8.461477069838632126e-01	1.155264962474300550e+00	1.000004094550297040e+00	-9.946081909115674080e-03	3.579344256091127914e-05	8.236047116387691032e-06
1.672227587171503771e+00	1.965825850994914155e-06	-1.685908556004674661e-04	1.626161975385376560e-02	8.462263323115998270e-01	1.153394666552582493e+00	1.000004093823644968e+00	-9.953958453807998721e-03	3.567468318799723399e-05	8.144959730471905114e-06
1.692254264862180557e+00	1.912486901477946099e-06	-1.660394252363080398e-04	1.609873183916085693e-02	8.462914849726776989e-01	1.151580360699534511e+00	1.000004093069051025e+00	-9.960593716802848205e-03	3.556089912544046095e-05	8.101057924929441287e-06
1.712280942552857121e+00	1.870284155001167344e-06	-1.639977357540592492e-04	1.589697096208656651e-02	8.463456525432975219e-01	1.149820936408973093e+00	1.000004092291012725e+00	-9.966136291637983299e-03	3.545177096418494550e-05	8.095848725899098465e-06
1.732307620243533908e+00	1.836913571235256981e-06	-1.623683646468631345e-04	1.566537691135122187e-02	8.463908922091567533e-01	1.148115149604999274e+00	1.000004091492785463e+00	-9.970732740781803466e-03	3.534701172322543696e-05	8.122467472429729785e-06
1.752334297934210472e+00	1.810550424252576357e-06	-1.610714210425207439e-04	1.541171804227277342e-02	8.464288710776731728e-01	1.146461660068576860e+00	1.000004090677569568e+00	-9.974520556028721938e-03	3.524636352503115718e-05	8.175346185987125876e-06
1.772360975624887258e+00	1.789746669207111185e-06	-1.600416610710332361e-04	1.514250452145988676e-02	8.464609408801676560e-01	1.144859063809820166e+00	1.000004089847684074e+00	-9.977624764119901943e-03	3.514959495139740469e-05	8.249955927376084852e-06
1.792387653315563822e+00	1.773351573274962799e-06	-1.592260125740652935e-04	1.486307628464010773e-02	8.464882044970291064e-01	1.143305919347163746e+00	1.000004089005634755e+00	-9.980156279508475836e-03	3.505649754637679065e-05	8.342605290200839021e-06
1.812414331006240609e+00	1.760449927089622721e-06	-1.585814626156250120e-04	1.457773155644700655e-02	8.465115350609705436e-01	1.141800768800468102e+00	1.000004088153191750e+00	-9.982211547287600170e-03	3.496688342839807264e-05	8.450281525660174105e-06
1.832441008696917395e+00	1.750313638510430441e-06	-1.580732671761392338e-04	1.428987025806909006e-02	8.465316586356208539e-01	1.140342154597373536e+00	1.000004087292433397e+00	-9.983873504870531546e-03	3.488058222863211924e-05	8.570524200658682519e-06
1.852467686387593959e+00	1.742363586562532663e-06	-1.576734571159137989e-04	1.400213698176789277e-02	8.465491325799066047e-01	1.138928632522168805e+00	1.000004086424753913e+00	-9.985212265357507055e-03	3.479743927086603896e-05	8.701323883772236068e-06
1.872494364078270745e+00	1.736139415679032567e-06	-1.573595806108371413e-04	1.371655326354639590e-02	8.465644313043267921e-01	1.137558781722374679e+00	1.000004085551915001e+00	-9.986286970115675760e-03	3.471731310851283118e-05	8.841040282740681970e-06
1.892521041768947310e+00	1.731275518584848691e-06	-1.571136728346453511e-04	1.343463523435147952e-02	8.465779140078949494e-01	1.136231212226660681e+00	1.000004084675008897e+00	-9.987146711372071189e-03	3.464007426901835807e-05	8.988335672007555322e-06
1.912547719459624096e+00	1.727481886059799381e-06	-1.569213952036752568e-04	1.315749428734024583e-02	8.465898863236510641e-01	1.134944570422353971e+00	1.000004083795546395e+00	-9.987832299982348297e-03	3.456560332566735775e-05	9.142120476876354105e-06
1.932574397150300882e+00	1.724528802599597093e-06	-1.567713376829537773e-04	1.288592181973892761e-02	8.466005807661487470e-01	1.133697542896811905e+00	1.000004082914374370e+00	-9.988377201536004571e-03	3.449379010702535486e-05	9.301508626491010136e-06
1.952601074840977446e+00	1.722234603838232757e-06	-1.566544411960534542e-04	1.262045865602612164e-02	8.466101986634015919e-01	1.132488858955332134e+00	1.000004082032788455e+00	-9.988808962989061818e-03	3.442453217013742610e-05	9.465780829736944801e-06
1.972627752531654233e+00	1.720455875320783878e-06	-1.565635347064492009e-04	1.236145169886766759e-02	8.466188898852782252e-01	1.131317292102553163e+00	1.000004081151425694e+00	-9.989149906830242093e-03	3.435773436340012392e-05	9.634354325871628079e-06
1.992654430222330797e+00	1.719079609656391476e-06	-1.564929521572486811e-04	1.210909902950315503e-02	8.466267891562202497e-01	1.130181660696729873e+00	1.000004080271406748e+00	-9.989418312330220623e-03	3.429330758891026645e-05	9.806757956833273975e-06
2.012681107913007583e+00	1.718016931774975866e-06	-1.564382307592223405e-04	1.186348602755287786e-02	8.466339977544290463e-01	1.129080827976729706e+00	1.000004079393184808e+00	-9.989628840010783550e-03	3.423116861600662616e-05	9.982611631517750039e-06
2.032707785603684147e+00	1.717198086621698774e-06	-1.563958604605454898e-04	1.162461349535870263e-02	8.466406067106962974e-01	1.128013701596013663e+00	1.000004078517730655e+00	-9.989793449220858712e-03	3.417123904818135068e-05	1.016160942376762639e-05
2.052734463294360712e+00	1.716568437997217573e-06	-1.563630903541765810e-04	1.139241993258975280e-02	8.466466852619670691e-01	1.126979232800989994e+00	1.000004077645351153e+00	-9.989921612671631007e-03	3.411344531518007957e-05	1.034350568070500120e-05
2.072761140985037720e+00	1.716085282190406807e-06	-1.563377653834104497e-04	1.116679851933150697e-02	8.466522996981820093e-01	1.125976415335129488e+00	1.000004076776901840e+00	-9.990021095036247939e-03	3.405771778255745394e-05	1.052810362533823292e-05
2.092787818675714284e+00	1.715715312526450883e-06	-1.563182058915244682e-04	1.094761049244369171e-02	8.466574962594795029e-01	1.125004284162869794e+00	1.000004075912547918e+00	-9.990097900227506988e-03	3.400399086439455550e-05	1.071524602474348868e-05
2.112814496366390848e+00	1.715432608104103989e-06	-1.563030995885795950e-04	1.073469510137891464e-02	8.466623276048452773e-01	1.124061914058859024e+00	1.000004075053054109e+00	-9.990157067606732222e-03	3.395220224290027938e-05	1.090480756652230666e-05
2.132841174057067857e+00	1.715217039368034527e-06	-1.562914304352473933e-04	1.052787744247448559e-02	8.466668232664847915e-01	1.123148418126709069e+00	1.000004074198476367e+00	-9.990202327700132764e-03	3.390229304861623849e-05	1.109668864573343502e-05
2.152867851747744421e+00	1.715053008903497753e-06	-1.562824062967964648e-04	1.032697410901478249e-02	8.466710254059164331e-01	1.122262946269030115e+00	1.000004073349495259e+00	-9.990236904873149928e-03	3.385420717997404141e-05	1.129081031387054658e-05
2.172894529438420985e+00	1.714928457203081952e-06	-1.562754172283971940e-04	1.013179765239830173e-02	8.466749580802184205e-01	1.121404683653488110e+00	1.000004072506078368e+00	-9.990263129335565789e-03	3.380789151195412050e-05	1.148711018308179700e-05
2.192921207129097994e+00	1.714834081214509338e-06	-1.562699895113262884e-04	9.942159650415144378e-03	8.466786502706223905e-01	1.120572849180637043e+00	1.000004071668843864e+00	-9.990283010533838534e-03	3.376329529482081731e-05	1.168553911355759933e-05
2.212947884819774558e+00	1.714762719828935083e-06	-1.562657598245055827e-04	9.757873160585033359e-03	8.466821247676726836e-01	1.119766693986131711e+00	1.000004070837676284e+00	-9.990297997267059277e-03	3.372037038716489037e-05	1.188605854138347793e-05
2.232974562510451122e+00	1.714708873364777460e-06	-1.562624468790849001e-04	9.578754267228577896e-03	8.466854007791702053e-01	1.118985499972253939e+00	1.000004070013145396e+00	-9.990309344559878194e-03	3.367907070174734087e-05	1.208863832865099298e-05
2.253001240201127686e+00	1.714668327169278747e-06	-1.562598365606640127e-04	9.404623364532582047e-03	8.466884975567111615e-01	1.118228578394670159e+00	1.000004069195065126e+00	-9.990317901883035562e-03	3.363935246555910697e-05	1.229325503834534407e-05
2.273027917891804695e+00	1.714637858929242543e-06	-1.562577628258702655e-04	9.235305827494492276e-03	8.466914294390401885e-01	1.117495268491607519e+00	1.000004068383971489e+00	-9.990324460377572949e-03	3.360117369862692586e-05	1.249989055360991401e-05
2.293054595582481259e+00	1.714615010216310921e-06	-1.562561000014095946e-04	9.070632624456518092e-03	8.466942147863060208e-01	1.116784936177696697e+00	1.000004067579620015e+00	-9.990329536674506100e-03	3.356449448890208814e-05	1.270853097558253906e-05
2.313081273273157823e+00	1.714597909923050977e-06	-1.562547512497304049e-04	8.910440497484836686e-03	8.466968612648169135e-01	1.116096972785288965e+00	1.000004066782512968e+00	-9.990333588979148985e-03	3.352927649743404247e-05	1.291916574575671176e-05
2.333107950963834831e+00	1.714585136840837048e-06	-1.562536433487377778e-04	8.754572204078214792e-03	8.466993853663545844e-01	1.115430793872757675e+00	1.000004065992355473e+00	-9.990336920849588256e-03	3.349548325398151962e-05	1.313178694895242574e-05
2.353134628654511395e+00	1.714575614213961068e-06	-1.562527197863232983e-04	8.602876429145823664e-03	8.467017932060240115e-01	1.114785838080469604e+00	1.000004065209628257e+00	-9.990339816772508125e-03	3.346307966899476417e-05	1.334638876102442591e-05
2.373161306345187960e+00	1.714568527796477505e-06	-1.562519381121237007e-04	8.455207830398501004e-03	8.467040991854373200e-01	1.114161566052364494e+00	1.000004064433992257e+00	-9.990342450909357741e-03	3.343203235258025133e-05	1.356296701234875626e-05
2.393187984035864524e+00	1.714563263528360623e-06	-1.562512662906499772e-04	8.311426812765688316e-03	8.467063036881573579e-01	1.113557459402368499e+00	1.000004063665916432e+00	-9.990344944514572417e-03	3.340230912996818144e-05	1.378151884357310837e-05
2.413214661726541532e+00	1.714559359073777760e-06	-1.562506792771924948e-04	8.171399478170611810e-03	8.467084218942236840e-01	1.112973019743205283e+00	1.000004062905014202e+00	-9.990347426311768989e-03	3.337387938878199532e-05	1.400204243476502441e-05
2.433241339417218096e+00	1.714556467406719616e-06	-1.562501590085432334e-04	8.034997331449777666e-03	8.467104523407298355e-01	1.112407767755984933e+00	1.000004062151749196e+00	-9.990349935443544604e-03	3.334671357539163521e-05	1.422453679272059420e-05
2.453268017107894661e+00	1.714554328344822229e-06	-1.562496911491127011e-04	7.902097194675808747e-03	8.467124047566046974e-01	1.111861242317679910e+00	1.000004061405704858e+00	-9.990352531650698378e-03	3.332078358801884534e-05	1.444900158430766851e-05
2.473294694798571669e+00	1.714552747548141989e-06	-1.562492649403368010e-04	7.772580883835958701e-03	8.467142835001940648e-01	1.111332999665021637e+00	1.000004060667330830e+00	-9.990355253525470824e-03	3.329606224412261760e-05	1.467543700607884173e-05
2.493321372489248233e+00	1.714551579893309184e-06	-1.562488727334785559e-04	7.646335116008548885e-03	8.467160909202009478e-01	1.110822612611739535e+00	1.000004059936179246e+00	-9.990358086576996838e-03	3.327252371183385106e-05	1.490384368245977731e-05
2.513348050179924797e+00	1.714550717534336458e-06	-1.562485076383859158e-04	7.523251182981102389e-03	8.467178344915057275e-01	1.110329669797436081e+00	1.000004059212700858e+00	-9.990361088884224319e-03	3.325014296358364766e-05	1.513422258630357519e-05
2.533374727870601362e+00	1.714550080231895422e-06	-1.562481657748787136e-04	7.403224861718714529e-03	8.467195135430505282e-01	1.109853774985256170e+00	1.000004058496422710e+00	-9.990364207275014702e-03	3.322889622355841408e-05	1.536657497702291451e-05
2.553401405561278370e+00	1.714549608683266556e-06	-1.562478433603564686e-04	7.286156100736834902e-03	8.467211326698169671e-01	1.109394546387199254e+00	1.000004057787789780e+00	-9.990367453397057743e-03	3.320876042683566049e-05	1.560090235238580493e-05
2.573428083251954934e+00	1.714549258896593075e-06	-1.562475376127278105e-04	7.171948939527815828e-03	8.467226939739826985e-01	1.108951616033563514e+00	1.000004057086305354e+00	-9.990370819391913848e-03	3.318971367392411972e-05	1.583720641099771749e-05
2.593454760942631498e+00	1.714548998565651278e-06	-1.562472463701482781e-04	7.060511209430768084e-03	8.467242011061036910e-01	1.108524629166264486e+00	1.000004056392417517e+00	-9.990374300551951164e-03	3.317173468039855355e-05	1.607548902307580878e-05
2.613481438633308507e+00	1.714548803762118062e-06	-1.562469686881649952e-04	6.951754470206183978e-03	8.467256529267939147e-01	1.108113243672302684e+00	1.000004055705606243e+00	-9.990377837921985207e-03	3.315480326038512909e-05	1.631575220766968593e-05
2.633508116323985071e+00	1.714548657048498627e-06	-1.562467023013416694e-04	6.845593726105401143e-03	8.467270565252520420e-01	1.107717129537473699e+00	1.000004055026324057e+00	-9.990381483521432529e-03	3.313889976187663837e-05	1.655799811485074321e-05
2.653534794014661635e+00	1.714548545505056815e-06	-1.562464476792178826e-04	6.741947375664236568e-03	8.467284062109056153e-01	1.107335968336961018e+00	1.000004054354029837e+00	-9.990385126697519727e-03	3.312400555723296765e-05	1.680222901179033863e-05
2.673561471705338199e+00	1.714548459805045080e-06	-1.562462021286856368e-04	6.640736949684314210e-03	8.467297132109091740e-01	1.106969452742396554e+00	1.000004053689183214e+00	-9.990388876076828489e-03	3.311010249531225896e-05	1.704844727178664136e-05
2.693588149396015208e+00	1.714548393017157451e-06	-1.562459676221559634e-04	6.541887067253514959e-03	8.467309666979176974e-01	1.106617286063541261e+00	1.000004053031221751e+00	-9.990392547996012132e-03	3.309717336653646391e-05	1.729665536561512433e-05
2.713614827086691772e+00	1.714548340192192700e-06	-1.562457406990141193e-04	6.445325201949094612e-03	8.467321813511493600e-01	1.106279181802597433e+00	1.000004052380611297e+00	-9.990396317521079220e-03	3.308520140828262235e-05	1.754685585464954873e-05
2.733641504777368336e+00	1.714548297633623023e-06	-1.562455237759696237e-04	6.350981634540396256e-03	8.467333457979362432e-01	1.105954863241242592e+00	1.000004051736775645e+00	-9.990399986955007805e-03	3.307417069918365852e-05	1.779905138534403907e-05
2.753668182468045345e+00	1.714548262731110988e-06	-1.562453141650473358e-04	6.258789253432690478e-03	8.467344716242722891e-01	1.105644063037172886e+00	1.000004051100184421e+00	-9.990403692644733366e-03	3.306406575731818382e-05	1.805324468479068334e-05
2.773694860158721909e+00	1.714548233517915973e-06	-1.562451135482223442e-04	6.168683500706578088e-03	8.467355511497213216e-01	1.105346522851257784e+00	1.000004050470243433e+00	-9.990407293157692326e-03	3.305487184830693386e-05	1.830943855708344078e-05
2.793721537849398473e+00	1.714548208624995987e-06	-1.562449197385933270e-04	6.080602201913155522e-03	8.467365943539763018e-01	1.105061992981894115e+00	1.000004049847440513e+00	-9.990410899747077106e-03	3.304657466273506312e-05	1.856763588032667904e-05
2.813748215540075037e+00	1.714548187003610741e-06	-1.562447344330671409e-04	5.994485509467135931e-03	8.467375931257112853e-01	1.104790232027925034e+00	1.000004049231153713e+00	-9.990414376302563307e-03	3.303916055995948604e-05	1.882783960413031819e-05
2.833774893230752046e+00	1.714548167934815397e-06	-1.562445552177438952e-04	5.910275757377279372e-03	8.467385589951164082e-01	1.104531006556412676e+00	1.000004048621883745e+00	-9.990417853448989999e-03	3.303261631286230176e-05	1.909005274750956167e-05
2.853801570921428610e+00	1.714548150858059433e-06	-1.562443841360136782e-04	5.827917400919407215e-03	8.467394815565534305e-01	1.104284090797740037e+00	1.000004048018998670e+00	-9.990421177416055135e-03	3.302692928343879962e-05	1.935427839706998251e-05
2.873828248612105174e+00	1.714548135388505500e-06	-1.562442185309372055e-04	5.747356897002028550e-03	8.467403743908248348e-01	1.104049266343193114e+00	1.000004047423008746e+00	-9.990424497862452138e-03	3.302208724926000520e-05	1.962051970545758861e-05
2.893854926302782182e+00	1.714548121226022930e-06	-1.562440607734943542e-04	5.668542636487433443e-03	8.467412254365449531e-01	1.103826321868713656e+00	1.000004046833264049e+00	-9.990427643574608177e-03	3.301807849229550966e-05	1.988877988998408484e-05
2.913881603993458747e+00	1.714548108153865735e-06	-1.562439079970148715e-04	5.591424851533958150e-03	8.467420499804163558e-01	1.103615052859305834e+00	1.000004046250287493e+00	-9.990430780249383996e-03	3.301489172541629890e-05	2.015906223143424387e-05
2.933908281684135311e+00	1.714548096013355842e-06	-1.562437626867714058e-04	5.515955537139196306e-03	8.467428342389066165e-01	1.103415261358330346e+00	1.000004045673411390e+00	-9.990433732166100270e-03	3.301251607515141249e-05	2.043137007297531060e-05
2.953934959374811875e+00	1.714548084669630574e-06	-1.562436213699253498e-04	5.442088386319557380e-03	8.467435968801443336e-01	1.103226755715984719e+00	1.000004045103176642e+00	-9.990436705827974301e-03	3.301094112426881168e-05	2.070570681921396993e-05
2.973961637065488883e+00	1.714548074045461488e-06	-1.562434877834954273e-04	5.369778698023623675e-03	8.467443180831937255e-01	1.103049350361381631e+00	1.000004044538896686e+00	-9.990439447838251122e-03	3.301015677053918814e-05	2.098207593529623864e-05
2.993988314756165448e+00	1.714548064037888765e-06	-1.562433575751684509e-04	5.298983344437859476e-03	8.467450212856405534e-01	1.102882865572780480e+00	1.000004043981131296e+00	-9.990442222549449774e-03	3.301015342301861740e-05	2.126048094615352822e-05
3.014014992446842012e+00	1.714548054622336168e-06	-1.562432347837079119e-04	5.229660656147012282e-03	8.467456845749666838e-01	1.102727127270125118e+00	1.000004043429175482e+00	-9.990444759332845967e-03	3.301092167906642574e-05	2.154092543573192617e-05
3.034041670137519020e+00	1.714548045704942283e-06	-1.562431148824153769e-04	5.161770427641635198e-03	8.467463315483990671e-01	1.102581966804661473e+00	1.000004042883601230e+00	-9.990447335074417387e-03	3.301245272411737876e-05	2.182341304638405345e-05
3.054068347828195584e+00	1.714548037297283719e-06	-1.562430018561874871e-04	5.095273775610678103e-03	8.467469421547229036e-01	1.102447220770129688e+00	1.000004042343690225e+00	-9.990449684243663669e-03	3.301473779605929265e-05	2.210794747821123835e-05
3.074095025518872148e+00	1.714548029303032503e-06	-1.562428917480512824e-04	5.030133183565871705e-03	8.467475360841943965e-01	1.102322730809627505e+00	1.000004041810033550e+00	-9.990452048589323897e-03	3.301776880896952957e-05	2.239453248855557458e-05
3.094121703209549157e+00	1.714548021759679159e-06	-1.562427873254821394e-04	4.966312332912560003e-03	8.467481002787301536e-01	1.102208343443720429e+00	1.000004041281892464e+00	-9.990454241747994193e-03	3.302153759570752135e-05	2.268317189144684602e-05
3.114148380900225721e+00	1.714548014568263769e-06	-1.562426858159208034e-04	4.903776182040201805e-03	8.467486480415262751e-01	1.102103909892802935e+00	1.000004040759875368e+00	-9.990456430919600339e-03	3.302603674002244056e-05	2.297386955717766851e-05
3.134175058590902285e+00	1.714548007780833756e-06	-1.562425895560529425e-04	4.842490777474417821e-03	8.467491683940729930e-01	1.102009285920424686e+00	1.000004040243224424e+00	-9.990458458409883641e-03	3.303125863805637523e-05	2.326662941181925471e-05
3.154201736281578849e+00	1.714548001295186759e-06	-1.562424963388693501e-04	4.782423359425802545e-03	8.467496715993204637e-01	1.101924331669799750e+00	1.000004039732579120e+00	-9.990460456321128072e-03	3.303719649950883930e-05	2.356145543689858272e-05
3.174228413972255858e+00	1.714547995175142051e-06	-1.562424072947469057e-04	4.723542156759632030e-03	8.467501528404843825e-01	1.101848911520778795e+00	1.000004039227151420e+00	-9.990462345057864527e-03	3.304384324743775951e-05	2.385835166897550300e-05
3.194255091662932422e+00	1.714547989317459235e-06	-1.562423212704855153e-04	4.665816513895852669e-03	8.467506171723979680e-01	1.101782893939143193e+00	1.000004038727599687e+00	-9.990464190288456114e-03	3.305119266406726891e-05	2.415732219936939074e-05
3.214281769353608986e+00	1.714547983791109237e-06	-1.562422388119360324e-04	4.609216676798857590e-03	8.467510630106577230e-01	1.101726151346025695e+00	1.000004038233126336e+00	-9.990465950529795955e-03	3.305923817456317101e-05	2.445837117381082551e-05
3.234308447044285995e+00	1.714547978494841552e-06	-1.562421592323760496e-04	4.553713933454246222e-03	8.467514924496714057e-01	1.101678559978659599e+00	1.000004037744403940e+00	-9.990467662549327305e-03	3.306797409247455577e-05	2.476150279224466629e-05
3.254335124734962559e+00	1.714547973500316649e-06	-1.562420827900515199e-04	4.499280395309639656e-03	8.467519055261704120e-01	1.101639999771104605e+00	1.000004037260613154e+00	-9.990469303922793268e-03	3.307739431644591839e-05	2.506672130851075734e-05
3.274361802425639123e+00	1.714547968707572358e-06	-1.562420088995320302e-04	4.445889147726930259e-03	8.467523046905762740e-01	1.101610354225435184e+00	1.000004036782456529e+00	-9.990470905772383739e-03	3.308749365597537449e-05	2.537403103022041722e-05
3.294388480116315687e+00	1.714547964191349173e-06	-1.562419380548516477e-04	4.393514028640391547e-03	8.467526872565376284e-01	1.101589510302745989e+00	1.000004036309091848e+00	-9.990472431084604019e-03	3.309826645297815135e-05	2.568343631848506978e-05
3.314415157806992696e+00	1.714547959851148963e-06	-1.562418694137274232e-04	4.342129788232670234e-03	8.467530580655617811e-01	1.101577358303836629e+00	1.000004035841242089e+00	-9.990473928190598749e-03	3.310970798767458068e-05	2.599494158783354999e-05
3.334441835497669260e+00	1.714547955765711912e-06	-1.562418030371912384e-04	4.291711863016503883e-03	8.467534163554680804e-01	1.101573791769430377e+00	1.000004035378044387e+00	-9.990475388164141851e-03	3.312181301107492272e-05	2.630855130599610720e-05
3.354468513188345824e+00	1.714547951835677454e-06	-1.562417389480191723e-04	4.242236545461331408e-03	8.467537626751113766e-01	1.101578707369527343e+00	1.000004034920246587e+00	-9.990476804795129714e-03	3.313457724104614579e-05	2.662426999386628186e-05
3.374495190879022832e+00	1.714547948139869417e-06	-1.562416768239080055e-04	4.193680756044468327e-03	8.467540982691277307e-01	1.101592004812162129e+00	1.000004034466963843e+00	-9.990478193976418814e-03	3.314799582461996902e-05	2.694210222532958461e-05
3.394521868569699397e+00	1.714547944581956862e-06	-1.562416166006642146e-04	4.146022217389639351e-03	8.467544235345009218e-01	1.101613586740466832e+00	1.000004034018972643e+00	-9.990479555689454547e-03	3.316206488726470192e-05	2.726205262726123983e-05
3.414548546260375961e+00	1.714547941240942975e-06	-1.562415577251632503e-04	4.099239226952873343e-03	8.467547415983616155e-01	1.101643358649292415e+00	1.000004033575360163e+00	-9.990480920986860927e-03	3.317677994507158289e-05	2.758412587939880540e-05
3.434575223951052525e+00	1.714547938023467784e-06	-1.562415012581975984e-04	4.053310835102474224e-03	8.467550464953568223e-01	1.101681228789421763e+00	1.000004033136926873e+00	-9.990482218349007459e-03	3.319213750587186564e-05	2.790832671437708406e-05
3.454601901641729533e+00	1.714547935004944751e-06	-1.562414455318990498e-04	4.008216620778584129e-03	8.467553477135411066e-01	1.101727108091050233e+00	1.000004032702746848e+00	-9.990483550463063675e-03	3.320813345128876122e-05	2.823465991763699274e-05
3.474628579332406098e+00	1.714547932098612290e-06	-1.562413921870976817e-04	3.963936866167245936e-03	8.467556360431723883e-01	1.101780910074755315e+00	1.000004032273635879e+00	-9.990484809271211672e-03	3.322476463233909309e-05	2.856313032750448579e-05
3.494655257023082662e+00	1.714547929374648352e-06	-1.562413392427741958e-04	3.920452342938117625e-03	8.467559219909007728e-01	1.101842550781354735e+00	1.000004031848649166e+00	-9.990486117607772290e-03	3.324202728497860240e-05	2.889374283512742729e-05
3.514681934713759670e+00	1.714547926754086385e-06	-1.562412885078954140e-04	3.877744478396107260e-03	8.467561965483014763e-01	1.101911948688695686e+00	1.000004031428632034e+00	-9.990487357204036467e-03	3.325991857792958962e-05	2.922650238457726545e-05
3.534708612404436234e+00	1.714547924300851753e-06	-1.562412375028218226e-04	3.835795154656679740e-03	8.467564720840343728e-01	1.101989024647674897e+00	1.000004031012610151e+00	-9.990488682993667324e-03	3.327843508566120646e-05	2.956141397283300679e-05
3.554735290095112799e+00	1.714547921944758460e-06	-1.562411885572034852e-04	3.794586863976789383e-03	8.467567368680042339e-01	1.102073701804244799e+00	1.000004030601460370e+00	-9.990489943745843593e-03	3.329757426664765912e-05	2.989848264991501006e-05
3.574761967785789363e+00	1.714547919743111672e-06	-1.562411399315959571e-04	3.754102524338768631e-03	8.467569998938020426e-01	1.102165905540954283e+00	1.000004030194183269e+00	-9.990491247307038344e-03	3.331733302919445819e-05	3.023771351889136951e-05
3.594788645476466371e+00	1.714547917630736862e-06	-1.562410925373266754e-04	3.714325621571297129e-03	8.467572563834943056e-01	1.102265563403863169e+00	1.000004029791678573e+00	-9.990492533542954731e-03	3.333770911669216037e-05	3.057911173603727900e-05
3.614815323167142935e+00	1.714547915662539554e-06	-1.562410456443137109e-04	3.675240036758343088e-03	8.467575095489769943e-01	1.102372605049180887e+00	1.000004029392928873e+00	-9.990493845851971394e-03	3.335869973158430156e-05	3.092268251088500021e-05
3.634842000857819500e+00	1.714547913776539381e-06	-1.562409996401730014e-04	3.636830184039602318e-03	8.467577585143424290e-01	1.102486962174638485e+00	1.000004028998859873e+00	-9.990495157923192163e-03	3.338030290264226116e-05	3.126843110639245947e-05
3.654868678548496508e+00	1.714547912026082269e-06	-1.562409538936981965e-04	3.599080842191611316e-03	8.467580055343459922e-01	1.102608568470720307e+00	1.000004028608430851e+00	-9.990496507016194405e-03	3.340251610342580052e-05	3.161636283903383282e-05
3.674895356239173072e+00	1.714547910352061409e-06	-1.562409086370702158e-04	3.561977291856254901e-03	8.467582507057611618e-01	1.102737359556194230e+00	1.000004028222586827e+00	-9.990497877003758770e-03	3.342533763450503652e-05	3.196648307898860040e-05
3.694922033929849636e+00	1.714547908807165216e-06	-1.562408640643404584e-04	3.525505149908200828e-03	8.467584917646500120e-01	1.102873272933610815e+00	1.000004027840271315e+00	-9.990499252529911819e-03	3.344876522566109163e-05	3.231879725025822015e-05
3.714948711620526201e+00	1.714547907331627681e-06	-1.562408192807450880e-04	3.489650507989132053e-03	8.467587341896717357e-01	1.103016247928550131e+00	1.000004027462456646e+00	-9.990500689876219767e-03	3.347279745155156425e-05	3.267331083087397613e-05
3.734975389311203209e+00	1.714547905980524156e-06	-1.562407752462113104e-04	3.454399763920895216e-03	8.467589723637173327e-01	1.103166225649234722e+00	1.000004027088056802e+00	-9.990502124638063822e-03	3.349743226428784871e-05	3.303002935304305446e-05
3.755002067001879773e+00	1.714547904692596372e-06	-1.562407314081050425e-04	3.419739769186867610e-03	8.467592096357196008e-01	1.103323148928958775e+00	1.000004026718073868e+00	-9.990503591650297735e-03	3.352266851671319392e-05	3.338895840339261076e-05
3.775028744692556337e+00	1.714547903524100022e-06	-1.562406880546404254e-04	3.385657652465217955e-03	8.467594446338945202e-01	1.103486962289566664e+00	1.000004026351402731e+00	-9.990505069437596516e-03	3.354850437744230960e-05	3.375010362312136196e-05
3.795055422383233346e+00	1.714547902414257103e-06	-1.562406403046010699e-04	3.352140973852476506e-03	8.467597028626867584e-01	1.103657611887011614e+00	1.000004025989063017e+00	-9.990506870024076780e-03	3.357493894380527560e-05	3.411347070825395365e-05
3.815082100073909910e+00	1.714547901431347366e-06	-1.562405968856284968e-04	3.319177538297184149e-03	8.467599380318049374e-01	1.103835045478113397e+00	1.000004025629934734e+00	-9.990508431832800795e-03	3.360197051197061227e-05	3.447906540984519672e-05
3.835108777764586474e+00	1.714547900485281232e-06	-1.562405685318841769e-04	3.286755591872959209e-03	8.467600914286136371e-01	1.104019212369046654e+00	1.000004025275060604e+00	-9.990509069530686612e-03	3.362959864110620216e-05	3.484689353424984390e-05
3.855135455455263482e+00	1.714547899617239115e-06	-1.562405330990210717e-04	3.254863600930702101e-03	8.467602831484883907e-01	1.104210063385362872e+00	1.000004024923291546e+00	-9.990510195385699996e-03	3.365782204084320539e-05	3.521696094333140036e-05
3.875162133145940047e+00	1.714547898822054748e-06	-1.562404478408187182e-04	3.223490371852454506e-03	8.467607451543027741e-01	1.104407550822938067e+00	1.000004024575703365e+00	-9.990514535365667415e-03	3.368663987186038114e-05	3.558927355475503449e-05
3.895188810836616611e+00	1.714547898268107906e-06	-1.562403179239208405e-04	3.192624874206273587e-03	8.467614491048026659e-01	1.104611628421137359e+00	1.000004024231124333e+00	-9.990521811445716646e-03	3.371604999964771953e-05	3.596383734220342897e-05
3.915215488527293175e+00	1.714547897847995023e-06	-1.562403645592562722e-04	3.162256572919344786e-03	8.467611961618288774e-01	1.104822251315752624e+00	1.000004023890666227e+00	-9.990517164364507222e-03	3.374605255830283502e-05	3.634065833576032408e-05
3.935242166217970183e+00	1.714547896952355937e-06	-1.562409288225504291e-04	3.132375594437434782e-03	8.467581380506532529e-01	1.105039376017855179e+00	1.000004023553146437e+00	-9.990485114773784564e-03	3.377665195042051891e-05	3.671974262210007012e-05
3.955268843908646748e+00	1.714547895027942397e-06	-1.562407860305469473e-04	3.102972470665603562e-03	8.467589113603014583e-01	1.105262960358770696e+00	1.000004023219812854e+00	-9.990479400962291173e-03	3.380785437144748082e-05	3.710109634905295204e-05
3.975295521599323312e+00	1.714547894557500933e-06	-1.562383758895649480e-04	3.074035057699872793e-03	8.467719730801875899e-01	1.105492963465404266e+00	1.000004022890571109e+00	-9.990604695237444155e-03	3.383963409320377863e-05	3.748472570545060965e-05
3.995322199289999876e+00	1.714584732784533302e-06	-1.562423845890698320e-04	3.045531353289996409e-03	8.467602886659983952e-01	1.105725138389047624e+00	1.000000000000000000e+00	-1.000000000000000021e-02	3.387174561589884471e-05	3.787100112148618141e-05
