# Time=0.001600160016 and Columns are r	p	Paether	ur	alpha	a	b	K	Sr_tilde	tau_tilde
1.001333884533834630e-02	1.199608156118619172e-02	-1.853201935704179223e-02	1.855335922151309729e-05	6.445108532665164702e-01	1.000050782699596796e+00	1.000003459790546056e+00	-1.013525615596718062e-02	2.095837578508794202e-10	1.503599969161395654e-06
3.004001653601504063e-02	1.196754813569956243e-02	-1.851104433306808433e-02	5.565514428572525561e-05	6.446898690624223160e-01	1.000429206338400601e+00	1.000003461256745219e+00	-1.013473840893234189e-02	5.651484572539894362e-09	1.350532082140263725e-05
5.006669422669172975e-02	1.191066484868699184e-02	-1.846913446571056203e-02	9.274208862456901508e-05	6.450476818222695696e-01	1.001185192908950805e+00	1.000003464182910529e+00	-1.013367516673296248e-02	2.609697320360224592e-08	3.736468244566227436e-05
7.009337191736843276e-02	1.182580057179737597e-02	-1.840637260692576729e-02	1.298047319709027733e-04	6.455838408852809795e-01	1.002317013795981593e+00	1.000003468560549891e+00	-1.013207638876771274e-02	7.133387473511370464e-08	7.279517901709831528e-05
9.012004960804512188e-02	1.171350338617354464e-02	-1.832288301677232126e-02	1.668345352881784021e-04	6.462976693158339891e-01	1.003822058157641806e+00	1.000003474377788804e+00	-1.012995642049916226e-02	1.508312522142475310e-07	1.193711762793280413e-04
1.101467272987218110e-01	1.157449604149785385e-02	-1.821883242448100668e-02	2.038240140429962229e-04	6.471882575882897948e-01	1.005696811764509091e+00	1.000003481617996570e+00	-1.012731895161608602e-02	2.736178846270974922e-07	1.765328288934220769e-04
1.301734049893985001e-01	1.140966923443313338e-02	-1.809443091903559231e-02	2.407670780211197236e-04	6.482544559467635636e-01	1.007936829370412068e+00	1.000003490260511274e+00	-1.012417362579883830e-02	4.481666394669953693e-07	2.435925828459884271e-04
1.502000826800751754e-01	1.122007330908784267e-02	-1.794993296025883256e-02	2.776592949647454242e-04	6.494948684282657592e-01	1.010536701112699332e+00	1.000003500280727264e+00	-1.012053180162066079e-02	6.822861462430258750e-07	3.197432152568635403e-04
1.702267603707518784e-01	1.100690847982351873e-02	-1.778563852623149186e-02	3.144981456159118218e-04	6.509078423186214213e-01	1.013490013605376383e+00	1.000003511650218613e+00	-1.011640726966984462e-02	9.830211158593030586e-07	4.040673504074435997e-04
1.902534380614285814e-01	1.077151367778737129e-02	-1.760189430625009807e-02	3.512832471436840758e-04	6.524914600893494399e-01	1.016789306534840565e+00	1.000003524336861682e+00	-1.011181642335372104e-02	1.356562426058664157e-06	4.955483763124735389e-04
2.102801157521052566e-01	1.051535413598254053e-02	-1.739909492098565963e-02	3.880165680853126030e-04	6.542435265699712010e-01	1.020426025736829834e+00	1.000003538304955919e+00	-1.010677843434766056e-02	1.808168019321591131e-06	5.930826705773878729e-04
2.303067934427819596e-01	1.024000784167821906e-02	-1.717768408491778323e-02	4.247026093205372231e-04	6.561615598981438424e-01	1.024390473910103516e+00	1.000003553515385057e+00	-1.010131541410136564e-02	2.342095360566877744e-06	6.954930275732625110e-04
2.503334711334586626e-01	9.947150998313405990e-03	-1.693815568078189254e-02	4.613485843227297300e-04	6.582427773105254953e-01	1.028671760308724981e+00	1.000003569925738134e+00	-1.009545253348592686e-02	2.961546241080363802e-06	8.015431611502652712e-04
2.703601488241353379e-01	9.638542651338623604e-03	-1.668105464597341089e-02	4.979645676926420725e-04	6.604840864030282477e-01	1.033257750946851683e+00	1.000003587490518875e+00	-1.008921810779079588e-02	3.668624303572220813e-06	9.099531383048385224e-04
2.903868265148120131e-01	9.316008643560651573e-03	-1.640697764524634214e-02	5.345636554429159231e-04	6.628820701886727340e-01	1.038135021044509720e+00	1.000003606161255165e+00	-1.008264361414206063e-02	4.464305895157236072e-06	1.019415579630811742e-03
3.104135042054887439e-01	8.981425075213116463e-03	-1.611657343423404665e-02	5.711621001774448486e-04	6.654329799930192024e-01	1.043288811632302915e+00	1.000003625886724201e+00	-1.007576364859465341e-02	5.348424277318394796e-06	1.128612442339654029e-03
3.304401818961654191e-01	8.636701452049309544e-03	-1.581054287744408648e-02	6.077794749792402073e-04	6.681327222317785530e-01	1.048702992412000379e+00	1.000003646613090602e+00	-1.006861579805903156e-02	6.319667721410180722e-06	1.236232181586877348e-03
3.504668595868420944e-01	8.283763710950242665e-03	-1.548963854547374605e-02	6.444388225038583150e-04	6.709768531105784195e-01	1.054360033126401586e+00	1.000003668284130898e+00	-1.006124043164018274e-02	7.375591190007291015e-06	1.340987066369595882e-03
3.704935372775188251e-01	7.924537316694870576e-03	-1.515466385834352524e-02	6.811668536748342493e-04	6.739605683910029343e-01	1.060240985817721526e+00	1.000003690841379633e+00	-1.005368039064270108e-02	8.512642140772368269e-06	1.441630408094175808e-03
3.905202149681955004e-01	7.560930625370065189e-03	-1.480647170532200727e-02	7.179941451449248441e-04	6.770787035033635215e-01	1.066325480433390593e+00	1.000003714224387164e+00	-1.004598059465596632e-02	9.726199802718710067e-06	1.536973443901052489e-03
4.105468926588721756e-01	7.194818709218566213e-03	-1.444596254328014799e-02	7.549554104146479839e-04	6.803257259910474586e-01	1.072591736261502726e+00	1.000003738370847106e+00	-1.003818753148263444e-02	1.101062850593918721e-05	1.625901603955972816e-03
4.305735703495489064e-01	6.828027834282208823e-03	-1.407408189502501288e-02	7.920897863491662815e-04	6.836957426996634890e-01	1.079016591627721011e+00	1.000003763216892327e+00	-1.003034867801032987e-02	1.235934398932871209e-05	1.707389883226365654e-03
4.506002480402255816e-01	6.462320775839941467e-03	-1.369181730437962069e-02	8.294412200350901807e-04	6.871824978035515619e-01	1.085575554151814615e+00	1.000003788697229279e+00	-1.002251179724348434e-02	1.376489327923815347e-05	1.780517034875827393e-03
4.706269257309022569e-01	6.099383147181418850e-03	-1.330019465967827684e-02	8.670588907902311614e-04	6.907793867893756712e-01	1.092242873628396671e+00	1.000003814745452191e+00	-1.001472419652086297e-02	1.521904651320649049e-05	1.844478305419040842e-03
4.906536034215789877e-01	5.740810904624054321e-03	-1.290027399724566308e-02	9.049977617339078793e-04	6.944794617281648819e-01	1.098991639258776853e+00	1.000003841294180962e+00	-1.000703186972993174e-02	1.671290121814181584e-05	1.898596442212592723e-03
5.106802811122557184e-01	5.388099175833321354e-03	-1.249314470651912562e-02	9.433191897041014662e-04	6.982754532938344472e-01	1.105793902507133275e+00	1.000003868275414654e+00	-9.999478637748165921e-03	1.823699671518216300e-05	1.942330722561133463e-03
5.307069588029323937e-01	5.042632539506410050e-03	-1.207992027621770763e-02	9.820916971608074225e-04	7.021597837600344061e-01	1.112620826290912079e+00	1.000003895620666272e+00	-9.992105205130238574e-03	1.978143895562721688e-05	1.975283781303571306e-03
5.507336364936090689e-01	4.705676862491689830e-03	-1.166173254622158290e-02	1.021391829681216924e-03	7.061245973919112462e-01	1.119442860540685647e+00	1.000003923261337802e+00	-9.984948254086254207e-03	2.133603261855658863e-05	1.997206050455087659e-03
5.707603141842857442e-01	4.378372775711498674e-03	-1.123972562066298184e-02	1.061305212670798090e-03	7.101617806602954497e-01	1.126229943399731148e+00	1.000003951128860535e+00	-9.978039491718826426e-03	2.289042048517769218e-05	2.007997670145950965e-03
5.907869918749625304e-01	4.061730843241865598e-03	-1.081504942599696012e-02	1.101927726973375753e-03	7.142630008093542315e-01	1.132951726490956101e+00	1.000003979155100531e+00	-9.971404794811728270e-03	2.443422601814396587e-05	2.007707784021077729e-03
6.108136695656392057e-01	3.756628450088951056e-03	-1.038885310538138762e-02	1.143366927654930563e-03	7.184197322167943378e-01	1.139577821796401880e+00	1.000004007272468298e+00	-9.965063342657525317e-03	2.595719886265415651e-05	1.996531193217626968e-03
6.308403472563158809e-01	3.463808404247204799e-03	-9.962278249911131478e-03	1.185743624551946571e-03	7.226233020660828288e-01	1.146078066798936534e+00	1.000004035414357562e+00	-9.959026899646618650e-03	2.744935838987107499e-05	1.974802409217049463e-03
6.508670249469925562e-01	3.183879218255003182e-03	-9.536452166562153776e-03	1.229193761060987837e-03	7.268649201179693264e-01	1.152422803679692853e+00	1.000004063515219421e+00	-9.953299121402496216e-03	2.890113483064737592e-05	1.942987214966594624e-03
6.708937026376692314e-01	2.917317005528940153e-03	-9.112481191919197948e-03	1.273870512250887621e-03	7.311357300776387680e-01	1.158583167582442508e+00	1.000004091511002002e+00	-9.947875063801073919e-03	3.030350257648278811e-05	1.901671912924444334e-03
6.909203803283459067e-01	2.664468898109718670e-03	-8.691444267206475255e-03	1.319946753572384191e-03	7.354268397045465866e-01	1.164531378306943310e+00	1.000004119339196196e+00	-9.942740728380774357e-03	3.164810530163793940e-05	1.851550505061762362e-03
7.109470580190225819e-01	2.425557866006144460e-03	-8.274386766369264817e-03	1.367617829611383071e-03	7.397293743222180806e-01	1.170241029307686809e+00	1.000004146939248884e+00	-9.937872854360235708e-03	3.292736738485654374e-05	1.793410110182601163e-03
7.309737357096993682e-01	2.200688794899972357e-03	-7.862314797588731627e-03	1.417104792508544226e-03	7.440345055466404123e-01	1.175687367605332989e+00	1.000004174252559164e+00	-9.933238743506449600e-03	3.413459176163603299e-05	1.728114975132376101e-03
7.510004134003760434e-01	1.989855659380845940e-03	-7.456189943693979950e-03	1.468658055856494849e-03	7.483335017512473542e-01	1.180847558177991585e+00	1.000004201222848499e+00	-9.928796358928827781e-03	3.526403913089879778e-05	1.656589475805676521e-03
7.710270910910527187e-01	1.792949613725766016e-03	-7.056924645113408015e-03	1.522561657226504305e-03	7.526177529047141102e-01	1.185700926621201523e+00	1.000004227796087442e+00	-9.924494446440458237e-03	3.631098950711431756e-05	1.579800529131221171e-03
7.910537687817293939e-01	1.609767812044964486e-03	-6.665378168796133769e-03	1.579138101312514697e-03	7.568788148335419130e-01	1.190229174331951079e+00	1.000004253920840247e+00	-9.920272938521535605e-03	3.727178200064519033e-05	1.498739846934182525e-03
8.110804464724060692e-01	1.440022764627969017e-03	-6.282353328431831280e-03	1.638754007629670195e-03	7.611084267861289998e-01	1.194416561187390480e+00	1.000004279548075026e+00	-9.916063368232563499e-03	3.814383496513807682e-05	1.414406456158324651e-03
8.311071241630827444e-01	1.283352037654864877e-03	-5.908593867611770800e-03	1.701826571795196511e-03	7.652985473503070013e-01	1.198250051602938626e+00	1.000004304631466612e+00	-9.911789584365711045e-03	3.892564370042718685e-05	1.327789887729115487e-03
8.511338018537595307e-01	1.139328108898406784e-03	-5.544782633794782985e-03	1.768831102634086131e-03	7.694413610222471389e-01	1.201719420943708982e+00	1.000004329127119451e+00	-9.907368474115503532e-03	3.961675906533734776e-05	1.239854399648588181e-03
8.711604795444362059e-01	1.007468202314841825e-03	-5.191540412511105700e-03	1.840309691728143557e-03	7.735293052150949977e-01	1.204817320450496609e+00	1.000004352993817403e+00	-9.902711036507671691e-03	4.021774559763084098e-05	1.151524550897158744e-03
8.911871572351128812e-01	8.872439389227442571e-04	-4.849425511752475555e-03	1.916881320012832693e-03	7.775550644230754260e-01	1.207539300088214640e+00	1.000004376192645816e+00	-9.897723502734500495e-03	4.073012350533772975e-05	1.063672384232916849e-03
9.112138349257895564e-01	7.780906594433785375e-04	-4.518933922792541316e-03	1.999253509772134108e-03	7.815115871653227630e-01	1.209883789940960686e+00	1.000004398687226459e+00	-9.892308915111711065e-03	4.115629436827619801e-05	9.771064113872156807e-04
9.312405126164662317e-01	6.794162949855253337e-04	-4.200500109888535144e-03	2.088235860534463049e-03	7.853920696059052409e-01	1.211852041927972579e+00	1.000004420443239894e+00	-9.886368867151251391e-03	4.149945548301868308e-05	8.925625270480329939e-04
9.512671903071429069e-01	5.906096847749838646e-04	-3.894498214715139042e-03	2.184755612019128983e-03	7.891899624610437813e-01	1.213448034614351689e+00	1.000004441428678614e+00	-9.879805900047475969e-03	4.176350355229673617e-05	8.106969119959354410e-04
9.712938679978196932e-01	5.110482636477151541e-04	-3.601243698947433416e-03	2.289875563436928434e-03	7.928989459357752567e-01	1.214678344723607140e+00	1.000004461613312134e+00	-9.872526263457807177e-03	4.195293265211191987e-05	7.320809241340753325e-04
9.913205456884963684e-01	4.401050659270083071e-04	-3.320995165171437488e-03	2.404814456111638386e-03	7.965129326559967637e-01	1.215551989561219681e+00	1.000004480968992970e+00	-9.864443648202858225e-03	4.207272757513991305e-05	6.571979218043104984e-04
1.011347223379172933e+00	3.771550155705271300e-04	-3.053956377543339071e-03	2.530970011634807709e-03	8.000260327658667014e-01	1.216080244944254707e+00	1.000004499469125951e+00	-9.855483539437810345e-03	4.212825690948126525e-05	5.864419189207542051e-04
1.031373901069849497e+00	3.215804944133445419e-04	-2.800278164362930613e-03	2.669944501574268714e-03	8.034325646692342948e-01	1.216276443363194515e+00	1.000004517089095879e+00	-9.845588934961367611e-03	4.212516695868503714e-05	5.201179375544484184e-04
1.051400578760526283e+00	2.727762002865542876e-04	-2.560060251701138517e-03	2.823572588869393239e-03	8.067270170540337126e-01	1.216155757025797257e+00	1.000004533805814111e+00	-9.834726889924025328e-03	4.206927981559114839e-05	4.584439012860000982e-04
1.071427256451203069e+00	2.301533242099223944e-04	-2.333352663895590755e-03	2.993950629050799728e-03	8.099040707698419439e-01	1.215734970136344240e+00	1.000004549598356052e+00	-9.822896685266660488e-03	4.196649648579410470e-05	4.015539016710847160e-04
1.091453934141879634e+00	1.931430902008432720e-04	-2.120156784717516004e-03	3.183466034533504341e-03	8.129585731161090845e-01	1.215032244322711508e+00	1.000004564447682487e+00	-9.810138716325531374e-03	4.182270706562088355e-05	3.495026693868684333e-04
1.111480611832556420e+00	1.611997120278124153e-04	-1.920425722468054692e-03	3.394824250979497013e-03	8.158855803849878185e-01	1.214066880546353699e+00	1.000004578337560401e+00	-9.796544655663026388e-03	4.164370862121753898e-05	3.022710890372579877e-04
1.131507289523232984e+00	1.338028279650709657e-04	-1.734064135493837942e-03	3.631069496013397679e-03	8.186803571283215453e-01	1.212859080214846008e+00	1.000004591254539221e+00	-9.782267371854405646e-03	4.143513149116646475e-05	2.597726093164838437e-04
1.151533967213909770e+00	1.104594768183060513e-04	-1.560927239460923243e-03	3.895593463311516468e-03	8.213384533493376383e-01	1.211429707585333304e+00	1.000004603189241337e+00	-9.767530547351846101e-03	4.120237450389724332e-05	2.218604146623158707e-04
1.171560644904586557e+00	9.070567579575490710e-05	-1.400819293163727648e-03	4.192123581337471941e-03	8.238557426474100165e-01	1.209800055013776632e+00	1.000004614136580594e+00	-9.752635456471616532e-03	4.095054880942557715e-05	1.883352365086516170e-04
1.191587322595263121e+00	7.410765300746574168e-05	-1.253491422450691856e-03	4.524679345484024402e-03	8.262285392460779754e-01	1.207991612194751818e+00	1.000004624097356132e+00	-9.737964166435816513e-03	4.068443090373337513e-05	1.589536874699133879e-04
1.211614000285939907e+00	6.026277468519348991e-05	-1.118639310194768357e-03	4.897481554088648631e-03	8.284536901550788590e-01	1.206025840362650925e+00	1.000004633078622307e+00	-9.723975627604091246e-03	4.040842384209233332e-05	1.334369964146221320e-04
1.231640677976616471e+00	4.880019044622228960e-05	-9.959008260629056627e-04	5.314796087364557532e-03	8.305287269600019062e-01	1.203923952489382776e+00	1.000004641095321833e+00	-9.711193849580038173e-03	4.012652756503500809e-05	1.114800039736615927e-04
1.251667355667293258e+00	3.938120076669693575e-05	-8.848543682403452485e-04	5.780691495218097560e-03	8.324520030081087318e-01	1.201706700890503132e+00	1.000004648170439658e+00	-9.700184978945159894e-03	3.984231689345131512e-05	9.276024662274245057e-05
1.271694033357969822e+00	3.169933193387319907e-05	-7.850181911537858995e-04	6.298690945279314911e-03	8.342228658632587779e-01	1.199394174268241020e+00	1.000004654336280385e+00	-9.691524416008640702e-03	3.955892847515188831e-05	7.694691668737603627e-05
1.291720711048646608e+00	2.548008863044545446e-05	-6.958516040761081886e-04	6.871305375905178807e-03	8.358418019909955587e-01	1.197005607056225163e+00	1.000004659633863424e+00	-9.685753715815106912e-03	3.927905483303810853e-05	6.370944316485448655e-05
1.311747388739323394e+00	2.048034678959109647e-05	-6.167583000065643157e-04	7.499450612198561329e-03	8.373105834453170582e-01	1.194559204790581974e+00	1.000004664113360642e+00	-9.683332827821588412e-03	3.900494690604232664e-05	5.272540553072417547e-05
1.331774066429999959e+00	1.648735273214379989e-05	-5.470924813165874969e-04	8.181777452192395828e-03	8.386323579726383537e-01	1.192071989982474767e+00	1.000004667832349980e+00	-9.684591717475581757e-03	3.873842279829405668e-05	4.368748278783312559e-05
1.351800744120676745e+00	1.331731038565129659e-05	-4.861676299484046066e-04	8.913982523148983317e-03	8.398117238916807947e-01	1.189559673326062939e+00	1.000004670855240363e+00	-9.689690806961137604e-03	3.848088425951779216e-05	3.630916432280230745e-05
1.371827421811353309e+00	1.081356545741296716e-05	-4.332679884771060324e-04	9.688211552788634703e-03	8.408546987995424438e-01	1.187036554905946950e+00	1.000004673250507237e+00	-9.698594936660460616e-03	3.823333872564099907e-05	3.032901322525751546e-05
1.391854099502030095e+00	8.844429533203312319e-06	-3.876619154433239294e-04	1.049270603258090073e-02	8.417686493154166172e-01	1.184515459183188790e+00	1.000004675089472883e+00	-9.711068169788559731e-03	3.799642932007857901e-05	2.551337300122903957e-05
1.411880777192706660e+00	7.300721593397525391e-06	-3.486164904372269059e-04	1.131185646198465053e-02	8.425621270834858789e-01	1.182007706012911052e+00	1.000004676443193796e+00	-9.726688190500239542e-03	3.777047135975136001e-05	2.165753143614198290e-05
1.431907454883383446e+00	6.093131943971249152e-06	-3.154120615801857155e-04	1.212679326157158240e-02	8.432446434002441871e-01	1.179523117874121008e+00	1.000004677381343354e+00	-9.744880294715277391e-03	3.755549804150619771e-05	1.858547972985335502e-05
1.451934132574060232e+00	5.149528086344278256e-06	-2.873558499254774798e-04	1.291655496939228542e-02	8.438263958014086130e-01	1.177070061237239118e+00	1.000004677969399403e+00	-9.764963459831060150e-03	3.735131234225434391e-05	1.614850828275318914e-05
1.471960810264736796e+00	4.412320743649122483e-06	-2.637934774876090358e-04	1.365973861803759792e-02	8.443179287342297279e-01	1.174655517848170128e+00	1.000004678268191727e+00	-9.786204372983886568e-03	3.715754446217546216e-05	1.422294510609376205e-05
1.491987487955413583e+00	3.835992256978185052e-06	-2.441179123396043031e-04	1.433639346220974900e-02	8.447298228736154213e-01	1.172285180076498401e+00	1.000004678331690489e+00	-9.807871941405841426e-03	3.697370764542524214e-05	1.270736128306031291e-05
1.512014165646090147e+00	3.384863155107296892e-06	-2.277753990580271492e-04	1.492982696173960136e-02	8.450723862143958431e-01	1.169963563513300775e+00	1.000004678207353059e+00	-9.829288274590003774e-03	3.679924885741342033e-05	1.151954401077178484e-05
1.532040843336766933e+00	3.031141895100904614e-06	-2.142685118955511370e-04	1.542798997102834760e-02	8.453553803199228556e-01	1.167694129850870066e+00	1.000004677934649422e+00	-9.849870925992392293e-03	3.663358789584660101e-05	1.059348378499004337e-05
1.552067521027443719e+00	2.753273238645683981e-06	-2.031565950546975103e-04	1.582420960480704353e-02	8.455878131337020154e-01	1.165479413572529266e+00	1.000004677546312726e+00	-9.869161591261391836e-03	3.647614553753245926e-05	9.876553958393987712e-06
1.572094198718120284e+00	2.534576631429947025e-06	-1.940540997400936349e-04	1.611720009934643205e-02	8.457777949427393027e-01	1.163321147003417044e+00	1.000004677067641179e+00	-9.886840414460577875e-03	3.632636024563332285e-05	9.326992438543936300e-06
1.592120876408797070e+00	2.362149202243016482e-06	-1.866274031513111633e-04	1.631044830275964544e-02	8.459325198831103565e-01	1.161220379513438150e+00	1.000004676518534641e+00	-9.902722401528545743e-03	3.618369824805647009e-05	8.911736471754879576e-06
1.612147554099473634e+00	2.225998680816385843e-06	-1.805905898036728921e-04	1.641118064576239932e-02	8.460581634875825596e-01	1.159177587978644342e+00	1.000004675913257035e+00	-9.916743356785088018e-03	3.604765841789930576e-05	8.604616973408984998e-06
1.632174231790150420e+00	2.118368369864911955e-06	-1.757007492324330004e-04	1.642915474729292336e-02	8.461600791607450933e-01	1.157192776761817976e+00	1.000004675262788023e+00	-9.928934287372110853e-03	3.591777538094139441e-05	8.384889304763543582e-06
1.652200909480826985e+00	2.033217553960802080e-06	-1.717530388335079090e-04	1.637548614924943038e-02	8.462426508438060102e-01	1.155265566456655568e+00	1.000004674574502150e+00	-9.939396720285048267e-03	3.579362069283386911e-05	8.236060824603532989e-06
1.672227587171503771e+00	1.965824581881305599e-06	-1.685759158392841756e-04	1.626165294023041927e-02	8.463096991308571848e-01	1.153395271344557660e+00	1.000004673854366199e+00	-9.948275016921014416e-03	3.567480323232564103e-05	8.144968919411036673e-06
1.692254264862180557e+00	1.912484906344717414e-06	-1.660265560955696568e-04	1.609874541563273767e-02	8.463641681886157064e-01	1.151580966036530818e+00	1.000004673106223541e+00	-9.955737547371652438e-03	3.556096834733688466e-05	8.101063367405817746e-06
1.712280942552857121e+00	1.870281584167249638e-06	-1.639867305829022248e-04	1.589696760860920613e-02	8.464086737385028147e-01	1.149821542066448599e+00	1.000004672333703937e+00	-9.961958088156220095e-03	3.545179607087996167e-05	8.095851066753561180e-06
1.732307620243533908e+00	1.836910544125121024e-06	-1.623590231201576389e-04	1.566535915455472341e-02	8.464451290518973936e-01	1.148115755396531323e+00	1.000004671539099554e+00	-9.967107001351787829e-03	3.534699877809422325e-05	8.122467246302895311e-06
1.752334297934210472e+00	1.810547035053517567e-06	-1.610635620536261879e-04	1.541168825764104716e-02	8.464752900283634141e-01	1.146462265841822203e+00	1.000004670725086031e+00	-9.971342174010158071e-03	3.524631806640843090e-05	8.175343833652075156e-06
1.772360975624887258e+00	1.789742992026495705e-06	-1.600351101224454457e-04	1.514246487765924520e-02	8.465003465420396500e-01	1.144859669442910732e+00	1.000004669893336473e+00	-9.974807125059360902e-03	3.514952195819792083e-05	8.249951810366017437e-06
1.792387653315563822e+00	1.773347666152811028e-06	-1.592206151812384802e-04	1.486302874491719078e-02	8.465214646724011915e-01	1.143306524744163388e+00	1.000004669046133499e+00	-9.977627831931018196e-03	3.505640150341163128e-05	8.342599703661730779e-06
1.812414331006240609e+00	1.760445835376076114e-06	-1.585770697646463946e-04	1.457767787108717183e-02	8.465393682959646560e-01	1.141801373887827431e+00	1.000004668184863332e+00	-9.979914321413763112e-03	3.496676835129484414e-05	8.450274709490134621e-06
1.832441008696917395e+00	1.750309397650524153e-06	-1.580697493165279550e-04	1.428981195410534630e-02	8.465547945962149656e-01	1.140342759319947774e+00	1.000004667311606310e+00	-9.981760104560782887e-03	3.488045166357960910e-05	8.570516349036438777e-06
1.852467686387593959e+00	1.742359224121474831e-06	-1.576706913004753598e-04	1.400207539845339105e-02	8.465681814062373522e-01	1.138929236840336978e+00	1.000004666427554811e+00	-9.983244787182713603e-03	3.479729638857873838e-05	8.701315153251060815e-06
1.872494364078270745e+00	1.736134953279761049e-06	-1.573574604197251910e-04	1.371648952620957949e-02	8.465800010952108101e-01	1.137559385608895246e+00	1.000004665534625525e+00	-9.984434762325057611e-03	3.471716064199572459e-05	8.841030799040820373e-06
1.892521041768947310e+00	1.731270973012713647e-06	-1.571120988193916304e-04	1.343457031792948814e-02	8.465905037326439952e-01	1.136231815664626943e+00	1.000004664633826312e+00	-9.985385566541642860e-03	3.463991466164055414e-05	8.988325535708437149e-06
1.912547719459624096e+00	1.727477270636867454e-06	-1.569202816263125027e-04	1.315742897510004464e-02	8.465999831149684240e-01	1.134945173402804208e+00	1.000004663726915988e+00	-9.986142856003363613e-03	3.456543861759216928e-05	9.142109768119745857e-06
1.932574397150300882e+00	1.724524127684322076e-06	-1.567706067124180220e-04	1.288585678463268977e-02	8.466085884099148196e-01	1.133698145417413539e+00	1.000004662814728551e+00	-9.986744289643823339e-03	3.449362212684149460e-05	9.301497408886263838e-06
1.952601074840977446e+00	1.722229877823571260e-06	-1.566540260421853841e-04	1.262039440839777225e-02	8.466164895350622999e-01	1.132489461018595822e+00	1.000004661898857394e+00	-9.987220582787649514e-03	3.442436238526614420e-05	9.465769153543048369e-06
1.972627752531654233e+00	1.720451104767934852e-06	-1.565633751855141382e-04	1.236138867552200905e-02	8.466237782013591451e-01	1.131317893715067413e+00	1.000004660979959104e+00	-9.987596788348542323e-03	3.435756409868794356e-05	9.634342230623774869e-06
1.992654430222330797e+00	1.719074800060640196e-06	-1.564929970235692195e-04	1.210903753085436525e-02	8.466305646987624112e-01	1.130182261867857640e+00	1.000004660059479855e+00	-9.987893199660882737e-03	3.429313784369659280e-05	9.806745473454243176e-06
2.012681107913007583e+00	1.718012087468254653e-06	-1.564384353299503195e-04	1.186342631222827258e-02	8.466369039467086521e-01	1.129081428718206492e+00	1.000004659137903040e+00	-9.988126142734294818e-03	3.423100030840371157e-05	9.982598784056482456e-06
2.032707785603684147e+00	1.717193211385152116e-06	-1.563961870357886020e-04	1.162455571036780620e-02	8.466428386853753763e-01	1.128014301920985396e+00	1.000004658216531395e+00	-9.988308833521565566e-03	3.417107280838283277e-05	1.016159623077662706e-05
2.052734463294360712e+00	1.716563534838429920e-06	-1.563635063711361233e-04	1.139236420892742081e-02	8.466484324047888199e-01	1.126979832723905339e+00	1.000004657295702204e+00	-9.988451776623857858e-03	3.411328174544360909e-05	1.034349215637648674e-05
2.072761140985037720e+00	1.716080353863696158e-06	-1.563382440034032908e-04	1.116674489575064655e-02	8.466536912509641244e-01	1.125977014870961357e+00	1.000004656376598078e+00	-9.988563479674125722e-03	3.405755722715021430e-05	1.052808978038807982e-05
2.092787818675714284e+00	1.715710361232479774e-06	-1.563187248714820014e-04	1.094755901272586110e-02	8.466586713274324438e-01	1.125004883327235694e+00	1.000004655459403979e+00	-9.988650528813577956e-03	3.400383368790307469e-05	1.071523186714681537e-05
2.112814496366390848e+00	1.715427635952931441e-06	-1.563036406054370481e-04	1.073464573314219898e-02	8.466633753688884712e-01	1.124062512867355812e+00	1.000004654545202820e+00	-9.988718427250109153e-03	3.395204857959838862e-05	1.090479310207178005e-05
2.132841174057067857e+00	1.715212048045240012e-06	-1.562919794055925955e-04	1.052783017358690197e-02	8.466678344437199577e-01	1.123149016595176741e+00	1.000004653634057883e+00	-9.988771191584627090e-03	3.390214309176134872e-05	1.109667387851200801e-05
2.152867851747744421e+00	1.715048000089706023e-06	-1.562829505272945617e-04	1.032692886421912246e-02	8.466720514275852816e-01	1.122263544412961167e+00	1.000004652726952159e+00	-9.988812413168348184e-03	3.385406091754621300e-05	1.129079524659836554e-05
2.172894529438420985e+00	1.714923432242579822e-06	-1.562759489014738253e-04	1.013175438480909234e-02	8.466760605464577205e-01	1.121405281488396133e+00	1.000004651823846347e+00	-9.988844460618996265e-03	3.380774901339159659e-05	1.148709481741848238e-05
2.192921207129097994e+00	1.714829041478083897e-06	-1.562705009493577807e-04	9.942118262899266382e-03	8.466798501285474066e-01	1.120573446721513156e+00	1.000004650925646610e+00	-9.988869622612356683e-03	3.376315645439202586e-05	1.168552345031470018e-05
2.212947884819774558e+00	1.714757666412077334e-06	-1.562662471169847368e-04	9.757833588559914825e-03	8.466834567962094882e-01	1.119767291247859120e+00	1.000004650032216835e+00	-9.988889324495273461e-03	3.372023519456939574e-05	1.188604258071673988e-05
2.232974562510451122e+00	1.714703807403745680e-06	-1.562629066261754225e-04	9.578716405265794154e-03	8.466868802675169281e-01	1.118986096969093236e+00	1.000004649144397684e+00	-9.988904969550647939e-03	3.367893899499713921e-05	1.208862207018806883e-05
2.253001240201127686e+00	1.714663249560467787e-06	-1.562602675307384460e-04	9.404587143538520322e-03	8.466901294795646793e-01	1.118229175140736054e+00	1.000004648261966222e+00	-9.988917401698237108e-03	3.363922419379045256e-05	1.229323848130884900e-05
2.273027917891804695e+00	1.714632770623703113e-06	-1.562581626781377458e-04	9.235271142299815786e-03	8.466932317793003371e-01	1.117495865000340372e+00	1.000004647385718703e+00	-9.988927596016708085e-03	3.360104867042005590e-05	1.249987369689151556e-05
2.293054595582481259e+00	1.714609911960810774e-06	-1.562564706335340867e-04	9.070599405864908024e-03	8.466961775530030820e-01	1.116785532462382546e+00	1.000004646515358031e+00	-9.988935878666347148e-03	3.356437262687407834e-05	1.270851381782237497e-05
2.313081273273157823e+00	1.714592802504820204e-06	-1.562550918782606426e-04	8.910408649017433416e-03	8.466989826167939936e-01	1.116097568858520184e+00	1.000004645651634938e+00	-9.988942949292691983e-03	3.352915761152491607e-05	1.291914828538572465e-05
2.333107950963834831e+00	1.714580020881791591e-06	-1.562539569933732420e-04	8.754541661145909953e-03	8.467016455328439939e-01	1.115431389747012503e+00	1.000004644794186159e+00	-9.988948916607199094e-03	3.349536725848884216e-05	1.313176918424345275e-05
2.353134628654511395e+00	1.714570490364148739e-06	-1.562530063608532738e-04	8.602847107026705478e-03	8.467042012037518939e-01	1.114786433767510854e+00	1.000004643943731120e+00	-9.988954306777425921e-03	3.346296639012285863e-05	1.334637069011546330e-05
2.373161306345187960e+00	1.714563396576183845e-06	-1.562522009893680601e-04	8.455179670730355104e-03	8.467066223671484426e-01	1.114162161563869713e+00	1.000004643099849044e+00	-9.988959101601531387e-03	3.343192170516890631e-05	1.356294863327593613e-05
2.393187984035864524e+00	1.714558125472672651e-06	-1.562515065259149536e-04	8.311399743468821794e-03	8.467089582193463304e-01	1.113558054749324899e+00	1.000004642263240928e+00	-9.988963596910661533e-03	3.340220096455094563e-05	1.378150015428365315e-05
2.413214661726541532e+00	1.714554214614443838e-06	-1.562508999371696559e-04	8.171373449303406117e-03	8.467111701363062570e-01	1.112973614936548339e+00	1.000004641433424712e+00	-9.988967809823124863e-03	3.337377363296737407e-05	1.400202343313838541e-05
2.433241339417218096e+00	1.714551316985246774e-06	-1.562503614312066357e-04	8.034972282645824748e-03	8.467133081601228017e-01	1.112408362805964002e+00	1.000004640611085183e+00	-9.988971906265166345e-03	3.334661010554756689e-05	1.422451747657507206e-05
2.453268017107894661e+00	1.714549172319058383e-06	-1.562498782196654616e-04	7.902073084341777395e-03	8.467153314113384788e-01	1.111861837234535910e+00	1.000004639795703421e+00	-9.988975856979932094e-03	3.332068234844321684e-05	1.444898195141451455e-05
2.473294694798571669e+00	1.714547586283603878e-06	-1.562494372655263194e-04	7.772557662165208332e-03	8.467172987281793572e-01	1.111333594458326468e+00	1.000004638987943784e+00	-9.988979856259140241e-03	3.329596313726406739e-05	1.467541705416534121e-05
2.493321372489248233e+00	1.714546413692327007e-06	-1.562490331824043486e-04	7.646312747371972196e-03	8.467191549374741832e-01	1.110823207291110837e+00	1.000004638187242945e+00	-9.988983750858675473e-03	3.327242669260021429e-05	1.490382340921878865e-05
2.513348050179924797e+00	1.714545546697671498e-06	-1.562486574495306878e-04	7.523229627588144848e-03	8.467209640367183709e-01	1.110330264371810483e+00	1.000004637394264817e+00	-9.988987709262465986e-03	3.325004796265794242e-05	1.513420198939471925e-05
2.533374727870601362e+00	1.714544905012251277e-06	-1.562483072764248981e-04	7.403204090724178205e-03	8.467226685973224809e-01	1.109854369463668222e+00	1.000004636608407882e+00	-9.988991612166807713e-03	3.322880321344264410e-05	1.536655405407933052e-05
2.553401405561278370e+00	1.714544429330158168e-06	-1.562479763304239883e-04	7.286136082383235998e-03	8.467243417794189098e-01	1.109395140778018707e+00	1.000004635830329835e+00	-9.988995638040435235e-03	3.320866936207806492e-05	1.560088110101428261e-05
2.573428083251954934e+00	1.714544075630597352e-06	-1.562476648457248706e-04	7.171929647799903627e-03	8.467259211361123361e-01	1.108952210345283573e+00	1.000004635059394298e+00	-9.988999588550795047e-03	3.318962452998367395e-05	1.583718482878290174e-05
2.593454760942631498e+00	1.714543811589477604e-06	-1.562473682590349302e-04	7.060492621142479275e-03	8.467274707212837370e-01	1.108525223406745086e+00	1.000004634296259187e+00	-9.989003614640052167e-03	3.317164744159262554e-05	1.607546710758154813e-05
2.613481438633308507e+00	1.714543613266656536e-06	-1.562470866009602456e-04	6.951736562963000028e-03	8.467289338957398881e-01	1.108113837849523220e+00	1.000004633540258148e+00	-9.989007596812220571e-03	3.315471791095375606e-05	1.631572995643988300e-05
2.633508116323985071e+00	1.714543463204952394e-06	-1.562468161451649267e-04	6.845576481610816250e-03	8.467303685673466251e-01	1.107717723658834696e+00	1.000004632792052206e+00	-9.989011681619414454e-03	3.313881630205748420e-05	1.655797552541235656e-05
2.653534794014661635e+00	1.714543348482426948e-06	-1.562465592750840839e-04	6.741930773426088944e-03	8.467317165463110751e-01	1.107336562409997560e+00	1.000004632050942144e+00	-9.989015637532721453e-03	3.312392397363425850e-05	1.680220608165209188e-05
2.673561471705338199e+00	1.714543259744865490e-06	-1.562463107763157276e-04	6.640720976833532595e-03	8.467330510209580829e-01	1.106970046774067518e+00	1.000004631317600756e+00	-9.989019734801799291e-03	3.311002280890127899e-05	1.704842399844288571e-05
2.693588149396015208e+00	1.714543190073761565e-06	-1.562460748379416650e-04	6.541871703526672133e-03	8.467342964347733814e-01	1.106617880060984493e+00	1.000004630591295518e+00	-9.989023649485147607e-03	3.309709555926017630e-05	1.729663174654315848e-05
2.713614827086691772e+00	1.714543134483068011e-06	-1.562458457915243343e-04	6.445310438848723955e-03	8.467355448652106320e-01	1.106279775772369911e+00	1.000004629872708550e+00	-9.989027697702058603e-03	3.308512551866398389e-05	1.754683188731436232e-05
2.733641504777368336e+00	1.714543089302062518e-06	-1.562456275573070159e-04	6.350967451547223988e-03	8.467366855712294971e-01	1.105955457190118230e+00	1.000004629161084013e+00	-9.989031587079888821e-03	3.307409670254966334e-05	1.779902706719430449e-05
2.753668182468045345e+00	1.714543051877312313e-06	-1.562454154023427651e-04	6.258775644493139688e-03	8.467378452509550790e-01	1.105644656971343176e+00	1.000004628457110245e+00	-9.989035584276256124e-03	3.306399370135539094e-05	1.805322001326430887e-05
2.773694860158721909e+00	1.714543020278424437e-06	-1.562452143262606566e-04	6.168670443760554574e-03	8.467388977983094644e-01	1.105347116777158023e+00	1.000004627760004761e+00	-9.989039337277067290e-03	3.305480169493441571e-05	1.830941352960243422e-05
2.793721537849398473e+00	1.714542993078265265e-06	-1.562450177185050002e-04	6.080589695856509526e-03	8.467399859248881944e-01	1.105062586905387834e+00	1.000004627070478547e+00	-9.989043239306676439e-03	3.304650648307753930e-05	1.856761049430437796e-05
2.813748215540075037e+00	1.714542969287077011e-06	-1.562448309310389177e-04	5.994473528073245017e-03	8.467409656786155647e-01	1.104790825955126898e+00	1.000004626387710704e+00	-9.989046922376934937e-03	3.303909428799741972e-05	1.882781385696325840e-05
2.833774893230752046e+00	1.714542948110828543e-06	-1.562446496775757787e-04	5.910264302854940054e-03	8.467419667742390743e-01	1.104531600492890675e+00	1.000004625712429984e+00	-9.989050635617618620e-03	3.303255203555671672e-05	1.909002663658793979e-05
2.853801570921428610e+00	1.714542929055976844e-06	-1.562444767403513692e-04	5.827906446517787907e-03	8.467428561420764499e-01	1.104284684749339718e+00	1.000004625043798168e+00	-9.989054179872124822e-03	3.302686692577069821e-05	1.935425191976739332e-05
2.873828248612105174e+00	1.714542911661287486e-06	-1.562443092071009944e-04	5.747346446085121498e-03	8.467437781289016696e-01	1.104049860315192921e+00	1.000004624382555996e+00	-9.989057719891669684e-03	3.302202690302603422e-05	1.962049285914173831e-05
2.893854926302782182e+00	1.714542895694977317e-06	-1.562441490126007784e-04	5.668532662421918965e-03	8.467446255741506445e-01	1.103826915866704894e+00	1.000004623727838160e+00	-9.989061114066583036e-03	3.301802007695728281e-05	1.988875267200680962e-05
2.913881603993458747e+00	1.714542880866293805e-06	-1.562439942845786085e-04	5.591415357392376731e-03	8.467454899350371766e-01	1.103615646888308932e+00	1.000004623080404942e+00	-9.989064463390333673e-03	3.301483532954637773e-05	2.015903463914180984e-05
2.933908281684135311e+00	1.714542867080254912e-06	-1.562438460494118184e-04	5.515946497418789188e-03	8.467462698868922777e-01	1.103415855423708347e+00	1.000004622439364832e+00	-9.989067686900316920e-03	3.301246161855023067e-05	2.043134210369905576e-05
2.953934959374811875e+00	1.714542854136022985e-06	-1.562437030126360624e-04	5.442079802961084616e-03	8.467470571406642277e-01	1.103227349822532455e+00	1.000004621805500538e+00	-9.989070850888195907e-03	3.301088868714586278e-05	2.070567847027973333e-05
2.973961637065488883e+00	1.714542842009602851e-06	-1.562435658909829461e-04	5.369770548015035533e-03	8.467477769574278668e-01	1.103049944514239655e+00	1.000004621177893238e+00	-9.989073896272571140e-03	3.301010628154410297e-05	2.098204720401573083e-05
2.993988314756165448e+00	1.714542830546566850e-06	-1.562434336863184397e-04	5.298975626783873974e-03	8.467485210481313640e-01	1.102883459776542452e+00	1.000004620557350288e+00	-9.989076872264622889e-03	3.301010494253722179e-05	2.126045182983273720e-05
3.014014992446842012e+00	1.714542819761401577e-06	-1.562433068199664348e-04	5.229653350872539262e-03	8.467491861991929269e-01	1.102727721529729088e+00	1.000004619942925776e+00	-9.989079740424464463e-03	3.301087514860723222e-05	2.154089593166378885e-05
3.034041670137519020e+00	1.714542809523377447e-06	-1.562431853192121529e-04	5.161763530443622822e-03	8.467498648263790395e-01	1.102582561124494376e+00	1.000004619335446598e+00	-9.989082486064150557e-03	3.301240818079749306e-05	2.182338315185498458e-05
3.054068347828195584e+00	1.714542799864890084e-06	-1.562430679528773489e-04	5.095267271550234234e-03	8.467504680380144588e-01	1.102447815154957267e+00	1.000004618733943085e+00	-9.989085177699754195e-03	3.301469520794480693e-05	2.210791719049652945e-05
3.074095025518872148e+00	1.714542790674751166e-06	-1.562429555404817947e-04	5.030127063497875049e-03	8.467511016414118741e-01	1.102323325263659060e+00	1.000004618139268331e+00	-9.989087751588351244e-03	3.301772817893521944e-05	2.239450180492261606e-05
3.094121703209549157e+00	1.714542781992185306e-06	-1.562428468085030246e-04	4.966306585960352481e-03	8.467516607314259369e-01	1.102208937971564495e+00	1.000004617550425134e+00	-9.989090279983015019e-03	3.302149891349265331e-05	2.268314080915368380e-05
3.114148380900225721e+00	1.714542773719406787e-06	-1.562427424834767864e-04	4.903770795627547356e-03	8.467522307602189935e-01	1.102104504498500281e+00	1.000004616968288129e+00	-9.989092706465705143e-03	3.302599998182095034e-05	2.297383807347333609e-05
3.134175058590902285e+00	1.714542765896757669e-06	-1.562426423407229693e-04	4.842485743970848140e-03	8.467527667040023465e-01	1.102009880608431081e+00	1.000004616391836354e+00	-9.989095037201438029e-03	3.303122381107849865e-05	2.326659752394460664e-05
3.154201736281578849e+00	1.714542758432809005e-06	-1.562425460617232226e-04	4.782418664678112115e-03	8.467532865497372496e-01	1.101924926443988539e+00	1.000004615821978193e+00	-9.989097283730029656e-03	3.303716356467742963e-05	2.356142314208472589e-05
3.174228413972255858e+00	1.714542751373174155e-06	-1.562424530049440891e-04	4.723537795059764427e-03	8.467537767367210311e-01	1.101849506385497834e+00	1.000004615257656937e+00	-9.989099479734522488e-03	3.304381222147419580e-05	2.385831896444693746e-05
3.194255091662932422e+00	1.714542744632232062e-06	-1.562423637197615702e-04	4.665812469571148542e-03	8.467542646964790753e-01	1.101783488898098629e+00	1.000004614699805172e+00	-9.989101582276206648e-03	3.305116349239527358e-05	2.415728908233940179e-05
3.214281769353608986e+00	1.714542738254707550e-06	-1.562422775811082853e-04	4.609212946051557958e-03	8.467547232512205868e-01	1.101726746403450585e+00	1.000004614147349979e+00	-9.989103624673039902e-03	3.305921088394613917e-05	2.445833764148747398e-05
3.234308447044285995e+00	1.714542732161009591e-06	-1.562421945286828883e-04	4.553710500140167872e-03	8.467551705288703934e-01	1.101679155138120869e+00	1.000004613601241266e+00	-9.989105603891431512e-03	3.306794861980608661e-05	2.476146884182417148e-05
3.254335124734962559e+00	1.714542726396753450e-06	-1.562421140087593416e-04	4.499277256365524606e-03	8.467556103072542140e-01	1.101640595036736503e+00	1.000004613060380798e+00	-9.989107549332085570e-03	3.307737069071962444e-05	2.506668693718492043e-05
3.274361802425639123e+00	1.714542720886314331e-06	-1.562420376438947145e-04	4.445886286309654392e-03	8.467560150702682087e-01	1.101610949600683620e+00	1.000004612525753789e+00	-9.989109351198753595e-03	3.308747180359931212e-05	2.537399623516873031e-05
3.294388480116315687e+00	1.714542715670594821e-06	-1.562419630224530119e-04	4.393511445445323106e-03	8.467564220887006110e-01	1.101590105791627749e+00	1.000004611996232917e+00	-9.989111158174931657e-03	3.309824642805217937e-05	2.568340109688317264e-05
3.314415157806992696e+00	1.714542710684607798e-06	-1.562418908961256674e-04	4.342127464044876622e-03	8.467568000686218621e-01	1.101577953909696150e+00	1.000004611472826710e+00	-9.989112916879117413e-03	3.310968969355663084e-05	2.599490593684430917e-05
3.334441835497669260e+00	1.714542705967524937e-06	-1.562418216844254130e-04	4.291709799555403979e-03	8.467571844200999509e-01	1.101574387496166318e+00	1.000004610954380979e+00	-9.989114595449240588e-03	3.312179650744432084e-05	2.630851522277840478e-05
3.354468513188345824e+00	1.714542701453767888e-06	-1.562417545578181888e-04	4.242234725214706105e-03	8.467575478525729560e-01	1.101579303220389328e+00	1.000004610441937114e+00	-9.989116242268310589e-03	3.313456243868950584e-05	2.662423347556719229e-05
3.374495190879022832e+00	1.714542697186945083e-06	-1.562416890967244492e-04	4.193679180802916545e-03	8.467578990212086820e-01	1.101592600790965548e+00	1.000004609934312283e+00	-9.989117879501905814e-03	3.314798278208061012e-05	2.694206526909169306e-05
3.394521868569699397e+00	1.714542693103920805e-06	-1.562416260497322617e-04	4.146020869219032949e-03	8.467582522479136786e-01	1.101614182850365165e+00	1.000004609432580738e+00	-9.989119455205263537e-03	3.316205350662979631e-05	2.726201523021539160e-05
3.414548546260375961e+00	1.714542689245695260e-06	-1.562415654551410681e-04	4.099238109492698602e-03	8.467585717561143532e-01	1.101643954894022226e+00	1.000004608935526340e+00	-9.989120962709872528e-03	3.317677029797249109e-05	2.758408803867162080e-05
3.434575223951052525e+00	1.714542685550371514e-06	-1.562415062161590757e-04	4.053309932984223464e-03	8.467589058963416182e-01	1.101681825172052376e+00	1.000004608444251541e+00	-9.989122468420997755e-03	3.319212951008884097e-05	2.790828842708381279e-05
3.454601901641729533e+00	1.714542682063765368e-06	-1.562414473372436877e-04	4.008215935692500780e-03	8.467592213729820960e-01	1.101727704615229841e+00	1.000004607957522440e+00	-9.989124032198546180e-03	3.320812716161182493e-05	2.823462118088724331e-05
3.474628579332406098e+00	1.714542678728694053e-06	-1.562413906037829849e-04	3.963936381638455582e-03	8.467595439259976153e-01	1.101781506743456651e+00	1.000004607476461471e+00	-9.989125536673911648e-03	3.322475995251728253e-05	2.856309113839685187e-05
3.494655257023082662e+00	1.714542675584911787e-06	-1.562413355346853740e-04	3.920452060665394201e-03	8.467598337472544978e-01	1.101843147598179806e+00	1.000004606999811863e+00	-9.989127008952687972e-03	3.324202426812187269e-05	2.889370319075571173e-05
3.514681934713759670e+00	1.714542672576794765e-06	-1.562412819583213256e-04	3.877744384788000750e-03	8.467601288405517401e-01	1.101912545656542841e+00	1.000004606528727136e+00	-9.989128457292769520e-03	3.325991714713058821e-05	2.922646228202442907e-05
3.534708612404436234e+00	1.714542669744895325e-06	-1.562412293707632382e-04	3.835795250688770440e-03	8.467604031276146914e-01	1.101989621770063987e+00	1.000004606061919876e+00	-9.989129910500257892e-03	3.327843528650024669e-05	2.956137340917583387e-05
3.554735290095112799e+00	1.714542667037263241e-06	-1.562411770153038335e-04	3.794587138535849332e-03	8.467606924977879590e-01	1.102074299084012665e+00	1.000004605600576912e+00	-9.989131414565102784e-03	3.329757603947056864e-05	2.989844162222090991e-05
3.574761967785789363e+00	1.714542664496680666e-06	-1.562411269883465389e-04	3.754102975202562413e-03	8.467609564381193277e-01	1.102166502981580365e+00	1.000004605143380632e+00	-9.989132832244996402e-03	3.331733639012650816e-05	3.023767202422062279e-05
3.594788645476466371e+00	1.714542662064749336e-06	-1.562410774805396408e-04	3.714326241870975071e-03	8.467612503473218588e-01	1.102266161008080614e+00	1.000004604691547394e+00	-9.989134277302658474e-03	3.333771403989574915e-05	3.057906977144067285e-05
3.614815323167142935e+00	1.714542659790132989e-06	-1.562410283940795380e-04	3.675240823262491789e-03	8.467614997402049815e-01	1.102373202820434051e+00	1.000004604243735162e+00	-9.989135752799827364e-03	3.335870622242345841e-05	3.092264007340661666e-05
3.634842000857819500e+00	1.714542657616116204e-06	-1.562409799039112500e-04	3.636831129643382059e-03	8.467617832744831485e-01	1.102487560115606557e+00	1.000004603801192493e+00	-9.989137246010498794e-03	3.338031093032306940e-05	3.126838819306681583e-05
3.654868678548496508e+00	1.714542655590429287e-06	-1.562409334504862132e-04	3.599081943561034062e-03	8.467620087881245761e-01	1.102609166584798794e+00	1.000004603362546041e+00	-9.989138661790250909e-03	3.340252567022869646e-05	3.161631944688842621e-05
3.674895356239173072e+00	1.714542653652973981e-06	-1.562408851495481214e-04	3.561978545559686769e-03	8.467622963257703805e-01	1.102737957845999262e+00	1.000004602929071451e+00	-9.989140247259499852e-03	3.342534874105790874e-05	3.196643920504173254e-05
3.694922033929849636e+00	1.714542651862664603e-06	-1.562408391901727643e-04	3.525506548111078959e-03	8.467625218676044785e-01	1.102873871402475725e+00	1.000004602499373396e+00	-9.989141731574693178e-03	3.344877783012039735e-05	3.231875289151947171e-05
3.714948711620526201e+00	1.714542650148364150e-06	-1.562407922179253564e-04	3.489652050619933363e-03	8.467627966903293890e-01	1.103016846579060850e+00	1.000004602074761051e+00	-9.989143328453636492e-03	3.347281158425812527e-05	3.267326598434609731e-05
3.734975389311203209e+00	1.714542648576933592e-06	-1.562407479883526340e-04	3.454401442238624800e-03	8.467630332273279326e-01	1.103166824484666853e+00	1.000004601653800895e+00	-9.989144794559512083e-03	3.349744787190028018e-05	3.302998401571810252e-05
3.755002067001879773e+00	1.714542647068346102e-06	-1.562407018377658368e-04	3.419741587311088231e-03	8.467632986336811607e-01	1.103323747951857170e+00	1.000004601237840296e+00	-9.989146427896267860e-03	3.352268566926898429e-05	3.338891257225753365e-05
3.775028744692556337e+00	1.714542645703124020e-06	-1.562406570160432501e-04	3.385659597377204191e-03	8.467635332253814484e-01	1.103487561503171399e+00	1.000004600825420420e+00	-9.989148017249491543e-03	3.354852297699797531e-05	3.375005729515041569e-05
3.795055422383233346e+00	1.714542644393613625e-06	-1.562406074591199336e-04	3.352143051282255922e-03	8.467638157447213709e-01	1.103658211293821134e+00	1.000004600417910616e+00	-9.989149950754982674e-03	3.357495907601292380e-05	3.411342388041727427e-05
3.815082100073909910e+00	1.714542643234652536e-06	-1.562405625304742231e-04	3.319179734664333067e-03	8.467640601474913931e-01	1.103835645081333139e+00	1.000004600013831846e+00	-9.989151625690185360e-03	3.360199206937957350e-05	3.447901807909981497e-05
3.835108777764586474e+00	1.714542642108049165e-06	-1.562405331310970033e-04	3.286757913744301537e-03	8.467642228195392251e-01	1.104019812171131765e+00	1.000004599614585210e+00	-9.989152346809521479e-03	3.362962171795877159e-05	3.484684569754869767e-05
3.855135455455263482e+00	1.714542641082593174e-06	-1.562404920415357522e-04	3.254866034462502219e-03	8.467644596666578094e-01	1.104210663389485703e+00	1.000004599218652146e+00	-9.989153850354186986e-03	3.365784652300266917e-05	3.521691259761399698e-05
3.875162133145940047e+00	1.714542640139743648e-06	-1.562403982154293898e-04	3.223492912730876667e-03	8.467649503047252058e-01	1.104408151031520013e+00	1.000004598827475277e+00	-9.989158751637824615e-03	3.368666574033876102e-05	3.558922469695534509e-05
3.895188810836616611e+00	1.714542639463162952e-06	-1.562402771676284837e-04	3.192627506349384262e-03	8.467656013312293561e-01	1.104612228837326793e+00	1.000004598439506953e+00	-9.989165481621783624e-03	3.371607711014188054e-05	3.596378796924240746e-05
3.915215488527293175e+00	1.714542638868160635e-06	-1.562403580933910212e-04	3.162259338976833745e-03	8.467651494299719417e-01	1.104822851941785755e+00	1.000004598056235317e+00	-9.989158474387995618e-03	3.374608138728644861e-05	3.634060844456575486e-05
3.935242166217970183e+00	1.714542637756821856e-06	-1.562409115714569446e-04	3.132378526660143346e-03	8.467621436339486385e-01	1.105039976858062101e+00	1.000004597676092510e+00	-9.989128704862595270e-03	3.377668287685855835e-05	3.671969220955142960e-05
3.955268843908646748e+00	1.714542635790303156e-06	-1.562406193077934245e-04	3.102975479608719063e-03	8.467637295031625877e-01	1.105263561416200524e+00	1.000004597300769182e+00	-9.989120075376179894e-03	3.380788646186383070e-05	3.710104541323196132e-05
3.975295521599323312e+00	1.714542635487490783e-06	-1.562380888902042562e-04	3.074037918972750277e-03	8.467774470138992315e-01	1.105493564729477463e+00	1.000004596930159639e+00	-9.989252496051334237e-03	3.383966489862787430e-05	3.748467424111799048e-05
3.995322199289999876e+00	1.714584732784533302e-06	-1.562433723291601262e-04	3.045531353289996409e-03	8.467602886651338645e-01	1.105725138389047624e+00	1.000000000000000000e+00	-1.000000000000000021e-02	3.387174561589884471e-05	3.787100112148618141e-05
