# Time=0.001300130013 and Columns are r	p	Paether	ur	alpha	a	b	K	Sr_tilde	tau_tilde
1.001333884533834630e-02	1.199614711643885896e-02	-1.852589354717316256e-02	1.847408658299762746e-05	6.444345102534230207e-01	1.000050130545535598e+00	1.000002807622388579e+00	-1.010143065795885038e-02	2.086886194265296499e-10	1.503605244160460712e-06
3.004001653601504063e-02	1.196761335334430541e-02	-1.850493490914738998e-02	5.541773894933004494e-05	6.446129894167665908e-01	1.000428554026387085e+00	1.000002808817119115e+00	-1.010103262723116048e-02	5.627386607938059112e-09	1.350536798876262085e-05
5.006669422669172975e-02	1.191072966270131754e-02	-1.846305786548378333e-02	9.234785376458545239e-05	6.449697290697181673e-01	1.001184540283499347e+00	1.000002811202099107e+00	-1.010021849524799127e-02	2.598608098369414053e-08	3.736481260627963892e-05
7.009337191736843276e-02	1.182586479867632490e-02	-1.840034499044536712e-02	1.292558624496322405e-04	6.455042796147663076e-01	1.002316360699899711e+00	1.000002814770483583e+00	-1.009899507275495781e-02	7.103236086036415330e-08	7.279543170721111374e-05
9.012004960804512188e-02	1.171356684151690294e-02	-1.831692022314494739e-02	1.661340575555598923e-04	6.462159658837355325e-01	1.003821404432015507e+00	1.000002819512479713e+00	-1.009737224855149391e-02	1.501982098971351279e-07	1.193715887335422158e-04
1.101467272987218110e-01	1.157455854674616265e-02	-1.821294988308519089e-02	2.029757760295563304e-04	6.471038799805107766e-01	1.005696157249812428e+00	1.000002825414632701e+00	-1.009535306538979216e-02	2.724796283683364487e-07	1.765334353602449643e-04
1.301734049893985001e-01	1.140973061925725819e-02	-1.808864355495078124e-02	2.397757153471161108e-04	6.481668748773994349e-01	1.007936173905591870e+00	1.000002832460218816e+00	-1.009294468564398382e-02	4.463220133352809841e-07	2.435934139712085601e-04
1.502000826800751754e-01	1.122013341300106062e-02	-1.794425509292444862e-02	2.765301911321716506e-04	6.494035576552276146e-01	1.010536044534980249e+00	1.000002840629326650e+00	-1.009015563347418973e-02	6.795126869097350679e-07	3.197442975476027203e-04
1.702267603707518784e-01	1.100696715348942374e-02	-1.778008378544443033e-02	3.132373853060087341e-04	6.508122798111007912e-01	1.013489355750007537e+00	1.000002849898940394e+00	-1.008699628779221626e-02	9.790818879014246574e-07	4.040687057875205985e-04
1.902534380614285814e-01	1.077157078410769832e-02	-1.759647555343069741e-02	3.498975633484863504e-04	6.523911277305944889e-01	1.016788647234865284e+00	1.000002860243045744e+00	-1.008347902657318398e-02	1.351213327691424352e-06	4.955500217771093962e-04
2.102801157521052566e-01	1.051540955098085282e-02	-1.739382416870296696e-02	3.865132828981062037e-04	6.541379121276885700e-01	1.020425364822870717e+00	1.000002871632717394e+00	-1.007961837544413090e-02	1.801165339044033386e-06	5.930846179524580999e-04
2.303067934427819596e-01	1.024006145518400503e-02	-1.717257243265259137e-02	4.230895692930452417e-04	6.560501566625520642e-01	1.024389811210186130e+00	1.000002884036247375e+00	-1.007543113688957361e-02	2.333203358896657285e-06	6.954952833816279182e-04
2.503334711334586626e-01	9.947202714446353247e-03	-1.693321325104512817e-02	4.596340904680335611e-04	6.581250860934427793e-01	1.028671095648123979e+00	1.000002897419243197e+00	-1.007093649367528550e-02	2.950544526245070675e-06	8.015457265848479219e-04
2.703601488241353379e-01	9.638592388798617946e-03	-1.667629053172262066e-02	4.961573010649879354e-04	6.603596152964312793e-01	1.033257084147996219e+00	1.000002911744788392e+00	-1.006615608108872573e-02	3.655314778019704528e-06	9.099560093057010258e-04
2.903868265148120131e-01	9.316056335728028354e-03	-1.640239986605801503e-02	5.326725986095110117e-04	6.627503370564681306e-01	1.038134351926917720e+00	1.000002926973529327e+00	-1.006111400472830576e-02	4.448519058280460388e-06	1.019418747060940036e-03
3.104135042054887439e-01	8.981470670069968340e-03	-1.611218890041124160e-02	5.691964557261821635e-04	6.652935122152813241e-01	1.043288140012597731e+00	1.000002943063857064e+00	-1.005583681275365633e-02	5.330024693700220435e-06	1.128615892252255067e-03
3.304401818961654191e-01	8.636744911932819208e-03	-1.580635736340395975e-02	6.057485814642257554e-04	6.679850590884740535e-01	1.048702318103971187e+00	1.000002959972014605e+00	-1.005035339807165522e-02	6.298558484180524632e-06	1.236235895575006323e-03
3.504668595868420944e-01	8.283805012152872446e-03	-1.548565667769534644e-02	6.423520692643048006e-04	6.708205457829853335e-01	1.054359355941180354e+00	1.000002977652274083e+00	-1.004469483427510371e-02	7.351717249071734853e-06	1.340991021987724503e-03
3.704935372775188251e-01	7.924576448926806335e-03	-1.515088910104407140e-02	6.790335951065215722e-04	6.737951832955949572e-01	1.060240305564010388e+00	1.000002996057058891e+00	-1.003889413978935850e-02	8.485992395483133393e-06	1.441634579339954063e-03
3.905202149681955004e-01	7.560967591101689332e-03	-1.480290637242657505e-02	7.158236158187803897e-04	6.769038213245233138e-01	1.066324796917849538e+00	1.000003015137142404e+00	-1.003298595941478147e-02	9.696807907545300381e-06	1.536977801745045488e-03
4.105468926588721756e-01	7.194853522919700782e-03	-1.444260780237660580e-02	7.527566422275618627e-04	6.801409459491407627e-01	1.072591049289205012e+00	1.000003034841764338e+00	-1.002700617162959919e-02	1.097857238088421979e-05	1.625906116906470494e-03
4.305735703495489064e-01	6.828060521577740578e-03	-1.407093779943752176e-02	7.898715286216699159e-04	6.835006815209132558e-01	1.079015901002800204e+00	1.000003055118855233e+00	-1.002099142228044318e-02	1.232474406815943967e-05	1.707394517916562601e-03
4.506002480402255816e-01	6.462351372598436339e-03	-1.368888281217934232e-02	8.272118645114371607e-04	6.869767941895140728e-01	1.085574859678204662e+00	1.000003075915163020e+00	-1.001497858040478230e-02	1.372790958872104521e-05	1.780521756660558832e-03
4.706269257309022569e-01	6.099411698555611688e-03	-1.329746769271883920e-02	8.648264016466111152e-04	6.905627002522179980e-01	1.092242175110800462e+00	1.000003097176494604e+00	-1.000900413454698483e-02	1.517987469164796233e-05	1.844483078969075263e-03
4.906536034215789877e-01	5.740837464059184679e-03	-1.289775147439656093e-02	9.027696137004270543e-04	6.942514773168765307e-01	1.098990936503730698e+00	1.000003118847847761e+00	-1.000310353308736869e-02	1.667176766772743095e-05	1.898601232094856549e-03
5.106802811122557184e-01	5.388123804059947834e-03	-1.249082260632808535e-02	9.411023127234072585e-04	6.980358810281110937e-01	1.105793195324337841e+00	1.000003140873681584e+00	-9.997310494962887220e-03	1.819415303660467534e-05	1.942335493794478075e-03
5.307069588029323937e-01	5.042655303531761411e-03	-1.207779370301860153e-02	9.798924319729862466e-04	7.019083626339263082e-01	1.112620114494657697e+00	1.000003163198059264e+00	-9.991656260012384688e-03	1.973715594173408518e-05	1.975288499880477680e-03
5.507336364936090689e-01	4.705697834603802740e-03	-1.165979580127386901e-02	1.019215891654257989e-03	7.058610950752828295e-01	1.119442143951555835e+00	1.000003185764925195e+00	-9.986168879899086012e-03	2.129059397129224687e-05	1.997210683821235445e-03
5.707603141842857442e-01	4.378392032507373577e-03	-1.123797227201563803e-02	1.059157668239956449e-03	7.098859977191214199e-01	1.126229221846388295e+00	1.000003208518258635e+00	-9.980872463584200549e-03	2.284411655874759518e-05	2.008002187630620293e-03
5.907869918749625304e-01	4.061748464690745526e-03	-1.081347239796309756e-02	1.099812979100778460e-03	7.139747699751793908e-01	1.132950999812199377e+00	1.000003231402381232e+00	-9.975786497532333416e-03	2.438734772910112057e-05	2.007712157213047740e-03
6.108136695656392057e-01	3.756644518639276013e-03	-1.038744475803025924e-02	1.141288715117517788e-03	7.181189226199208298e-01	1.139577089843258673e+00	1.000003254362085148e+00	-9.970925163746853156e-03	2.591003206651695370e-05	1.996535396282435055e-03
6.308403472563158809e-01	3.463823003985127755e-03	-9.961030466556183502e-03	1.183705029743873337e-03	7.223098184153332602e-01	1.146077329437010350e+00	1.000003277342965458e+00	-9.966296779100191836e-03	2.740217878486064741e-05	1.974806419153151815e-03
6.508670249469925562e-01	3.183892434119944218e-03	-9.535356439128728212e-03	1.227197231409768701e-03	7.265387071416699039e-01	1.152422060791463920e+00	1.000003300291523844e+00	-9.961903241712701321e-03	2.885420364645773799e-05	1.942991011799235666e-03
6.708937026376692314e-01	2.917328922591199900e-03	-9.111528714849201349e-03	1.271917888712357624e-03	7.307967703955110528e-01	1.158582419069781100e+00	1.000003323155497226e+00	-9.957739648817185915e-03	3.025706300935675368e-05	1.901675479837566839e-03
6.909203803283459067e-01	2.664479600912673333e-03	-8.690626016758242270e-03	1.318039311462889784e-03	7.350751590432822447e-01	1.164530624093480515e+00	1.000003345883944350e+00	-9.953793940985933980e-03	3.160237988871627553e-05	1.851553828469491717e-03
7.109470580190225819e-01	2.425567437975372550e-03	-8.273693593738628074e-03	1.365756323567162952e-03	7.393650386130909968e-01	1.170240269341329631e+00	1.000003368427551331e+00	-9.950046738827709666e-03	3.288255615767976612e-05	1.793413179743064178e-03
7.309737357096993682e-01	2.200697317819655299e-03	-7.861737506348833240e-03	1.415289511781639984e-03	7.436576252729418801e-01	1.175686601860523650e+00	1.000003390738674502e+00	-9.946471204253510071e-03	3.409087132275239390e-05	1.728117783707685488e-03
7.510004134003760434e-01	1.989863212936913896e-03	-7.455719368694109506e-03	1.466888879930642632e-03	7.479442296741898311e-01	1.180846786658040104e+00	1.000003412771608202e+00	-9.943033133545588209e-03	3.522156237827981620e-05	1.656592019372733803e-03
7.710270910910527187e-01	1.792956275114588292e-03	-7.056551724754603003e-03	1.520838118722437097e-03	7.522162874944275934e-01	1.185700149360240818e+00	1.000003434482583220e+00	-9.939691039153146501e-03	3.626988611217697592e-05	1.579802806648806287e-03
7.910537687817293939e-01	1.609773655645351485e-03	-6.665094012918902806e-03	1.577459445427287091e-03	7.564653981242294156e-01	1.190228391396886964e+00	1.000003455829988397e+00	-9.936396489833802109e-03	3.723215930133716184e-05	1.498741860172206732e-03
8.110804464724060692e-01	1.440027861733289951e-03	-6.282149282195018114e-03	1.637119255536733514e-03	7.606833468606439830e-01	1.194415772679363608e+00	1.000003476774293354e+00	-9.933094415085864937e-03	3.810577936092503448e-05	1.414408209495599932e-03
8.311071241630827444e-01	1.283356456262199716e-03	-5.908461561415727543e-03	1.700234577141550817e-03	7.648621355277293032e-01	1.198249257658710043e+00	1.000003497278227460e+00	-9.929723706059420674e-03	3.888922219666096598e-05	1.327791387925982610e-03
8.511338018537595307e-01	1.139331913550460044e-03	-5.544714037080391775e-03	1.767280608561945824e-03	7.689939952198842077e-01	1.201718621736440840e+00	1.000003517306624845e+00	-9.926217749152747849e-03	3.958202105201410348e-05	1.239855655600899951e-03
8.711604795444362059e-01	1.007471453990687943e-03	-5.191527867099627810e-03	1.838799378705813139e-03	7.730714059512419079e-01	1.204816516190394093e+00	1.000003536826561179e+00	-9.922505324528848106e-03	4.018472455647080434e-05	1.151525573377698433e-03
8.911871572351128812e-01	8.872466949727172416e-04	-4.849461768464823248e-03	1.915409851107256365e-03	7.770870990581772997e-01	1.207538491022438265e+00	1.000003555807114086e+00	-9.918511456495983022e-03	4.069883873121021226e-05	1.063673185626200180e-03
9.112138349257895564e-01	7.780929735637390427e-04	-4.519012167176763087e-03	1.997819565506602120e-03	7.810340649320873796e-01	1.209882976353306772e+00	1.000003574219481051e+00	-9.914158703336180267e-03	4.112675248020444097e-05	9.771070054229156511e-04
9.312405126164662317e-01	6.794182172281972281e-04	-4.200613981621458340e-03	2.086838169752821756e-03	7.849055456976852252e-01	1.211851224137653338e+00	1.000003592036660782e+00	-9.909368520802153135e-03	4.147165183359078917e-05	8.925629285378911719e-04
9.512671903071429069e-01	5.906112615879841304e-04	-3.894641815118643925e-03	2.183392971674852703e-03	7.886950340345851851e-01	1.213447212974401390e+00	1.000003609233568014e+00	-9.904063221453911908e-03	4.173742337114929945e-05	8.106971365781458000e-04
9.712938679978196932e-01	5.110495379418005532e-04	-3.601411597256485263e-03	2.288546853780325761e-03	7.923962570311815501e-01	1.214677519618124757e+00	1.000003625786673567e+00	-9.898168153297547123e-03	4.192855205849517280e-05	7.320809880286037810e-04
9.913205456884963684e-01	4.401060771644041024e-04	-3.321182402835913278e-03	2.403518645815558470e-03	7.960031676845278348e-01	1.215551161401970059e+00	1.000003641674153121e+00	-9.891614720302182445e-03	4.205001436409723151e-05	6.571978415816736967e-04
1.011347223379172933e+00	3.771557998717333044e-04	-3.054158458519697864e-03	2.529706159870330571e-03	7.995099257213944544e-01	1.216079414165711192e+00	1.000003656875511293e+00	-9.884343873734054153e-03	4.210717126511599615e-05	5.864417112862267949e-04
1.031373901069849497e+00	3.215810846784426260e-04	-2.800491043727888069e-03	2.668711751022859614e-03	8.029108919071613615e-01	1.216275610416529984e+00	1.000003671371823888e+00	-9.876310754450098872e-03	4.210566200936268389e-05	5.201176191487698591e-04
1.051400578760526283e+00	2.727766263275441011e-04	-2.560280320506384735e-03	2.822370158201999938e-03	8.062006069074176828e-01	1.216154922370778380e+00	1.000003685145417487e+00	-9.867489923275541211e-03	4.205130220377970875e-05	4.584434885031553547e-04
1.071427256451203069e+00	2.301536128912652765e-04	-2.333576739000507889e-03	2.992777799901837760e-03	8.093737957686812923e-01	1.215734134231656771e+00	1.000003698180246259e+00	-9.857881958785784035e-03	4.194998688689090748e-05	4.015534104930092900e-04
1.091453934141879634e+00	1.931432655853926577e-04	-2.120382075635717824e-03	3.182322143033089728e-03	8.124253630905491352e-01	1.215031407613647696e+00	1.000003710461710327e+00	-9.847520639352699487e-03	4.180760081887033774e-05	3.495021152345592153e-04
1.111480611832556420e+00	1.611997955261589715e-04	-1.920649821543945470e-03	3.393708676193524839e-03	8.153504159180183786e-01	1.214066043450563015e+00	1.000003721977233972e+00	-9.836481076259749601e-03	4.162993635666733014e-05	3.022704866373171853e-04
1.131507289523232984e+00	1.338028384863265718e-04	-1.734284976343020970e-03	3.629981662198713838e-03	8.181442835279054693e-01	1.212858243105270573e+00	1.000003732716272742e+00	-9.824887740457638810e-03	4.142261996322872783e-05	2.597719725820155242e-04
1.151533967213909770e+00	1.104594309211976853e-04	-1.561143094055973809e-03	3.894532841660993967e-03	8.208025729514035751e-01	1.211428870771553035e+00	1.000003742671171203e+00	-9.812922036225786224e-03	4.119104741161146052e-05	2.218597565869918735e-04
1.171560644904586557e+00	9.070558783889006598e-05	-1.401028722308959515e-03	4.191089719399115204e-03	8.233212295528635760e-01	1.209799218721478109e+00	1.000003751837356125e+00	-9.800827797664552268e-03	4.094032788645916529e-05	1.883345690730272703e-04
1.191587322595263121e+00	7.410753529870891046e-05	-1.253693271545832212e-03	4.523671895643069200e-03	8.256966367338002266e-01	1.207990776545509126e+00	1.000003760214428050e+00	-9.788913570819800930e-03	4.067523689808856112e-05	1.589530215594046328e-04
1.211614000285939907e+00	6.026263762957159953e-05	-1.118832662044842502e-03	4.896500343967509668e-03	8.279257189209311418e-01	1.206025005354732782e+00	1.000003767806498356e+00	-9.777549371774409831e-03	4.040017776419358949e-05	1.334363417492340968e-04
1.231640677976616471e+00	4.880004269328901535e-05	-9.960849965352746010e-04	5.313841184550604536e-03	8.300060868492876720e-01	1.203923117982935054e+00	1.000003774623331454e+00	-9.767156748067801209e-03	4.011915169170308281e-05	1.114793690502849686e-04
1.251667355667293258e+00	3.938104935710536557e-05	-8.850288619068596291e-04	5.779763320389854665e-03	8.319361758707481957e-01	1.201705866598698824e+00	1.000003780680570609e+00	-9.758190132255305585e-03	3.983573597201479774e-05	9.275963867175565647e-05
1.271694033357969822e+00	3.169918244656415925e-05	-7.851826999797310164e-04	6.297790360726759386e-03	8.337154110464056744e-01	1.199393339758178190e+00	1.000003786000659201e+00	-9.751109913150788483e-03	3.955307053694204954e-05	7.694634164607727840e-05
1.291720711048646608e+00	2.547994533001190641e-05	-6.960059623727792065e-04	6.870433810979242537e-03	8.353443531833152358e-01	1.197004771760677100e+00	1.000003790612557175e+00	-9.746347794923653635e-03	3.927385212343548107e-05	6.370890567088337536e-05
1.311747388739323394e+00	2.048021277502641926e-05	-6.169024870402606709e-04	7.498610117548332350e-03	8.368248348958177152e-01	1.194558368032786255e+00	1.000003794552095870e+00	-9.744268257419167953e-03	3.900033629789703395e-05	5.272490893879437358e-05
1.331774066429999959e+00	1.648723008551285056e-05	-5.472265790243304850e-04	8.180970758157582803e-03	8.381600554725597840e-01	1.192071151012275232e+00	1.000003797860900434e+00	-9.745130500047251287e-03	3.873434629365247073e-05	4.368702921271400472e-05
1.351800744120676745e+00	1.331720032105492157e-05	-4.862918268465581508e-04	8.913212959556300954e-03	8.393546252178056832e-01	1.189558831365979952e+00	1.000003800586016567e+00	-9.749057572091289481e-03	3.847728892647446540e-05	3.630875471040083527e-05
1.371827421811353309e+00	1.081346846720369190e-05	-4.333825403005224270e-04	9.687482942187219601e-03	8.404145515570955460e-01	1.187035709201714084e+00	1.000003802778103745e+00	-9.756017572359285475e-03	3.823017677013287207e-05	3.032864745197225566e-05
1.391854099502030095e+00	8.844345530759720745e-06	-3.877671527234488125e-04	1.049202240406119785e-02	8.413471334777017363e-01	1.184514609054510004e+00	1.000003804490565029e+00	-9.765821260340614568e-03	3.799365763444073960e-05	2.551304999961049829e-05
1.411880777192706660e+00	7.300650047975695553e-06	-3.487127856869564040e-04	1.131122177671139116e-02	8.421608146514608650e-01	1.182006850897789452e+00	1.000003805777449628e+00	-9.778135886626824341e-03	3.776805132393835310e-05	2.165724934263664562e-05
1.431907454883383446e+00	6.093072006505981526e-06	-3.154998280892070783e-04	1.212621100558558193e-02	8.428649354833491758e-01	1.179522257363559978e+00	1.000003806692593367e+00	-9.792513249438168990e-03	3.755339488556033798e-05	1.858523604827506533e-05
1.451934132574060232e+00	5.149478701334635742e-06	-2.874355211293239945e-04	1.291602787763285534e-02	8.434694799485381589e-01	1.177069195096195120e+00	1.000003807287655588e+00	-9.808425788230554568e-03	3.734949484880587770e-05	1.614830005544512590e-05
1.471960810264736796e+00	4.412280746528036442e-06	-2.638655120004874260e-04	1.365926837975296737e-02	8.439846951057583535e-01	1.174654646023163718e+00	1.000003807611627771e+00	-9.825306778698670446e-03	3.715598435118166673e-05	1.422276908367447390e-05
1.491987487955413583e+00	3.835960453168232391e-06	-2.441827666658151030e-04	1.433598066682636313e-02	8.444208918674211972e-01	1.172284302688831215e+00	1.000003807709200387e+00	-9.842590342437793419e-03	3.697237934913115268e-05	1.270721408346173165e-05
1.512014165646090147e+00	3.384838382152957078e-06	-2.278335389419887326e-04	1.492947103497575638e-02	8.447880013626977158e-01	1.169962680841063696e+00	1.000003807620715834e+00	-9.859747032825933247e-03	3.679812898120839306e-05	1.151942225912856493e-05
1.532040843336766933e+00	3.031123065817677116e-06	-2.143204010620648736e-04	1.542768936085423676e-02	8.450954634950319511e-01	1.167693242300542389e+00	1.000003807380988263e+00	-9.876314962048216017e-03	3.663265513599018696e-05	1.059338422797850489e-05
1.552067521027443719e+00	2.753259369315677175e-06	-2.032026831583195569e-04	1.582396186782456665e-02	8.453519512614111608e-01	1.165478521645350707e+00	1.000003807019845148e+00	-9.891922597574617435e-03	3.647538026788101875e-05	9.876473549504786624e-06
1.572094198718120284e+00	2.534566855114743732e-06	-1.940948384830236428e-04	1.611700214102813888e-02	8.455652874868001545e-01	1.163320251258367355e+00	1.000003806561542641e+00	-9.906300346311782898e-03	3.632574448057947447e-05	9.326928394111620192e-06
1.592120876408797070e+00	2.362142772089207337e-06	-1.866632182595928246e-04	1.631029650797482730e-02	8.457423913067183552e-01	1.161219480532987181e+00	1.000003806025930864e+00	-9.919283017710268241e-03	3.618321540449008462e-05	8.911686300485795008e-06
1.612147554099473634e+00	2.225994965192944577e-06	-1.806219072753558407e-04	1.641107105196683985e-02	8.458892597602059027e-01	1.159176686338006856e+00	1.000003805428316017e+00	-9.930799536316727710e-03	3.604729324187495111e-05	8.604578484165701713e-06
1.632174231790150420e+00	2.118366842712549647e-06	-1.757279675740398036e-04	1.642908319220089466e-02	8.460110303509009722e-01	1.157191873006274463e+00	1.000003804780974503e+00	-9.940857801534003224e-03	3.591751387506323783e-05	8.384860598235032559e-06
1.652200909480826985e+00	2.033217782864224955e-06	-1.717765465473021296e-04	1.637544836629357611e-02	8.461120849485802564e-01	1.155264661084833167e+00	1.000003804093055004e+00	-9.949524765373501944e-03	3.579344998029633854e-05	8.236040274257921305e-06
1.672227587171503771e+00	1.965826214855337998e-06	-1.685960753573330004e-04	1.626164471101298331e-02	8.461960544251735383e-01	1.153394364800023553e+00	1.000003803372060185e+00	-9.956906205459310766e-03	3.567471158240953012e-05	8.144955146368375131e-06
1.692254264862180557e+00	1.912487659624845749e-06	-1.660437166331684658e-04	1.609876261029927202e-02	8.462659984042452121e-01	1.151580058703498999e+00	1.000003802623523397e+00	-9.963130443734969505e-03	3.556094500100587881e-05	8.101055212666289653e-06
1.712280942552857121e+00	1.870285230214451281e-06	-1.640012142171030040e-04	1.589700633312804076e-02	8.463244102075995201e-01	1.149820634271223829e+00	1.000003801852300978e+00	-9.968333755346243247e-03	3.545183133351636654e-05	8.095847563249386310e-06
1.732307620243533908e+00	1.836914901945861886e-06	-1.623711344608617642e-04	1.566541573043682412e-02	8.463733920600968741e-01	1.148114847410173001e+00	1.000003801061964515e+00	-9.972651722200820759e-03	3.534708379401522310e-05	8.122467592227103846e-06
1.752334297934210472e+00	1.810551960890769162e-06	-1.610735796681081857e-04	1.541175935283328746e-02	8.464146190109546053e-01	1.146461357885981913e+00	1.000003800255951258e+00	-9.976211769066382212e-03	3.524644495994568044e-05	8.175347367984366507e-06
1.772360975624887258e+00	1.789748372593742904e-06	-1.600432954565970804e-04	1.514254743438507751e-02	8.464495004451918492e-01	1.144858761694922178e+00	1.000003799436764318e+00	-9.979130462881465047e-03	3.514968356911903855e-05	8.249957990918672525e-06
1.792387653315563822e+00	1.773353411897742818e-06	-1.592272036589593379e-04	1.486312009702924104e-02	8.464791510708558064e-01	1.143305617343710612e+00	1.000003798607031147e+00	-9.981511160324045909e-03	3.505659157485309352e-05	8.342608087820442650e-06
1.812414331006240609e+00	1.760451876187051179e-06	-1.585822789878110913e-04	1.457777562455567742e-02	8.465045104779592711e-01	1.141800466941961467e+00	1.000003797768598712e+00	-9.983444347143554526e-03	3.496698121355899547e-05	8.450284937493056294e-06
1.832441008696917395e+00	1.750315678108246057e-06	-1.580737747778079394e-04	1.428991409968709270e-02	8.465263076535560760e-01	1.140341852908996811e+00	1.000003796923577992e+00	-9.985007372654907537e-03	3.488068246925719168e-05	8.570528129695928422e-06
1.852467686387593959e+00	1.742365700992218335e-06	-1.576737085883243481e-04	1.400218016396784573e-02	8.465451791704279305e-01	1.138928331021935803e+00	1.000003796073362539e+00	-9.986266373006072797e-03	3.479754076000394017e-05	8.701328251804403590e-06
1.872494364078270745e+00	1.736141592223566602e-06	-1.573596284329099404e-04	1.371659548259522229e-02	8.465615902652141589e-01	1.137558480422715901e+00	1.000003795219689184e+00	-9.987276436823086176e-03	3.471741492863645949e-05	8.841045026970118900e-06
1.892521041768947310e+00	1.731277747227315382e-06	-1.571135570032259710e-04	1.343467622758186264e-02	8.465759676202677664e-01	1.136230911135191812e+00	1.000003794363600651e+00	-9.988084081476273149e-03	3.464017558554130554e-05	8.988340742198758579e-06
1.912547719459624096e+00	1.727484158598916354e-06	-1.569211541024158568e-04	1.315753388813523453e-02	8.465886306912602244e-01	1.134944269543127993e+00	1.000003793506547334e+00	-9.988727410816284832e-03	3.456570352953229126e-05	9.142125833007067753e-06
1.932574397150300882e+00	1.724531112528739308e-06	-1.567710018780023317e-04	1.288595989057872079e-02	8.465998429819610038e-01	1.133697242230754076e+00	1.000003792649299950e+00	-9.989238079939413706e-03	3.449388865326209107e-05	9.301514236800068552e-06
1.952601074840977446e+00	1.722236945740130908e-06	-1.566540399117453985e-04	1.262049513286026513e-02	8.466098266191371957e-01	1.132488558501222764e+00	1.000003791793073749e+00	-9.989641811231278826e-03	3.442462869851139063e-05	9.465786669133045047e-06
1.972627752531654233e+00	1.720458244847600695e-06	-1.565630880065289020e-04	1.236148653605812463e-02	8.466187696833944454e-01	1.131316991857202359e+00	1.000003790938418291e+00	-9.989959955152368301e-03	3.435782856071441319e-05	9.634360374622483739e-06
1.992654430222330797e+00	1.719082003143331340e-06	-1.564924800360158392e-04	1.210913222949343455e-02	8.466268186590958367e-01	1.130181360655763800e+00	1.000003790086367195e+00	-9.990209517892006952e-03	3.429339927317768335e-05	9.806764199506527510e-06
2.012681107913007583e+00	1.718019346228539215e-06	-1.564377471148664395e-04	1.186351760477202637e-02	8.466340931006115511e-01	1.129080528134571493e+00	1.000003789237282614e+00	-9.990404515136589239e-03	3.423125764288140622e-05	9.982618056117092351e-06
2.032707785603684147e+00	1.717200519477923015e-06	-1.563953787068479814e-04	1.162464349535482708e-02	8.466407000656255288e-01	1.128013401946529548e+00	1.000003788392048065e+00	-9.990556094526854489e-03	3.417132536766029300e-05	1.016161602103850763e-05
2.052734463294360712e+00	1.716570887122672353e-06	-1.563626184751009177e-04	1.139244840714244249e-02	8.466467281591130156e-01	1.126978933337341893e+00	1.000003787550882484e+00	-9.990673397886779342e-03	3.411352890435422942e-05	1.034351244357371201e-05
2.072761140985037720e+00	1.716087745739214212e-06	-1.563373123987259650e-04	1.116682553691886182e-02	8.466522423537928832e-01	1.125976116050323439e+00	1.000003786714557696e+00	-9.990763575449205375e-03	3.405779867782549080e-05	1.052811054846227224e-05
2.092787818675714284e+00	1.715717788920909768e-06	-1.563177753086749820e-04	1.094763612658052401e-02	8.466573218958282077e-01	1.125003985049518596e+00	1.000003785883157637e+00	-9.990832544234350132e-03	3.400406912918118159e-05	1.071525310415322472e-05
2.112814496366390848e+00	1.715435095984765225e-06	-1.563026964727115434e-04	1.073471942862755379e-02	8.466620058967404550e-01	1.124061615109665402e+00	1.000003785057367978e+00	-9.990884892214212457e-03	3.395227796238289749e-05	1.090481479933162375e-05
2.132841174057067857e+00	1.715219537535899684e-06	-1.562910556499701718e-04	1.052790054541472356e-02	8.466663561548344319e-01	1.123148119334173467e+00	1.000003784237174509e+00	-9.990924336789759261e-03	3.390236633972317979e-05	1.109669602991511564e-05
2.152867851747744421e+00	1.715055516338042901e-06	-1.562820618071234034e-04	1.032699606320591594e-02	8.466703934750825500e-01	1.122262647625890120e+00	1.000003783423182524e+00	-9.990953809094087201e-03	3.385427815060087771e-05	1.129081784807060180e-05
2.172894529438420985e+00	1.714930972975479985e-06	-1.562751022435467628e-04	1.013181854042193887e-02	8.466741718179559006e-01	1.121404385152387384e+00	1.000003782615300540e+00	-9.990975636511719229e-03	3.380796030556124999e-05	1.148711786648143225e-05
2.192921207129097994e+00	1.714836604547859307e-06	-1.562697045163344354e-04	9.942179541481431515e-03	8.466777013187417600e-01	1.120572550814543655e+00	1.000003781814075232e+00	-9.990991607660461293e-03	3.376336202380885479e-05	1.168554694575410465e-05
2.212947884819774558e+00	1.714765249990332412e-06	-1.562655024014497022e-04	9.757892132965286999e-03	8.466810290455504262e-01	1.119766395747974430e+00	1.000003781019343618e+00	-9.991003243926654953e-03	3.372043520631915939e-05	1.188606652230756434e-05
2.232974562510451122e+00	1.714711409763053716e-06	-1.562622172955158389e-04	9.578772379640001014e-03	8.466841566152776277e-01	1.118985201855332567e+00	1.000003780231610184e+00	-9.991011543111050219e-03	3.367913371114230405e-05	1.208864645848932791e-05
2.253001240201127686e+00	1.714670869211163583e-06	-1.562596313846110530e-04	9.404640690133421466e-03	8.466871220295417722e-01	1.118228280392270069e+00	1.000003779450649555e+00	-9.991017519797423460e-03	3.363941382609038025e-05	1.229326331749383579e-05
2.273027917891804695e+00	1.714640406170890906e-06	-1.562575802727486933e-04	9.235322411877957757e-03	8.466899308652627854e-01	1.117494970597407766e+00	1.000003778676936905e+00	-9.991021808512844452e-03	3.360123348459363729e-05	1.249989898262102960e-05
2.293054595582481259e+00	1.714617562182291265e-06	-1.562559384369047101e-04	9.070648531503562248e-03	8.466926038314959158e-01	1.116784638385365902e+00	1.000003777910198677e+00	-9.991024871133225710e-03	3.356455284910984070e-05	1.270853955514176534e-05
2.313081273273157823e+00	1.714600466268048510e-06	-1.562546088931062219e-04	8.910455764079200369e-03	8.466951438788475892e-01	1.116096675088896761e+00	1.000003777150880957e+00	-9.991027144935021864e-03	3.352933349129127408e-05	1.291917447664610579e-05
2.333107950963834831e+00	1.714587697179965927e-06	-1.562535162847630929e-04	8.754586885240974239e-03	8.466975875016601316e-01	1.115430496266358817e+00	1.000003776398667554e+00	-9.991029041324312257e-03	3.349553901572986745e-05	1.313179583204005059e-05
2.353134628654511395e+00	1.714578178296449779e-06	-1.562526069245297113e-04	8.602890548333328585e-03	8.466999184213559460e-01	1.114785540558516308e+00	1.000003775653984350e+00	-9.991030647148631261e-03	3.346313422101833423e-05	1.334639779723751670e-05
2.373161306345187960e+00	1.714571095302163898e-06	-1.562518380029619364e-04	8.455221436169904625e-03	8.467021596764160440e-01	1.114161268609286104e+00	1.000003774916483845e+00	-9.991032140757954289e-03	3.343208581932436530e-05	1.356297620267309670e-05
2.393187984035864524e+00	1.714565834263555581e-06	-1.562511765045152326e-04	8.311439921489830948e-03	8.467043066993381606e-01	1.113557162032982939e+00	1.000003774186577710e+00	-9.991033697013321918e-03	3.340236151640339128e-05	1.378152818903125697e-05
2.413214661726541532e+00	1.714561932779230543e-06	-1.562505984641865224e-04	8.171412129899680715e-03	8.467063772485710071e-01	1.112972722442293394e+00	1.000003773463880696e+00	-9.991035363272452591e-03	3.337393079826034747e-05	1.400205193642036835e-05
2.433241339417218096e+00	1.714559043934261503e-06	-1.562500855215305344e-04	8.035009536073346378e-03	8.467083689307433048e-01	1.112407470518708141e+00	1.000003772748800923e+00	-9.991037193160199129e-03	3.334676399439503270e-05	1.422454645166005633e-05
2.453268017107894661e+00	1.714556907478472314e-06	-1.562496233353292767e-04	7.902108985997113519e-03	8.467102903692993454e-01	1.111860945139148127e+00	1.000003772040929828e+00	-9.991039238386765359e-03	3.332083310434951731e-05	1.444901140164835991e-05
2.473294694798571669e+00	1.714555329178980939e-06	-1.562492021390093759e-04	7.772592265417287150e-03	8.467121442362276484e-01	1.111332702540711814e+00	1.000003771340661318e+00	-9.991041472411447619e-03	3.329611082325984470e-05	1.467544698295300660e-05
2.493321372489248233e+00	1.714554163834538494e-06	-1.562488135319787066e-04	7.646346118149001912e-03	8.467139322717468497e-01	1.110822315537067784e+00	1.000003770647565071e+00	-9.991043922653515888e-03	3.327257143479633470e-05	1.490385382002377486e-05
2.513348050179924797e+00	1.714553303706749019e-06	-1.562484508244206267e-04	7.523261803933172474e-03	8.467156616970777927e-01	1.110329372768169787e+00	1.000003769962033218e+00	-9.991046634411368879e-03	3.325018977643863169e-05	1.513423288572334289e-05
2.533374727870601362e+00	1.714552668476052105e-06	-1.562481114171657213e-04	7.403235127717113125e-03	8.467173315439100456e-01	1.109853477997088778e+00	1.000003769283618338e+00	-9.991049467894794200e-03	3.322894219611159129e-05	1.536658543948453396e-05
2.553401405561278370e+00	1.714552198935657677e-06	-1.562477896951714883e-04	7.286166008278223763e-03	8.467189405105053357e-01	1.109394249436167712e+00	1.000003768612705901e+00	-9.991052552677515131e-03	3.320880549921181684e-05	1.560091297908209842e-05
2.573428083251954934e+00	1.714551851023111084e-06	-1.562474855320570611e-04	7.171958510249408676e-03	8.467205014909225946e-01	1.108951319115616174e+00	1.000003767948831390e+00	-9.991055707603283681e-03	3.318975790050210633e-05	1.583721720313846490e-05
2.593454760942631498e+00	1.714551592510514607e-06	-1.562471934826515957e-04	7.060520440021270105e-03	8.467220030709737832e-01	1.108524332277682101e+00	1.000003767292380719e+00	-9.991059138741148829e-03	3.317177800316492803e-05	1.607549998187610260e-05
2.613481438633308507e+00	1.714551399416293244e-06	-1.562469174270595274e-04	6.951763377004753497e-03	8.467234605015486748e-01	1.108112946809265198e+00	1.000003766642874048e+00	-9.991062476257634231e-03	3.315484571319978277e-05	1.631576333435889284e-05
2.633508116323985071e+00	1.714551254350828401e-06	-1.562466517568267255e-04	6.845602310041484784e-03	8.467248429976823587e-01	1.107716832696486353e+00	1.000003766000698846e+00	-9.991065986457039680e-03	3.313894130745927277e-05	1.655800941066369155e-05
2.653534794014661635e+00	1.714551144362225677e-06	-1.562463954604170117e-04	6.741955650459163091e-03	8.467262194875506687e-01	1.107335671514414699e+00	1.000003765365359953e+00	-9.991069651705226234e-03	3.312404622046012052e-05	1.680224047797373215e-05
2.673561471705338199e+00	1.714551060178788741e-06	-1.562461501805532905e-04	6.640744910259394410e-03	8.467275078977065661e-01	1.106969155934999227e+00	1.000003764737249945e+00	-9.991073304185570450e-03	3.311014221036955837e-05	1.704845890959099208e-05
2.693588149396015208e+00	1.714550994810537861e-06	-1.562459155282510358e-04	6.541894730989427330e-03	8.467287777501010249e-01	1.106616989267876994e+00	1.000003764115858118e+00	-9.991076909371838025e-03	3.309721217896584246e-05	1.729666717630355487e-05
2.713614827086691772e+00	1.714550943374475056e-06	-1.562456888867070975e-04	6.445332562807945011e-03	8.467299739834950323e-01	1.106278885015560487e+00	1.000003763501581489e+00	-9.991080589555790745e-03	3.308523924744795613e-05	1.754686783948742807e-05
2.733641504777368336e+00	1.714550902112483911e-06	-1.562454722165807581e-04	6.350988710674053579e-03	8.467311528649481556e-01	1.105954566459591115e+00	1.000003762893900028e+00	-9.991084174378571381e-03	3.307420761790662008e-05	1.779906354560895039e-05
2.753668182468045345e+00	1.714550868481494962e-06	-1.562452628405241724e-04	6.258796038264176180e-03	8.467322625122029045e-01	1.105643766257971894e+00	1.000003762293211418e+00	-9.991087800744547984e-03	3.306410168207829200e-05	1.805325702176169042e-05
2.773694860158721909e+00	1.714550840454064121e-06	-1.562450618718500429e-04	6.168690012047897513e-03	8.467333596399341245e-01	1.105346226071422855e+00	1.000003761698984528e+00	-9.991091361885388530e-03	3.305490683364129944e-05	1.830945107205123889e-05
2.793721537849398473e+00	1.714550816729711637e-06	-1.562448689930950559e-04	6.080608431574806641e-03	8.467343830847198216e-01	1.105061696198645249e+00	1.000003761111631251e+00	-9.991094850800491534e-03	3.304660862618100358e-05	1.856764857458279692e-05
2.813748215540075037e+00	1.714550796190265291e-06	-1.562446834961790242e-04	5.994491477774511155e-03	8.467353942885996743e-01	1.104789935238324361e+00	1.000003760530597585e+00	-9.991098283426693913e-03	3.303919357311559189e-05	1.882785247897814641e-05
2.833774893230752046e+00	1.714550778195666755e-06	-1.562445049996891372e-04	5.910281453535184970e-03	8.467363428354842680e-01	1.104530709757817419e+00	1.000003759956306082e+00	-9.991101661864659061e-03	3.303264827847573299e-05	1.909006580425210117e-05
2.853801570921428610e+00	1.714550762106087245e-06	-1.562443356327969629e-04	5.827922847343416923e-03	8.467372703901288045e-01	1.104283793987346440e+00	1.000003759388197189e+00	-9.991104825098979375e-03	3.302696028863723543e-05	1.935429163702250945e-05
2.873828248612105174e+00	1.714550747615107935e-06	-1.562441698605836779e-04	5.747362084446280481e-03	8.467381479443266690e-01	1.104048969518488299e+00	1.000003758826698563e+00	-9.991108108163599885e-03	3.302211720491143572e-05	1.962053312993461681e-05
2.893854926302782182e+00	1.714550734358157796e-06	-1.562440131047471766e-04	5.668547583446862347e-03	8.467390095990493526e-01	1.103826025027012436e+00	1.000003758271240439e+00	-9.991111143329534441e-03	3.301810746753387635e-05	1.988879350031110904e-05
2.913881603993458747e+00	1.714550722180598895e-06	-1.562438623046769103e-04	5.591429550839216445e-03	8.467398078157341024e-01	1.103614755998213459e+00	1.000003757722257802e+00	-9.991114109762978812e-03	3.301491964248060940e-05	2.015907602893679949e-05
2.933908281684135311e+00	1.714550710860668687e-06	-1.562437180941610940e-04	5.515960009602416392e-03	8.467406032462423404e-01	1.103414964475271098e+00	1.000003757179168007e+00	-9.991116948849755250e-03	3.301254302092567833e-05	2.043138405898965650e-05
2.953934959374811875e+00	1.714550700333417958e-06	-1.562435790123913656e-04	5.442092622742020214e-03	8.467413344165622968e-01	1.103226458808669985e+00	1.000003756642420472e+00	-9.991119739526734683e-03	3.301096700896554147e-05	2.070572099507549081e-05
2.973961637065488883e+00	1.714550690450889745e-06	-1.562434459518836037e-04	5.369782721208186949e-03	8.467420736987659735e-01	1.103049053427340054e+00	1.000003756111419007e+00	-9.991122408951860073e-03	3.301018169769445130e-05	2.098209030235152715e-05
2.993988314756165448e+00	1.714550681191889801e-06	-1.562433176849816483e-04	5.298987141261634129e-03	8.467427430388085874e-01	1.102882568609818037e+00	1.000003755586627241e+00	-9.991125022869541336e-03	3.301017727844683642e-05	2.126049550574706282e-05
3.014014992446842012e+00	1.714550672447442044e-06	-1.562431968673664857e-04	5.229664252384987229e-03	8.467434195224246007e-01	1.102726830275862158e+00	1.000003755067437439e+00	-9.991127397701193846e-03	3.301094458958216832e-05	2.154094018922032499e-05
3.034041670137519020e+00	1.714550664209433803e-06	-1.562430792087973188e-04	5.161773810082982174e-03	8.467440290784308266e-01	1.102581669776996787e+00	1.000003754554319446e+00	-9.991129796396984453e-03	3.301247457415901833e-05	2.182342799512129527e-05
3.054068347828195584e+00	1.714550656406804310e-06	-1.562429669585295357e-04	5.095276970363437317e-03	8.467446610791429240e-01	1.102446923706767334e+00	1.000003754046657534e+00	-9.991132063111035286e-03	3.301475872026853699e-05	2.210796262356321462e-05
3.074095025518872148e+00	1.714550649034850624e-06	-1.562428590709404009e-04	5.030136173863009215e-03	8.467452155465050589e-01	1.102322433708547544e+00	1.000003753544936203e+00	-9.991134254572117332e-03	3.301778866777621308e-05	2.239454783188489704e-05
3.094121703209549157e+00	1.714550642035567506e-06	-1.562427575349848677e-04	4.966315148141573453e-03	8.467457890009739696e-01	1.102208046302704858e+00	1.000003753048526178e+00	-9.991136232938464812e-03	3.302155655079384866e-05	2.268318743412888611e-05
3.114148380900225721e+00	1.714550635405057969e-06	-1.562426570742109992e-04	4.903778806274214190e-03	8.467463050054001572e-01	1.102103612709907532e+00	1.000003752557923287e+00	-9.991138326562402222e-03	3.302605465609480023e-05	2.297388530058411816e-05
3.134175058590902285e+00	1.714550629111917844e-06	-1.562425619614392282e-04	4.842493236048813106e-03	8.467468479169817375e-01	1.102008988693499614e+00	1.000003752072484708e+00	-9.991140252907296584e-03	3.303127565594905839e-05	2.326664535733352540e-05
3.154201736281578849e+00	1.714550623139239717e-06	-1.562424703170885642e-04	4.782425635800224839e-03	8.467473093854316346e-01	1.101924034396974950e+00	1.000003751592732248e+00	-9.991142123969013605e-03	3.303721247795249837e-05	2.356147158590112808e-05
3.174228413972255858e+00	1.714550617465117622e-06	-1.562423846293624168e-04	4.723544277830634026e-03	8.467478095086526935e-01	1.101848614199968823e+00	1.000003751117999551e+00	-9.991143772457423619e-03	3.304385834347347520e-05	2.385836802285850979e-05
3.194255091662932422e+00	1.714550612066782890e-06	-1.562422995776672650e-04	4.665818466329480635e-03	8.467482305684105315e-01	1.101782596568542383e+00	1.000003750648820633e+00	-9.991145531178415376e-03	3.305120675739860214e-05	2.415733875952245037e-05
3.214281769353608986e+00	1.714550606945333700e-06	-1.562422190695301886e-04	4.609218482639993071e-03	8.467487041224712740e-01	1.101725853923605669e+00	1.000003750184525808e+00	-9.991147143062496447e-03	3.305925139409154824e-05	2.445838794163369043e-05
3.234308447044285995e+00	1.714550602065323204e-06	-1.562421407959918216e-04	4.553715580484566511e-03	8.467490885188890815e-01	1.101678262502675087e+00	1.000003749725659530e+00	-9.991148749051612446e-03	3.306798632459702266e-05	2.476151976913561171e-05
3.254335124734962559e+00	1.714550597436260407e-06	-1.562420671681177332e-04	4.499281904685935481e-03	8.467495287393186354e-01	1.101639702239585850e+00	1.000003749271534126e+00	-9.991150188600778081e-03	3.307740568869729168e-05	2.506673849587774853e-05
3.274361802425639123e+00	1.714550593016900522e-06	-1.562419940334961376e-04	4.445890509699438990e-03	8.467498817295913138e-01	1.101610056636689094e+00	1.000003748822719585e+00	-9.991151721225510068e-03	3.308750407196215282e-05	2.537404842947044707e-05
3.294388480116315687e+00	1.714550588832868623e-06	-1.562419251521672743e-04	4.393515260247684261e-03	8.467502988887023463e-01	1.101589212654851435e+00	1.000003748378511137e+00	-9.991153100766626827e-03	3.309827601467343861e-05	2.568345393103361164e-05
3.314415157806992696e+00	1.714550584829867783e-06	-1.562418587157205440e-04	4.342130881769187649e-03	8.467506120275182235e-01	1.101577060595153146e+00	1.000003747939493204e+00	-9.991154437498888166e-03	3.310971661328764899e-05	2.599495941509626020e-05
3.334441835497669260e+00	1.714550581040700833e-06	-1.562417940446118251e-04	4.291712836208900345e-03	8.467510095006948179e-01	1.101573493998083242e+00	1.000003747504947471e+00	-9.991155769657223198e-03	3.312182081222628309e-05	2.630856934939674311e-05
3.354468513188345824e+00	1.714550577415744350e-06	-1.562417300056462884e-04	4.242237388776529464e-03	8.467513083797688633e-01	1.101578409533923608e+00	1.000003747075477234e+00	-9.991157165051972600e-03	3.313458412166456917e-05	2.662428825482841108e-05
3.374495190879022832e+00	1.714550573991514134e-06	-1.562416713171783575e-04	4.193681484073365912e-03	8.467516701350781272e-01	1.101591706910468815e+00	1.000003746650345526e+00	-9.991158317125790889e-03	3.314800187596556442e-05	2.694212070528454714e-05
3.394521868569699397e+00	1.714550570703235459e-06	-1.562416120450783256e-04	4.146022827218886347e-03	8.467519482685571530e-01	1.101613288771136956e+00	1.000003746230181623e+00	-9.991159601233968318e-03	3.316207006481176623e-05	2.726207132764193759e-05
3.414548546260375961e+00	1.714550567607724331e-06	-1.562415549379430615e-04	4.099239728330187141e-03	8.467522970156202700e-01	1.101643060610527414e+00	1.000003745814226574e+00	-9.991160837255125271e-03	3.317678430548658640e-05	2.758414480164378155e-05
3.434575223951052525e+00	1.714550564632740485e-06	-1.562414993190299947e-04	4.053311226033929834e-03	8.467525644154690889e-01	1.101680930679718617e+00	1.000003745403127198e+00	-9.991162064758985981e-03	3.319214101246796827e-05	2.790834585992762275e-05
3.454601901641729533e+00	1.714550561836435699e-06	-1.562414469403561410e-04	4.008216909550031855e-03	8.467528756496366382e-01	1.101726809908644134e+00	1.000003744996114330e+00	-9.991163167705680026e-03	3.320813615158571747e-05	2.823467928793948743e-05
3.474628579332406098e+00	1.714550559142258522e-06	-1.562413932851065184e-04	3.963937055324694321e-03	8.467531411813770115e-01	1.101780611818184097e+00	1.000003744593849664e+00	-9.991164431794116382e-03	3.322476652805558703e-05	2.856314992400915177e-05
3.494655257023082662e+00	1.714550556623788800e-06	-1.562413421930508291e-04	3.920452433195741049e-03	8.467534392428681667e-01	1.101842252448883563e+00	1.000003744195548050e+00	-9.991165607588572972e-03	3.324202836288885830e-05	2.889376265928747832e-05
3.514681934713759670e+00	1.714550554192855911e-06	-1.562412922024917735e-04	3.877744476126139192e-03	8.467536884503558126e-01	1.101911650278899479e+00	1.000003743801896272e+00	-9.991166786012459222e-03	3.325991887326041349e-05	2.922652243785171577e-05
3.534708612404436234e+00	1.714550551926689352e-06	-1.562412430624441110e-04	3.835795058614241415e-03	8.467539714436571607e-01	1.101988726158846132e+00	1.000003743412083201e+00	-9.991167979355911055e-03	3.327843456939884672e-05	2.956143425668286288e-05
3.554735290095112799e+00	1.714550549738953810e-06	-1.562411956143189566e-04	3.794586682815466461e-03	8.467542106483149089e-01	1.102073403234992144e+00	1.000003743026824488e+00	-9.991169131676832030e-03	3.329757299591610582e-05	2.989850316580783783e-05
3.574761967785789363e+00	1.714550547704289403e-06	-1.562411487083319140e-04	3.754102256067197007e-03	8.467544791580668972e-01	1.102165606889597971e+00	1.000003742645286353e+00	-9.991170312918169413e-03	3.331733096924828432e-05	3.023773426829628661e-05
3.594788645476466371e+00	1.714550545741389438e-06	-1.562411013862472951e-04	3.714325274802636467e-03	8.467547200389978768e-01	1.102265264669042732e+00	1.000003742268205320e+00	-9.991171582704934731e-03	3.333770632702776651e-05	3.057913272043001672e-05
3.614815323167142935e+00	1.714550543927601154e-06	-1.562410553568597453e-04	3.675239605642263620e-03	8.467549833417973293e-01	1.102372306229241872e+00	1.000003741894732068e+00	-9.991172828197579514e-03	3.335869614310998270e-05	3.092270373174231307e-05
3.634842000857819500e+00	1.714550542177178346e-06	-1.562410095649655430e-04	3.636829678493433155e-03	8.467552165995672064e-01	1.102486663268249067e+00	1.000003741525627099e+00	-9.991174115652109652e-03	3.338029858879217564e-05	3.126845256519847794e-05
3.654868678548496508e+00	1.714550540569417909e-06	-1.562409655126281358e-04	3.599080255191006508e-03	8.467554671270629552e-01	1.102608269476245351e+00	1.000003741160018444e+00	-9.991175345511296366e-03	3.340251098356960814e-05	3.161638453727345308e-05
3.674895356239173072e+00	1.714550539015222354e-06	-1.562409201087694031e-04	3.561976636297942839e-03	8.467557036505969359e-01	1.102737060472333441e+00	1.000003740798686147e+00	-9.991176714615744234e-03	3.342533181230736598e-05	3.196650501815472142e-05
3.694922033929849636e+00	1.714550537602262977e-06	-1.562408777300375317e-04	3.525504415207258383e-03	8.467559395209781625e-01	1.102872973758747932e+00	1.000003740440743583e+00	-9.991177939549004960e-03	3.344875858623605892e-05	3.231881943184354436e-05
3.714948711620526201e+00	1.714550536230212540e-06	-1.562408340314517933e-04	3.489649711903446399e-03	8.467561675717955039e-01	1.103015948661411061e+00	1.000003740086995219e+00	-9.991179297898805656e-03	3.347279014799008822e-05	3.267333325638052335e-05
3.734975389311203209e+00	1.714550534998654163e-06	-1.562407895384396270e-04	3.454398893165309091e-03	8.467564162129128658e-01	1.103165926288218746e+00	1.000003739736527342e+00	-9.991180752285189551e-03	3.349742415457841830e-05	3.303005202397158412e-05
3.755002067001879773e+00	1.714550533806592721e-06	-1.562407473873986415e-04	3.419738838302286386e-03	8.467566371201568076e-01	1.103322849472817113e+00	1.000003739390172841e+00	-9.991182102375668200e-03	3.352265972685127563e-05	3.338898132125296924e-05
3.775028744692556337e+00	1.714550532744256915e-06	-1.562407045675106524e-04	3.385656652344994338e-03	8.467568736345557623e-01	1.103486662736713919e+00	1.000003739047000018e+00	-9.991183536942158105e-03	3.354849480395965085e-05	3.375012678942356507e-05
3.795055422383233346e+00	1.714550531720004982e-06	-1.562406597592545072e-04	3.352139917541247047e-03	8.467571132548562529e-01	1.103657312236222321e+00	1.000003738707859080e+00	-9.991185140883748761e-03	3.357492870172322470e-05	3.411349412451612160e-05
3.815082100073909910e+00	1.714550530826987675e-06	-1.562406165086730598e-04	3.319176421009575363e-03	8.467573492942349622e-01	1.103834745727816369e+00	1.000003738371802342e+00	-9.991186683380825009e-03	3.360195954015164567e-05	3.447908907758673043e-05
3.835108777764586474e+00	1.714550529960731738e-06	-1.562405832742466726e-04	3.286754419385789789e-03	8.467575253303373239e-01	1.104018912518037077e+00	1.000003738039703771e+00	-9.991187625144573592e-03	3.362958698466026565e-05	3.484691745499620904e-05
3.855135455455263482e+00	1.714550529191496015e-06	-1.562405476680659626e-04	3.254862357389682378e-03	8.467577212487767957e-01	1.104209763432082658e+00	1.000003737710587925e+00	-9.991188753833908295e-03	3.365780952328054895e-05	3.521698511860882835e-05
3.875162133145940047e+00	1.714550528466120927e-06	-1.562404777596456285e-04	3.223489077336861262e-03	8.467580957154446919e-01	1.104407250766206827e+00	1.000003737385360525e+00	-9.991192105626954534e-03	3.368662668636404622e-05	3.558929798610011084e-05
3.895188810836616611e+00	1.714550527954800807e-06	-1.562403610477354997e-04	3.192623548125599064e-03	8.467587321237963760e-01	1.104611328259400782e+00	1.000003737063023923e+00	-9.991198525958349536e-03	3.371603633884437569e-05	3.596386203115734030e-05
3.915215488527293175e+00	1.714550527576834377e-06	-1.562403644361802708e-04	3.162255214458975418e-03	8.467587131777972731e-01	1.104821951047893824e+00	1.000003736744515148e+00	-9.991196722952084414e-03	3.374603840564392504e-05	3.634068328386322701e-05
3.935242166217970183e+00	1.714550526904982031e-06	-1.562407744653715892e-04	3.132374063051135762e-03	8.467564899095608721e-01	1.105039075641858659e+00	1.000003736428829892e+00	-9.991173808439331866e-03	3.377663578425767557e-05	3.671976783088818426e-05
3.955268843908646748e+00	1.714550525434854495e-06	-1.562407482416579860e-04	3.102970566788192802e-03	8.467566326896796003e-01	1.105262659871790065e+00	1.000003736117027753e+00	-9.991172435721859188e-03	3.380783398021350495e-05	3.710112181954367916e-05
3.975295521599323312e+00	1.714550524803435902e-06	-1.562390362857502761e-04	3.074033281348883748e-03	8.467659110497059993e-01	1.105492662874501431e+00	1.000003735809017913e+00	-9.991247285236678002e-03	3.383961488959635151e-05	3.748475144016137232e-05
3.995322199289999876e+00	1.714584732784533302e-06	-1.562417939337715331e-04	3.045531353289996409e-03	8.467602886646015126e-01	1.105725138389047624e+00	1.000000000000000000e+00	-1.000000000000000021e-02	3.387174561589884471e-05	3.787100112148618141e-05
