# Time=0.003400340034 and Columns are r	p	Paether	ur	alpha	a	b	K	Sr_tilde	tau_tilde
1.001333884533834630e-02	1.199568298779329044e-02	-1.854668732096737341e-02	1.899042301939540098e-05	6.448492353610587591e-01	1.000054745142505919e+00	1.000007422342570784e+00	-1.035057087327851712e-02	2.145187798875039469e-10	1.503567884966620722e-06
3.004001653601504063e-02	1.196715164027035462e-02	-1.852568223629221661e-02	5.696402005968502480e-05	6.450292752003530250e-01	1.000433169453696536e+00	1.000007425370654568e+00	-1.034934351751250724e-02	5.784335876401835218e-09	1.350503395586231587e-05
5.006669422669172975e-02	1.191027084239044964e-02	-1.848371129073936650e-02	9.491512432815814239e-05	6.453891432204755807e-01	1.001189157318843170e+00	1.000007431397796687e+00	-1.034675751951284056e-02	2.670818318034315670e-08	3.736389089521549741e-05
7.009337191736843276e-02	1.182541018647551359e-02	-1.842085814553542228e-02	1.328288804815013846e-04	6.459283862497928741e-01	1.002320980147759499e+00	1.000007440405108250e+00	-1.034285211548439942e-02	7.299506283850627626e-08	7.279364251990311945e-05
9.012004960804512188e-02	1.171311775803482273e-02	-1.833724755810212104e-02	1.706919019519948042e-04	6.466463283992566202e-01	1.003826027120311215e+00	1.000007452372087213e+00	-1.033768261305764886e-02	1.543170872290749678e-07	1.193686687503488393e-04
1.101467272987218110e-01	1.157411627014093281e-02	-1.823304689259800868e-02	2.084918482132166713e-04	6.475420601149370903e-01	1.005700784004765591e+00	1.000007467263104965e+00	-1.033125158595555627e-02	2.798813576621326309e-07	1.765291426331731795e-04
1.301734049893985001e-01	1.140929636778442550e-02	-1.810846699950063518e-02	2.462179833986129934e-04	6.486144338971392420e-01	1.007940805566909681e+00	1.000007485033734600e+00	-1.032358458063267759e-02	4.583085993604106455e-07	2.435875323228216434e-04
1.502000826800751754e-01	1.121970833337465091e-02	-1.796376326170165752e-02	2.838614697696809986e-04	6.498620539549350150e-01	1.010540681956923814e+00	1.000007505631140825e+00	-1.031471024495249356e-02	6.975199845915944488e-07	3.197366403852178792e-04
1.702267603707518784e-01	1.100655231141399459e-02	-1.779923669538094680e-02	3.214156673767303474e-04	6.512832700746898906e-01	1.013493999804216061e+00	1.000007528994391492e+00	-1.030466320124457866e-02	1.004633690126054075e-06	4.040591192550158171e-04
1.902534380614285814e-01	1.077116715642762942e-02	-1.761523517931148919e-02	3.588763918592677966e-04	6.528761646436349597e-01	1.016793298813083002e+00	1.000007555054825525e+00	-1.029348431495704340e-02	1.385872401415942182e-06	4.955383871872482034e-04
2.102801157521052566e-01	1.051501801931856855e-02	-1.741215462224321789e-02	3.962421723081362298e-04	6.546385448461734535e-01	1.020430024839850569e+00	1.000007583736331140e+00	-1.028122108306619813e-02	1.846482946100484148e-06	5.930708534624092639e-04
2.303067934427819596e-01	1.023968280105315778e-02	-1.719044016695440991e-02	4.335144595493959567e-04	6.565679283719736414e-01	1.024394480606495517e+00	1.000007614955814139e+00	-1.026792792449988945e-02	2.390668782230004049e-06	6.954793448951816824e-04
2.503334711334586626e-01	9.946837615823640386e-03	-1.695058719608645917e-02	4.706978464341583963e-04	6.586615341853140349e-01	1.028675775393087077e+00	1.000007648623470136e+00	-1.025366645351192749e-02	3.021536246725162883e-06	8.015276078844155595e-04
2.703601488241353379e-01	9.638241418133712199e-03	-1.669314227252333485e-02	5.078002342704361497e-04	6.609162684115458264e-01	1.033261775242379166e+00	1.000007684643339445e+00	-1.023850559024287211e-02	3.741054750108752284e-06	9.099357414366444560e-04
2.903868265148120131e-01	9.315719959338832415e-03	-1.641870373570248828e-02	5.448330288730129142e-04	6.633287147942908968e-01	1.038139055405704614e+00	1.000007722913565544e+00	-1.022252160957529306e-02	4.550031665301085952e-06	1.019396397007544131e-03
3.104135042054887439e-01	8.981149248859416484e-03	-1.612792212145682663e-02	5.818112816327354738e-04	6.658951215629402842e-01	1.043292856947210190e+00	1.000007763326995258e+00	-1.020579796934785108e-02	5.448101525717359728e-06	1.128591560960602591e-03
3.304401818961654191e-01	8.636438703331516045e-03	-1.582150009421854839e-02	6.187538830780376590e-04	6.686113938965154713e-01	1.048707049604501895e+00	1.000007805771432334e+00	-1.018842504078031064e-02	6.433730287391885069e-06	1.236209715390285254e-03
3.504668595868420944e-01	8.283514173188146618e-03	-1.550019211165230837e-02	6.556837030342591759e-04	6.714730827309426386e-01	1.054364103157703125e+00	1.000007850130278708e+00	-1.017049956359591251e-02	7.504233655403733894e-06	1.340963153584629310e-03
3.704935372775188251e-01	7.924301040292455051e-03	-1.516480346592106662e-02	6.926278111788581552e-04	6.744753805450578454e-01	1.060245069687701491e+00	1.000007896282747888e+00	-1.015212398710263128e-02	8.655810415338008047e-06	1.441605208231834653e-03
3.905202149681955004e-01	7.560707582105593606e-03	-1.481618898958151319e-02	7.296176478671201988e-04	6.776131139136539749e-01	1.066329579180756104e+00	1.000007944104564395e+00	-1.013340549825650187e-02	9.883589066511618544e-06	1.536947134463340948e-03
4.105468926588721756e-01	7.194608797170010464e-03	-1.445525103033556968e-02	7.666893080314251055e-04	6.808807443770348300e-01	1.072595850963599995e+00	1.000007993468092327e+00	-1.011445494090936446e-02	1.118168904796063001e-05	1.625874376943801068e-03
4.305735703495489064e-01	6.827830883274700786e-03	-1.408293705834838885e-02	8.038837808078173018e-04	6.842723659438334494e-01	1.079020723398652182e+00	1.000008044243128724e+00	-1.009538540821763516e-02	1.254329399979529170e-05	1.707361941527560248e-03
4.506002480402255816e-01	6.462136553291432037e-03	-1.370023647384817703e-02	8.412473397197293892e-04	6.877817126271503767e-01	1.085579704139967960e+00	1.000008096296964633e+00	-1.007631075994999507e-02	1.396073883306001457e-05	1.780488588611896413e-03
4.706269257309022569e-01	6.099211364236985407e-03	-1.330817706057700611e-02	8.788318958507395674e-04	6.914021624801782728e-01	1.092247043011779883e+00	1.000008149495203780e+00	-1.005734382863629657e-02	1.542560698344685115e-05	1.844449568326381574e-03
4.906536034215789877e-01	5.740651222462277159e-03	-1.290782062400863163e-02	9.166955442435185562e-04	6.951267529137369339e-01	1.098995829239572730e+00	1.000008203701774345e+00	-1.003859461173327479e-02	1.692884020227458728e-05	1.898567628128062677e-03
5.106802811122557184e-01	5.387951212046924489e-03	-1.250025834500151714e-02	9.549030829115633589e-04	6.989481916660377214e-01	1.105798114303516710e+00	1.000008258779845338e+00	-1.002016819644694148e-02	1.846085594069345442e-05	1.942302042075845546e-03
5.307069588029323937e-01	5.042495874455885443e-03	-1.208660534764781531e-02	9.935267738446921029e-04	7.028588808380590303e-01	1.112625061128015735e+00	1.000008314591702252e+00	-1.000216276737200989e-02	2.001167534222328794e-05	1.975255438640999370e-03
5.507336364936090689e-01	4.705551045550681807e-03	-1.166799511379291825e-02	1.032647089389647846e-03	7.068509358230776751e-01	1.119447119638438570e+00	1.000008370999771801e+00	-9.984667413300082547e-03	2.157105532429659045e-05	1.997178240621337152e-03
5.707603141842857442e-01	4.378257331322359287e-03	-1.124557319978938819e-02	1.072353757095709974e-03	7.109162168558867956e-01	1.126234227959864720e+00	1.000008427866408089e+00	-9.967760132344623963e-03	2.312862852945291994e-05	2.007970576391317468e-03
5.907869918749625304e-01	4.061625276720767092e-03	-1.082049098750050009e-02	1.112746807734864415e-03	7.150463557906134859e-01	1.132956037680685091e+00	1.000008485054988405e+00	-9.951505714290865418e-03	2.467404285449029933e-05	2.007681575642516168e-03
6.108136695656392057e-01	3.756532253119767694e-03	-1.039389885372213503e-02	1.153937988463323190e-03	7.192327944502980852e-01	1.139582160731595906e+00	1.000008542429579483e+00	-9.935953961934843384e-03	2.619710526569208120e-05	1.996506023723162646e-03
6.308403472563158809e-01	3.463721060025648849e-03	-9.966939625100455086e-03	1.196052204371817829e-03	7.234668175138886381e-01	1.146082434523922222e+00	1.000008599856120117e+00	-9.921137850994877008e-03	2.768791974208698297e-05	1.974778414863133814e-03
6.508670249469925562e-01	3.183800206242580824e-03	-9.540741596296161905e-03	1.239229406598581305e-03	7.277395963952953961e-01	1.152427201147208535e+00	1.000008657201966411e+00	-9.907072164664609479e-03	2.913702526269373039e-05	1.942964513671990509e-03
6.708937026376692314e-01	2.917245805799944299e-03	-9.116412098299291403e-03	1.283626545951342679e-03	7.320422247167517327e-01	1.158587595630416578e+00	1.000008714337111915e+00	-9.893752120957178750e-03	3.053552185997891418e-05	1.901650603554480437e-03
6.909203803283459067e-01	2.664404995269106704e-03	-8.695030797385226717e-03	1.329420075061409339e-03	7.363657659782335552e-01	1.164535837636365478e+00	1.000008771133603647e+00	-9.881152579483581597e-03	3.187519224482808440e-05	1.851530667071201765e-03
7.109470580190225819e-01	2.425500752680275016e-03	-8.277643807997125264e-03	1.376808572539343608e-03	7.407012889416364487e-01	1.170245520457740218e+00	1.000008827466815742e+00	-9.869227264437424596e-03	3.314860542705379509e-05	1.793391803596618150e-03
7.309737357096993682e-01	2.200637974793983893e-03	-7.865257702321914665e-03	1.426016047280512624e-03	7.450399142968620048e-01	1.175691890930803174e+00	1.000008883214659638e+00	-9.857908628574938922e-03	3.434921187053827058e-05	1.728098240841836452e-03
7.510004134003760434e-01	1.989810649919498704e-03	-7.458834543772678918e-03	1.477295451630972634e-03	7.493728483960714337e-01	1.180852113824498284e+00	1.000008938258913016e+00	-9.847107753429682267e-03	3.547141536350546489e-05	1.656574336145773610e-03
7.710270910910527187e-01	1.792909948283444039e-03	-7.059286979193059655e-03	1.530933047540527885e-03	7.536914246578532151e-01	1.185705514504023617e+00	1.000008992484206161e+00	-9.836714887698196075e-03	3.651063356587448146e-05	1.579786988711508189e-03
7.910537687817293939e-01	1.609733041792875711e-03	-6.667474515880508941e-03	1.587253114791334699e-03	7.579871313929651411e-01	1.190233794113344734e+00	1.000009045779398642e+00	-9.826600015168530933e-03	3.746333162997038250e-05	1.498727893683077673e-03
8.110804464724060692e-01	1.439992460011735266e-03	-6.284199931641498184e-03	1.646623742696455821e-03	7.622516466979926131e-01	1.194421212258878873e+00	1.000009098036309663e+00	-9.816614085266160000e-03	3.832704349839623101e-05	1.414396062546172724e-03
8.311071241630827444e-01	1.283325789537895223e-03	-5.910206983619399786e-03	1.709463160066583510e-03	7.664768570281393911e-01	1.198254733066741018e+00	1.000009149151127374e+00	-9.806590252370064528e-03	3.910036485846093019e-05	1.327781012131253567e-03
8.511338018537595307e-01	1.139305529388146346e-03	-5.546178272986071814e-03	1.776247456307725008e-03	7.706548815224550930e-01	1.201724131600589329e+00	1.000009199022900086e+00	-9.796345800535580239e-03	3.978293502826312178e-05	1.239846987812584077e-03
8.711604795444362059e-01	1.007448925310930722e-03	-5.192734400646465721e-03	1.847519119197892599e-03	7.747780814128601978e-01	1.204822058787457184e+00	1.000009247554993541e+00	-9.785684172858116064e-03	4.037539156068489603e-05	1.151518537478025007e-03
8.911871572351128812e-01	8.872276204051663491e-04	-4.850433251689659914e-03	1.923897361450270039e-03	7.788390715290196553e-01	1.207544064274234552e+00	1.000009294653328551e+00	-9.774397757541151976e-03	4.087931715948854507e-05	1.063667694363891600e-03
9.112138349257895564e-01	7.780769775404759161e-04	-4.519770465032378268e-03	2.006089634833357720e-03	7.828307218367860365e-01	1.209888577823549527e+00	1.000009340227977717e+00	-9.762271026305013172e-03	4.129716262996632547e-05	9.771029622555270876e-04
9.312405126164662317e-01	6.794049498387400932e-04	-4.201179945468779854e-03	2.094905415762383059e-03	7.867461535809445738e-01	1.211856851039892824e+00	1.000009384191170803e+00	-9.749084617952780835e-03	4.163216708606407756e-05	8.925602294491419026e-04
9.512671903071429069e-01	5.906003982388903679e-04	-3.895035351314459979e-03	2.191271618724127766e-03	7.905787360076620418e-01	1.213452862182795133e+00	1.000009426459107065e+00	-9.734620266092917917e-03	4.188825910789104994e-05	8.106956718433797060e-04
9.712938679978196932e-01	5.110407788398124533e-04	-3.601651483847881016e-03	2.296250786953742736e-03	7.943220689288058578e-01	1.214683187692628064e+00	1.000009466949872694e+00	-9.718667028539774988e-03	4.206996075137837640e-05	7.320806439059123925e-04
9.913205456884963684e-01	4.400991466629639482e-04	-3.321286373330937895e-03	2.411061308505337529e-03	7.979699775715064503e-01	1.215556844619370080e+00	1.000009505585575997e+00	-9.701029079758449747e-03	4.218227812026363941e-05	6.571985019119292327e-04
1.011347223379172933e+00	3.771504456959537009e-04	-3.054143060619348132e-03	2.537100739505815557e-03	8.015164859341172843e-01	1.216085108570119422e+00	1.000009542290341225e+00	-9.681535350799783113e-03	4.223060006813566419e-05	5.864432589890001364e-04
1.031373901069849497e+00	3.215770770642056311e-04	-2.800371743812153213e-03	2.675971183782182693e-03	8.049558174328070859e-01	1.216281311880359484e+00	1.000009576993002192e+00	-9.660051586880793323e-03	4.222058882960709507e-05	5.201199376073501433e-04
1.051400578760526283e+00	2.727737570853009438e-04	-2.560071401124537800e-03	2.829507423500356080e-03	8.082823616578250769e-01	1.216160626681760615e+00	1.000009609625370999e+00	-9.636494684242748188e-03	4.215808292825623375e-05	4.584464628342537732e-04
1.071427256451203069e+00	2.301516944250470598e-04	-2.333291396791444677e-03	2.999806000269657387e-03	8.114906951313257677e-01	1.215739837196170958e+00	1.000009640125770982e+00	-9.610850118826194319e-03	4.204899647960370126e-05	4.015569287029198669e-04
1.091453934141879634e+00	1.931421298726698440e-04	-2.120032379355350945e-03	3.189254858278397879e-03	8.145755450313421075e-01	1.215037105192831035e+00	1.000009668437850108e+00	-9.583191308720177479e-03	4.189923327011080127e-05	3.495060692638681031e-04
1.111480611832556420e+00	1.611992930830506937e-04	-1.920246792438183451e-03	3.400560063222298444e-03	8.175318472512657086e-01	1.214071731917005348e+00	1.000009694515173519e+00	-9.553701693384203733e-03	4.171460052147144503e-05	3.022747733016509578e-04
1.131507289523232984e+00	1.338028373186474186e-04	-1.733838589172850397e-03	3.636766786174026964e-03	8.203547177714393124e-01	1.212863919234928867e+00	1.000009718320783225e+00	-9.522696482048370603e-03	4.150073820597714670e-05	2.597764944139402637e-04
1.151533967213909770e+00	1.104598154791273885e-04	-1.560662343004584358e-03	3.901267701703752325e-03	8.230395590569450359e-01	1.211434532052660051e+00	1.000009739833001232e+00	-9.490644146210638551e-03	4.126305025676608253e-05	2.218644225879852234e-04
1.171560644904586557e+00	9.070625797070407906e-05	-1.400521656225166278e-03	4.197791431747941414e-03	8.255820529673906227e-01	1.209804863588642032e+00	1.000009759045588309e+00	-9.458182062967430623e-03	4.100665079115357875e-05	1.883392953788690560e-04
1.191587322595263121e+00	7.410840521457287696e-05	-1.253167050003067785e-03	4.530358508214667353e-03	8.279783291829135861e-01	1.207996404609545493e+00	1.000009775974425530e+00	-9.426125231138905367e-03	4.073631367853806391e-05	1.589577320237391676e-04
1.211614000285939907e+00	6.026363486680334319e-05	-1.118293611816848941e-03	4.903190710107283717e-03	8.302249838438604534e-01	1.206030617625609036e+00	1.000009790657651720e+00	-9.395460016692728372e-03	4.045643588874193059e-05	1.334409684414805425e-04
1.231640677976616471e+00	4.880110708851768925e-05	-9.955386569997694973e-04	5.320554407835059903e-03	8.323193099158210373e-01	1.203928717042259455e+00	1.000009803162162481e+00	-9.367321964547781557e-03	4.017100532516425172e-05	1.114838526630706458e-04
1.251667355667293258e+00	3.938213201516944982e-05	-8.844800569099734670e-04	5.786518169462860454e-03	8.342593375012793411e-01	1.201711456709967596e+00	1.000009813582314999e+00	-9.342949760364389206e-03	3.988358101737081630e-05	9.276392882310273294e-05
1.271694033357969822e+00	3.170024470922032644e-05	-7.846355695102883191e-04	6.304604250881655839e-03	8.360441071695555726e-01	1.199398926864085668e+00	1.000009822044544361e+00	-9.323618513290830509e-03	3.959727874421916754e-05	7.695039706031357003e-05
1.291720711048646608e+00	2.548095773682831740e-05	-6.954640490391194663e-04	6.877321748028703691e-03	8.376737057646109763e-01	1.197010363361752594e+00	1.000009828702741466e+00	-9.310549653277273852e-03	3.931476744371468726e-05	6.371269421473540952e-05
1.311747388739323394e+00	2.048115402170072374e-05	-6.163687609851861661e-04	7.505583350640414840e-03	8.391495253093045337e-01	1.194563972910898775e+00	1.000009833739362808e+00	-9.304809586211389150e-03	3.903827146591317901e-05	5.272840749202887655e-05
1.331774066429999959e+00	1.648808597910184111e-05	-5.467035261337178107e-04	8.188035550418535161e-03	8.404742586576202656e-01	1.192076778824634253e+00	1.000009837356259368e+00	-9.307202798427541626e-03	3.876958165166688875e-05	4.369022335251070469e-05
1.351800744120676745e+00	1.331796274328558167e-05	-4.857814681055718994e-04	8.920369390091918010e-03	8.416520800498411559e-01	1.189564492109659533e+00	1.000009839771994757e+00	-9.318179317234054349e-03	3.851007206991407156e-05	3.631163819953504694e-05
1.371827421811353309e+00	1.081413435461011300e-05	-4.328865272272203256e-04	9.694724102960620982e-03	8.426885408997942806e-01	1.187041412618450309e+00	1.000009841209019923e+00	-9.337764515956008954e-03	3.826072396252555151e-05	3.033122152972448748e-05
1.391854099502030095e+00	8.844915888843296519e-06	-3.872867744147385854e-04	1.049933397400241476e-02	8.435906269178891081e-01	1.184520364007287885e+00	1.000009841889127005e+00	-9.365529386978719076e-03	3.802215601692149864e-05	2.551532249153152149e-05
1.411880777192706660e+00	7.301129015335409984e-06	-3.482490632665664844e-04	1.131858210629596052e-02	8.443665250036413994e-01	1.182012664810623059e+00	1.000009842019821127e+00	-9.400600059228277072e-03	3.779466200375327268e-05	2.165923361826889215e-05
1.431907454883383446e+00	6.093465987887347213e-06	-3.150535205414576830e-04	1.213359164696790893e-02	8.450255187207722507e-01	1.179528135753681317e+00	1.000009841791285048e+00	-9.441714971499553036e-03	3.757825645220578311e-05	1.858694987241790863e-05
1.451934132574060232e+00	5.149795587237139999e-06	-2.870072063426517715e-04	1.292339440371033030e-02	8.455776776433157060e-01	1.177075141273526304e+00	1.000009841365059771e+00	-9.487316837156128252e-03	3.737272686491014675e-05	1.614976438799207848e-05
1.471960810264736796e+00	4.412529234100414545e-06	-2.634555720356399435e-04	1.366658149209752822e-02	8.460335804136813742e-01	1.174660660956218017e+00	1.000009840875161204e+00	-9.535679375446221018e-03	3.717769090135552911e-05	1.422400689198597791e-05
1.491987487955413583e+00	3.836149481302796305e-06	-2.437914672870502382e-04	1.434319736155832345e-02	8.464040431518224938e-01	1.172290385074508556e+00	1.000009840420829077e+00	-9.585046632717975079e-03	3.699265191550771585e-05	1.270824923090641991e-05
1.512014165646090147e+00	3.384976684692065208e-06	-2.274609927853228847e-04	1.493654615387688539e-02	8.466997073756225012e-01	1.169968827336413497e+00	1.000009840072655365e+00	-9.633776745745392667e-03	3.681704935563291279e-05	1.152027852885519886e-05
1.532040843336766933e+00	3.031218845675452395e-06	-2.139666282158780039e-04	1.543457717728440905e-02	8.469309082522519239e-01	1.167699447909960719e+00	1.000009839869441919e+00	-9.680460452704662058e-03	3.665029727074635890e-05	1.059408452577241910e-05
1.552067521027443719e+00	2.753320082059441140e-06	-2.028675817711420514e-04	1.583061821070502403e-02	8.471072404229539332e-01	1.165484780180240154e+00	1.000009839828419400e+00	-9.724006780301714184e-03	3.649181239298260419e-05	9.877039310372792884e-06
1.572094198718120284e+00	2.534599093144886935e-06	-1.937782201917424710e-04	1.612338628921501649e-02	8.472376346130189306e-01	1.163326555836533771e+00	1.000009839944464352e+00	-9.763675370060519859e-03	3.634103003509800813e-05	9.327379193300983057e-06
1.592120876408797070e+00	2.362152225944513559e-06	-1.863647884854008113e-04	1.631637329957306287e-02	8.473299625642242150e-01	1.161225824029534559e+00	1.000009840201956823e+00	-9.799067657386761193e-03	3.619741445850093169e-05	8.912039649968574246e-06
1.612147554099473634e+00	2.225986447534447315e-06	-1.803412967645338049e-04	1.641681217651330335e-02	8.473912983916788155e-01	1.159183061774026635e+00	1.000009840573627740e+00	-9.830076765954666104e-03	3.606046274688649443e-05	8.604849780825994261e-06
1.632174231790150420e+00	2.118344349347065770e-06	-1.754647117716022823e-04	1.643446830671657297e-02	8.474276366475235189e-01	1.157198273825431167e+00	1.000009841031605617e+00	-9.856823882196670550e-03	3.592970863221769175e-05	8.385063184785462810e-06
1.652200909480826985e+00	2.033184580282618303e-06	-1.715301316553892875e-04	1.638046506790110518e-02	8.474442170437683775e-01	1.155271081342067019e+00	1.000009841544035272e+00	-9.879584757045931434e-03	3.580472241569079020e-05	8.236185574552922349e-06
1.672227587171503771e+00	1.965784933820849218e-06	-1.683659107484655943e-04	1.626628845020370445e-02	8.474453138640476446e-01	1.153400799251659059e+00	1.000009842084347067e+00	-9.898729154243621556e-03	3.568511255280420921e-05	8.145052843282627250e-06
1.692254264862180557e+00	1.912440393142395120e-06	-1.658291794395573028e-04	1.610303554539040116e-02	8.474346328594746236e-01	1.151586502837473436e+00	1.000009842625555256e+00	-9.914667952991309402e-03	3.557052322134298105e-05	8.101113443822143719e-06
1.712280942552857121e+00	1.870233621255313086e-06	-1.638016328878619493e-04	1.590091658576955544e-02	8.474150581637109880e-01	1.149827084282070366e+00	1.000009843148176092e+00	-9.927818502869266773e-03	3.546063417975509958e-05	8.095873118095465656e-06
1.732307620243533908e+00	1.836860226714532719e-06	-1.621858204282871762e-04	1.566897581241776319e-02	8.473891225212453193e-01	1.148121300150278135e+00	1.000009843632980955e+00	-9.938579631645081194e-03	3.535515652302489753e-05	8.122466099524324091e-06
1.752334297934210472e+00	1.810495196707981911e-06	-1.609018237969855663e-04	1.541498538333066493e-02	8.473586606696208445e-01	1.146467810794900677e+00	1.000009844068345810e+00	-9.947318039948922774e-03	3.525383156543863554e-05	8.175323468144975089e-06
1.772360975624887258e+00	1.789690260085663218e-06	-1.598843838753990002e-04	1.514545767024556150e-02	8.473253471699959682e-01	1.144865212728482406e+00	1.000009844442227847e+00	-9.954361782711081824e-03	3.515642589517483334e-05	8.249915490092471921e-06
1.792387653315563822e+00	1.773294502286447900e-06	-1.590804216541966132e-04	1.486573442723927198e-02	8.472903087865372163e-01	1.143312064897632929e+00	1.000009844749477850e+00	-9.959997831831140375e-03	3.506273022057429224e-05	8.342550093438196913e-06
1.812414331006240609e+00	1.760392574556077417e-06	-1.584469175629370826e-04	1.458011440835252706e-02	8.472546281813939650e-01	1.141806909786905022e+00	1.000009844983474006e+00	-9.964474009583760075e-03	3.497255459344974685e-05	8.450213975463336744e-06
1.832441008696917395e+00	1.750256274099102842e-06	-1.579491413895734451e-04	1.429199799508274436e-02	8.472189185911032094e-01	1.140348290123534447e+00	1.000009845143717824e+00	-9.968000304478346479e-03	3.488572776615144242e-05	8.570446244889801088e-06
1.852467686387593959e+00	1.742306397651935897e-06	-1.575591229431703879e-04	1.400402927783964482e-02	8.471838677663272588e-01	1.138934761943626750e+00	1.000009845227203265e+00	-9.970754670239979911e-03	3.480209297682054114e-05	8.701237093103286770e-06
1.872494364078270745e+00	1.736082524859235637e-06	-1.572544379660281992e-04	1.371822945509061469e-02	8.471497578217367375e-01	1.137564904593257875e+00	1.000009845236457640e+00	-9.972884335114232807e-03	3.472150786007567103e-05	8.840945918923428802e-06
1.892521041768947310e+00	1.731219002147637359e-06	-1.570171214607661320e-04	1.343611362265638258e-02	8.471170329435697699e-01	1.136237328269039004e+00	1.000009845170665157e+00	-9.974513056451663612e-03	3.464384088885758900e-05	8.988234744755115911e-06
1.912547719459624096e+00	1.727425784110038590e-06	-1.568328757627241181e-04	1.315879242778715888e-02	8.470857542013023878e-01	1.134950679482986002e+00	1.000009845034180556e+00	-9.975740541673362716e-03	3.456897167156381897e-05	9.142013791166223906e-06
1.932574397150300882e+00	1.724473130789525665e-06	-1.566902892445006575e-04	1.288705603608829645e-02	8.470561948356909454e-01	1.133703644930910137e+00	1.000009844827350891e+00	-9.976650949940385135e-03	3.449678808474523841e-05	9.301396821530978496e-06
1.952601074840977446e+00	1.722179358957032756e-06	-1.565803520771876845e-04	1.262144435414779171e-02	8.470282983256978149e-01	1.132494953991951547e+00	1.000009844555539873e+00	-9.977309979667874779e-03	3.442718666429732166e-05	9.465664411002586447e-06
1.972627752531654233e+00	1.720401042482143271e-06	-1.564958898596111936e-04	1.236230305469998569e-02	8.470022254497067138e-01	1.131323380238477005e+00	1.000009844219577948e+00	-9.977773858280955532e-03	3.436007046744806224e-05	9.634233691270385140e-06
1.992654430222330797e+00	1.719025165304838574e-06	-1.564312915405393842e-04	1.210982925880025284e-02	8.469778433219642411e-01	1.130187742068242684e+00	1.000009843825317768e+00	-9.978084657619358186e-03	3.429534930871935611e-05	9.806633417990121205e-06
2.012681107913007583e+00	1.717962847808892235e-06	-1.563820875503332700e-04	1.186410722630240958e-02	8.469552689309851612e-01	1.129086902761258004e+00	1.000009843373641516e+00	-9.978279582152020655e-03	3.423293838101444008e-05	9.982483431067839996e-06
2.032707785603684147e+00	1.717144332091263698e-06	-1.563448268193103573e-04	1.162513681689113232e-02	8.469342909973403000e-01	1.128019769988144017e+00	1.000009842870560606e+00	-9.978384637640844504e-03	3.417275811349499928e-05	1.016147774925797204e-05
2.052734463294360712e+00	1.716514981106726389e-06	-1.563167488818012019e-04	1.139285557526079073e-02	8.469150298539842581e-01	1.126985295019057087e+00	1.000009842316780917e+00	-9.978424242003311115e-03	3.411473362485600608e-05	1.034337067587810335e-05
2.072761140985037720e+00	1.716032091492307840e-06	-1.562957591808951580e-04	1.116715577963358144e-02	8.468972351138349675e-01	1.125982471601439272e+00	1.000009841718291437e+00	-9.978413789259735905e-03	3.405879400182490555e-05	1.052796539907683287e-05
2.092787818675714284e+00	1.715662357414826205e-06	-1.562801647494133181e-04	1.094789789790684247e-02	8.468810084032788454e-01	1.125010334711662008e+00	1.000009841075476746e+00	-9.978369313872080190e-03	3.400487265227943257e-05	1.071510465834777889e-05
2.112814496366390848e+00	1.715379859996927302e-06	-1.562687142188459732e-04	1.073492031866704957e-02	8.468660890566545030e-01	1.124067959120627958e+00	1.000009840394196159e+00	-9.978299307974971416e-03	3.395290584715668705e-05	1.090466311938639495e-05
2.132841174057067857e+00	1.715164471065647892e-06	-1.562603765699817652e-04	1.052804756022109739e-02	8.468525794138290763e-01	1.123154457937176831e+00	1.000009839674482093e+00	-9.978214269948160187e-03	3.390283405180593407e-05	1.109654116000795088e-05
2.152867851747744421e+00	1.715000596030295545e-06	-1.562544195335146299e-04	1.032709539081607016e-02	8.468402083744879238e-01	1.122268981055729142e+00	1.000009838921994687e+00	-9.978118258299863499e-03	3.385459960508259712e-05	1.129065981800335244e-05
2.172894529438420985e+00	1.714876176692615307e-06	-1.562502133213803930e-04	1.013187596902483112e-02	8.468290877767079561e-01	1.121410713644706236e+00	1.000009838136409757e+00	-9.978018507646688531e-03	3.380814908389690560e-05	1.148695669479194120e-05
2.192921207129097994e+00	1.714781913180137449e-06	-1.562473448278403913e-04	9.942200066205018893e-03	8.468189562859397279e-01	1.120578874594685859e+00	1.000009837323173612e+00	-9.977916088666653749e-03	3.376342998817654972e-05	1.168538264200993093e-05
2.212947884819774558e+00	1.714710645291425540e-06	-1.562454289205797778e-04	9.757880528285195129e-03	8.468099054283606542e-01	1.119772715039573985e+00	1.000009836481615011e+00	-9.977816088528027386e-03	3.372039428638142627e-05	1.188589908908632575e-05
2.232974562510451122e+00	1.714656876642902586e-06	-1.562442399541160288e-04	9.578732639040256000e-03	8.468017017843481042e-01	1.118991516870895708e+00	1.000009835616971987e+00	-9.977718052392531289e-03	3.367899392421139248e-05	1.208847589275796550e-05
2.253001240201127686e+00	1.714616392981262707e-06	-1.562435448568832725e-04	9.404576745634626520e-03	8.467944263785373016e-01	1.118234591341761730e+00	1.000009834728244895e+00	-9.977625403453645875e-03	3.363918564760157452e-05	1.229308961188333571e-05
2.273027917891804695e+00	1.714585975267884242e-06	-1.562432248151006463e-04	9.235237425072052517e-03	8.467878826693319150e-01	1.117501277678843108e+00	1.000009833820474370e+00	-9.977537077042490307e-03	3.360092529741228248e-05	1.249972212621856325e-05
2.293054595582481259e+00	1.714563164980409784e-06	-1.562431405293249133e-04	9.070545740121295150e-03	8.467821125737143850e-01	1.116790941794564729e+00	1.000009832892373440e+00	-9.977455270283531324e-03	3.356417386390940017e-05	1.270835953433942486e-05
2.313081273273157823e+00	1.714546094176614604e-06	-1.562432330882782266e-04	8.910337639657666189e-03	8.467769723476492594e-01	1.116102975009403142e+00	1.000009831948794448e+00	-9.977378755048971551e-03	3.352889064060415647e-05	1.291899127555794580e-05
2.333107950963834831e+00	1.714533341126998387e-06	-1.562434201017048625e-04	8.754456092606362552e-03	8.467724785349668437e-01	1.115436792879890282e+00	1.000009830988183079e+00	-9.977308888832100639e-03	3.349504040426439026e-05	1.313160943308956315e-05
2.353134628654511395e+00	1.714523832097440454e-06	-1.562436752815938006e-04	8.602748996707086995e-03	8.467685062319775247e-01	1.114791834034948970e+00	1.000009830015234691e+00	-9.977244499661988564e-03	3.346258552894931348e-05	1.334620818134956726e-05
2.373161306345187960e+00	1.714516751966600273e-06	-1.562439517327009783e-04	8.455071318013970827e-03	8.467650717372526836e-01	1.114167559116969741e+00	1.000009829028154051e+00	-9.977186303022184469e-03	3.343149418457079357e-05	1.356278334969214665e-05
2.393187984035864524e+00	1.714511489534211735e-06	-1.562442396411881497e-04	8.311282683316146419e-03	8.467620831232821610e-01	1.113563449729115140e+00	1.000009828031501291e+00	-9.977133313312038648e-03	3.340173151676327523e-05	1.378133207778298188e-05
2.413214661726541532e+00	1.714507581319801026e-06	-1.562445131076888960e-04	8.171249579345066932e-03	8.467595286845255309e-01	1.112979007482790994e+00	1.000009827023258913e+00	-9.977085846803736627e-03	3.337326874389754500e-05	1.400185254502032016e-05
2.433241339417218096e+00	1.714504682994283375e-06	-1.562447702286669422e-04	8.034842743321139388e-03	8.467573506067614941e-01	1.112413753048801413e+00	1.000009826007866698e+00	-9.977043122442618220e-03	3.334607350837964947e-05	1.422434375749894024e-05
2.453268017107894661e+00	1.714502533028396181e-06	-1.562449986024519130e-04	7.901939442880808601e-03	8.467555274186848724e-01	1.111867225303506679e+00	1.000009824983127960e+00	-9.977005133263104272e-03	3.332011977829709603e-05	1.444880538163637795e-05
2.473294694798571669e+00	1.714500939625566838e-06	-1.562451977400027632e-04	7.772420737767697131e-03	8.467540100685072568e-01	1.111338980473801197e+00	1.000009823953357024e+00	-9.976971414441154415e-03	3.329537745796170894e-05	1.467523761346034343e-05
2.493321372489248233e+00	1.714499756175548659e-06	-1.562453667624132787e-04	7.646173836958363758e-03	8.467527779767740626e-01	1.110828591373509866e+00	1.000009822916192448e+00	-9.976941531937632418e-03	3.327182299052924846e-05	1.490364107708117006e-05
2.513348050179924797e+00	1.714498877214595489e-06	-1.562455027389740732e-04	7.523089293633589830e-03	8.467518026934480746e-01	1.110335646632533146e+00	1.000009821875871063e+00	-9.976915405012505567e-03	3.324942836364480061e-05	1.513401674493751812e-05
2.533374727870601362e+00	1.714498220937096010e-06	-1.562456112288368915e-04	7.403063407744187030e-03	8.467510419671027133e-01	1.109859750014958513e+00	1.000009820829868223e+00	-9.976892365408189176e-03	3.322817223775351348e-05	1.536636587621227688e-05
2.553401405561278370e+00	1.714497730270209311e-06	-1.562456856814131300e-04	7.285995408265929715e-03	8.467505064107612167e-01	1.109400519722905765e+00	1.000009819782349263e+00	-9.976872691651993835e-03	3.320802850878316160e-05	1.560068996832797837e-05
2.573428083251954934e+00	1.714497359632976401e-06	-1.562457399798692422e-04	7.171789873500905750e-03	8.467501060366885435e-01	1.108957587788586441e+00	1.000009818730643207e+00	-9.976855286893796665e-03	3.318897782257432266e-05	1.583699071971607239e-05
2.593454760942631498e+00	1.714497078772066344e-06	-1.562457616394667789e-04	7.060353946766074508e-03	8.467499177001183153e-01	1.108530599444219389e+00	1.000009817678855883e+00	-9.976840878664957474e-03	3.317099586834697727e-05	1.607527000030151628e-05
2.613481438633308507e+00	1.714496862203657749e-06	-1.562457688927454044e-04	6.951599725275617488e-03	8.467498113023306239e-01	1.108119212579230961e+00	1.000009816624191972e+00	-9.976828153012505529e-03	3.315406504709164290e-05	1.631552982898939981e-05
2.633508116323985071e+00	1.714496694371981009e-06	-1.562457459898219231e-04	6.845441559390811302e-03	8.467498979233292200e-01	1.107723097169788007e+00	1.000009815570703786e+00	-9.976818084178504589e-03	3.313816271802389677e-05	1.655777235559784081e-05
2.653534794014661635e+00	1.714496560858426674e-06	-1.562457158065092867e-04	6.741798376239544095e-03	8.467500176096922626e-01	1.107341934794570770e+00	1.000009814515474105e+00	-9.976809099361192562e-03	3.312327285171199644e-05	1.680199984718008365e-05
2.673561471705338199e+00	1.714496454044740817e-06	-1.562456578662948386e-04	6.640591092225801156e-03	8.467503111177555608e-01	1.106975418114924947e+00	1.000009813462538588e+00	-9.976802494542479777e-03	3.310937438487362511e-05	1.704821467680129907e-05
2.693588149396015208e+00	1.714496365586374125e-06	-1.562455981783882303e-04	6.541744835867755598e-03	8.467506005901944688e-01	1.106623250445243345e+00	1.000009812408842347e+00	-9.976796519676619027e-03	3.309645266986412690e-05	1.729641931513899216e-05
2.713614827086691772e+00	1.714496292075172218e-06	-1.562455129742681308e-04	6.445186507813513779e-03	8.467510553671593332e-01	1.106285145277150050e+00	1.000009811358410383e+00	-9.976792691315473569e-03	3.308448813220895998e-05	1.754661632335448147e-05
2.733641504777368336e+00	1.714496228502508154e-06	-1.562454302951835235e-04	6.350846872721482156e-03	8.467514811366805283e-01	1.105960825897705391e+00	1.000009810308075231e+00	-9.976789148900815085e-03	3.307346734273407149e-05	1.779880834781389496e-05
2.753668182468045345e+00	1.714496173634691787e-06	-1.562453252087891574e-04	6.258658290249934607e-03	8.467520377629946804e-01	1.105650024953999777e+00	1.000009809261856120e+00	-9.976787485148531573e-03	3.306337213591049130e-05	1.805299811541841292e-05
2.773694860158721909e+00	1.714496124303816294e-06	-1.562452267782169521e-04	6.168556655964934667e-03	8.467525594064653216e-01	1.105352484112366973e+00	1.000009808216469676e+00	-9.976785786021444280e-03	3.305419017084986453e-05	1.830918843017013899e-05
2.793721537849398473e+00	1.714496080355709820e-06	-1.562451070572219529e-04	6.080479313851167890e-03	8.467531973249702304e-01	1.105067953661151625e+00	1.000009807175951337e+00	-9.976785839595533889e-03	3.304590461352833802e-05	1.856738217001229786e-05
2.813748215540075037e+00	1.714496039667619072e-06	-1.562449981437317743e-04	5.994366831216158507e-03	8.467537761360703907e-01	1.104796192204951621e+00	1.000009806136888058e+00	-9.976785546206038899e-03	3.303850406829849236e-05	1.882758228445868831e-05
2.833774893230752046e+00	1.714496002569000056e-06	-1.562448687274997573e-04	5.910161113509054299e-03	8.467544659602855850e-01	1.104536966300554424e+00	1.000009805103351468e+00	-9.976786909455153188e-03	3.303197298954979301e-05	1.908979179238062319e-05
2.853801570921428610e+00	1.714495967564330131e-06	-1.562447527306561436e-04	5.827806984959877160e-03	8.467550867775534007e-01	1.104290050184774552e+00	1.000009804071815056e+00	-9.976787722323965379e-03	3.302630078635828916e-05	1.935401378028767623e-05
2.873828248612105174e+00	1.714495935153081543e-06	-1.562446180801437511e-04	5.747250530026946566e-03	8.467558069023959355e-01	1.104055225438355103e+00	1.000009803046373102e+00	-9.976790034581394309e-03	3.302147315831257374e-05	1.962025140069709276e-05
2.893854926302782182e+00	1.714495904238768024e-06	-1.562444980787161194e-04	5.668440460457276758e-03	8.467564485443774824e-01	1.103832280744201366e+00	1.000009802023389627e+00	-9.976791685553180675e-03	3.301748021279354709e-05	1.988850787082143074e-05
2.913881603993458747e+00	1.714495875336607742e-06	-1.562443616784721823e-04	5.591326690600072549e-03	8.467571776992083299e-01	1.103621011576805255e+00	1.000009801007002874e+00	-9.976794656615281878e-03	3.301430883489711512e-05	2.015878647133622609e-05
2.933908281684135311e+00	1.714495847620659927e-06	-1.562442406642242164e-04	5.515861489573707470e-03	8.467578313142853919e-01	1.103421219986732593e+00	1.000009799993452075e+00	-9.976796892646756440e-03	3.301194974952910991e-05	2.043109054530104889e-05
2.953934959374811875e+00	1.714495821550526987e-06	-1.562441040879015367e-04	5.441998284412747668e-03	8.467585678937732396e-01	1.103232714313558294e+00	1.000009798986938314e+00	-9.976800368036532751e-03	3.301039096319462304e-05	2.070542349722892251e-05
2.973961637065488883e+00	1.714495796504139243e-06	-1.562439840195182681e-04	5.369692601564332764e-03	8.467592182758915120e-01	1.103055308993990957e+00	1.000009797983578252e+00	-9.976803010133762986e-03	3.300962373255708084e-05	2.098178879215195815e-05
2.993988314756165448e+00	1.714495772846525544e-06	-1.562438490946934560e-04	5.298901097618598927e-03	8.467599381777713985e-01	1.102888824295644277e+00	1.000009796987637589e+00	-9.976806820416154672e-03	3.300963715018589170e-05	2.126018995492449067e-05
3.014014992446842012e+00	1.714495750125580359e-06	-1.562437304955251280e-04	5.229582283807076779e-03	8.467605789947910688e-01	1.102733086146493902e+00	1.000009795995111084e+00	-9.976809788655198116e-03	3.301042291755909759e-05	2.154063056937304717e-05
3.034041670137519020e+00	1.714495728597564401e-06	-1.562435986072061229e-04	5.161695787864260809e-03	8.467612904909781468e-01	1.102587925886809650e+00	1.000009795010337488e+00	-9.976813802585976151e-03	3.301197117026559848e-05	2.182311427778303825e-05
3.054068347828195584e+00	1.714495707951666343e-06	-1.562434841393736662e-04	5.095202863652005879e-03	8.467619036829225898e-01	1.102453180119025378e+00	1.000009794029180554e+00	-9.976816885908568189e-03	3.301427400271232372e-05	2.210764478013560840e-05
3.074095025518872148e+00	1.714495688330896473e-06	-1.562433570099427147e-04	5.030065876529286016e-03	8.467625847001122308e-01	1.102328690474783546e+00	1.000009793056072294e+00	-9.976820954209035530e-03	3.301732256129872206e-05	2.239422583371184801e-05
3.094121703209549157e+00	1.714495669557302064e-06	-1.562432452486491356e-04	4.966248597951427451e-03	8.467631852277767157e-01	1.102214303483849411e+00	1.000009792086738347e+00	-9.976824205383127628e-03	3.302110925061617071e-05	2.268286125241710164e-05
3.114148380900225721e+00	1.714495651671204849e-06	-1.562431227472298081e-04	4.903715914363022260e-03	8.467638431460333681e-01	1.102109870354925025e+00	1.000009791125703318e+00	-9.976828302503669768e-03	3.302562616924659730e-05	2.297355490649271933e-05
3.134175058590902285e+00	1.714495634601614148e-06	-1.562430150526500187e-04	4.842433920213195728e-03	8.467644219794298044e-01	1.102015246861190345e+00	1.000009790168560952e+00	-9.976831603004053181e-03	3.303086601819774001e-05	2.326631072188108001e-05
3.154201736281578849e+00	1.714495618295632332e-06	-1.562428984771662961e-04	4.782369826882791261e-03	8.467650416595879914e-01	1.101930293134191885e+00	1.000009789219943546e+00	-9.976835614706892896e-03	3.303682179982906080e-05	2.356113268007189912e-05
3.174228413972255858e+00	1.714495602776769223e-06	-1.562427947028008661e-04	4.723491871620145652e-03	8.467656066692986760e-01	1.101854873563449466e+00	1.000009788275302958e+00	-9.976838945473839870e-03	3.304348647907030654e-05	2.385802481748392498e-05
3.194255091662932422e+00	1.714495587915521953e-06	-1.562426834311099759e-04	4.665769408445094753e-03	8.467661947556460733e-01	1.101788856602902378e+00	1.000009787339368073e+00	-9.976842883731535522e-03	3.305085389132138328e-05	2.415699122540821816e-05
3.214281769353608986e+00	1.714495573811707427e-06	-1.562425846597351078e-04	4.609172656140860316e-03	8.467667436674517489e-01	1.101732114684047747e+00	1.000009786407464851e+00	-9.976846147670184392e-03	3.305891725500827719e-05	2.445803604943682429e-05
3.234308447044285995e+00	1.714495560268008895e-06	-1.562424779176735206e-04	4.553672949026513553e-03	8.467672999147293211e-01	1.101684524031794510e+00	1.000009785484434977e+00	-9.976850039639169332e-03	3.306767119933641991e-05	2.476116348948740923e-05
3.254335124734962559e+00	1.714495547459024836e-06	-1.562423837488761404e-04	4.499242333758099802e-03	8.467678154044302463e-01	1.101645964590840077e+00	1.000009784565445647e+00	-9.976853240583193061e-03	3.307710914026452942e-05	2.506637779925474419e-05
3.274361802425639123e+00	1.714495535118463337e-06	-1.562422826066320921e-04	4.445853981219739619e-03	8.467683540376566009e-01	1.101616319850827308e+00	1.000009783655486872e+00	-9.976856993948067173e-03	3.308722649662396360e-05	2.537368328633243119e-05
3.294388480116315687e+00	1.714495523490400120e-06	-1.562421918668006177e-04	4.393481627737617391e-03	8.467688550793762703e-01	1.101595476783961081e+00	1.000009782749561316e+00	-9.976860185331061850e-03	3.309801684445820867e-05	2.568308431168483223e-05
3.314415157806992696e+00	1.714495512252303036e-06	-1.562420968461644287e-04	4.342100142200903609e-03	8.467693561433922156e-01	1.101583325678127334e+00	1.000009781852783997e+00	-9.976863748269476639e-03	3.310947633632616791e-05	2.599458528982226613e-05
3.334441835497669260e+00	1.714495501697810245e-06	-1.562420100521998622e-04	4.291684832286222183e-03	8.467698305856650176e-01	1.101579760085574566e+00	1.000009780960009920e+00	-9.976866879184781434e-03	3.312159873338795229e-05	2.630819068832704287e-05
3.354468513188345824e+00	1.714495491467584324e-06	-1.562419195399601505e-04	4.242212134029134558e-03	8.467703036009766038e-01	1.101584676663332596e+00	1.000009780076493549e+00	-9.976870337825244003e-03	3.313438083809331855e-05	2.662390502808134924e-05
3.374495190879022832e+00	1.714495481894111328e-06	-1.562418366907692910e-04	4.193658814684131202e-03	8.467707610757898573e-01	1.101597975131178631e+00	1.000009779196932902e+00	-9.976873391256833173e-03	3.314781659508201972e-05	2.694173288281759301e-05
3.394521868569699397e+00	1.714495472584874919e-06	-1.562417515269359759e-04	4.146002764781958443e-03	8.467712125752034913e-01	1.101619558119158793e+00	1.000009778326719889e+00	-9.976876674407702400e-03	3.316190343221375367e-05	2.726167887940540813e-05
3.414548546260375961e+00	1.714495463904058394e-06	-1.562416718834922261e-04	4.099222107680995653e-03	8.467716570289967049e-01	1.101649331134002319e+00	1.000009777460397098e+00	-9.976879682318742434e-03	3.317663546955014529e-05	2.758374769742273760e-05
3.434575223951052525e+00	1.714495455438544516e-06	-1.562415911100419063e-04	4.053296079547842774e-03	8.467720793203000751e-01	1.101687202413484279e+00	1.000009776603499656e+00	-9.976882838828480052e-03	3.319201069299818708e-05	2.790794406950840585e-05
3.454601901641729533e+00	1.714495447572046197e-06	-1.562415152357590298e-04	4.008204068283941456e-03	8.467724822584434818e-01	1.101733082899370775e+00	1.000009775750414720e+00	-9.976885752206461622e-03	3.320802341788249237e-05	2.823427278092551730e-05
3.474628579332406098e+00	1.714495439877458932e-06	-1.562414384638404006e-04	3.963926558953384006e-03	8.467729000904934411e-01	1.101786886099638707e+00	1.000009774906817084e+00	-9.976888793539343339e-03	3.322467214977724867e-05	2.856273867002303847e-05
3.494655257023082662e+00	1.714495432754463899e-06	-1.562413660605371313e-04	3.920444115438723176e-03	8.467732784804464785e-01	1.101848528066737165e+00	1.000009774066935142e+00	-9.976891618919252538e-03	3.324195138282077280e-05	2.889334662776134777e-05
3.514681934713759670e+00	1.714495425764473368e-06	-1.562412933753968896e-04	3.877738384456555065e-03	8.467736906269482944e-01	1.101917927265873010e+00	1.000009773236597121e+00	-9.976894526813195538e-03	3.325986011929081489e-05	2.922610159824299308e-05
3.534708612404436234e+00	1.714495419319349697e-06	-1.562412237278100382e-04	3.835791025210586944e-03	8.467740507116657822e-01	1.101995004559621849e+00	1.000009772409869546e+00	-9.976897299696103200e-03	3.327839302335369845e-05	2.956100857824915808e-05
3.554735290095112799e+00	1.714495412975467640e-06	-1.562411545538719491e-04	3.794584763308400145e-03	8.467744327582066299e-01	1.102079683081170769e+00	1.000009771592731855e+00	-9.976900101956044653e-03	3.329754955076967392e-05	2.989807261783694242e-05
3.574761967785789363e+00	1.714495407149932053e-06	-1.562410879945805048e-04	3.754102281372852581e-03	8.467747828987889358e-01	1.102171888225081942e+00	1.000009770779088480e+00	-9.976902789722118595e-03	3.331732454794723917e-05	3.023729881987446941e-05
3.594788645476466371e+00	1.714495401396990154e-06	-1.562410220754061703e-04	3.714327309029936096e-03	8.467751362277374794e-01	1.102271547524330098e+00	1.000009769975072738e+00	-9.976905493469313477e-03	3.333771789459019907e-05	3.057869234067297587e-05
3.614815323167142935e+00	1.714495396137941097e-06	-1.562409579458580629e-04	3.675243483219995614e-03	8.467754706494513561e-01	1.102378590647780099e+00	1.000009769174432517e+00	-9.976908129875838860e-03	3.335872460675717307e-05	3.092225838957205397e-05
3.634842000857819500e+00	1.714495390927378535e-06	-1.562408955996102695e-04	3.636835468842461970e-03	8.467758092851597196e-01	1.102492949279211931e+00	1.000009768383446795e+00	-9.976910704319011391e-03	3.338034496194209748e-05	3.126800222954914568e-05
3.654868678548496508e+00	1.714495386184293456e-06	-1.562408342580439487e-04	3.599087796549188100e-03	8.467761215220875881e-01	1.102614557122641115e+00	1.000009767595708476e+00	-9.976913258752842517e-03	3.340257416266977715e-05	3.161592917690059077e-05
3.674895356239173072e+00	1.714495381470156364e-06	-1.562407747625343827e-04	3.561986000799126882e-03	8.467764498792166306e-01	1.102743349782132620e+00	1.000009766817648194e+00	-9.976915744602132818e-03	3.342541283848625574e-05	3.196604460180945404e-05
3.694922033929849636e+00	1.714495377199231167e-06	-1.562407153782610593e-04	3.525515447793338766e-03	8.467767540225994427e-01	1.102879264774334400e+00	1.000009766042692760e+00	-9.976918261647788055e-03	3.344885637453542178e-05	3.231835392810829505e-05
3.714948711620526201e+00	1.714495372941486650e-06	-1.562406588381868146e-04	3.489662482867023855e-03	8.467770762036624932e-01	1.103022241410065885e+00	1.000009765277442453e+00	-9.976920643322353954e-03	3.347290572638001875e-05	3.267286263383429999e-05
3.734975389311203209e+00	1.714495369101045620e-06	-1.562406026250456848e-04	3.454413256877773754e-03	8.467773694218743152e-01	1.103172220811859949e+00	1.000009764515148003e+00	-9.976923039835758344e-03	3.349755648598970941e-05	3.302957625102514674e-05
3.755002067001879773e+00	1.714495365259125247e-06	-1.562405479200127550e-04	3.419754871447836745e-03	8.467776822162088601e-01	1.103329145797857125e+00	1.000009763762576886e+00	-9.976925383248985701e-03	3.352280990720694193e-05	3.338850036630650015e-05
3.775028744692556337e+00	1.714495361815275207e-06	-1.562404931206825610e-04	3.385674207910656982e-03	8.467779546542995028e-01	1.103492960904451037e+00	1.000009763012816633e+00	-9.976927764407669125e-03	3.354866174356426048e-05	3.374964062070669478e-05
3.795055422383233346e+00	1.714495358355763105e-06	-1.562404443910529088e-04	3.352159078409410863e-03	8.467782394891146813e-01	1.103663612272390404e+00	1.000009762272785707e+00	-9.976929799172782470e-03	3.357511356606517842e-05	3.411300271025244975e-05
3.815082100073909910e+00	1.714495355261108962e-06	-1.562403961895617434e-04	3.319197058417560145e-03	8.467784867101270097e-01	1.103841047673220999e+00	1.000009761535417097e+00	-9.976931828323641963e-03	3.360216138505918042e-05	3.447859238582862048e-05
3.835108777764586474e+00	1.714495352139879796e-06	-1.562403444961274067e-04	3.286776614048886758e-03	8.467787811546334531e-01	1.104025216397737985e+00	1.000009760807793580e+00	-9.976934119948946411e-03	3.362980696749689986e-05	3.484641545378647671e-05
3.855135455455263482e+00	1.714495349389241732e-06	-1.562402738313007418e-04	3.254885944843196200e-03	8.467791582514030413e-01	1.104216069286414914e+00	1.000009760082666954e+00	-9.976937652090678288e-03	3.365804629898507422e-05	3.521647777581021012e-05
3.875162133145940047e+00	1.714495346654219991e-06	-1.562402154080492621e-04	3.223514116887768368e-03	8.467794767089894536e-01	1.104413558619557367e+00	1.000009759367298745e+00	-9.976940406807176601e-03	3.368688119407876083e-05	3.558878526956971893e-05
3.895188810836616611e+00	1.714495344195472868e-06	-1.562402877521487773e-04	3.192650027403856096e-03	8.467790827562418077e-01	1.104617638151768721e+00	1.000009758654268444e+00	-9.976935002934107094e-03	3.371630878420724261e-05	3.596334390858992085e-05
3.915215488527293175e+00	1.714495341367766876e-06	-1.562403612854041627e-04	3.162283564179219509e-03	8.467786881123098297e-01	1.104828262999040023e+00	1.000009757951017653e+00	-9.976925732293112636e-03	3.374633371514833448e-05	3.634015972309010854e-05
3.935242166217970183e+00	1.714495338889183301e-06	-1.562398561035961556e-04	3.132403753572716998e-03	8.467814300403785355e-01	1.105045389725715976e+00	1.000009757250052145e+00	-9.976987972444997452e-03	3.377694868960707278e-05	3.671923879843431976e-05
3.955268843908646748e+00	1.714495338444043982e-06	-1.562390579370225767e-04	3.102999806556843831e-03	8.467857607335691483e-01	1.105268976262191893e+00	1.000009756560202412e+00	-9.977595599977878704e-03	3.380814531721737141e-05	3.710058729841499918e-05
3.975295521599323312e+00	1.714495337979430317e-06	-1.562398443766824989e-04	3.074062656388517559e-03	8.467815034842831601e-01	1.105498980971507894e+00	1.000009755880900686e+00	-9.976734298955963406e-03	3.383993099881699228e-05	3.748421137464685296e-05
3.995322199289999876e+00	1.714584732784533302e-06	-1.562482557931648872e-04	3.045531353289996409e-03	8.467602886750940083e-01	1.105725138389047624e+00	1.000000000000000000e+00	-1.000000000000000021e-02	3.387174561589884471e-05	3.787100112148618141e-05
