%!PS-Adobe-2.0 EPSF-2.0
%%Title: comparison-4-3-color.eps
%%Creator: gnuplot 4.0 patchlevel 0
%%CreationDate: Tue Nov 29 00:17:58 2005
%%DocumentFonts: (atend)
%%BoundingBox: 50 50 266 201
%%Orientation: Portrait
%%EndComments
/gnudict 256 dict def
gnudict begin
/Color true def
/Solid false def
/gnulinewidth 5.000 def
/userlinewidth gnulinewidth def
/vshift -46 def
/dl {10.0 mul} def
/hpt_ 31.5 def
/vpt_ 31.5 def
/hpt hpt_ def
/vpt vpt_ def
/Rounded false def
/M {moveto} bind def
/L {lineto} bind def
/R {rmoveto} bind def
/V {rlineto} bind def
/N {newpath moveto} bind def
/C {setrgbcolor} bind def
/f {rlineto fill} bind def
/vpt2 vpt 2 mul def
/hpt2 hpt 2 mul def
/Lshow { currentpoint stroke M
  0 vshift R show } def
/Rshow { currentpoint stroke M
  dup stringwidth pop neg vshift R show } def
/Cshow { currentpoint stroke M
  dup stringwidth pop -2 div vshift R show } def
/UP { dup vpt_ mul /vpt exch def hpt_ mul /hpt exch def
  /hpt2 hpt 2 mul def /vpt2 vpt 2 mul def } def
/DL { Color {setrgbcolor Solid {pop []} if 0 setdash }
 {pop pop pop 0 setgray Solid {pop []} if 0 setdash} ifelse } def
/BL { stroke userlinewidth 2 mul setlinewidth
      Rounded { 1 setlinejoin 1 setlinecap } if } def
/AL { stroke userlinewidth 2 div setlinewidth
      Rounded { 1 setlinejoin 1 setlinecap } if } def
/UL { dup gnulinewidth mul /userlinewidth exch def
      dup 1 lt {pop 1} if 10 mul /udl exch def } def
/PL { stroke userlinewidth setlinewidth
      Rounded { 1 setlinejoin 1 setlinecap } if } def
/LTw { PL [] 1 setgray } def
/LTb { BL [] 0 0 0 DL } def
/LTa { AL [1 udl mul 2 udl mul] 0 setdash 0 0 0 setrgbcolor } def
/LT0 { PL [] 1 0 0 DL } def
/LT1 { PL [4 dl 2 dl] 0 1 0 DL } def
/LT2 { PL [2 dl 3 dl] 0 0 1 DL } def
/LT3 { PL [1 dl 1.5 dl] 1 0 1 DL } def
/LT4 { PL [5 dl 2 dl 1 dl 2 dl] 0 1 1 DL } def
/LT5 { PL [4 dl 3 dl 1 dl 3 dl] 1 1 0 DL } def
/LT6 { PL [2 dl 2 dl 2 dl 4 dl] 0 0 0 DL } def
/LT7 { PL [2 dl 2 dl 2 dl 2 dl 2 dl 4 dl] 1 0.3 0 DL } def
/LT8 { PL [2 dl 2 dl 2 dl 2 dl 2 dl 2 dl 2 dl 4 dl] 0.5 0.5 0.5 DL } def
/Pnt { stroke [] 0 setdash
   gsave 1 setlinecap M 0 0 V stroke grestore } def
/Dia { stroke [] 0 setdash 2 copy vpt add M
  hpt neg vpt neg V hpt vpt neg V
  hpt vpt V hpt neg vpt V closepath stroke
  Pnt } def
/Pls { stroke [] 0 setdash vpt sub M 0 vpt2 V
  currentpoint stroke M
  hpt neg vpt neg R hpt2 0 V stroke
  } def
/Box { stroke [] 0 setdash 2 copy exch hpt sub exch vpt add M
  0 vpt2 neg V hpt2 0 V 0 vpt2 V
  hpt2 neg 0 V closepath stroke
  Pnt } def
/Crs { stroke [] 0 setdash exch hpt sub exch vpt add M
  hpt2 vpt2 neg V currentpoint stroke M
  hpt2 neg 0 R hpt2 vpt2 V stroke } def
/TriU { stroke [] 0 setdash 2 copy vpt 1.12 mul add M
  hpt neg vpt -1.62 mul V
  hpt 2 mul 0 V
  hpt neg vpt 1.62 mul V closepath stroke
  Pnt  } def
/Star { 2 copy Pls Crs } def
/BoxF { stroke [] 0 setdash exch hpt sub exch vpt add M
  0 vpt2 neg V  hpt2 0 V  0 vpt2 V
  hpt2 neg 0 V  closepath fill } def
/TriUF { stroke [] 0 setdash vpt 1.12 mul add M
  hpt neg vpt -1.62 mul V
  hpt 2 mul 0 V
  hpt neg vpt 1.62 mul V closepath fill } def
/TriD { stroke [] 0 setdash 2 copy vpt 1.12 mul sub M
  hpt neg vpt 1.62 mul V
  hpt 2 mul 0 V
  hpt neg vpt -1.62 mul V closepath stroke
  Pnt  } def
/TriDF { stroke [] 0 setdash vpt 1.12 mul sub M
  hpt neg vpt 1.62 mul V
  hpt 2 mul 0 V
  hpt neg vpt -1.62 mul V closepath fill} def
/DiaF { stroke [] 0 setdash vpt add M
  hpt neg vpt neg V hpt vpt neg V
  hpt vpt V hpt neg vpt V closepath fill } def
/Pent { stroke [] 0 setdash 2 copy gsave
  translate 0 hpt M 4 {72 rotate 0 hpt L} repeat
  closepath stroke grestore Pnt } def
/PentF { stroke [] 0 setdash gsave
  translate 0 hpt M 4 {72 rotate 0 hpt L} repeat
  closepath fill grestore } def
/Circle { stroke [] 0 setdash 2 copy
  hpt 0 360 arc stroke Pnt } def
/CircleF { stroke [] 0 setdash hpt 0 360 arc fill } def
/C0 { BL [] 0 setdash 2 copy moveto vpt 90 450  arc } bind def
/C1 { BL [] 0 setdash 2 copy        moveto
       2 copy  vpt 0 90 arc closepath fill
               vpt 0 360 arc closepath } bind def
/C2 { BL [] 0 setdash 2 copy moveto
       2 copy  vpt 90 180 arc closepath fill
               vpt 0 360 arc closepath } bind def
/C3 { BL [] 0 setdash 2 copy moveto
       2 copy  vpt 0 180 arc closepath fill
               vpt 0 360 arc closepath } bind def
/C4 { BL [] 0 setdash 2 copy moveto
       2 copy  vpt 180 270 arc closepath fill
               vpt 0 360 arc closepath } bind def
/C5 { BL [] 0 setdash 2 copy moveto
       2 copy  vpt 0 90 arc
       2 copy moveto
       2 copy  vpt 180 270 arc closepath fill
               vpt 0 360 arc } bind def
/C6 { BL [] 0 setdash 2 copy moveto
      2 copy  vpt 90 270 arc closepath fill
              vpt 0 360 arc closepath } bind def
/C7 { BL [] 0 setdash 2 copy moveto
      2 copy  vpt 0 270 arc closepath fill
              vpt 0 360 arc closepath } bind def
/C8 { BL [] 0 setdash 2 copy moveto
      2 copy vpt 270 360 arc closepath fill
              vpt 0 360 arc closepath } bind def
/C9 { BL [] 0 setdash 2 copy moveto
      2 copy  vpt 270 450 arc closepath fill
              vpt 0 360 arc closepath } bind def
/C10 { BL [] 0 setdash 2 copy 2 copy moveto vpt 270 360 arc closepath fill
       2 copy moveto
       2 copy vpt 90 180 arc closepath fill
               vpt 0 360 arc closepath } bind def
/C11 { BL [] 0 setdash 2 copy moveto
       2 copy  vpt 0 180 arc closepath fill
       2 copy moveto
       2 copy  vpt 270 360 arc closepath fill
               vpt 0 360 arc closepath } bind def
/C12 { BL [] 0 setdash 2 copy moveto
       2 copy  vpt 180 360 arc closepath fill
               vpt 0 360 arc closepath } bind def
/C13 { BL [] 0 setdash  2 copy moveto
       2 copy  vpt 0 90 arc closepath fill
       2 copy moveto
       2 copy  vpt 180 360 arc closepath fill
               vpt 0 360 arc closepath } bind def
/C14 { BL [] 0 setdash 2 copy moveto
       2 copy  vpt 90 360 arc closepath fill
               vpt 0 360 arc } bind def
/C15 { BL [] 0 setdash 2 copy vpt 0 360 arc closepath fill
               vpt 0 360 arc closepath } bind def
/Rec   { newpath 4 2 roll moveto 1 index 0 rlineto 0 exch rlineto
       neg 0 rlineto closepath } bind def
/Square { dup Rec } bind def
/Bsquare { vpt sub exch vpt sub exch vpt2 Square } bind def
/S0 { BL [] 0 setdash 2 copy moveto 0 vpt rlineto BL Bsquare } bind def
/S1 { BL [] 0 setdash 2 copy vpt Square fill Bsquare } bind def
/S2 { BL [] 0 setdash 2 copy exch vpt sub exch vpt Square fill Bsquare } bind def
/S3 { BL [] 0 setdash 2 copy exch vpt sub exch vpt2 vpt Rec fill Bsquare } bind def
/S4 { BL [] 0 setdash 2 copy exch vpt sub exch vpt sub vpt Square fill Bsquare } bind def
/S5 { BL [] 0 setdash 2 copy 2 copy vpt Square fill
       exch vpt sub exch vpt sub vpt Square fill Bsquare } bind def
/S6 { BL [] 0 setdash 2 copy exch vpt sub exch vpt sub vpt vpt2 Rec fill Bsquare } bind def
/S7 { BL [] 0 setdash 2 copy exch vpt sub exch vpt sub vpt vpt2 Rec fill
       2 copy vpt Square fill
       Bsquare } bind def
/S8 { BL [] 0 setdash 2 copy vpt sub vpt Square fill Bsquare } bind def
/S9 { BL [] 0 setdash 2 copy vpt sub vpt vpt2 Rec fill Bsquare } bind def
/S10 { BL [] 0 setdash 2 copy vpt sub vpt Square fill 2 copy exch vpt sub exch vpt Square fill
       Bsquare } bind def
/S11 { BL [] 0 setdash 2 copy vpt sub vpt Square fill 2 copy exch vpt sub exch vpt2 vpt Rec fill
       Bsquare } bind def
/S12 { BL [] 0 setdash 2 copy exch vpt sub exch vpt sub vpt2 vpt Rec fill Bsquare } bind def
/S13 { BL [] 0 setdash 2 copy exch vpt sub exch vpt sub vpt2 vpt Rec fill
       2 copy vpt Square fill Bsquare } bind def
/S14 { BL [] 0 setdash 2 copy exch vpt sub exch vpt sub vpt2 vpt Rec fill
       2 copy exch vpt sub exch vpt Square fill Bsquare } bind def
/S15 { BL [] 0 setdash 2 copy Bsquare fill Bsquare } bind def
/D0 { gsave translate 45 rotate 0 0 S0 stroke grestore } bind def
/D1 { gsave translate 45 rotate 0 0 S1 stroke grestore } bind def
/D2 { gsave translate 45 rotate 0 0 S2 stroke grestore } bind def
/D3 { gsave translate 45 rotate 0 0 S3 stroke grestore } bind def
/D4 { gsave translate 45 rotate 0 0 S4 stroke grestore } bind def
/D5 { gsave translate 45 rotate 0 0 S5 stroke grestore } bind def
/D6 { gsave translate 45 rotate 0 0 S6 stroke grestore } bind def
/D7 { gsave translate 45 rotate 0 0 S7 stroke grestore } bind def
/D8 { gsave translate 45 rotate 0 0 S8 stroke grestore } bind def
/D9 { gsave translate 45 rotate 0 0 S9 stroke grestore } bind def
/D10 { gsave translate 45 rotate 0 0 S10 stroke grestore } bind def
/D11 { gsave translate 45 rotate 0 0 S11 stroke grestore } bind def
/D12 { gsave translate 45 rotate 0 0 S12 stroke grestore } bind def
/D13 { gsave translate 45 rotate 0 0 S13 stroke grestore } bind def
/D14 { gsave translate 45 rotate 0 0 S14 stroke grestore } bind def
/D15 { gsave translate 45 rotate 0 0 S15 stroke grestore } bind def
/DiaE { stroke [] 0 setdash vpt add M
  hpt neg vpt neg V hpt vpt neg V
  hpt vpt V hpt neg vpt V closepath stroke } def
/BoxE { stroke [] 0 setdash exch hpt sub exch vpt add M
  0 vpt2 neg V hpt2 0 V 0 vpt2 V
  hpt2 neg 0 V closepath stroke } def
/TriUE { stroke [] 0 setdash vpt 1.12 mul add M
  hpt neg vpt -1.62 mul V
  hpt 2 mul 0 V
  hpt neg vpt 1.62 mul V closepath stroke } def
/TriDE { stroke [] 0 setdash vpt 1.12 mul sub M
  hpt neg vpt 1.62 mul V
  hpt 2 mul 0 V
  hpt neg vpt -1.62 mul V closepath stroke } def
/PentE { stroke [] 0 setdash gsave
  translate 0 hpt M 4 {72 rotate 0 hpt L} repeat
  closepath stroke grestore } def
/CircE { stroke [] 0 setdash 
  hpt 0 360 arc stroke } def
/Opaque { gsave closepath 1 setgray fill grestore 0 setgray closepath } def
/DiaW { stroke [] 0 setdash vpt add M
  hpt neg vpt neg V hpt vpt neg V
  hpt vpt V hpt neg vpt V Opaque stroke } def
/BoxW { stroke [] 0 setdash exch hpt sub exch vpt add M
  0 vpt2 neg V hpt2 0 V 0 vpt2 V
  hpt2 neg 0 V Opaque stroke } def
/TriUW { stroke [] 0 setdash vpt 1.12 mul add M
  hpt neg vpt -1.62 mul V
  hpt 2 mul 0 V
  hpt neg vpt 1.62 mul V Opaque stroke } def
/TriDW { stroke [] 0 setdash vpt 1.12 mul sub M
  hpt neg vpt 1.62 mul V
  hpt 2 mul 0 V
  hpt neg vpt -1.62 mul V Opaque stroke } def
/PentW { stroke [] 0 setdash gsave
  translate 0 hpt M 4 {72 rotate 0 hpt L} repeat
  Opaque stroke grestore } def
/CircW { stroke [] 0 setdash 
  hpt 0 360 arc Opaque stroke } def
/BoxFill { gsave Rec 1 setgray fill grestore } def
/BoxColFill {
  gsave Rec
  /Fillden exch def
  currentrgbcolor
  /ColB exch def /ColG exch def /ColR exch def
  /ColR ColR Fillden mul Fillden sub 1 add def
  /ColG ColG Fillden mul Fillden sub 1 add def
  /ColB ColB Fillden mul Fillden sub 1 add def
  ColR ColG ColB setrgbcolor
  fill grestore } def
%
% PostScript Level 1 Pattern Fill routine
% Usage: x y w h s a XX PatternFill
%	x,y = lower left corner of box to be filled
%	w,h = width and height of box
%	  a = angle in degrees between lines and x-axis
%	 XX = 0/1 for no/yes cross-hatch
%
/PatternFill { gsave /PFa [ 9 2 roll ] def
    PFa 0 get PFa 2 get 2 div add PFa 1 get PFa 3 get 2 div add translate
    PFa 2 get -2 div PFa 3 get -2 div PFa 2 get PFa 3 get Rec
    gsave 1 setgray fill grestore clip
    currentlinewidth 0.5 mul setlinewidth
    /PFs PFa 2 get dup mul PFa 3 get dup mul add sqrt def
    0 0 M PFa 5 get rotate PFs -2 div dup translate
	0 1 PFs PFa 4 get div 1 add floor cvi
	{ PFa 4 get mul 0 M 0 PFs V } for
    0 PFa 6 get ne {
	0 1 PFs PFa 4 get div 1 add floor cvi
	{ PFa 4 get mul 0 2 1 roll M PFs 0 V } for
    } if
    stroke grestore } def
%
/Symbol-Oblique /Symbol findfont [1 0 .167 1 0 0] makefont
dup length dict begin {1 index /FID eq {pop pop} {def} ifelse} forall
currentdict end definefont pop
/MFshow {
   { dup 5 get 3 ge
     { 5 get 3 eq {gsave} {grestore} ifelse }
     {dup dup 0 get findfont exch 1 get scalefont setfont
     [ currentpoint ] exch dup 2 get 0 exch R dup 5 get 2 ne {dup dup 6
     get exch 4 get {show} {stringwidth pop 0 R} ifelse }if dup 5 get 0 eq
     {dup 3 get {2 get neg 0 exch R pop} {pop aload pop M} ifelse} {dup 5
     get 1 eq {dup 2 get exch dup 3 get exch 6 get stringwidth pop -2 div
     dup 0 R} {dup 6 get stringwidth pop -2 div 0 R 6 get
     show 2 index {aload pop M neg 3 -1 roll neg R pop pop} {pop pop pop
     pop aload pop M} ifelse }ifelse }ifelse }
     ifelse }
   forall} bind def
/MFwidth {0 exch {dup 3 get{dup dup 0 get findfont exch 1 get scalefont
     setfont 6 get stringwidth pop add} {pop} ifelse} forall} bind def
/MLshow { currentpoint stroke M
  0 exch R MFshow } bind def
/MRshow { currentpoint stroke M
  exch dup MFwidth neg 3 -1 roll R MFshow } def
/MCshow { currentpoint stroke M
  exch dup MFwidth -2 div 3 -1 roll R MFshow } def
end
%%EndProlog
gnudict begin
gsave
50 50 translate
0.050 0.050 scale
0 setgray
newpath
(Helvetica) findfont 140 scalefont setfont
1.000 UL
LTb
1050 420 M
63 0 V
2969 0 R
-63 0 V
stroke
966 420 M
[ [(Helvetica) 140.0 0.0 true true 0 ( 0)]
] -46.7 MRshow
1.000 UL
LTb
1050 784 M
63 0 V
2969 0 R
-63 0 V
stroke
966 784 M
[ [(Helvetica) 140.0 0.0 true true 0 ( 2e-07)]
] -46.7 MRshow
1.000 UL
LTb
1050 1148 M
63 0 V
2969 0 R
-63 0 V
stroke
966 1148 M
[ [(Helvetica) 140.0 0.0 true true 0 ( 4e-07)]
] -46.7 MRshow
1.000 UL
LTb
1050 1512 M
63 0 V
2969 0 R
-63 0 V
stroke
966 1512 M
[ [(Helvetica) 140.0 0.0 true true 0 ( 6e-07)]
] -46.7 MRshow
1.000 UL
LTb
1050 1876 M
63 0 V
2969 0 R
-63 0 V
stroke
966 1876 M
[ [(Helvetica) 140.0 0.0 true true 0 ( 8e-07)]
] -46.7 MRshow
1.000 UL
LTb
1050 2240 M
63 0 V
2969 0 R
-63 0 V
stroke
966 2240 M
[ [(Helvetica) 140.0 0.0 true true 0 ( 1e-06)]
] -46.7 MRshow
1.000 UL
LTb
1050 2604 M
63 0 V
2969 0 R
-63 0 V
stroke
966 2604 M
[ [(Helvetica) 140.0 0.0 true true 0 ( 1.2e-06)]
] -46.7 MRshow
1.000 UL
LTb
1050 420 M
0 63 V
0 2121 R
0 -63 V
stroke
1050 280 M
[ [(Helvetica) 140.0 0.0 true true 0 ( 0)]
] -46.7 MCshow
1.000 UL
LTb
1656 420 M
0 63 V
0 2121 R
0 -63 V
stroke
1656 280 M
[ [(Helvetica) 140.0 0.0 true true 0 ( 2)]
] -46.7 MCshow
1.000 UL
LTb
2263 420 M
0 63 V
0 2121 R
0 -63 V
stroke
2263 280 M
[ [(Helvetica) 140.0 0.0 true true 0 ( 4)]
] -46.7 MCshow
1.000 UL
LTb
2869 420 M
0 63 V
0 2121 R
0 -63 V
stroke
2869 280 M
[ [(Helvetica) 140.0 0.0 true true 0 ( 6)]
] -46.7 MCshow
1.000 UL
LTb
3476 420 M
0 63 V
0 2121 R
0 -63 V
stroke
3476 280 M
[ [(Helvetica) 140.0 0.0 true true 0 ( 8)]
] -46.7 MCshow
1.000 UL
LTb
4082 420 M
0 63 V
0 2121 R
0 -63 V
stroke
4082 280 M
[ [(Helvetica) 140.0 0.0 true true 0 ( 10)]
] -46.7 MCshow
1.000 UL
LTb
1.000 UL
LTb
1050 420 M
3032 0 V
0 2184 V
-3032 0 V
0 -2184 V
LTb
140 1512 M
currentpoint gsave translate 90 rotate 0 0 moveto
[ [(Helvetica) 140.0 0.0 true true 0 (error \(L)]
[(Symbol) 112.0 -42.0 true true 0 (\245)]
[(Helvetica) 140.0 0.0 true true 0 (\))]
] -32.7 MCshow
grestore
LTb
2566 70 M
[ [(Helvetica) 140.0 0.0 true true 0 (Time)]
] -46.7 MCshow
LTb
2566 2814 M
[ [(Helvetica) 140.0 0.0 true true 0 (4-3 operators)]
] -46.7 MCshow
1.000 UP
3.000 UL
LT0
LTb
3431 693 M
[ [(Helvetica) 140.0 0.0 true true 0 (dx=0.0125 \(min. bandwidth\))]
] -46.7 MRshow
LT0
3515 693 M
399 0 V
1050 420 M
1 51 V
1 101 V
1 99 V
1 68 V
1 27 V
1 123 V
1 126 V
1 129 V
1 123 V
0 116 V
1 106 V
1 91 V
1 78 V
1 64 V
1 44 V
1 33 V
1 18 V
1 3 V
1 -4 V
1 -15 V
1 -26 V
1 -28 V
1 -35 V
1 -36 V
1 -38 V
1 -38 V
1 -34 V
1 -34 V
0 -29 V
1 -25 V
1 -20 V
1 -15 V
1 -11 V
1 -4 V
1 -3 V
1 1 V
1 3 V
1 5 V
1 8 V
1 7 V
1 7 V
1 11 V
1 8 V
1 8 V
1 6 V
1 4 V
1 1 V
1 -3 V
1 -5 V
1 -7 V
1 -8 V
1 -1 V
1 -1 V
1 -1 V
1 -2 V
1 -1 V
1 -2 V
1 -1 V
1 -1 V
1 -2 V
1 -1 V
1 0 V
1 -1 V
1 0 V
1 0 V
1 1 V
1 0 V
1 1 V
1 1 V
1 0 V
1 1 V
1 0 V
1 1 V
1 0 V
1 0 V
1 0 V
1 -1 V
1 0 V
1 -1 V
1 -1 V
1 -1 V
1 -1 V
1 -1 V
0 -1 V
1 -1 V
1 -1 V
1 -1 V
1 -1 V
1 -1 V
1 -1 V
1 0 V
1 0 V
1 -1 V
1 0 V
1 0 V
1 0 V
1 0 V
1 -1 V
1 0 V
1 0 V
1 0 V
1 0 V
stroke
1149 1447 M
0 -1 V
1 0 V
1 -1 V
1 -1 V
1 -1 V
1 -1 V
1 -1 V
1 -1 V
1 -1 V
1 -2 V
1 -1 V
1 -1 V
1 -1 V
1 -1 V
1 -1 V
1 0 V
1 0 V
1 0 V
1 0 V
1 -1 V
1 -1 V
1 -1 V
1 -1 V
1 0 V
1 0 V
1 -1 V
1 0 V
1 -1 V
1 -1 V
1 0 V
1 -1 V
1 -1 V
1 -1 V
1 -1 V
1 -1 V
1 -1 V
1 -1 V
0 -1 V
1 1 V
1 4 V
1 2 V
1 -1 V
1 -6 V
1 -6 V
1 -1 V
1 0 V
1 -1 V
1 0 V
1 0 V
1 5 V
1 4 V
1 3 V
1 -1 V
1 -2 V
1 -6 V
1 -5 V
1 -1 V
1 0 V
1 -1 V
1 -1 V
1 -1 V
1 1 V
1 2 V
1 0 V
1 -2 V
1 2 V
1 1 V
1 2 V
1 2 V
1 2 V
1 1 V
1 2 V
1 2 V
1 2 V
0 2 V
1 1 V
1 3 V
1 3 V
1 3 V
1 3 V
1 3 V
1 3 V
1 3 V
1 3 V
1 2 V
1 3 V
1 3 V
1 2 V
1 2 V
1 3 V
1 2 V
1 2 V
1 2 V
1 2 V
0 2 V
1 2 V
1 1 V
1 2 V
1 2 V
1 1 V
1 1 V
1 2 V
1 1 V
1 1 V
stroke
1249 1485 M
1 1 V
1 1 V
1 1 V
1 1 V
1 1 V
1 0 V
1 1 V
1 1 V
1 0 V
0 1 V
1 0 V
1 1 V
1 0 V
1 1 V
1 0 V
1 0 V
1 0 V
1 0 V
1 0 V
1 0 V
1 0 V
1 1 V
1 0 V
1 0 V
1 -1 V
1 0 V
1 0 V
1 -1 V
1 -1 V
1 0 V
1 -1 V
1 0 V
1 -1 V
1 0 V
1 -1 V
1 0 V
1 -1 V
1 -1 V
1 0 V
1 -1 V
1 -1 V
1 0 V
1 -1 V
1 0 V
1 0 V
1 1 V
0 2 V
1 2 V
1 1 V
1 2 V
1 2 V
1 2 V
1 2 V
1 2 V
1 1 V
1 2 V
1 2 V
1 2 V
1 2 V
1 2 V
1 2 V
1 2 V
1 2 V
1 2 V
1 2 V
0 2 V
1 2 V
1 2 V
1 2 V
1 2 V
1 3 V
1 2 V
1 2 V
1 1 V
1 2 V
1 2 V
1 2 V
1 1 V
1 2 V
1 1 V
1 2 V
1 3 V
1 2 V
1 2 V
0 3 V
1 2 V
1 2 V
1 2 V
1 2 V
1 1 V
1 2 V
1 1 V
1 1 V
1 1 V
1 1 V
1 1 V
1 1 V
1 0 V
1 0 V
1 0 V
1 1 V
1 1 V
1 2 V
0 1 V
stroke
1348 1584 M
1 1 V
1 1 V
1 0 V
1 0 V
1 2 V
1 2 V
1 1 V
1 2 V
1 1 V
1 1 V
1 1 V
1 1 V
1 1 V
1 0 V
1 0 V
1 0 V
1 1 V
1 0 V
1 -1 V
1 0 V
1 -1 V
1 0 V
1 -1 V
1 0 V
1 1 V
1 0 V
1 0 V
1 0 V
1 0 V
1 0 V
1 0 V
1 0 V
1 1 V
1 0 V
1 1 V
1 1 V
1 0 V
1 0 V
1 2 V
1 5 V
1 4 V
1 5 V
1 3 V
1 4 V
1 3 V
1 2 V
1 3 V
1 2 V
1 2 V
1 2 V
1 2 V
1 4 V
1 4 V
1 5 V
0 5 V
1 6 V
1 6 V
1 6 V
1 7 V
1 6 V
1 6 V
1 5 V
1 4 V
1 4 V
1 4 V
1 4 V
1 3 V
1 2 V
1 2 V
1 1 V
1 0 V
1 1 V
1 0 V
0 1 V
1 2 V
1 5 V
1 6 V
1 7 V
1 7 V
1 7 V
1 6 V
1 6 V
1 5 V
1 5 V
1 4 V
1 4 V
1 3 V
1 3 V
1 3 V
1 3 V
1 1 V
1 1 V
0 6 V
1 10 V
1 9 V
1 10 V
1 9 V
1 9 V
1 9 V
1 8 V
1 8 V
1 8 V
1 8 V
1 8 V
stroke
1449 1905 M
1 7 V
1 7 V
1 7 V
1 7 V
1 7 V
1 6 V
1 7 V
0 6 V
1 6 V
1 5 V
1 6 V
1 5 V
1 5 V
1 5 V
1 4 V
1 5 V
1 4 V
1 4 V
1 4 V
1 3 V
1 3 V
1 4 V
1 3 V
1 3 V
1 2 V
1 3 V
0 3 V
1 2 V
1 3 V
1 4 V
1 4 V
1 4 V
1 5 V
1 4 V
1 4 V
1 4 V
1 4 V
1 4 V
1 4 V
1 4 V
1 3 V
1 4 V
1 3 V
1 3 V
1 4 V
0 3 V
1 3 V
1 3 V
1 4 V
1 4 V
1 3 V
1 4 V
1 3 V
1 4 V
1 3 V
1 3 V
1 3 V
1 3 V
1 2 V
1 3 V
1 2 V
1 2 V
1 3 V
1 2 V
0 2 V
1 2 V
1 1 V
1 2 V
1 1 V
1 1 V
1 1 V
1 2 V
1 1 V
1 0 V
1 1 V
1 1 V
1 0 V
1 1 V
1 2 V
1 1 V
1 2 V
1 1 V
1 2 V
0 1 V
1 1 V
1 1 V
1 1 V
1 1 V
1 1 V
1 1 V
1 1 V
1 1 V
1 1 V
1 0 V
1 1 V
1 2 V
1 1 V
1 1 V
1 2 V
1 1 V
1 2 V
1 1 V
0 1 V
1 1 V
stroke
1547 2207 M
1 0 V
1 1 V
1 1 V
1 0 V
1 1 V
1 0 V
1 0 V
1 0 V
1 0 V
1 0 V
1 0 V
1 0 V
1 -1 V
1 -1 V
1 0 V
1 -1 V
1 0 V
0 -1 V
1 -1 V
1 -2 V
1 -1 V
1 0 V
1 -1 V
1 -2 V
1 -2 V
1 -1 V
1 -1 V
1 -2 V
1 -2 V
1 -2 V
1 -2 V
1 -1 V
1 -2 V
1 -2 V
1 -3 V
1 -1 V
0 -2 V
1 -3 V
1 -3 V
1 -2 V
1 -2 V
1 -3 V
1 2 V
1 1 V
1 1 V
1 2 V
1 2 V
1 2 V
1 1 V
1 0 V
1 1 V
1 -1 V
1 0 V
1 -2 V
1 -1 V
0 -2 V
1 -2 V
1 -2 V
1 -2 V
1 -2 V
1 -2 V
1 -3 V
1 -1 V
1 1 V
1 0 V
1 0 V
1 1 V
1 0 V
1 0 V
1 0 V
1 -1 V
1 0 V
1 7 V
1 6 V
1 5 V
0 4 V
1 5 V
1 10 V
1 8 V
1 8 V
1 7 V
1 6 V
1 5 V
1 7 V
1 6 V
1 6 V
1 4 V
1 3 V
1 2 V
1 1 V
1 3 V
1 1 V
1 0 V
1 -1 V
0 -2 V
1 -4 V
1 -5 V
1 -4 V
1 -4 V
1 -6 V
1 -6 V
1 -8 V
1 -9 V
1 -3 V
stroke
1646 2208 M
1 4 V
1 3 V
1 2 V
1 2 V
1 1 V
1 1 V
1 -1 V
1 -2 V
1 -3 V
0 -4 V
1 -5 V
1 -6 V
1 -7 V
1 -8 V
1 -7 V
1 -2 V
1 -1 V
1 7 V
1 7 V
1 5 V
1 5 V
1 2 V
1 2 V
1 0 V
1 -1 V
1 -2 V
1 -4 V
1 0 V
0 -2 V
1 -2 V
1 -3 V
1 -4 V
1 -5 V
1 -6 V
1 -7 V
1 -8 V
1 -4 V
1 -1 V
1 0 V
1 -1 V
1 -2 V
1 -3 V
1 -2 V
1 2 V
1 2 V
1 1 V
1 4 V
0 6 V
1 6 V
1 5 V
1 3 V
1 1 V
1 0 V
1 -2 V
1 -3 V
1 -4 V
1 -6 V
1 -7 V
1 -8 V
1 -4 V
1 1 V
1 0 V
1 0 V
1 0 V
1 0 V
1 -1 V
0 -1 V
1 -2 V
1 -1 V
1 -1 V
1 -2 V
1 -2 V
1 -1 V
1 1 V
1 1 V
1 2 V
1 1 V
1 1 V
1 0 V
1 0 V
1 0 V
1 0 V
1 -1 V
1 -2 V
1 -3 V
0 -3 V
1 -5 V
1 -5 V
1 -5 V
1 -3 V
1 0 V
1 -1 V
1 0 V
1 2 V
1 4 V
1 2 V
1 2 V
1 1 V
1 0 V
1 0 V
1 0 V
1 0 V
1 1 V
1 0 V
stroke
1745 2122 M
0 -1 V
1 -2 V
1 -3 V
1 -2 V
1 -3 V
1 -4 V
1 -4 V
1 -3 V
1 -3 V
1 -3 V
1 -2 V
1 4 V
1 3 V
1 2 V
1 1 V
1 4 V
1 4 V
1 3 V
1 3 V
0 4 V
1 3 V
1 2 V
1 2 V
1 1 V
1 0 V
1 0 V
1 0 V
1 0 V
1 -1 V
1 2 V
1 3 V
1 3 V
1 3 V
1 3 V
1 4 V
1 3 V
1 2 V
1 3 V
0 3 V
1 3 V
1 3 V
1 3 V
1 2 V
1 3 V
1 2 V
1 3 V
1 2 V
1 1 V
1 3 V
1 4 V
1 4 V
1 3 V
1 3 V
1 3 V
1 2 V
1 2 V
1 1 V
0 1 V
1 1 V
1 3 V
1 5 V
1 5 V
1 3 V
1 4 V
1 2 V
1 4 V
1 4 V
1 4 V
1 4 V
1 2 V
1 2 V
1 1 V
1 0 V
1 -1 V
1 -1 V
1 -1 V
0 5 V
1 4 V
1 4 V
1 4 V
1 3 V
1 4 V
1 3 V
1 2 V
1 2 V
1 1 V
1 1 V
1 0 V
1 0 V
1 1 V
1 2 V
1 2 V
1 1 V
1 3 V
1 3 V
0 2 V
1 3 V
1 2 V
1 2 V
1 1 V
1 1 V
1 2 V
1 2 V
1 2 V
stroke
1843 2307 M
1 2 V
1 2 V
1 2 V
1 2 V
1 2 V
1 2 V
1 3 V
1 2 V
1 1 V
1 1 V
0 3 V
1 4 V
1 3 V
1 3 V
1 3 V
1 3 V
1 3 V
1 2 V
1 2 V
1 3 V
1 1 V
1 2 V
1 1 V
1 1 V
1 2 V
1 1 V
1 1 V
1 1 V
1 1 V
1 1 V
1 2 V
1 2 V
1 2 V
1 2 V
1 1 V
1 2 V
1 1 V
1 2 V
1 1 V
1 1 V
1 1 V
1 1 V
1 2 V
1 1 V
1 1 V
1 2 V
1 2 V
0 2 V
1 3 V
1 2 V
1 2 V
1 2 V
1 1 V
1 1 V
1 1 V
1 1 V
1 1 V
1 1 V
1 1 V
1 0 V
1 1 V
1 0 V
1 1 V
1 1 V
1 1 V
1 1 V
1 2 V
1 1 V
1 2 V
1 1 V
1 2 V
1 1 V
1 1 V
1 2 V
1 1 V
1 2 V
1 1 V
1 0 V
1 1 V
1 1 V
1 0 V
1 1 V
1 0 V
1 -1 V
0 -1 V
1 -1 V
1 -1 V
1 0 V
1 1 V
1 1 V
1 0 V
1 0 V
1 1 V
1 2 V
1 1 V
1 1 V
1 1 V
1 1 V
1 0 V
1 1 V
1 0 V
1 0 V
1 0 V
1 0 V
stroke
1944 2441 M
1 0 V
1 -1 V
1 0 V
1 -1 V
1 0 V
1 1 V
1 0 V
1 0 V
1 0 V
1 -1 V
1 0 V
1 0 V
1 0 V
1 -1 V
1 0 V
1 0 V
1 0 V
0 1 V
1 0 V
1 0 V
1 0 V
1 0 V
1 1 V
1 0 V
1 -1 V
1 0 V
1 1 V
1 0 V
1 0 V
1 -1 V
1 0 V
1 -1 V
1 -1 V
1 0 V
1 1 V
1 0 V
1 0 V
1 0 V
1 0 V
1 0 V
1 0 V
1 0 V
1 0 V
1 0 V
1 -1 V
1 1 V
1 0 V
1 1 V
1 1 V
1 1 V
1 0 V
1 1 V
1 -1 V
1 0 V
1 0 V
1 -1 V
1 -1 V
1 -1 V
1 -1 V
1 -1 V
1 -1 V
1 -1 V
1 -1 V
1 0 V
1 0 V
1 -1 V
1 0 V
1 -1 V
1 0 V
1 0 V
1 -1 V
1 0 V
1 0 V
0 -1 V
1 -1 V
1 0 V
1 0 V
1 0 V
1 -1 V
1 0 V
1 -1 V
1 -1 V
1 -1 V
1 -2 V
1 0 V
1 -1 V
1 0 V
1 0 V
1 0 V
1 -1 V
1 0 V
1 0 V
1 -1 V
1 0 V
1 0 V
1 -1 V
1 -1 V
1 -1 V
1 -1 V
1 -2 V
1 -1 V
1 -2 V
1 -1 V
1 -2 V
stroke
2046 2407 M
1 -1 V
1 -2 V
1 -2 V
1 -2 V
1 -2 V
1 -2 V
0 -3 V
1 -1 V
1 -1 V
1 -1 V
1 -1 V
1 -2 V
1 -1 V
1 -2 V
1 -2 V
1 -1 V
1 -2 V
1 -3 V
1 -2 V
1 -2 V
1 -2 V
1 -2 V
1 -2 V
1 -1 V
1 -2 V
0 -2 V
1 -2 V
1 -2 V
1 -2 V
1 -2 V
1 -3 V
1 -2 V
1 -3 V
1 -2 V
1 -3 V
1 -3 V
1 -3 V
1 -3 V
1 -3 V
1 -3 V
1 -3 V
1 -3 V
1 -4 V
1 -2 V
0 -2 V
1 -3 V
1 -2 V
1 -3 V
1 -2 V
1 -3 V
1 -3 V
1 -4 V
1 -3 V
1 -4 V
1 -4 V
1 -4 V
1 -4 V
1 -5 V
1 -5 V
1 -2 V
1 -2 V
1 -2 V
1 -2 V
0 -3 V
1 -2 V
1 -3 V
1 -3 V
1 -3 V
1 -4 V
1 -4 V
1 -5 V
1 -5 V
1 -4 V
1 -4 V
1 -5 V
1 -6 V
1 -5 V
1 -6 V
1 -6 V
1 -7 V
1 -3 V
1 -2 V
0 -3 V
1 -4 V
1 -3 V
1 -5 V
1 -4 V
1 -4 V
1 -4 V
1 -5 V
1 -5 V
1 -5 V
1 -6 V
1 -6 V
1 -6 V
1 -6 V
1 -3 V
1 -3 V
1 -3 V
1 -3 V
1 -3 V
0 -4 V
1 -5 V
1 -3 V
stroke
2144 2081 M
1 -4 V
1 -4 V
1 -5 V
1 -5 V
1 -6 V
1 -6 V
1 -7 V
1 -6 V
1 -7 V
1 -7 V
1 -7 V
1 -7 V
1 -7 V
1 -6 V
1 -5 V
1 -5 V
0 -5 V
1 -6 V
1 -5 V
1 -6 V
1 -6 V
1 -6 V
1 -6 V
1 -7 V
1 -6 V
1 -7 V
1 -6 V
1 -7 V
1 -7 V
1 -5 V
1 -7 V
1 -6 V
1 -6 V
1 -7 V
1 -6 V
0 -6 V
1 -1 V
1 2 V
1 2 V
1 2 V
1 1 V
1 -1 V
1 -1 V
1 1 V
1 -1 V
1 0 V
1 -1 V
1 2 V
1 2 V
1 1 V
1 0 V
1 0 V
1 0 V
1 0 V
0 -1 V
1 -1 V
1 -1 V
1 0 V
1 -1 V
1 0 V
1 -1 V
1 -1 V
1 -1 V
1 -1 V
1 -1 V
1 -2 V
1 -1 V
1 -2 V
1 -1 V
1 3 V
1 3 V
1 2 V
1 2 V
1 1 V
1 -1 V
1 -1 V
1 -1 V
1 -1 V
1 -1 V
1 -1 V
1 -1 V
1 -1 V
1 -2 V
1 -2 V
1 -2 V
1 -2 V
1 -2 V
1 1 V
1 2 V
1 1 V
1 1 V
1 0 V
1 -1 V
1 -2 V
1 0 V
1 -1 V
1 -1 V
1 -2 V
1 -2 V
1 -3 V
1 3 V
1 2 V
1 3 V
1 2 V
stroke
2245 1853 M
1 2 V
1 2 V
1 2 V
1 3 V
1 2 V
0 2 V
1 2 V
1 3 V
1 2 V
1 2 V
1 3 V
1 2 V
1 2 V
1 2 V
1 2 V
1 1 V
1 2 V
1 1 V
1 1 V
1 1 V
1 2 V
1 1 V
1 1 V
1 1 V
0 1 V
1 1 V
1 2 V
1 1 V
1 1 V
1 2 V
1 2 V
1 2 V
1 1 V
1 2 V
1 1 V
1 2 V
1 1 V
1 1 V
1 2 V
1 1 V
1 1 V
1 1 V
1 1 V
0 1 V
1 1 V
1 1 V
1 0 V
1 1 V
1 0 V
1 1 V
1 0 V
1 0 V
1 0 V
1 0 V
1 0 V
1 1 V
1 4 V
1 3 V
1 4 V
1 3 V
1 3 V
1 2 V
0 3 V
1 4 V
1 3 V
1 2 V
1 2 V
1 1 V
1 2 V
1 3 V
1 2 V
1 2 V
1 1 V
1 2 V
1 3 V
1 2 V
1 1 V
1 1 V
1 3 V
1 3 V
1 4 V
0 4 V
1 3 V
1 2 V
1 2 V
1 5 V
1 3 V
1 3 V
1 1 V
1 1 V
1 4 V
1 3 V
1 2 V
1 1 V
1 0 V
1 -1 V
1 3 V
1 2 V
1 0 V
1 0 V
0 -1 V
1 -2 V
1 2 V
1 1 V
stroke
2343 2030 M
1 0 V
1 2 V
1 1 V
1 0 V
1 2 V
1 3 V
1 2 V
1 1 V
1 2 V
1 3 V
1 3 V
1 1 V
1 1 V
1 -1 V
1 0 V
0 3 V
1 2 V
1 1 V
1 1 V
1 -1 V
1 1 V
1 1 V
1 1 V
1 1 V
1 3 V
1 2 V
1 3 V
1 3 V
1 1 V
1 1 V
1 -1 V
1 1 V
1 1 V
1 1 V
1 0 V
0 3 V
1 3 V
1 4 V
1 2 V
1 1 V
1 0 V
1 -1 V
1 -2 V
1 -1 V
1 0 V
1 2 V
1 3 V
1 2 V
1 2 V
1 1 V
1 1 V
1 0 V
1 1 V
1 0 V
0 1 V
1 1 V
1 0 V
1 2 V
1 4 V
1 3 V
1 3 V
1 2 V
1 0 V
1 0 V
1 0 V
1 -2 V
1 0 V
1 3 V
1 3 V
1 2 V
1 2 V
1 1 V
1 1 V
1 0 V
1 0 V
1 -1 V
1 3 V
1 3 V
1 3 V
1 3 V
1 3 V
1 2 V
1 1 V
1 0 V
1 -2 V
1 -1 V
1 2 V
1 2 V
1 2 V
1 2 V
1 1 V
0 1 V
1 -1 V
1 -1 V
1 -2 V
1 0 V
1 -1 V
1 1 V
1 3 V
1 2 V
1 2 V
1 2 V
1 0 V
1 0 V
stroke
2443 2151 M
1 0 V
1 -1 V
1 1 V
1 2 V
1 0 V
1 0 V
1 0 V
1 1 V
1 0 V
1 0 V
1 1 V
1 0 V
1 1 V
1 3 V
1 2 V
1 1 V
1 1 V
1 0 V
1 -1 V
1 -1 V
1 2 V
1 1 V
1 1 V
1 1 V
0 -1 V
1 -1 V
1 -1 V
1 1 V
1 2 V
1 1 V
1 1 V
1 0 V
1 -1 V
1 -1 V
1 -2 V
1 -1 V
1 2 V
1 2 V
1 1 V
1 1 V
1 -1 V
1 -2 V
1 -3 V
1 0 V
1 -1 V
1 -1 V
1 1 V
1 2 V
1 0 V
1 1 V
1 1 V
1 0 V
1 0 V
1 -1 V
1 -2 V
1 1 V
1 2 V
1 1 V
1 1 V
1 1 V
1 -1 V
0 -1 V
1 -2 V
1 -2 V
1 0 V
1 -1 V
1 1 V
1 1 V
1 0 V
1 -1 V
1 -2 V
1 -1 V
1 1 V
1 1 V
1 1 V
1 1 V
1 0 V
1 0 V
1 -1 V
1 0 V
0 -1 V
1 1 V
1 2 V
1 1 V
1 1 V
1 0 V
1 -2 V
1 -2 V
1 -2 V
1 -1 V
1 4 V
1 2 V
1 3 V
1 2 V
1 3 V
1 3 V
1 3 V
1 2 V
1 2 V
0 2 V
1 1 V
1 2 V
1 4 V
1 4 V
stroke
2543 2197 M
1 5 V
1 4 V
1 3 V
1 3 V
1 3 V
1 4 V
1 3 V
1 3 V
1 4 V
1 2 V
1 5 V
1 4 V
1 3 V
1 2 V
0 4 V
1 2 V
1 3 V
1 2 V
1 2 V
1 3 V
1 2 V
1 2 V
1 2 V
1 2 V
1 2 V
1 1 V
1 2 V
1 0 V
1 1 V
1 1 V
1 3 V
1 3 V
1 3 V
0 2 V
1 2 V
1 2 V
1 2 V
1 2 V
1 3 V
1 3 V
1 3 V
1 3 V
1 2 V
1 2 V
1 2 V
1 2 V
1 3 V
1 3 V
1 2 V
1 2 V
1 2 V
1 1 V
0 2 V
1 2 V
1 2 V
1 1 V
1 0 V
1 1 V
1 1 V
1 1 V
1 1 V
1 1 V
1 1 V
1 1 V
1 0 V
1 0 V
1 1 V
1 2 V
1 2 V
1 2 V
1 3 V
0 2 V
1 2 V
1 1 V
1 2 V
1 2 V
1 1 V
1 3 V
1 2 V
1 2 V
1 2 V
1 1 V
1 1 V
1 0 V
1 1 V
1 1 V
1 2 V
1 2 V
1 2 V
1 2 V
0 1 V
1 1 V
1 0 V
1 0 V
1 0 V
1 1 V
1 2 V
1 1 V
1 1 V
1 1 V
1 0 V
1 0 V
1 0 V
1 -1 V
stroke
2642 2390 M
1 1 V
1 0 V
1 1 V
1 1 V
1 0 V
1 -1 V
1 0 V
1 -1 V
1 -2 V
1 1 V
1 1 V
1 1 V
1 0 V
1 1 V
1 0 V
1 0 V
1 1 V
1 2 V
1 1 V
1 0 V
1 0 V
1 0 V
1 0 V
1 -1 V
1 0 V
1 -1 V
1 -1 V
1 0 V
1 0 V
1 0 V
1 0 V
1 0 V
1 -1 V
1 0 V
1 0 V
1 0 V
1 0 V
1 -1 V
1 -1 V
1 0 V
1 0 V
1 -1 V
1 0 V
1 -1 V
1 -1 V
1 -1 V
1 -1 V
1 -1 V
1 0 V
1 0 V
1 0 V
1 0 V
1 -1 V
1 -1 V
1 0 V
1 -1 V
1 -1 V
1 -1 V
1 -1 V
0 -2 V
1 -1 V
1 0 V
1 -1 V
1 -1 V
1 -1 V
1 -1 V
1 -1 V
1 -1 V
1 -1 V
1 -2 V
1 -2 V
1 -1 V
1 -1 V
1 -2 V
1 -1 V
1 -2 V
1 -1 V
1 0 V
0 -1 V
1 -1 V
1 0 V
1 -1 V
1 1 V
1 1 V
1 1 V
1 1 V
1 1 V
1 0 V
1 0 V
1 1 V
1 3 V
1 3 V
1 2 V
1 2 V
1 2 V
1 3 V
1 3 V
0 2 V
1 2 V
1 2 V
1 1 V
1 2 V
1 2 V
1 2 V
stroke
2743 2391 M
1 2 V
1 1 V
1 2 V
1 1 V
1 2 V
1 2 V
1 1 V
1 2 V
1 2 V
1 1 V
1 2 V
1 2 V
1 2 V
0 1 V
1 2 V
1 2 V
1 1 V
1 2 V
1 1 V
1 2 V
1 1 V
1 1 V
1 2 V
1 1 V
1 2 V
1 1 V
1 2 V
1 1 V
1 2 V
1 2 V
1 1 V
1 1 V
0 2 V
1 1 V
1 1 V
1 1 V
1 1 V
1 1 V
1 1 V
1 1 V
1 2 V
1 1 V
1 0 V
1 1 V
1 1 V
1 0 V
1 1 V
1 1 V
1 0 V
1 1 V
1 0 V
1 1 V
1 1 V
1 1 V
1 1 V
1 0 V
1 1 V
1 0 V
1 0 V
1 1 V
1 0 V
1 1 V
1 0 V
1 0 V
1 -1 V
1 0 V
1 1 V
1 0 V
1 0 V
1 0 V
1 1 V
1 0 V
1 0 V
1 0 V
1 0 V
1 1 V
1 0 V
1 1 V
1 0 V
1 0 V
1 1 V
1 0 V
1 0 V
1 0 V
1 0 V
1 0 V
1 0 V
1 0 V
1 0 V
1 -1 V
1 0 V
1 0 V
1 0 V
1 0 V
1 0 V
1 -1 V
1 1 V
1 0 V
1 0 V
1 0 V
1 -1 V
1 0 V
1 0 V
1 -1 V
stroke
2845 2466 M
1 0 V
1 -1 V
1 0 V
1 0 V
1 0 V
1 0 V
1 -1 V
1 0 V
1 0 V
1 0 V
1 0 V
1 -1 V
1 0 V
1 -1 V
1 0 V
1 -1 V
1 0 V
1 -1 V
1 -1 V
0 -1 V
1 -1 V
1 0 V
1 0 V
1 -1 V
1 -1 V
1 0 V
1 0 V
1 -1 V
1 -1 V
1 -1 V
1 0 V
1 -1 V
1 0 V
1 0 V
1 0 V
1 -1 V
1 0 V
1 -1 V
1 -1 V
1 -1 V
1 -1 V
1 0 V
1 0 V
1 0 V
1 0 V
1 0 V
1 0 V
1 -1 V
1 0 V
1 -1 V
1 -1 V
1 -1 V
1 -1 V
1 -1 V
1 -1 V
1 -1 V
0 -1 V
1 -1 V
1 0 V
1 -1 V
1 0 V
1 -1 V
1 -1 V
1 0 V
1 0 V
1 -1 V
1 0 V
1 0 V
1 0 V
1 0 V
1 -1 V
1 0 V
1 -1 V
1 -1 V
1 -1 V
0 -1 V
1 -1 V
1 -1 V
1 -1 V
1 -1 V
1 -2 V
1 -1 V
1 -2 V
1 -2 V
1 -2 V
1 -1 V
1 -1 V
1 -1 V
1 -1 V
1 -1 V
1 -1 V
1 -1 V
1 -2 V
1 -1 V
0 -2 V
1 -2 V
1 -2 V
1 -2 V
1 -1 V
1 -1 V
1 -1 V
1 -1 V
1 -2 V
1 -1 V
stroke
2945 2389 M
1 -2 V
1 -2 V
1 -2 V
1 -2 V
1 -2 V
1 -2 V
1 -3 V
1 -2 V
1 -3 V
0 -2 V
1 -3 V
1 -3 V
1 -2 V
1 -3 V
1 -3 V
1 -3 V
1 -2 V
1 -3 V
1 -3 V
1 -3 V
1 -3 V
1 -2 V
1 -3 V
1 -3 V
1 -3 V
1 -2 V
1 -3 V
1 -3 V
0 -3 V
1 -3 V
1 -3 V
1 -3 V
1 -3 V
1 -4 V
1 -3 V
1 -3 V
1 -3 V
1 -3 V
1 -3 V
1 -4 V
1 -3 V
1 -3 V
1 -3 V
1 -3 V
1 -3 V
1 -4 V
1 -3 V
0 -4 V
1 -4 V
1 -3 V
1 -4 V
1 -4 V
1 -3 V
1 -4 V
1 -5 V
1 -4 V
1 -5 V
1 -4 V
1 -5 V
1 -4 V
1 -3 V
1 -4 V
1 -4 V
1 -4 V
1 -5 V
1 -4 V
0 -5 V
1 -4 V
1 -5 V
1 -5 V
1 -4 V
1 -4 V
1 -4 V
1 -4 V
1 -4 V
1 -5 V
1 -4 V
1 -5 V
1 -4 V
1 -5 V
1 -5 V
1 -4 V
1 -5 V
1 -5 V
1 -5 V
0 -5 V
1 -5 V
1 -5 V
1 -6 V
1 -5 V
1 -5 V
1 -6 V
1 -5 V
1 -6 V
1 -6 V
1 -5 V
1 -6 V
1 -5 V
1 -5 V
1 -6 V
1 -5 V
1 -6 V
1 -5 V
1 -6 V
stroke
3044 1991 M
0 -6 V
1 -5 V
1 -5 V
1 -5 V
1 -6 V
1 -5 V
1 -6 V
1 -6 V
1 -5 V
1 -6 V
1 -6 V
1 -6 V
1 -6 V
1 -5 V
1 0 V
1 0 V
1 0 V
1 0 V
1 0 V
1 0 V
1 1 V
1 0 V
1 0 V
1 0 V
1 0 V
1 -1 V
1 0 V
1 0 V
1 -1 V
1 0 V
1 -1 V
1 0 V
1 0 V
1 0 V
1 0 V
1 0 V
1 0 V
1 0 V
1 0 V
1 -1 V
1 0 V
1 -1 V
1 -1 V
1 -1 V
1 0 V
1 -1 V
1 0 V
1 -1 V
1 0 V
1 0 V
1 -1 V
1 0 V
1 -1 V
1 0 V
1 -1 V
0 -1 V
1 -1 V
1 -1 V
1 -1 V
1 -1 V
1 -1 V
1 -1 V
1 0 V
1 -1 V
1 -1 V
1 -1 V
1 -1 V
1 -1 V
1 -2 V
1 -1 V
1 -1 V
1 -2 V
1 0 V
1 -1 V
0 -1 V
1 1 V
1 3 V
1 2 V
1 2 V
1 3 V
1 2 V
1 2 V
1 2 V
1 2 V
1 2 V
1 1 V
1 2 V
1 1 V
1 1 V
1 2 V
1 1 V
1 2 V
1 2 V
1 1 V
0 2 V
1 1 V
1 1 V
1 2 V
1 1 V
1 0 V
1 1 V
1 1 V
1 1 V
1 0 V
stroke
3144 1926 M
1 1 V
1 1 V
1 2 V
1 1 V
1 1 V
1 1 V
1 0 V
1 1 V
1 1 V
1 1 V
1 0 V
1 1 V
1 0 V
1 1 V
1 0 V
1 0 V
1 1 V
1 0 V
1 1 V
1 0 V
1 1 V
1 0 V
1 1 V
1 0 V
1 0 V
1 1 V
1 0 V
1 0 V
1 0 V
1 1 V
1 0 V
1 0 V
1 0 V
1 0 V
1 0 V
1 0 V
1 0 V
1 0 V
1 0 V
1 0 V
1 -1 V
1 0 V
1 0 V
1 0 V
1 0 V
0 2 V
1 3 V
1 2 V
1 2 V
1 2 V
1 2 V
1 2 V
1 2 V
1 2 V
1 3 V
1 3 V
1 3 V
1 2 V
1 3 V
1 2 V
1 3 V
1 3 V
1 2 V
1 2 V
0 2 V
1 3 V
1 2 V
1 2 V
1 2 V
1 2 V
1 2 V
1 2 V
1 2 V
1 2 V
1 2 V
1 1 V
1 2 V
1 1 V
1 2 V
1 1 V
1 1 V
1 2 V
1 1 V
0 3 V
1 3 V
1 2 V
1 3 V
1 2 V
1 3 V
1 2 V
1 1 V
1 2 V
1 1 V
1 2 V
1 1 V
1 2 V
1 2 V
1 2 V
1 2 V
1 2 V
1 2 V
1 2 V
0 1 V
1 3 V
stroke
3244 2065 M
1 2 V
1 2 V
1 2 V
1 2 V
1 3 V
1 2 V
1 2 V
1 3 V
1 1 V
1 2 V
1 2 V
1 2 V
1 2 V
1 2 V
1 1 V
1 2 V
1 2 V
0 2 V
1 1 V
1 2 V
1 2 V
1 1 V
1 2 V
1 1 V
1 1 V
1 1 V
1 1 V
1 2 V
1 2 V
1 2 V
1 2 V
1 2 V
1 1 V
1 2 V
1 1 V
1 1 V
0 2 V
1 2 V
1 1 V
1 2 V
1 1 V
1 1 V
1 1 V
1 1 V
1 1 V
1 1 V
1 1 V
1 2 V
1 1 V
1 2 V
1 2 V
1 3 V
1 2 V
1 2 V
1 1 V
0 2 V
1 1 V
1 1 V
1 1 V
1 1 V
1 1 V
1 2 V
1 1 V
1 1 V
1 0 V
1 1 V
1 0 V
1 1 V
1 0 V
1 0 V
1 0 V
1 0 V
1 1 V
1 1 V
0 2 V
1 1 V
1 1 V
1 1 V
1 0 V
1 1 V
1 1 V
1 0 V
1 1 V
1 0 V
1 1 V
1 0 V
1 0 V
1 0 V
1 -1 V
1 1 V
1 1 V
1 1 V
1 2 V
0 1 V
1 1 V
1 1 V
1 0 V
1 1 V
1 0 V
1 0 V
1 0 V
1 0 V
1 0 V
1 0 V
stroke
3343 2189 M
1 0 V
1 0 V
1 0 V
1 -1 V
1 -1 V
1 0 V
1 -1 V
1 -1 V
1 0 V
1 -1 V
1 -1 V
1 0 V
1 1 V
1 0 V
1 1 V
1 0 V
1 0 V
1 0 V
1 -1 V
1 0 V
1 1 V
1 0 V
1 0 V
1 0 V
1 -1 V
1 0 V
1 -1 V
1 0 V
1 0 V
1 -1 V
1 0 V
1 -1 V
1 0 V
1 -1 V
1 -1 V
1 0 V
1 0 V
1 -1 V
1 0 V
1 -1 V
1 0 V
1 -1 V
1 1 V
1 3 V
0 3 V
1 2 V
1 2 V
1 2 V
1 2 V
1 2 V
1 3 V
1 3 V
1 2 V
1 2 V
1 2 V
1 2 V
1 1 V
1 2 V
1 2 V
1 2 V
1 1 V
1 2 V
1 1 V
0 2 V
1 1 V
1 1 V
1 2 V
1 1 V
1 1 V
1 1 V
1 1 V
1 2 V
1 1 V
1 1 V
1 1 V
1 1 V
1 1 V
1 0 V
1 1 V
1 1 V
1 1 V
1 2 V
0 1 V
1 1 V
1 0 V
1 1 V
1 1 V
1 1 V
1 2 V
1 1 V
1 2 V
1 2 V
1 1 V
1 2 V
1 2 V
1 1 V
1 1 V
1 1 V
1 1 V
1 2 V
1 1 V
0 2 V
1 1 V
1 1 V
stroke
3443 2268 M
1 1 V
1 1 V
1 1 V
1 1 V
1 2 V
1 1 V
1 1 V
1 1 V
1 0 V
1 1 V
1 2 V
1 1 V
1 1 V
1 2 V
1 2 V
1 1 V
0 1 V
1 1 V
1 1 V
1 1 V
1 0 V
1 1 V
1 2 V
1 1 V
1 2 V
1 1 V
1 1 V
1 1 V
1 0 V
1 0 V
1 0 V
1 0 V
1 1 V
1 2 V
1 1 V
0 1 V
1 0 V
1 1 V
1 0 V
1 0 V
1 0 V
1 0 V
1 0 V
1 1 V
1 1 V
1 1 V
1 0 V
1 1 V
1 1 V
1 0 V
1 1 V
1 1 V
1 1 V
1 0 V
0 1 V
1 0 V
1 1 V
1 1 V
1 0 V
1 1 V
1 0 V
1 0 V
1 1 V
1 0 V
1 1 V
1 2 V
1 2 V
1 1 V
1 1 V
1 1 V
1 0 V
1 0 V
1 -1 V
1 0 V
1 2 V
1 1 V
1 1 V
1 1 V
1 1 V
1 0 V
1 0 V
1 0 V
1 1 V
1 0 V
1 1 V
1 0 V
1 0 V
1 -1 V
1 0 V
1 1 V
1 1 V
1 0 V
0 1 V
1 0 V
1 0 V
1 0 V
1 -1 V
1 0 V
1 0 V
1 1 V
1 0 V
1 0 V
1 1 V
1 0 V
stroke
3543 2337 M
1 0 V
1 0 V
1 0 V
1 0 V
1 1 V
1 0 V
1 0 V
0 1 V
1 1 V
1 1 V
1 0 V
1 1 V
1 0 V
1 0 V
1 0 V
1 2 V
1 1 V
1 1 V
1 0 V
1 1 V
1 0 V
1 0 V
1 0 V
1 0 V
1 0 V
1 0 V
1 -1 V
1 0 V
1 0 V
1 0 V
1 -1 V
1 0 V
1 -1 V
1 0 V
1 0 V
1 1 V
1 1 V
1 1 V
1 1 V
1 0 V
1 0 V
1 0 V
1 0 V
1 0 V
0 -1 V
1 0 V
1 -1 V
1 -1 V
1 2 V
1 1 V
1 0 V
1 0 V
1 0 V
1 2 V
1 3 V
1 3 V
1 4 V
1 3 V
1 3 V
1 3 V
1 2 V
1 3 V
1 3 V
0 3 V
1 3 V
1 2 V
1 2 V
1 2 V
1 2 V
1 2 V
1 3 V
1 2 V
1 2 V
1 2 V
1 2 V
1 2 V
1 2 V
1 1 V
1 1 V
1 2 V
1 2 V
1 2 V
0 2 V
1 2 V
1 2 V
1 2 V
1 2 V
1 2 V
1 2 V
1 1 V
1 2 V
1 1 V
1 2 V
1 1 V
1 2 V
1 1 V
1 2 V
1 1 V
1 1 V
1 2 V
1 1 V
0 2 V
1 2 V
1 2 V
stroke
3642 2453 M
1 1 V
1 1 V
1 2 V
1 1 V
1 1 V
1 1 V
1 2 V
1 1 V
1 1 V
1 1 V
1 1 V
1 0 V
1 1 V
1 1 V
1 0 V
1 1 V
1 1 V
1 0 V
1 1 V
1 0 V
1 0 V
1 1 V
1 0 V
1 1 V
1 1 V
1 1 V
1 0 V
1 1 V
1 0 V
1 0 V
1 1 V
1 0 V
1 1 V
1 0 V
1 0 V
1 1 V
1 -1 V
1 1 V
1 0 V
1 0 V
1 1 V
1 0 V
1 1 V
1 0 V
1 0 V
1 0 V
1 0 V
1 1 V
1 0 V
1 0 V
1 0 V
1 0 V
0 1 V
1 0 V
1 0 V
1 0 V
1 0 V
1 -1 V
1 1 V
1 0 V
1 0 V
1 0 V
1 0 V
1 -1 V
1 0 V
1 1 V
1 0 V
1 0 V
1 0 V
1 -1 V
1 0 V
1 0 V
1 0 V
1 0 V
1 0 V
1 -1 V
1 0 V
1 0 V
1 -1 V
1 0 V
1 -1 V
1 0 V
1 -1 V
1 0 V
1 0 V
1 -1 V
1 0 V
1 0 V
1 -1 V
1 0 V
1 -1 V
1 0 V
1 -1 V
1 0 V
1 0 V
1 -1 V
1 -1 V
1 0 V
1 -1 V
1 0 V
1 0 V
1 0 V
1 -1 V
1 0 V
stroke
3745 2470 M
1 0 V
1 -1 V
1 0 V
1 -1 V
1 0 V
1 -1 V
1 -1 V
1 0 V
1 -1 V
1 0 V
1 -1 V
1 -1 V
1 0 V
1 -1 V
1 0 V
1 -1 V
1 -1 V
1 0 V
1 -1 V
1 -1 V
1 0 V
0 -1 V
1 0 V
1 -1 V
1 0 V
1 -1 V
1 0 V
1 -1 V
1 0 V
1 0 V
1 -1 V
1 0 V
1 -1 V
1 0 V
1 0 V
1 0 V
1 0 V
1 -1 V
1 0 V
1 -1 V
1 -1 V
1 -1 V
1 0 V
1 -1 V
1 -1 V
1 -1 V
1 -1 V
1 -1 V
1 -1 V
1 -1 V
1 -1 V
1 -1 V
1 -1 V
1 -1 V
1 -1 V
1 -1 V
1 -2 V
1 -1 V
0 -2 V
1 0 V
1 -1 V
1 -1 V
1 -2 V
1 -1 V
1 -1 V
1 -1 V
1 -2 V
1 -1 V
1 -2 V
1 -2 V
1 -1 V
1 -2 V
1 -2 V
1 -1 V
1 -1 V
1 -1 V
1 -2 V
0 -1 V
1 -2 V
1 -2 V
1 -1 V
1 -2 V
1 -2 V
1 -2 V
1 -2 V
1 -2 V
1 -3 V
1 -2 V
1 -3 V
1 -2 V
1 -3 V
1 -3 V
1 -3 V
1 -3 V
1 -4 V
1 -2 V
0 -3 V
1 -2 V
1 -3 V
1 -2 V
1 -3 V
1 -3 V
1 -3 V
1 -3 V
stroke
3845 2340 M
1 -3 V
1 -3 V
1 -4 V
1 -3 V
1 -2 V
1 -3 V
1 -3 V
1 -3 V
1 -3 V
1 -3 V
1 -3 V
0 -3 V
1 -3 V
1 -4 V
1 -3 V
1 -4 V
1 -3 V
1 -4 V
1 -3 V
1 -4 V
1 -4 V
1 -3 V
1 -4 V
1 -4 V
1 -4 V
1 -5 V
1 -4 V
1 -4 V
1 -5 V
1 -4 V
0 -5 V
1 -4 V
1 -5 V
1 -4 V
1 -4 V
1 -4 V
1 -4 V
1 -5 V
1 -4 V
1 -5 V
1 -5 V
1 -4 V
1 -5 V
1 -5 V
1 -5 V
1 -5 V
1 -5 V
1 -4 V
1 -4 V
1 -5 V
0 -5 V
1 -5 V
1 -4 V
1 -5 V
1 -5 V
1 -5 V
1 -5 V
1 -5 V
1 -6 V
1 -5 V
1 -5 V
1 -6 V
1 -5 V
1 -6 V
1 -6 V
1 -6 V
1 -6 V
1 -6 V
1 -6 V
0 -6 V
1 -6 V
1 -6 V
1 -6 V
1 -6 V
1 -6 V
1 -5 V
1 -6 V
1 -6 V
1 -6 V
1 -7 V
1 -6 V
1 -6 V
1 -6 V
1 -6 V
1 -6 V
1 -6 V
1 -6 V
1 -6 V
0 -7 V
1 -6 V
1 -6 V
1 -6 V
1 -4 V
1 0 V
1 0 V
1 0 V
1 0 V
1 0 V
1 0 V
1 0 V
1 -1 V
1 0 V
1 0 V
1 0 V
stroke
3944 1898 M
1 -1 V
1 0 V
1 0 V
0 -1 V
1 -1 V
1 0 V
1 0 V
1 0 V
1 0 V
1 -1 V
1 0 V
1 0 V
1 -1 V
1 -1 V
1 0 V
1 -1 V
1 -1 V
1 -1 V
1 0 V
1 -1 V
1 -1 V
1 0 V
1 -1 V
1 0 V
1 -1 V
1 -1 V
1 0 V
1 -1 V
1 -1 V
1 -1 V
1 -2 V
1 -1 V
1 -1 V
1 -1 V
1 -1 V
1 0 V
1 -1 V
1 -1 V
1 0 V
1 -1 V
0 -1 V
1 -1 V
1 -1 V
1 -1 V
1 -2 V
1 -1 V
1 -2 V
1 -1 V
1 -1 V
1 -1 V
1 -1 V
1 -1 V
1 2 V
1 2 V
1 3 V
1 2 V
1 2 V
1 2 V
1 2 V
0 2 V
1 2 V
1 2 V
1 1 V
1 2 V
1 2 V
1 1 V
1 2 V
1 2 V
1 2 V
1 2 V
1 1 V
1 2 V
1 1 V
1 2 V
1 2 V
1 1 V
1 1 V
1 2 V
0 1 V
1 1 V
1 1 V
1 1 V
1 1 V
1 2 V
1 1 V
1 1 V
1 2 V
1 1 V
1 1 V
1 1 V
1 1 V
1 1 V
1 1 V
1 1 V
1 1 V
1 0 V
1 1 V
0 1 V
1 0 V
1 0 V
1 1 V
1 1 V
1 1 V
1 1 V
stroke
4043 1930 M
1 0 V
1 1 V
1 0 V
1 1 V
1 0 V
1 1 V
1 0 V
1 0 V
1 0 V
1 0 V
1 0 V
1 2 V
0 2 V
1 2 V
1 1 V
1 3 V
1 3 V
1 3 V
1 3 V
1 3 V
1 2 V
1 2 V
1 2 V
1 3 V
1 3 V
1 2 V
1 3 V
1 2 V
1 3 V
1 2 V
1 2 V
0 1 V
1 2 V
1 3 V
1 4 V
1 3 V
1 3 V
1 3 V
1 2 V
1 2 V
1 2 V
3.000 UL
LT1
LTb
3431 553 M
[ [(Helvetica) 140.0 0.0 true true 0 (dx=0.0125 \(min. ABTE\))]
] -46.7 MRshow
LT1
3515 553 M
399 0 V
1050 420 M
1 12 V
1 26 V
1 30 V
1 27 V
1 26 V
1 43 V
1 44 V
1 45 V
1 42 V
0 38 V
1 33 V
1 27 V
1 19 V
1 13 V
1 5 V
1 -3 V
1 -7 V
1 -15 V
1 -17 V
1 -11 V
1 -8 V
1 11 V
1 23 V
1 20 V
1 18 V
1 17 V
1 12 V
1 10 V
0 6 V
1 4 V
1 1 V
1 -2 V
1 -4 V
1 -6 V
1 -7 V
1 -10 V
1 -8 V
1 -9 V
1 8 V
1 6 V
1 6 V
1 4 V
1 3 V
1 2 V
1 1 V
1 0 V
1 -1 V
0 -2 V
1 -3 V
1 -3 V
1 -4 V
1 -4 V
1 -4 V
1 2 V
1 6 V
1 7 V
1 6 V
1 5 V
1 4 V
1 3 V
1 2 V
1 1 V
1 -1 V
1 -2 V
1 -3 V
1 -4 V
1 10 V
1 9 V
1 8 V
1 7 V
1 4 V
1 4 V
1 1 V
1 -1 V
1 -2 V
1 -4 V
1 -6 V
1 7 V
1 9 V
1 10 V
1 8 V
1 6 V
1 4 V
1 2 V
0 1 V
1 1 V
1 0 V
1 -2 V
1 -4 V
1 4 V
1 7 V
1 9 V
1 7 V
1 5 V
1 3 V
1 6 V
1 4 V
1 2 V
1 0 V
1 -3 V
1 -4 V
1 -4 V
stroke
1148 1008 M
1 6 V
0 8 V
1 7 V
1 5 V
1 8 V
1 6 V
1 4 V
1 2 V
1 -1 V
1 -2 V
1 -5 V
1 6 V
1 6 V
1 8 V
1 7 V
1 7 V
1 7 V
1 7 V
1 7 V
1 7 V
0 7 V
1 7 V
1 7 V
1 6 V
1 7 V
1 7 V
1 7 V
1 6 V
1 7 V
1 6 V
1 7 V
1 6 V
1 7 V
1 6 V
1 6 V
1 6 V
1 6 V
1 6 V
1 6 V
0 6 V
1 6 V
1 6 V
1 6 V
1 6 V
1 6 V
1 5 V
1 6 V
1 5 V
1 6 V
1 5 V
1 5 V
1 6 V
1 5 V
1 5 V
1 5 V
1 5 V
1 5 V
1 4 V
0 5 V
1 5 V
1 4 V
1 5 V
1 4 V
1 5 V
1 4 V
1 4 V
1 4 V
1 5 V
1 4 V
1 4 V
1 4 V
1 3 V
1 4 V
1 4 V
1 3 V
1 4 V
1 3 V
0 4 V
1 3 V
1 3 V
1 3 V
1 3 V
1 3 V
1 3 V
1 3 V
1 3 V
1 2 V
1 3 V
1 3 V
1 2 V
1 3 V
1 2 V
1 2 V
1 3 V
1 2 V
1 2 V
1 2 V
0 2 V
1 1 V
1 2 V
1 2 V
1 1 V
1 2 V
1 1 V
stroke
1246 1477 M
1 1 V
1 1 V
1 2 V
1 1 V
1 1 V
1 1 V
1 0 V
1 1 V
1 1 V
1 1 V
1 0 V
1 1 V
1 1 V
1 0 V
1 1 V
1 0 V
1 0 V
1 1 V
1 0 V
1 0 V
1 0 V
1 0 V
1 0 V
1 0 V
1 0 V
1 0 V
1 0 V
1 0 V
1 -1 V
1 0 V
1 -1 V
1 -1 V
1 0 V
1 -1 V
1 0 V
1 -1 V
1 0 V
1 -1 V
1 0 V
1 -1 V
1 -1 V
1 0 V
1 -1 V
1 0 V
1 -1 V
1 0 V
1 -1 V
1 -1 V
0 -1 V
1 1 V
1 1 V
1 1 V
1 1 V
1 1 V
1 1 V
1 2 V
1 1 V
1 2 V
1 1 V
1 1 V
1 2 V
1 1 V
1 1 V
1 2 V
1 1 V
1 1 V
1 2 V
0 1 V
1 1 V
1 1 V
1 1 V
1 1 V
1 1 V
1 1 V
1 1 V
1 1 V
1 2 V
1 2 V
1 1 V
1 2 V
1 2 V
1 1 V
1 2 V
1 1 V
1 1 V
1 2 V
0 1 V
1 1 V
1 1 V
1 1 V
1 1 V
1 1 V
1 1 V
1 1 V
1 0 V
1 1 V
1 0 V
1 1 V
1 1 V
1 1 V
1 1 V
1 1 V
1 1 V
1 1 V
stroke
1347 1542 M
1 1 V
0 1 V
1 1 V
1 1 V
1 0 V
1 0 V
1 2 V
1 2 V
1 1 V
1 1 V
1 2 V
1 1 V
1 1 V
1 1 V
1 1 V
1 1 V
1 0 V
1 1 V
1 0 V
1 1 V
1 0 V
1 1 V
1 0 V
1 0 V
1 0 V
1 1 V
1 1 V
1 1 V
1 1 V
1 1 V
1 0 V
1 1 V
1 1 V
1 1 V
1 0 V
1 0 V
1 1 V
1 1 V
0 2 V
1 1 V
1 1 V
1 2 V
1 1 V
1 1 V
1 1 V
1 0 V
1 1 V
1 1 V
1 1 V
1 1 V
1 1 V
1 1 V
1 1 V
1 1 V
1 1 V
1 1 V
1 1 V
0 1 V
1 2 V
1 2 V
1 2 V
1 1 V
1 2 V
1 2 V
1 2 V
1 2 V
1 2 V
1 2 V
1 2 V
1 2 V
1 2 V
1 2 V
1 2 V
1 2 V
1 3 V
1 2 V
0 2 V
1 2 V
1 3 V
1 3 V
1 3 V
1 3 V
1 3 V
1 3 V
1 3 V
1 3 V
1 3 V
1 3 V
1 3 V
1 3 V
1 3 V
1 3 V
1 3 V
1 3 V
1 3 V
0 3 V
1 2 V
1 3 V
1 2 V
1 4 V
1 6 V
1 6 V
1 6 V
1 6 V
stroke
1446 1722 M
1 6 V
1 6 V
1 5 V
1 6 V
1 5 V
1 6 V
1 5 V
1 5 V
1 5 V
1 5 V
0 4 V
1 5 V
1 4 V
1 5 V
1 4 V
1 4 V
1 4 V
1 3 V
1 4 V
1 3 V
1 4 V
1 3 V
1 3 V
1 3 V
1 3 V
1 2 V
1 3 V
1 2 V
1 3 V
0 2 V
1 2 V
1 2 V
1 3 V
1 3 V
1 3 V
1 2 V
1 3 V
1 3 V
1 3 V
1 2 V
1 3 V
1 2 V
1 3 V
1 2 V
1 2 V
1 3 V
1 2 V
1 2 V
0 2 V
1 2 V
1 2 V
1 2 V
1 3 V
1 3 V
1 3 V
1 3 V
1 3 V
1 3 V
1 2 V
1 3 V
1 3 V
1 2 V
1 2 V
1 2 V
1 2 V
1 2 V
1 3 V
0 1 V
1 2 V
1 2 V
1 2 V
1 1 V
1 2 V
1 1 V
1 1 V
1 1 V
1 1 V
1 1 V
1 0 V
1 2 V
1 2 V
1 1 V
1 2 V
1 2 V
1 1 V
1 1 V
0 2 V
1 1 V
1 1 V
1 1 V
1 1 V
1 1 V
1 1 V
1 1 V
1 0 V
1 1 V
1 1 V
1 0 V
1 0 V
1 2 V
1 2 V
1 1 V
1 2 V
1 1 V
stroke
1545 1981 M
1 2 V
0 1 V
1 1 V
1 1 V
1 0 V
1 1 V
1 1 V
1 1 V
1 0 V
1 1 V
1 0 V
1 0 V
1 0 V
1 0 V
1 0 V
1 0 V
1 0 V
1 -1 V
1 0 V
1 -1 V
1 -1 V
1 0 V
1 -1 V
1 -2 V
1 -1 V
1 -1 V
1 -1 V
1 -1 V
1 -1 V
1 -2 V
1 -1 V
1 -2 V
1 -1 V
1 -2 V
1 1 V
1 1 V
1 1 V
1 1 V
0 1 V
1 1 V
1 1 V
1 1 V
1 0 V
1 0 V
1 1 V
1 1 V
1 0 V
1 0 V
1 0 V
1 0 V
1 -1 V
1 0 V
1 0 V
1 0 V
1 -1 V
1 -1 V
1 -1 V
0 -1 V
1 0 V
1 0 V
1 0 V
1 0 V
1 0 V
1 0 V
1 2 V
1 1 V
1 1 V
1 1 V
1 0 V
1 0 V
1 0 V
1 0 V
1 1 V
1 0 V
1 0 V
1 0 V
1 -1 V
0 -1 V
1 1 V
1 0 V
1 -1 V
1 0 V
1 1 V
1 6 V
1 5 V
1 5 V
1 6 V
1 5 V
1 4 V
1 3 V
1 3 V
1 2 V
1 2 V
1 2 V
1 1 V
1 0 V
1 -1 V
1 -1 V
1 -3 V
1 -2 V
1 -4 V
1 -4 V
1 -3 V
1 -5 V
stroke
1645 2002 M
1 -5 V
1 0 V
1 3 V
1 3 V
1 1 V
1 1 V
1 1 V
1 0 V
1 -1 V
1 -1 V
0 -2 V
1 -2 V
1 -2 V
1 -3 V
1 -4 V
1 -3 V
1 -3 V
1 -3 V
1 -3 V
1 5 V
1 4 V
1 4 V
1 4 V
1 3 V
1 3 V
1 3 V
1 2 V
1 1 V
1 1 V
1 0 V
1 -1 V
1 -1 V
1 -2 V
1 -3 V
1 -3 V
1 -3 V
1 -4 V
1 -4 V
1 -4 V
1 -3 V
1 0 V
1 1 V
1 0 V
1 2 V
1 2 V
1 1 V
1 1 V
1 2 V
1 3 V
1 3 V
1 2 V
1 1 V
1 1 V
1 0 V
1 -1 V
1 -1 V
1 -1 V
1 -1 V
1 -1 V
1 0 V
1 1 V
1 1 V
1 0 V
1 0 V
1 0 V
1 -1 V
1 0 V
1 3 V
1 2 V
1 2 V
1 1 V
1 1 V
1 1 V
1 0 V
1 0 V
1 0 V
1 0 V
1 -1 V
1 -1 V
1 -1 V
1 -2 V
1 -2 V
1 1 V
0 1 V
1 1 V
1 0 V
1 1 V
1 0 V
1 3 V
1 2 V
1 3 V
1 2 V
1 1 V
1 2 V
1 0 V
1 0 V
1 0 V
1 -1 V
1 -1 V
1 -1 V
1 -1 V
1 -2 V
0 -1 V
1 -1 V
stroke
1746 2008 M
1 -1 V
1 0 V
1 0 V
1 -1 V
1 1 V
1 2 V
1 1 V
1 2 V
1 1 V
1 2 V
1 1 V
1 1 V
1 2 V
1 3 V
1 2 V
1 2 V
1 2 V
0 2 V
1 2 V
1 2 V
1 2 V
1 2 V
1 1 V
1 2 V
1 1 V
1 1 V
1 1 V
1 1 V
1 1 V
1 1 V
1 1 V
1 0 V
1 1 V
1 2 V
1 2 V
1 2 V
0 1 V
1 2 V
1 2 V
1 2 V
1 2 V
1 1 V
1 2 V
1 1 V
1 0 V
1 1 V
1 2 V
1 3 V
1 2 V
1 3 V
1 2 V
1 1 V
1 2 V
1 1 V
1 1 V
0 1 V
1 2 V
1 1 V
1 1 V
1 1 V
1 0 V
1 1 V
1 0 V
1 0 V
1 0 V
1 0 V
1 0 V
1 1 V
1 0 V
1 0 V
1 0 V
1 1 V
1 1 V
1 1 V
1 1 V
1 1 V
1 1 V
1 1 V
1 2 V
1 3 V
1 2 V
1 1 V
1 1 V
1 1 V
1 1 V
1 2 V
1 1 V
1 1 V
1 0 V
1 0 V
1 0 V
1 -1 V
1 1 V
1 0 V
1 0 V
1 0 V
1 0 V
1 -1 V
1 -1 V
1 0 V
1 0 V
1 0 V
1 0 V
1 0 V
stroke
1847 2114 M
1 0 V
1 1 V
1 0 V
1 1 V
1 1 V
1 2 V
0 1 V
1 2 V
1 1 V
1 1 V
1 1 V
1 1 V
1 1 V
1 1 V
1 1 V
1 0 V
1 0 V
1 0 V
1 0 V
1 1 V
1 0 V
1 1 V
1 0 V
1 0 V
1 0 V
0 -1 V
1 0 V
1 2 V
1 1 V
1 2 V
1 2 V
1 2 V
1 2 V
1 1 V
1 0 V
1 0 V
1 1 V
1 1 V
1 1 V
1 1 V
1 2 V
1 2 V
1 1 V
1 1 V
1 0 V
1 0 V
1 -1 V
1 2 V
1 1 V
1 1 V
1 1 V
1 0 V
1 2 V
1 1 V
1 2 V
1 2 V
1 3 V
1 2 V
1 2 V
1 1 V
1 1 V
1 0 V
1 0 V
1 0 V
1 0 V
1 1 V
1 1 V
1 1 V
1 0 V
1 -1 V
1 0 V
1 -1 V
1 -1 V
1 0 V
1 3 V
1 3 V
1 2 V
1 2 V
1 2 V
1 1 V
0 1 V
1 1 V
1 0 V
1 0 V
1 0 V
1 0 V
1 0 V
1 0 V
1 -1 V
1 -1 V
1 -1 V
1 -1 V
1 -2 V
1 0 V
1 0 V
1 0 V
1 -1 V
1 -1 V
1 -1 V
0 -1 V
1 1 V
1 2 V
1 1 V
1 0 V
stroke
1947 2181 M
1 0 V
1 0 V
1 -1 V
1 0 V
1 -1 V
1 0 V
1 -1 V
1 -1 V
1 -1 V
1 -1 V
1 0 V
1 -1 V
1 0 V
1 0 V
0 1 V
1 0 V
1 1 V
1 0 V
1 0 V
1 0 V
1 0 V
1 0 V
1 2 V
1 1 V
1 2 V
1 1 V
1 0 V
1 0 V
1 0 V
1 0 V
1 0 V
1 0 V
1 0 V
0 -1 V
1 0 V
1 0 V
1 0 V
1 0 V
1 -1 V
1 -1 V
1 0 V
1 0 V
1 -1 V
1 0 V
1 1 V
1 0 V
1 1 V
1 0 V
1 0 V
1 0 V
1 -1 V
1 1 V
1 0 V
1 1 V
1 1 V
1 1 V
1 1 V
1 1 V
1 1 V
1 1 V
1 0 V
1 1 V
1 -1 V
1 0 V
1 0 V
1 -1 V
1 -1 V
1 -1 V
1 -2 V
1 0 V
1 1 V
1 1 V
1 1 V
1 1 V
1 1 V
1 0 V
1 0 V
1 -1 V
1 0 V
1 -2 V
1 -1 V
1 1 V
1 2 V
1 0 V
1 1 V
1 0 V
1 0 V
1 0 V
1 0 V
0 -1 V
1 -1 V
1 -1 V
1 -2 V
1 -1 V
1 -2 V
1 -2 V
1 -2 V
1 -2 V
1 -2 V
1 -2 V
1 -2 V
1 -1 V
1 0 V
1 0 V
stroke
2048 2166 M
1 0 V
1 0 V
1 0 V
1 -1 V
1 -1 V
1 -1 V
1 0 V
1 -1 V
1 -2 V
1 -1 V
1 -1 V
1 -2 V
1 -1 V
1 -2 V
1 -1 V
1 -1 V
1 -1 V
1 -1 V
1 -1 V
1 -1 V
1 -1 V
1 -1 V
0 -1 V
1 -1 V
1 0 V
1 -1 V
1 -1 V
1 -1 V
1 -1 V
1 -1 V
1 -1 V
1 -2 V
1 -1 V
1 -2 V
1 -1 V
1 -1 V
1 -2 V
1 -1 V
1 -2 V
1 -1 V
1 -2 V
0 -1 V
1 -2 V
1 -2 V
1 -2 V
1 -2 V
1 -2 V
1 -2 V
1 -1 V
1 -1 V
1 -1 V
1 -1 V
1 -1 V
1 -2 V
1 -2 V
1 -1 V
1 -2 V
1 -2 V
1 -2 V
1 -2 V
0 -3 V
1 -2 V
1 -2 V
1 -2 V
1 -3 V
1 -2 V
1 -3 V
1 -3 V
1 -3 V
1 -3 V
1 -3 V
1 -3 V
1 -4 V
1 -4 V
1 -2 V
1 -3 V
1 -2 V
1 -3 V
1 -2 V
0 -3 V
1 -3 V
1 -3 V
1 -3 V
1 -4 V
1 -2 V
1 -2 V
1 -3 V
1 -2 V
1 -3 V
1 -3 V
1 -3 V
1 -3 V
1 -4 V
1 -3 V
1 -4 V
1 -4 V
1 -4 V
1 -4 V
0 -4 V
1 -4 V
1 -4 V
1 -5 V
1 -4 V
1 -5 V
stroke
2147 1953 M
1 -4 V
1 -5 V
1 -5 V
1 -4 V
1 -4 V
1 -3 V
1 -4 V
1 -4 V
1 -4 V
1 -5 V
1 -4 V
1 -4 V
1 -5 V
0 -4 V
1 -5 V
1 -5 V
1 -5 V
1 -5 V
1 -5 V
1 -4 V
1 -4 V
1 -4 V
1 -5 V
1 -4 V
1 -4 V
1 -5 V
1 -5 V
1 -4 V
1 -5 V
1 -5 V
1 -5 V
1 -5 V
0 -5 V
1 -5 V
1 -5 V
1 -5 V
1 -6 V
1 -5 V
1 -6 V
1 -5 V
1 -6 V
1 -6 V
1 -6 V
1 -6 V
1 -7 V
1 -5 V
1 -5 V
1 -5 V
1 -6 V
1 -5 V
1 -6 V
0 -5 V
1 -6 V
1 -5 V
1 -5 V
1 -6 V
1 -5 V
1 -6 V
1 -5 V
1 -5 V
1 -6 V
1 -5 V
1 -6 V
1 -5 V
1 -6 V
1 -6 V
1 -5 V
1 -6 V
1 -6 V
1 -6 V
0 -5 V
1 -5 V
1 -5 V
1 -5 V
1 -6 V
1 -5 V
1 -6 V
1 -5 V
1 -1 V
1 2 V
1 1 V
1 2 V
1 1 V
1 0 V
1 1 V
1 4 V
1 4 V
1 3 V
1 4 V
0 3 V
1 3 V
1 2 V
1 3 V
1 4 V
1 4 V
1 3 V
1 3 V
1 3 V
1 3 V
1 3 V
1 3 V
1 3 V
1 3 V
1 4 V
stroke
2246 1626 M
1 3 V
1 3 V
1 2 V
1 2 V
0 3 V
1 1 V
1 3 V
1 2 V
1 3 V
1 2 V
1 2 V
1 3 V
1 3 V
1 3 V
1 2 V
1 3 V
1 3 V
1 3 V
1 3 V
1 3 V
1 2 V
1 3 V
1 2 V
0 3 V
1 2 V
1 2 V
1 1 V
1 2 V
1 2 V
1 2 V
1 2 V
1 3 V
1 2 V
1 3 V
1 3 V
1 3 V
1 2 V
1 2 V
1 3 V
1 3 V
1 2 V
1 2 V
0 2 V
1 2 V
1 2 V
1 2 V
1 2 V
1 2 V
1 1 V
1 2 V
1 1 V
1 1 V
1 2 V
1 2 V
1 2 V
1 2 V
1 2 V
1 2 V
1 2 V
1 1 V
1 2 V
0 2 V
1 1 V
1 2 V
1 1 V
1 2 V
1 2 V
1 3 V
1 1 V
1 2 V
1 1 V
1 2 V
1 1 V
1 1 V
1 1 V
1 2 V
1 2 V
1 1 V
1 2 V
1 1 V
0 1 V
1 1 V
1 2 V
1 3 V
1 2 V
1 2 V
1 1 V
1 2 V
1 1 V
1 1 V
1 2 V
1 1 V
1 2 V
1 1 V
1 1 V
1 2 V
1 0 V
1 1 V
1 0 V
0 1 V
1 1 V
1 1 V
1 0 V
1 0 V
stroke
2344 1822 M
1 -1 V
1 1 V
1 1 V
1 0 V
1 1 V
1 2 V
1 2 V
1 1 V
1 2 V
1 1 V
1 1 V
1 1 V
1 1 V
1 1 V
1 1 V
1 0 V
1 1 V
1 1 V
1 1 V
1 0 V
1 1 V
1 0 V
1 1 V
1 1 V
1 2 V
1 1 V
1 2 V
1 1 V
1 1 V
1 2 V
1 1 V
1 1 V
1 2 V
0 1 V
1 2 V
1 2 V
1 1 V
1 2 V
1 1 V
1 2 V
1 2 V
1 1 V
1 2 V
1 1 V
1 1 V
1 2 V
1 1 V
1 1 V
1 2 V
1 2 V
1 1 V
1 2 V
0 1 V
1 2 V
1 2 V
1 2 V
1 2 V
1 2 V
1 2 V
1 1 V
1 1 V
1 2 V
1 2 V
1 2 V
1 2 V
1 1 V
1 2 V
1 1 V
1 1 V
1 0 V
1 1 V
0 2 V
1 1 V
1 3 V
1 2 V
1 2 V
1 2 V
1 2 V
1 1 V
1 1 V
1 1 V
1 1 V
1 2 V
1 2 V
1 2 V
1 2 V
1 1 V
1 2 V
1 0 V
1 1 V
1 0 V
1 1 V
1 2 V
1 1 V
1 1 V
1 1 V
1 1 V
1 0 V
1 0 V
1 1 V
1 1 V
1 2 V
1 2 V
1 2 V
stroke
2445 1959 M
1 1 V
1 0 V
1 1 V
1 0 V
0 1 V
1 1 V
1 2 V
1 2 V
1 2 V
1 1 V
1 0 V
1 1 V
1 2 V
1 2 V
1 1 V
1 1 V
1 0 V
1 2 V
1 2 V
1 2 V
1 1 V
1 1 V
1 1 V
1 2 V
1 2 V
1 2 V
1 2 V
1 2 V
1 1 V
1 1 V
1 0 V
1 1 V
1 1 V
1 3 V
1 3 V
1 4 V
1 3 V
1 2 V
1 3 V
1 1 V
1 2 V
0 1 V
1 1 V
1 2 V
1 1 V
1 3 V
1 2 V
1 2 V
1 2 V
1 1 V
1 0 V
1 1 V
1 0 V
1 0 V
1 2 V
1 2 V
1 3 V
1 2 V
1 4 V
1 2 V
0 3 V
1 2 V
1 2 V
1 3 V
1 3 V
1 2 V
1 3 V
1 2 V
1 2 V
1 2 V
1 2 V
1 1 V
1 3 V
1 3 V
1 3 V
1 2 V
1 3 V
1 4 V
1 3 V
0 4 V
1 3 V
1 4 V
1 3 V
1 4 V
1 4 V
1 3 V
1 3 V
1 3 V
1 3 V
1 3 V
1 3 V
1 3 V
1 2 V
1 3 V
1 3 V
1 2 V
1 2 V
1 3 V
0 2 V
1 3 V
1 3 V
1 3 V
1 4 V
1 3 V
stroke
2544 2176 M
1 3 V
1 4 V
1 3 V
1 3 V
1 3 V
1 4 V
1 3 V
1 3 V
1 3 V
1 3 V
1 3 V
1 3 V
1 3 V
0 3 V
1 2 V
1 3 V
1 2 V
1 3 V
1 2 V
1 2 V
1 2 V
1 2 V
1 2 V
1 2 V
1 1 V
1 2 V
1 1 V
1 2 V
1 1 V
1 3 V
1 2 V
1 2 V
0 3 V
1 2 V
1 3 V
1 3 V
1 2 V
1 2 V
1 2 V
1 2 V
1 2 V
1 3 V
1 2 V
1 3 V
1 2 V
1 2 V
1 1 V
1 2 V
1 2 V
1 2 V
1 1 V
0 2 V
1 1 V
1 2 V
1 1 V
1 1 V
1 1 V
1 2 V
1 1 V
1 1 V
1 1 V
1 0 V
1 1 V
1 2 V
1 2 V
1 2 V
1 1 V
1 2 V
1 2 V
1 1 V
0 1 V
1 2 V
1 2 V
1 2 V
1 1 V
1 2 V
1 1 V
1 2 V
1 1 V
1 0 V
1 1 V
1 2 V
1 1 V
1 2 V
1 1 V
1 1 V
1 1 V
1 1 V
1 1 V
0 1 V
1 1 V
1 1 V
1 1 V
1 0 V
1 1 V
1 1 V
1 0 V
1 0 V
1 1 V
1 1 V
1 0 V
1 1 V
1 0 V
1 0 V
stroke
2643 2357 M
1 1 V
1 0 V
1 -1 V
1 1 V
1 1 V
1 0 V
1 0 V
1 1 V
1 0 V
1 0 V
1 0 V
1 0 V
1 -1 V
1 0 V
1 1 V
1 0 V
1 1 V
1 0 V
1 1 V
1 0 V
1 0 V
1 0 V
1 -1 V
1 0 V
1 0 V
1 0 V
1 -1 V
1 0 V
1 0 V
1 0 V
1 0 V
1 0 V
1 0 V
1 -1 V
1 0 V
1 0 V
1 -1 V
1 0 V
1 -1 V
1 -1 V
1 -1 V
1 0 V
1 -1 V
1 -1 V
1 -1 V
1 -1 V
1 -1 V
1 0 V
1 -1 V
1 0 V
1 -1 V
1 -1 V
1 0 V
1 -1 V
1 0 V
1 -1 V
1 -1 V
1 0 V
0 -1 V
1 -1 V
1 -1 V
1 -1 V
1 -1 V
1 -1 V
1 -1 V
1 -2 V
1 -1 V
1 -1 V
1 -2 V
1 -2 V
1 -1 V
1 -2 V
1 -2 V
1 -2 V
1 -1 V
1 -1 V
1 0 V
0 -1 V
1 0 V
1 -1 V
1 0 V
1 -1 V
1 -1 V
1 0 V
1 0 V
1 0 V
1 0 V
1 -1 V
1 0 V
1 -1 V
1 -1 V
1 0 V
1 0 V
1 0 V
1 -1 V
1 0 V
1 0 V
1 -1 V
1 0 V
1 0 V
1 -1 V
1 -1 V
1 -1 V
1 -1 V
stroke
2745 2307 M
1 -1 V
1 -1 V
1 -1 V
1 -1 V
1 -2 V
1 -1 V
1 -1 V
1 -2 V
1 -2 V
1 -1 V
1 -1 V
1 0 V
1 -1 V
1 0 V
1 -1 V
1 0 V
1 -1 V
1 -1 V
1 0 V
1 -1 V
1 -1 V
1 -2 V
1 -1 V
1 -1 V
1 -1 V
1 -2 V
1 -1 V
1 -1 V
1 -1 V
1 -1 V
1 0 V
1 -1 V
1 -1 V
1 -1 V
1 -1 V
1 -1 V
1 -1 V
1 -1 V
1 -1 V
1 -2 V
1 -1 V
1 -2 V
1 -1 V
1 -2 V
1 -2 V
1 -2 V
1 -2 V
0 -2 V
1 -2 V
1 -2 V
1 -2 V
1 -3 V
1 -2 V
1 -1 V
1 -2 V
1 -1 V
1 -2 V
1 -2 V
1 -1 V
1 -2 V
1 -2 V
1 -2 V
1 -2 V
1 -3 V
1 -2 V
1 -2 V
0 -3 V
1 -2 V
1 -3 V
1 -2 V
1 -1 V
1 -2 V
1 -1 V
1 -1 V
1 -2 V
1 -1 V
1 -2 V
1 -1 V
1 -2 V
1 -2 V
1 -2 V
1 -2 V
1 -2 V
1 -2 V
1 -2 V
0 -2 V
1 -2 V
1 -3 V
1 -2 V
1 -3 V
1 -2 V
1 -3 V
1 -2 V
1 -1 V
1 -2 V
1 -1 V
1 -1 V
1 -1 V
1 -2 V
1 -1 V
1 -1 V
1 -2 V
1 -1 V
1 -2 V
stroke
2846 2148 M
0 -1 V
1 -2 V
1 -2 V
1 -1 V
1 0 V
1 -1 V
1 0 V
1 0 V
1 -1 V
1 -1 V
1 -1 V
1 0 V
1 -1 V
1 -1 V
1 -2 V
1 -1 V
1 -1 V
1 -1 V
1 -2 V
0 -1 V
1 -2 V
1 -2 V
1 -2 V
1 -1 V
1 -2 V
1 0 V
1 0 V
1 0 V
1 -1 V
1 0 V
1 0 V
1 0 V
1 0 V
1 0 V
1 -1 V
1 0 V
1 0 V
1 -1 V
1 -1 V
1 0 V
1 -1 V
1 -1 V
1 -1 V
1 0 V
1 0 V
1 0 V
1 0 V
1 -1 V
1 0 V
1 0 V
1 -1 V
1 0 V
1 -1 V
1 0 V
1 -1 V
1 0 V
0 -1 V
1 -1 V
1 -1 V
1 -1 V
1 -1 V
1 0 V
1 0 V
1 0 V
1 -1 V
1 0 V
1 -1 V
1 0 V
1 -1 V
1 -1 V
1 -1 V
1 0 V
1 -1 V
1 -1 V
1 0 V
0 -1 V
1 -2 V
1 -1 V
1 -1 V
1 -2 V
1 -1 V
1 -2 V
1 -1 V
1 -2 V
1 -2 V
1 -1 V
1 -1 V
1 -1 V
1 -1 V
1 -1 V
1 -1 V
1 -1 V
1 -1 V
1 -2 V
0 -1 V
1 -2 V
1 -1 V
1 -2 V
1 -1 V
1 -2 V
1 -1 V
1 -1 V
1 -1 V
1 -1 V
stroke
2945 2058 M
1 -1 V
1 -2 V
1 -1 V
1 -2 V
1 -1 V
1 -2 V
1 -1 V
1 -2 V
1 -2 V
0 -2 V
1 -2 V
1 -2 V
1 -2 V
1 -2 V
1 -2 V
1 -3 V
1 -2 V
1 -2 V
1 -2 V
1 -3 V
1 -2 V
1 -1 V
1 -2 V
1 -2 V
1 -2 V
1 -2 V
1 -2 V
1 -3 V
0 -2 V
1 -2 V
1 -2 V
1 -2 V
1 -3 V
1 -2 V
1 -3 V
1 -2 V
1 -2 V
1 -2 V
1 -3 V
1 -2 V
1 -2 V
1 -2 V
1 -2 V
1 -2 V
1 -3 V
1 -2 V
1 -2 V
0 -3 V
1 -3 V
1 -2 V
1 -3 V
1 -3 V
1 -3 V
1 -3 V
1 -3 V
1 -3 V
1 -3 V
1 -3 V
1 -3 V
1 -2 V
1 -3 V
1 -3 V
1 -3 V
1 -3 V
1 -3 V
1 -3 V
0 -3 V
1 -3 V
1 -3 V
1 -4 V
1 -3 V
1 -2 V
1 -3 V
1 -3 V
1 -3 V
1 -3 V
1 -3 V
1 -3 V
1 -3 V
1 -3 V
1 -3 V
1 -3 V
1 -3 V
1 -4 V
1 -3 V
0 -3 V
1 -4 V
1 -4 V
1 -4 V
1 -3 V
1 -4 V
1 -4 V
1 -4 V
1 -4 V
1 -3 V
1 -4 V
1 -3 V
1 -4 V
1 -3 V
1 -4 V
1 -4 V
1 -4 V
1 -3 V
1 -4 V
stroke
3044 1779 M
0 -4 V
1 -3 V
1 -4 V
1 -4 V
1 -3 V
1 -4 V
1 -4 V
1 -4 V
1 -3 V
1 -4 V
1 -4 V
1 -5 V
1 -4 V
1 -4 V
1 -4 V
1 -4 V
1 -5 V
1 -4 V
1 -4 V
0 -5 V
1 -5 V
1 -4 V
1 -5 V
1 -4 V
1 -4 V
1 -4 V
1 -5 V
1 -4 V
1 -4 V
1 -5 V
1 -4 V
1 -5 V
1 -5 V
1 -5 V
1 -4 V
1 -4 V
1 -5 V
1 -4 V
0 -4 V
1 -5 V
1 -4 V
1 -5 V
1 -4 V
1 -5 V
1 -4 V
1 -5 V
1 -5 V
1 -5 V
1 -5 V
1 -4 V
1 -4 V
1 0 V
1 2 V
1 1 V
1 1 V
1 0 V
1 2 V
0 1 V
1 1 V
1 1 V
1 1 V
1 0 V
1 2 V
1 2 V
1 3 V
1 2 V
1 3 V
1 2 V
1 2 V
1 2 V
1 2 V
1 2 V
1 2 V
1 1 V
1 1 V
1 3 V
0 3 V
1 3 V
1 2 V
1 2 V
1 3 V
1 2 V
1 2 V
1 2 V
1 3 V
1 3 V
1 2 V
1 2 V
1 2 V
1 2 V
1 1 V
1 2 V
1 1 V
1 2 V
1 1 V
1 2 V
0 2 V
1 1 V
1 1 V
1 2 V
1 2 V
1 2 V
1 3 V
1 3 V
stroke
3142 1657 M
1 2 V
1 2 V
1 2 V
1 2 V
1 1 V
1 3 V
1 2 V
1 2 V
1 2 V
1 1 V
1 2 V
0 1 V
1 2 V
1 1 V
1 1 V
1 2 V
1 3 V
1 2 V
1 3 V
1 2 V
1 2 V
1 2 V
1 3 V
1 2 V
1 2 V
1 2 V
1 2 V
1 2 V
1 2 V
1 1 V
0 1 V
1 2 V
1 1 V
1 2 V
1 1 V
1 2 V
1 1 V
1 1 V
1 1 V
1 1 V
1 2 V
1 2 V
1 2 V
1 2 V
1 2 V
1 1 V
1 2 V
1 2 V
1 2 V
0 1 V
1 2 V
1 1 V
1 2 V
1 2 V
1 1 V
1 2 V
1 1 V
1 2 V
1 1 V
1 1 V
1 1 V
1 2 V
1 3 V
1 2 V
1 2 V
1 1 V
1 2 V
1 2 V
0 2 V
1 1 V
1 2 V
1 2 V
1 2 V
1 1 V
1 2 V
1 1 V
1 2 V
1 1 V
1 1 V
1 1 V
1 2 V
1 1 V
1 1 V
1 1 V
1 0 V
1 1 V
1 1 V
1 2 V
1 2 V
1 2 V
1 2 V
1 1 V
1 2 V
1 2 V
1 1 V
1 2 V
1 1 V
1 2 V
1 1 V
1 1 V
1 1 V
1 1 V
1 1 V
1 2 V
stroke
3242 1827 M
1 1 V
0 1 V
1 2 V
1 1 V
1 1 V
1 2 V
1 2 V
1 1 V
1 2 V
1 2 V
1 2 V
1 2 V
1 1 V
1 2 V
1 2 V
1 1 V
1 2 V
1 1 V
1 2 V
1 1 V
0 1 V
1 2 V
1 1 V
1 1 V
1 1 V
1 1 V
1 1 V
1 1 V
1 1 V
1 1 V
1 0 V
1 1 V
1 1 V
1 2 V
1 2 V
1 2 V
1 1 V
1 2 V
1 2 V
0 2 V
1 3 V
1 2 V
1 3 V
1 3 V
1 2 V
1 3 V
1 3 V
1 4 V
1 3 V
1 4 V
1 4 V
1 3 V
1 4 V
1 3 V
1 4 V
1 3 V
1 4 V
1 3 V
0 3 V
1 3 V
1 4 V
1 3 V
1 3 V
1 3 V
1 3 V
1 3 V
1 2 V
1 3 V
1 3 V
1 3 V
1 3 V
1 2 V
1 3 V
1 2 V
1 2 V
1 3 V
1 2 V
0 2 V
1 2 V
1 2 V
1 3 V
1 2 V
1 2 V
1 3 V
1 2 V
1 3 V
1 2 V
1 3 V
1 2 V
1 2 V
1 3 V
1 2 V
1 3 V
1 2 V
1 2 V
1 2 V
0 2 V
1 2 V
1 3 V
1 3 V
1 3 V
1 3 V
1 3 V
1 3 V
stroke
3340 2061 M
1 3 V
1 3 V
1 3 V
1 2 V
1 3 V
1 2 V
1 3 V
1 3 V
1 3 V
1 3 V
1 2 V
0 3 V
1 2 V
1 2 V
1 2 V
1 3 V
1 2 V
1 3 V
1 2 V
1 2 V
1 2 V
1 2 V
1 1 V
1 2 V
1 2 V
1 2 V
1 2 V
1 2 V
1 1 V
1 1 V
0 2 V
1 1 V
1 1 V
1 2 V
1 2 V
1 2 V
1 2 V
1 2 V
1 2 V
1 1 V
1 2 V
1 2 V
1 2 V
1 2 V
1 1 V
1 2 V
1 2 V
1 1 V
1 2 V
0 1 V
1 2 V
1 2 V
1 2 V
1 3 V
1 2 V
1 2 V
1 2 V
1 2 V
1 2 V
1 2 V
1 2 V
1 2 V
1 1 V
1 2 V
1 2 V
1 2 V
1 1 V
1 2 V
0 2 V
1 1 V
1 1 V
1 1 V
1 1 V
1 2 V
1 1 V
1 1 V
1 1 V
1 2 V
1 1 V
1 1 V
1 0 V
1 1 V
1 1 V
1 2 V
1 1 V
1 0 V
1 1 V
0 1 V
1 1 V
1 0 V
1 1 V
1 1 V
1 1 V
1 1 V
1 1 V
1 2 V
1 1 V
1 1 V
1 1 V
1 1 V
1 2 V
1 1 V
1 2 V
1 1 V
stroke
3439 2238 M
1 1 V
1 1 V
0 1 V
1 1 V
1 1 V
1 1 V
1 1 V
1 1 V
1 1 V
1 1 V
1 1 V
1 0 V
1 1 V
1 0 V
1 2 V
1 1 V
1 1 V
1 1 V
1 1 V
1 1 V
1 1 V
0 1 V
1 1 V
1 0 V
1 2 V
1 1 V
1 2 V
1 1 V
1 1 V
1 0 V
1 1 V
1 0 V
1 0 V
1 1 V
1 1 V
1 1 V
1 1 V
1 1 V
1 1 V
1 0 V
1 0 V
1 0 V
1 1 V
1 1 V
1 0 V
1 1 V
1 0 V
1 1 V
1 0 V
1 0 V
1 0 V
1 0 V
1 -1 V
1 1 V
1 1 V
1 1 V
1 0 V
1 1 V
1 1 V
1 0 V
1 0 V
1 1 V
1 0 V
1 1 V
1 0 V
1 1 V
1 0 V
1 0 V
1 1 V
1 0 V
1 -1 V
1 1 V
1 0 V
1 1 V
1 0 V
1 1 V
1 1 V
0 1 V
1 0 V
1 1 V
1 1 V
1 0 V
1 0 V
1 0 V
1 1 V
1 0 V
1 0 V
1 1 V
1 0 V
1 0 V
1 0 V
1 0 V
1 0 V
1 0 V
1 0 V
1 -1 V
1 0 V
1 0 V
1 0 V
1 0 V
1 0 V
1 0 V
1 0 V
1 0 V
stroke
3540 2293 M
1 0 V
1 1 V
1 0 V
1 0 V
1 0 V
1 0 V
1 0 V
1 1 V
1 -1 V
1 0 V
1 -1 V
1 1 V
1 1 V
1 1 V
1 1 V
1 0 V
1 1 V
1 0 V
1 1 V
1 0 V
1 0 V
1 0 V
1 0 V
1 0 V
1 0 V
1 0 V
1 0 V
1 0 V
1 0 V
1 0 V
1 -1 V
1 -1 V
1 0 V
1 -1 V
1 0 V
1 0 V
1 0 V
1 1 V
1 0 V
1 0 V
1 0 V
1 0 V
1 0 V
1 0 V
1 -1 V
1 0 V
1 -1 V
1 0 V
1 -1 V
1 0 V
1 -1 V
1 1 V
1 1 V
1 1 V
1 1 V
1 0 V
1 1 V
1 0 V
1 0 V
1 0 V
1 0 V
1 0 V
1 0 V
1 -1 V
1 -1 V
1 0 V
1 -1 V
1 0 V
1 -1 V
1 0 V
1 -1 V
1 -1 V
1 0 V
1 0 V
1 -1 V
1 0 V
1 0 V
1 -1 V
1 0 V
1 0 V
1 -1 V
1 -1 V
1 -1 V
1 0 V
1 -1 V
1 0 V
1 -1 V
1 -1 V
1 -1 V
1 0 V
1 0 V
1 0 V
1 -1 V
1 0 V
1 0 V
1 -1 V
1 0 V
1 0 V
1 0 V
1 0 V
0 -1 V
1 0 V
1 -1 V
1 0 V
stroke
3643 2279 M
1 -1 V
1 -1 V
1 -1 V
1 -1 V
1 0 V
1 0 V
1 0 V
1 0 V
1 -1 V
1 0 V
1 -1 V
1 0 V
1 -1 V
1 -1 V
1 0 V
0 -1 V
1 -1 V
1 -1 V
1 -2 V
1 -1 V
1 -1 V
1 -1 V
1 -2 V
1 -1 V
1 -2 V
1 -2 V
1 -2 V
1 0 V
1 0 V
1 -1 V
1 -1 V
1 0 V
1 -1 V
1 -1 V
0 -1 V
1 -1 V
1 -2 V
1 -1 V
1 -1 V
1 -2 V
1 -1 V
1 -2 V
1 -2 V
1 -1 V
1 -2 V
1 0 V
1 0 V
1 -1 V
1 -1 V
1 -1 V
1 0 V
1 -2 V
1 -1 V
0 -1 V
1 -1 V
1 -2 V
1 -1 V
1 -2 V
1 -1 V
1 -2 V
1 -2 V
1 -2 V
1 -2 V
1 -1 V
1 -2 V
1 -3 V
1 -2 V
1 -2 V
1 -2 V
1 -3 V
1 -1 V
1 -2 V
0 -1 V
1 -1 V
1 -2 V
1 -1 V
1 -2 V
1 -2 V
1 -2 V
1 -2 V
1 -2 V
1 -2 V
1 -2 V
1 -2 V
1 -2 V
1 -3 V
1 -2 V
1 -2 V
1 -1 V
1 -1 V
1 -2 V
0 -1 V
1 -2 V
1 -1 V
1 -2 V
1 -2 V
1 -2 V
1 -2 V
1 -2 V
1 -2 V
1 -2 V
1 -2 V
1 -2 V
1 -1 V
stroke
3742 2137 M
1 0 V
1 0 V
1 -1 V
1 0 V
1 0 V
1 0 V
0 -1 V
1 0 V
1 0 V
1 0 V
1 0 V
1 -1 V
1 0 V
1 0 V
1 -1 V
1 -1 V
1 0 V
1 -1 V
1 -1 V
1 0 V
1 0 V
1 0 V
1 0 V
1 0 V
1 0 V
0 -1 V
1 0 V
1 -1 V
1 0 V
1 -1 V
1 0 V
1 -1 V
1 -1 V
1 -1 V
1 -1 V
1 0 V
1 -1 V
1 0 V
1 0 V
1 -1 V
1 0 V
1 0 V
1 -1 V
1 -1 V
1 -1 V
1 -1 V
1 0 V
1 -1 V
1 0 V
1 -1 V
1 -1 V
1 -1 V
1 0 V
1 -1 V
1 -1 V
1 -1 V
1 -1 V
1 -2 V
1 -1 V
1 -1 V
1 -2 V
1 -1 V
0 -2 V
1 -1 V
1 -1 V
1 0 V
1 -1 V
1 -1 V
1 -2 V
1 -1 V
1 -1 V
1 -1 V
1 -2 V
1 -1 V
1 -2 V
1 -1 V
1 -2 V
1 -2 V
1 0 V
1 -1 V
1 -1 V
0 -2 V
1 -1 V
1 -1 V
1 -1 V
1 -2 V
1 -1 V
1 -2 V
1 -2 V
1 -1 V
1 -2 V
1 -2 V
1 -2 V
1 -2 V
1 -2 V
1 -3 V
1 -2 V
1 -2 V
1 -2 V
1 -2 V
0 -3 V
1 -2 V
1 -1 V
1 -2 V
stroke
3841 2037 M
1 -2 V
1 -2 V
1 -3 V
1 -2 V
1 -2 V
1 -2 V
1 -2 V
1 -2 V
1 -3 V
1 -2 V
1 -2 V
1 -3 V
1 -2 V
1 -2 V
1 -2 V
0 -2 V
1 -2 V
1 -2 V
1 -2 V
1 -2 V
1 -3 V
1 -2 V
1 -3 V
1 -2 V
1 -3 V
1 -3 V
1 -3 V
1 -3 V
1 -3 V
1 -3 V
1 -3 V
1 -3 V
1 -3 V
1 -4 V
0 -3 V
1 -3 V
1 -3 V
1 -3 V
1 -3 V
1 -3 V
1 -3 V
1 -3 V
1 -4 V
1 -3 V
1 -3 V
1 -4 V
1 -3 V
1 -4 V
1 -3 V
1 -4 V
1 -3 V
1 -3 V
1 -3 V
1 -3 V
0 -4 V
1 -3 V
1 -3 V
1 -4 V
1 -3 V
1 -4 V
1 -3 V
1 -4 V
1 -4 V
1 -4 V
1 -4 V
1 -4 V
1 -4 V
1 -4 V
1 -4 V
1 -4 V
1 -5 V
1 -4 V
1 -4 V
0 -4 V
1 -4 V
1 -4 V
1 -4 V
1 -4 V
1 -4 V
1 -5 V
1 -4 V
1 -4 V
1 -4 V
1 -5 V
1 -4 V
1 -5 V
1 -4 V
1 -4 V
1 -4 V
1 -4 V
1 -4 V
1 -5 V
0 -4 V
1 -4 V
1 -5 V
1 -4 V
1 -5 V
1 -4 V
1 -5 V
1 -5 V
1 -5 V
1 -5 V
1 -4 V
1 -5 V
stroke
3940 1681 M
1 -6 V
1 -5 V
1 -5 V
1 -5 V
1 -5 V
1 -5 V
1 -5 V
0 -5 V
1 -5 V
1 -5 V
1 -5 V
1 -5 V
1 -5 V
1 -5 V
1 -6 V
1 -5 V
1 -6 V
1 -5 V
1 -5 V
1 -5 V
1 -5 V
1 -5 V
1 1 V
1 0 V
1 0 V
1 0 V
1 -1 V
1 0 V
1 1 V
1 1 V
1 1 V
1 1 V
1 1 V
1 1 V
1 1 V
1 2 V
1 2 V
1 2 V
1 3 V
1 2 V
1 2 V
1 2 V
1 2 V
1 2 V
0 2 V
1 2 V
1 2 V
1 2 V
1 2 V
1 1 V
1 2 V
1 2 V
1 1 V
1 2 V
1 3 V
1 2 V
1 3 V
1 3 V
1 2 V
1 3 V
1 2 V
1 2 V
1 3 V
0 2 V
1 1 V
1 2 V
1 2 V
1 2 V
1 2 V
1 2 V
1 2 V
1 1 V
1 2 V
1 1 V
1 1 V
1 2 V
1 1 V
1 2 V
1 2 V
1 3 V
1 2 V
1 2 V
0 2 V
1 2 V
1 2 V
1 2 V
1 2 V
1 2 V
1 2 V
1 2 V
1 2 V
1 2 V
1 2 V
1 1 V
1 2 V
1 2 V
1 1 V
1 3 V
1 2 V
1 2 V
1 3 V
0 2 V
1 2 V
1 3 V
stroke
4039 1714 M
1 2 V
1 2 V
1 2 V
1 2 V
1 2 V
1 2 V
1 2 V
1 2 V
1 1 V
1 2 V
1 1 V
1 1 V
1 1 V
1 2 V
1 1 V
1 1 V
0 1 V
1 2 V
1 2 V
1 2 V
1 2 V
1 2 V
1 2 V
1 2 V
1 2 V
1 1 V
1 2 V
1 2 V
1 2 V
1 1 V
1 2 V
1 1 V
1 2 V
1 1 V
1 1 V
0 1 V
1 2 V
1 1 V
1 2 V
1 2 V
1 2 V
1 2 V
1 2 V
1 2 V
1 2 V
1.000 UL
LTb
1050 420 M
3032 0 V
0 2184 V
-3032 0 V
0 -2184 V
1.000 UP
stroke
grestore
end
showpage
%%Trailer
%%DocumentFonts: Symbol Helvetica
