# Time=6.5306122449e-05 and Columns are r	p	Paether	ur	alpha	a	b	K	Sr_tilde	tau_tilde
1.001333884533834630e-02	1.199641466356926936e-02	-1.843128321644873016e-02	1.802468609901858735e-05	6.474076503009136285e-01	1.000047463966898365e+00	1.000000140997975295e+00	-1.000021370618346846e-02	2.036134392588241253e-10	1.503626749989828975e-06
3.004001653601504063e-02	1.196787953670520009e-02	-1.841071474466508470e-02	5.407176526401288907e-05	6.475741392005663899e-01	1.000425886678474541e+00	1.000000141056983649e+00	-1.000021067545741986e-02	5.490746801384489105e-09	1.350556029739688851e-05
5.006669422669172975e-02	1.191099421707729825e-02	-1.836961518326518661e-02	9.011210814936607041e-05	6.479069423432403108e-01	1.001181871399026813e+00	1.000000141174839152e+00	-1.000020457511323693e-02	2.535712653155814372e-08	3.736534332156682625e-05
7.009337191736843276e-02	1.182612698341022235e-02	-1.830805966173186874e-02	1.261416984480233188e-04	6.484057085717992441e-01	1.002313689508013805e+00	1.000000141351221616e+00	-1.000019539527633589e-02	6.932143807153851326e-08	7.279646210833290790e-05
9.012004960804512188e-02	1.171382591189055154e-02	-1.822616153390710717e-02	1.621572242827870982e-04	6.490699076374574217e-01	1.003818730157504779e+00	1.000000141585649649e+00	-1.000018312966014650e-02	1.466038088947836078e-07	1.193732707938049791e-04
1.101467272987218110e-01	1.157481378126111807e-02	-1.812407318384983562e-02	1.981563438957548141e-04	6.498988259879411311e-01	1.005693479113707545e+00	1.000000141877484872e+00	-1.000016774954158062e-02	2.660116447867525959e-07	1.765359089765675886e-04
1.301734049893985001e-01	1.140998132916367681e-02	-1.800198704708729988e-02	2.341379372548888914e-04	6.508915610905071647e-01	1.007933491123524927e+00	1.000000142225938138e+00	-1.000014923029447951e-02	4.358305882843285467e-07	2.435968044648187923e-04
1.502000826800751754e-01	1.122037894874856022e-02	-1.786013681541999409e-02	2.701023400365012181e-04	6.520470147194826760e-01	1.010533356316497544e+00	1.000000142630066646e+00	-1.000012754828733148e-02	6.637218763518808253e-07	3.197487134878641292e-04
1.702267603707518784e-01	1.100720690995863824e-02	-1.769879879538747980e-02	3.060515584653900902e-04	6.533638848975841240e-01	1.013486661297932301e+00	1.000000143088780158e+00	-1.000010268318704369e-02	9.566272525129149196e-07	4.040742371815111197e-04
1.902534380614285814e-01	1.077180420496925278e-02	-1.751829336185612915e-02	3.419894639878724371e-04	6.548406569791604959e-01	1.016785945744865138e+00	1.000000143600850322e+00	-1.000007462210738413e-02	1.320682455440577097e-06	4.955567386573085740e-04
2.102801157521052566e-01	1.051563613224922034e-02	-1.731898646161808900e-02	3.779219683755266602e-04	6.564755936830574123e-01	1.020422655483208763e+00	1.000000144164904015e+00	-1.000004336128287007e-02	1.761140171965727136e-06	5.930925693837716100e-04
2.303067934427819596e-01	1.024028074798259171e-02	-1.710129109950143597e-02	4.138571806657813856e-04	6.582667245289034463e-01	1.024387093201726939e+00	1.000000144779443101e+00	-1.000000890962314190e-02	2.282303211498610229e-06	6.955044968982204874e-04
2.503334711334586626e-01	9.947414326987496017e-03	-1.686566875071000837e-02	4.498055489314523297e-04	6.602118346111517377e-01	1.028668368144555423e+00	1.000000145442837329e+00	-9.999971289995808477e-03	2.887468540847551866e-06	8.015562080561037389e-04
2.703601488241353379e-01	9.638795987595625420e-03	-1.661263062734022120e-02	4.857799907790980726e-04	6.623084531294434196e-01	1.033254346316379246e+00	1.000000146153337210e+00	-9.999930541497427383e-03	3.578882713451178476e-06	9.099677432208233422e-04
2.903868265148120131e-01	9.316251646061309705e-03	-1.634273873661071241e-02	5.217960178984048071e-04	6.645538417334503345e-01	1.038131602928478392e+00	1.000000146909078014e+00	-9.999886719665444790e-03	4.357709141701207573e-06	1.019431697211851734e-03
3.104135042054887439e-01	8.981657475746630120e-03	-1.605660665928840616e-02	5.578718608797135839e-04	6.669449830718352512e-01	1.043285379003908941e+00	1.000000147708085541e+00	-9.999839896894876026e-03	5.224007590652913414e-06	1.128630002786684770e-03
3.304401818961654191e-01	8.636923054383469425e-03	-1.575489998578698606e-02	5.940286017114142269e-04	6.694785697124540080e-01	1.048699544238414383e+00	1.000000148548282342e+00	-9.999790160976613704e-03	6.176726217643582625e-06	1.236251092383966639e-03
3.504668595868420944e-01	8.283974388923025234e-03	-1.543833634472112880e-02	6.302903221785125312e-04	6.721509938018114250e-01	1.054356568370844460e+00	1.000000149427493490e+00	-9.999737613240366335e-03	7.213706436130920922e-06	1.341007214386490728e-03
3.704935372775188251e-01	7.924737011622069033e-03	-1.510768496823036017e-02	6.666842773454156922e-04	6.749583377148988816e-01	1.060237503441915363e+00	1.000000150343457905e+00	-9.999682364987605432e-03	8.331700840100214874e-06	1.441651661996464547e-03
3.905202149681955004e-01	7.561119342854288189e-03	-1.476376574140013040e-02	7.032411040058549924e-04	6.778963660438617200e-01	1.066321979400646214e+00	1.000000151293829465e+00	-9.999624533149981120e-03	9.526404375894360338e-06	1.536995656807399468e-03
4.105468926588721756e-01	7.194996515444028115e-03	-1.440744769409247478e-02	7.399950747518299621e-04	6.809605192275662855e-01	1.072588215540208445e+00	1.000000152276188103e+00	-9.999564234428258772e-03	1.079249888466549111e-05	1.625924616278538130e-03
4.305735703495489064e-01	6.828194851885099025e-03	-1.403964690136557183e-02	7.769844089248274712e-04	6.841459091427537498e-01	1.079013050195570367e+00	1.000000153288045812e+00	-9.999501578504573288e-03	1.212371104895721236e-05	1.707413525631070426e-03
4.506002480402255816e-01	6.462477179440505315e-03	-1.366132377154089667e-02	8.142516523642966911e-04	6.874473169701518227e-01	1.085571991000417791e+00	1.000000154326853519e+00	-9.999436659981465747e-03	1.351288365430488023e-05	1.780541131298672523e-03
4.706269257309022569e-01	6.099529158663565161e-03	-1.327347971263664883e-02	8.518441384564977162e-04	6.908591936082200125e-01	1.092239287768722145e+00	1.000000155390012635e+00	-9.999369549451650116e-03	1.495205991255998684e-05	1.844502676078032567e-03
4.906536034215789877e-01	5.740946788244443919e-03	-1.287715318247814947e-02	8.898145436345514941e-04	6.943756629142376902e-01	1.098988029726941873e+00	1.000000156474879498e+00	-9.999300283614743698e-03	1.643258038452452262e-05	1.898620906556810041e-03
5.106802811122557184e-01	5.388225233236966158e-03	-1.247341514190439780e-02	9.282215511645928226e-04	6.979905279665723494e-01	1.105790268371022567e+00	1.000000157578778914e+00	-9.999228854752732765e-03	1.794519178349737954e-05	1.942355102104000378e-03
5.307069588029323937e-01	5.042749104720886492e-03	-1.206336394594472762e-02	9.671306378658903885e-04	7.016972805469111618e-01	1.112617166657111190e+00	1.000000158699007935e+00	-9.999155199637997996e-03	1.948016664220360319e-05	1.975307902291267674e-03
5.507336364936090689e-01	4.705784296965285010e-03	-1.164811972271700448e-02	1.006614999390665569e-03	7.054891139207397632e-01	1.119439174562184336e+00	1.000000159832850954e+00	-9.999079188144780264e-03	2.102743249066591058e-05	1.997229746328159101e-03
5.707603141842857442e-01	4.378471463455295941e-03	-1.122881830466279304e-02	1.046756630926291929e-03	7.093589389893152353e-01	1.126226230283791985e+00	1.000000160977588815e+00	-9.999000611712560022e-03	2.257670883475449528e-05	2.008020783757447081e-03
5.907869918749625304e-01	4.061821186127090484e-03	-1.080660479040206241e-02	1.087647581766690774e-03	7.132994037409785548e-01	1.132947985507675837e+00	1.000000162130505021e+00	-9.998919171899031677e-03	2.411764986151094430e-05	2.007730169582551665e-03
6.108136695656392057e-01	3.756710863346069025e-03	-1.038262682789972517e-02	1.129391404248942686e-03	7.173029159147337186e-01	1.139574052287188666e+00	1.000000163288903066e+00	-9.998834469190916868e-03	2.563999044904143656e-05	1.996552717950475942e-03
6.308403472563158809e-01	3.463883312203758138e-03	-9.958027719988049586e-03	1.172104820205315760e-03	7.213616686298532921e-01	1.146074268185533596e+00	1.000000164450109974e+00	-9.998745992263708554e-03	2.713369274974590292e-05	1.974822954694979097e-03
6.508670249469925562e-01	3.183947050345135085e-03	-9.533939461294478265e-03	1.215919631494239480e-03	7.254676687170983351e-01	1.152418975472798035e+00	1.000000165611495628e+00	-9.998653107837830387e-03	2.858909037075800641e-05	1.943006678141430540e-03
6.708937026376692314e-01	2.917378192597263643e-03	-9.111475820738927298e-03	1.260984905536294103e-03	7.296127673278660630e-01	1.158579309390655787e+00	1.000000166770473209e+00	-9.998555051273555830e-03	2.999702701900734968e-05	1.901690206835286246e-03
6.909203803283459067e-01	2.664523869029749008e-03	-8.691725585737724788e-03	1.307469472285802386e-03	7.337886923875346357e-01	1.164527489844945363e+00	1.000000167924520067e+00	-9.998450918018533459e-03	3.134898643112573235e-05	1.851567559233818251e-03
7.109470580190225819e-01	2.425607044622715442e-03	-8.275746082786103117e-03	1.355564775946662033e-03	7.379870823147665071e-01	1.170237110404496628e+00	1.000000169071179945e+00	-9.998339656025753003e-03	3.263721048654914244e-05	1.793425870728525707e-03
7.309737357096993682e-01	2.200732597304429390e-03	-7.864557084132566683e-03	1.405488133211703480e-03	7.421995204405188451e-01	1.175683418211392439e+00	1.000000170208074524e+00	-9.998220059264860751e-03	3.385480261392950589e-05	1.728129404574501845e-03
7.510004134003760434e-01	1.989894491516651896e-03	-7.459135201794399317e-03	1.457486460117461734e-03	7.464175694450714271e-01	1.180843578372076097e+00	1.000000171332914523e+00	-9.998090762495333642e-03	3.499581394657683196e-05	1.656602552642309377e-03
7.710270910910527187e-01	1.792983869323574444e-03	-7.060408858399000974e-03	1.511840541970390847e-03	7.506328051783724975e-01	1.185696916615805785e+00	1.000000172443499924e+00	-9.997950237549809924e-03	3.605531015224327016e-05	1.579812247174364193e-03
7.910537687817293939e-01	1.609797870875748086e-03	-6.669253909543960100e-03	1.568869935424862215e-03	7.548368491546357806e-01	1.190225134478251068e+00	1.000000173537738180e+00	-9.997796791508382908e-03	3.702941743759513842e-05	1.498750214448694345e-03
8.110804464724060692e-01	1.440048991064648513e-03	-6.286489974995069195e-03	1.628938608789925937e-03	7.590213991038234909e-01	1.194412491978368962e+00	1.000000174613636661e+00	-9.997628567347517647e-03	3.791534688062287074e-05	1.414415494835060327e-03
8.311071241630827444e-01	1.283374779524621171e-03	-5.912877516578815724e-03	1.692461446035926648e-03	7.631782569376341918e-01	1.198245953675925568e+00	1.000000175669312652e+00	-9.997443547930109226e-03	3.871139694169601362e-05	1.327797631524967872e-03
8.511338018537595307e-01	1.139347696610138686e-03	-5.549115679666751996e-03	1.759911761557958476e-03	7.672993536302371576e-01	1.201715295080773904e+00	1.000000176702993571e+00	-9.997239564584361679e-03	3.941693470803619417e-05	1.239860893527133540e-03
8.711604795444362059e-01	1.007484948239274324e-03	-5.195840893280788929e-03	1.831829996026806918e-03	7.713767705431960886e-01	1.204813167578160149e+00	1.000000177713021854e+00	-9.997014312015843965e-03	4.003235709896742661e-05	1.151529849501824665e-03
8.911871572351128812e-01	8.872581370061217608e-04	-4.853626201682239259e-03	1.908833787556850434e-03	7.754027569220056648e-01	1.207535121274701195e+00	1.000000178697847186e+00	-9.996765371919451304e-03	4.055903386377490520e-05	1.063676550523833062e-03
9.112138349257895564e-01	7.781025850300150176e-04	-4.522981278393858884e-03	1.991629635088930199e-03	7.793697433791949569e-01	1.209879586392607731e+00	1.000000179656030275e+00	-9.996490248402890508e-03	4.099923470957638475e-05	9.771095152693951708e-04
9.312405126164662317e-01	6.794262048283145842e-04	-4.204353052468383020e-03	2.081026389159718049e-03	7.832703514376586629e-01	1.211847814982774052e+00	1.000000180586234189e+00	-9.996186419207183510e-03	4.135604327916732721e-05	8.925646440165888517e-04
9.512671903071429069e-01	5.906178172090175652e-04	-3.898126856914537613e-03	2.177950814045500824e-03	7.870973993604084562e-01	1.213443785734344527e+00	1.000000181487224138e+00	-9.995851407649827131e-03	4.163326094395281240e-05	8.106981218193728359e-04
9.712938679978196932e-01	5.110548389061969404e-04	-3.604627990967969146e-03	2.283465456651414312e-03	7.908439048200696098e-01	1.214674075483699101e+00	1.000000182357857037e+00	-9.995482881164884092e-03	4.183530347941677614e-05	7.320813095941357956e-04
9.913205456884963684e-01	4.401102865759393156e-04	-3.324123571800717027e-03	2.398789019312796283e-03	7.945030851871459632e-01	1.215547701636204181e+00	1.000000183197079506e+00	-9.995078783110131551e-03	4.196709365485916344e-05	6.571975675056266827e-04
1.011347223379172933e+00	3.771590670428518594e-04	-3.056824537867023142e-03	2.525319347667527407e-03	7.980683566166928422e-01	1.216075940091203345e+00	1.000000184003919879e+00	-9.994637504894880037e-03	4.203395260797752848e-05	5.864409101809700108e-04
1.031373901069849497e+00	3.215835456218186822e-04	-2.802887656142445498e-03	2.664658984352087125e-03	8.015333334088011741e-01	1.216272123400905514e+00	1.000000184777479983e+00	-9.994158105106345016e-03	4.204149260853375699e-05	5.201163593803070266e-04
1.051400578760526283e+00	2.727784042985077545e-04	-2.562417380139977215e-03	2.818642966499374566e-03	8.048918295725989713e-01	1.216151423808132792e+00	1.000000185516932483e+00	-9.993640580554892169e-03	4.199551346853550591e-05	4.584418374387329667e-04
1.071427256451203069e+00	2.301548189669125886e-04	-2.335467406347827273e-03	2.989368107321171107e-03	8.081378648400995290e-01	1.215730625521189490e+00	1.000000186221514209e+00	-9.993086190341430100e-03	4.190190445757052223e-05	4.015514338199837794e-04
1.091453934141879634e+00	1.931439992697326648e-04	-2.122041785800411143e-03	3.179222329310059901e-03	8.112656777899445171e-01	1.215027890133282273e+00	1.000000186890526610e+00	-9.992497827168277807e-03	4.176655316022730591e-05	3.494998763486038959e-04
1.111480611832556420e+00	1.612001453706917364e-04	-1.922095467625342929e-03	3.390911620023763159e-03	8.142697489197125993e-01	1.214062518527085244e+00	1.000000187523335082e+00	-9.991880419248583625e-03	4.159526229722115142e-05	3.022680460953323174e-04
1.131507289523232984e+00	1.338028827185604413e-04	-1.735534185881634685e-03	3.627480757115846347e-03	8.171448366368925242e-01	1.212854711979181488e+00	1.000000188119371858e+00	-9.991241330463725492e-03	4.139367514951017318e-05	2.597693876152658114e-04
1.151533967213909770e+00	1.104592380745498550e-04	-1.562213653138488402e-03	3.892321991658518124e-03	8.198860288424678622e-01	1.211425334559133482e+00	1.000000188678149327e+00	-9.990590705831131971e-03	4.116720989898199200e-05	2.218570806687681068e-04
1.171560644904586557e+00	9.070521737996367260e-05	-1.401938096715753604e-03	4.189163311719249459e-03	8.224888122015980851e-01	1.209795678373412064e+00	1.000000189199268030e+00	-9.989941685196252613e-03	4.092100294756950582e-05	1.883318515368081038e-04
1.191587322595263121e+00	7.410703824939815607e-05	-1.254458266987562446e-03	4.522024745459218148e-03	8.249491599441166612e-01	1.207987232806423394e+00	1.000000189682439977e+00	-9.989310384394654505e-03	4.065986110872738538e-05	1.589503072641963873e-04
1.211614000285939907e+00	6.026205718348556718e-05	-1.119469158767022205e-03	4.895127611297849131e-03	8.272636372923529713e-01	1.206021458724880313e+00	1.000000190127506849e+00	-9.988715527652418727e-03	4.038822247879929951e-05	1.334336707921585758e-04
1.231640677976616471e+00	4.879941482737071453e-05	-9.966078080517941449e-04	5.312738235663619704e-03	8.294295211259818945e-01	1.203919568688704311e+00	1.000000190534468647e+00	-9.988177620311834010e-03	4.011012577497778138e-05	1.114767765290228881e-04
1.251667355667293258e+00	3.938040344028557939e-05	-8.854516419111515017e-04	5.778925534406918751e-03	8.314449276915831799e-01	1.201702314574610631e+00	1.000000190903509223e+00	-9.987717593812001429e-03	3.982918793983672895e-05	9.275715450392543434e-05
1.271694033357969822e+00	3.169854184806789987e-05	-7.855179462537275085e-04	6.297212822937853227e-03	8.333089391680905678e-01	1.199389784647956425e+00	1.000000191235024261e+00	-9.987354952951750867e-03	3.954858981958442381e-05	7.694399045562784489e-05
1.291720711048646608e+00	2.547932802900293843e-05	-6.962650468242485282e-04	6.870110897675839497e-03	8.350217175983531970e-01	1.197001212938636039e+00	1.000000191529636595e+00	-9.987105618336523938e-03	3.927106968921252779e-05	6.370670675493203354e-05
1.311747388739323394e+00	2.047963197274398113e-05	-6.170957454566742672e-04	7.498534897486439608e-03	8.365845936024332019e-01	1.194554804649885726e+00	1.000000191788213977e+00	-9.986979870554451438e-03	3.899892431893044512e-05	5.272287632886823013e-05
1.331774066429999959e+00	1.648669481795315368e-05	-5.473633976662309287e-04	8.181134249643265757e-03	8.380001184320889918e-01	1.192067582062092068e+00	1.000000192011860856e+00	-9.986981008032696713e-03	3.873401720366634673e-05	4.368517184337762107e-05
1.351800744120676745e+00	1.331671606850447182e-05	-4.863807590509313370e-04	8.913603209118280829e-03	8.392720714330887954e-01	1.189555255767703157e+00	1.000000192201908167e+00	-9.987105409372082701e-03	3.847779361713609650e-05	3.630707670353603626e-05
1.371827421811353309e+00	1.081303775259591669e-05	-4.334313929850937578e-04	9.688084080605020507e-03	8.404054208047833097e-01	1.187032125888130674e+00	1.000000192359887352e+00	-9.987344482652527750e-03	3.823130240583157071e-05	3.032714851834093897e-05
1.391854099502030095e+00	8.843968497493361026e-06	-3.877830739786671563e-04	1.049281376707725949e-02	8.414062421619210586e-01	1.184511017057533033e+00	1.000000192487493944e+00	-9.987688368562647190e-03	3.799522488098457974e-05	2.551172595008516445e-05
1.411880777192706660e+00	7.300325004533402772e-06	-3.487023110524091409e-04	1.131217741068629365e-02	8.422816049685887263e-01	1.182003249419145918e+00	1.000000192586564918e+00	-9.988130314528605863e-03	3.776991152006582475e-05	2.165609269216588062e-05
1.431907454883383446e+00	6.092795926457571614e-06	-3.154689238593903658e-04	1.212729972890149409e-02	8.430394390911531977e-01	1.179518645828141699e+00	1.000000192659052045e+00	-9.988669761116836590e-03	3.755542694840362174e-05	1.858423668640693090e-05
1.451934132574060232e+00	5.149247666740035407e-06	-2.873895786624321895e-04	1.291721421013317279e-02	8.436883915323901695e-01	1.177065573183843084e+00	1.000000192707019009e+00	-9.989312056630604911e-03	3.735160240816850304e-05	1.614744595022825908e-05
1.471960810264736796e+00	4.412090327502283582e-06	-2.638093391291490195e-04	1.366051426325229357e-02	8.442376774724252853e-01	1.174651013684244294e+00	1.000000192732646065e+00	-9.990063868758907242e-03	3.715809277471548056e-05	1.422204698104365228e-05
1.491987487955413583e+00	3.835806017839074112e-06	-2.441205722378063890e-04	1.433724792912854408e-02	8.446969230817695795e-01	1.172280660143663056e+00	1.000000192738235816e+00	-9.990925563319872846e-03	3.697443309665316764e-05	1.270661016351928895e-05
1.512014165646090147e+00	3.384715337645252351e-06	-2.277689044569121077e-04	1.493072408046507843e-02	8.450759935082062801e-01	1.169959028567822079e+00	1.000000192726199888e+00	-9.991883872628714094e-03	3.680008893488034095e-05	1.151892271416098705e-05
1.532040843336766933e+00	3.031027033113370266e-06	-2.142562706639072109e-04	1.542889767763654281e-02	8.453848007875514048e-01	1.167689581008585664e+00	1.000000192699020740e+00	-9.992908599399955016e-03	3.663449616518183854e-05	1.059297573550217769e-05
1.552067521027443719e+00	2.753186299733476025e-06	-2.031413749865033816e-04	1.582510180924765614e-02	8.456330927562898392e-01	1.165474852236199732e+00	1.000000192659188158e+00	-9.993955351866746356e-03	3.647708880803140732e-05	9.876143625671727984e-06
1.572094198718120284e+00	2.534513097072959196e-06	-1.940380550897699596e-04	1.611805780064323040e-02	8.458302330092333232e-01	1.163316574773359369e+00	1.000000192609111993e+00	-9.994973387108106733e-03	3.632731634894435438e-05	9.326665626547417520e-06
1.592120876408797070e+00	2.362105099460693361e-06	-1.866121070487693255e-04	1.631125954424024124e-02	8.459849893662934051e-01	1.161215798094718865e+00	1.000000192551034228e+00	-9.995915375510722525e-03	3.618465359829020682e-05	8.911480471752505900e-06
1.612147554099473634e+00	2.225970576220445769e-06	-1.805771077967719318e-04	1.641193981735791091e-02	8.461053514424285993e-01	1.159172999089868927e+00	1.000000192486953488e+00	-9.996745509549260014e-03	3.604860612324000275e-05	8.604420605473502682e-06
1.632174231790150420e+00	2.118353340180720044e-06	-1.756896975512955387e-04	1.642986125449650073e-02	8.461983954238084804e-01	1.157188182059408765e+00	1.000000192418578848e+00	-9.997443708113642330e-03	3.591871330429638411e-05	8.384742876446943342e-06
1.652200909480826985e+00	2.033213141189206823e-06	-1.717446859768741413e-04	1.637614299511298485e-02	8.462702074417246534e-01	1.155260967475093770e+00	1.000000192347313188e+00	-9.998005604830365392e-03	3.579454998413091331e-05	8.235956034630157756e-06
1.672227587171503771e+00	1.965828741766958536e-06	-1.685702458483383443e-04	1.626226531102261535e-02	8.463258680477454554e-01	1.153390669459696261e+00	1.000000192274261401e+00	-9.998439468425258242e-03	3.567572699487745830e-05	8.144898729912034769e-06
1.692254264862180557e+00	1.912495954840396702e-06	-1.660233699723933309e-04	1.609931951517902873e-02	8.463694920583647585e-01	1.151576362444956203e+00	1.000000192200262816e+00	-9.998761735529744857e-03	3.556189062504104315e-05	8.101021862579550875e-06
1.712280942552857121e+00	1.870298145450550860e-06	-1.639856965860617100e-04	1.589750980140125503e-02	8.464043119062896192e-01	1.149816937782941251e+00	1.000000192125933385e+00	-9.998992603729337306e-03	3.545272112938836642e-05	8.095833310333261278e-06
1.732307620243533908e+00	1.836931502748066962e-06	-1.623597556940006978e-04	1.566587534089639369e-02	8.464327897190769834e-01	1.148111151259694429e+00	1.000000192051707204e+00	-9.999152552172084832e-03	3.534793049208605691e-05	8.122469145602098059e-06
1.752334297934210472e+00	1.810571492355534885e-06	-1.610656515524586097e-04	1.541218359514220058e-02	8.464567431454301794e-01	1.146457662529839494e+00	1.000000191977883146e+00	-9.999260083582279385e-03	3.524725971469505219e-05	8.175362014605992952e-06
1.772360975624887258e+00	1.789770228642029373e-06	-1.600381715900314511e-04	1.514294356469131006e-02	8.464774720601415670e-01	1.144855067489784162e+00	1.000000191904658831e+00	-9.999330591189044617e-03	3.515047589426068539e-05	8.249983505562265960e-06
1.792387653315563822e+00	1.773377108819123218e-06	-1.592242964341323869e-04	1.486349409922044229e-02	8.464958764413637038e-01	1.143301924560618410e+00	1.000000191832162377e+00	-9.999376069340697171e-03	3.505736930497971093e-05	8.342642653943850507e-06
1.812414331006240609e+00	1.760477029842234633e-06	-1.585810768148881143e-04	1.457813230232793064e-02	8.465125593356324085e-01	1.141796775778411766e+00	1.000000191760472390e+00	-9.999405353793044612e-03	3.496775062975647112e-05	8.450327078682072837e-06
1.832441008696917395e+00	1.750341984854288459e-06	-1.580738389542727816e-04	1.429025719870893885e-02	8.465279120166245841e-01	1.140338163502380819e+00	1.000000191689637274e+00	-9.999424627232876561e-03	3.488144842613464478e-05	8.570576650955783875e-06
1.852467686387593959e+00	1.742392921765124102e-06	-1.576746791120268488e-04	1.400251252694497024e-02	8.465421810455596718e-01	1.138924643459345409e+00	1.000000191619687229e+00	-9.999438003610958137e-03	3.479830686376429245e-05	8.701382189769558132e-06
1.872494364078270745e+00	1.736169539412389144e-06	-1.573612091462070668e-04	1.371691921245757687e-02	8.465555186552994327e-01	1.137554794751871601e+00	1.000000191550638462e+00	-9.999448079396193803e-03	3.471818373880761796e-05	8.841103608023309819e-06
1.892521041768947310e+00	1.731306274100197373e-06	-1.571155174477632561e-04	1.343499281596018634e-02	8.465680188927318106e-01	1.136227227371239046e+00	1.000000191482499412e+00	-9.999456397446853523e-03	3.464094875179711661e-05	8.988403347485639309e-06
1.912547719459624096e+00	1.727513150539999419e-06	-1.569233128417911298e-04	1.315784437182918390e-02	8.465797423089946871e-01	1.134940587676968260e+00	1.000000191415277184e+00	-9.999463807420470862e-03	3.456648202571339874e-05	9.142191969409198536e-06
1.932574397150300882e+00	1.724560480303887654e-06	-1.567732226041922117e-04	1.288626492675086152e-02	8.465907319357842686e-01	1.133693562233244467e+00	1.000000191348971113e+00	-9.999470728526155955e-03	3.449467283720846655e-05	9.301583512966741919e-06
1.952601074840977446e+00	1.722266619801087068e-06	-1.566562193346544146e-04	1.262079512638530562e-02	8.466010229675832166e-01	1.132484880329363452e+00	1.000000191283585194e+00	-9.999477330560181329e-03	3.442541853352164538e-05	9.465858775815350881e-06
1.972627752531654233e+00	1.720488171178669588e-06	-1.565651548759895045e-04	1.236178166955384863e-02	8.466106481219715096e-01	1.131313315456302426e+00	1.000000191219116097e+00	-9.999483651910719834e-03	3.435862360914911377e-05	9.634435068584553717e-06
1.992654430222330797e+00	1.719112139575910906e-06	-1.564943826577667703e-04	1.210942257100370602e-02	8.466196402111395569e-01	1.130177685964071310e+00	1.000000191155563822e+00	-9.999489672012609048e-03	3.429419891872246396e-05	9.806841290450619332e-06
2.012681107913007583e+00	1.718049660014839428e-06	-1.564394527178395052e-04	1.186380309511494632e-02	8.466280330188797887e-01	1.129076855084061304e+00	1.000000191092923041e+00	-9.999495352670145429e-03	3.423206100527646681e-05	9.982697396064656167e-06
2.032707785603684147e+00	1.717230984897066126e-06	-1.563968661916989588e-04	1.162492404193017984e-02	8.466358612557732810e-01	1.128009730466444926e+00	1.000000191031191310e+00	-9.999500659250265197e-03	3.417213152580860652e-05	1.016169749577531421e-05
2.052734463294360712e+00	1.716601484134378484e-06	-1.563638782638346444e-04	1.139272384520642611e-02	8.466431600736806784e-01	1.126975263354004220e+00	1.000000190970360858e+00	-9.999505569641862004e-03	3.411433675860486728e-05	1.034359596574097937e-05
2.072761140985037720e+00	1.716118458401338195e-06	-1.563383404664168931e-04	1.116709571565501803e-02	8.466499644510065981e-01	1.125972447489938855e+00	1.000000190910427023e+00	-9.999510076290371238e-03	3.405860717912843243e-05	1.052819605203715502e-05
2.092787818675714284e+00	1.715748604724606259e-06	-1.563185748147750596e-04	1.094790085074174094e-02	8.466563085987721671e-01	1.125000317837444586e+00	1.000000190851381809e+00	-9.999514184760870811e-03	3.400487709334415638e-05	1.071534054000930447e-05
2.112814496366390848e+00	1.715466004757145233e-06	-1.563032736205583373e-04	1.073497854438256079e-02	8.466622254800763026e-01	1.124057949172658333e+00	1.000000190793215449e+00	-9.999517910841965521e-03	3.395308431913645594e-05	1.090490413172217376e-05
2.132841174057067857e+00	1.715250531193481308e-06	-1.562914199510708781e-04	1.052815386862081259e-02	8.466677464527848640e-01	1.123144454599282360e+00	1.000000190735919725e+00	-9.999521277409528439e-03	3.390316990804224300e-05	1.109678723365041453e-05
2.152867851747744421e+00	1.715086588096120821e-06	-1.562822246413839372e-04	1.032724346426895298e-02	8.466729010468981853e-01	1.122258984022431072e+00	1.000000190679484424e+00	-9.999524311571479640e-03	3.385507790081231344e-05	1.129091090630363350e-05
2.172894529438420985e+00	1.714962117341160097e-06	-1.562750765396011177e-04	1.013205986635286673e-02	8.466777168427639388e-01	1.121400722610554013e+00	1.000000190623899332e+00	-9.999527042365691926e-03	3.380875511145301279e-05	1.148721276892916597e-05
2.192921207129097994e+00	1.714867816719963203e-06	-1.562695033024206050e-04	9.942414699850835383e-03	8.466822194421573800e-01	1.120568889267239632e+00	1.000000190569153347e+00	-9.999529499036362637e-03	3.376415093529317824e-05	1.168564368731882506e-05
2.212947884819774558e+00	1.714796525998278591e-06	-1.562651405794543500e-04	9.758121008695497256e-03	8.466864324973253364e-01	1.119762735129161468e+00	1.000000190515234477e+00	-9.999531709844172028e-03	3.372121717743028672e-05	1.188616510196319266e-05
2.232974562510451122e+00	1.714742745967019418e-06	-1.562617078503420213e-04	9.578994923070644624e-03	8.466903777875520731e-01	1.118981542101954885e+00	1.000000190462131400e+00	-9.999533701300661326e-03	3.367990789850948576e-05	1.208874687843472440e-05
2.253001240201127686e+00	1.714702262547852038e-06	-1.562589895236797316e-04	9.404856824250060199e-03	8.466940753203375802e-01	1.118224621442312383e+00	1.000000190409831902e+00	-9.999535497753972088e-03	3.364017927535724431e-05	1.229336558245622019e-05
2.273027917891804695e+00	1.714671853689539386e-06	-1.562568201876287678e-04	9.235532130122224917e-03	8.466975434512877818e-01	1.117491312391856173e+00	1.000000190358323104e+00	-9.999537121203834478e-03	3.360198947437747266e-05	1.250000309934388699e-05
2.293054595582481259e+00	1.714649061359860306e-06	-1.562550731271413330e-04	9.070851796260815531e-03	8.467007990065100742e-01	1.116780980866199924e+00	1.000000190307593018e+00	-9.999538591296904325e-03	3.356529853602342479e-05	1.270864553194920191e-05
2.313081273273157823e+00	1.714632014589960084e-06	-1.562536514059407133e-04	8.910652605348569691e-03	8.467038574093465053e-01	1.116093018200996267e+00	1.000000190257628541e+00	-9.999539925419759917e-03	3.353006826889232876e-05	1.291928232313662605e-05
2.333107950963834831e+00	1.714619292466282065e-06	-1.562524809561601869e-04	8.754777300606610829e-03	8.467067327977380042e-01	1.115426839955495186e+00	1.000000190208418349e+00	-9.999541138866380879e-03	3.349626215228682964e-05	1.313190555881407537e-05
2.353134628654511395e+00	1.714609818301501272e-06	-1.562515052361696248e-04	8.603074605594880284e-03	8.467094381422981542e-01	1.114781884773251575e+00	1.000000190159948676e+00	-9.999542245035797361e-03	3.346384524621602444e-05	1.334650941571813739e-05
2.373161306345187960e+00	1.714602778082181657e-06	-1.562506811105730288e-04	8.455399162510054620e-03	8.467119853469927682e-01	1.114157613298893956e+00	1.000000190112207088e+00	-9.999543255627869193e-03	3.343278410803350847e-05	1.356308972493121213e-05
2.393187984035864524e+00	1.714597557776861555e-06	-1.562499756794295705e-04	8.311611413190535605e-03	8.467143853517768992e-01	1.113553507149412480e+00	1.000000190065181371e+00	-9.999544180859723866e-03	3.340304671497255310e-05	1.378164362768500515e-05
2.413214661726541532e+00	1.714593695251506276e-06	-1.562493638441278824e-04	8.171577441036730755e-03	8.467166482160329855e-01	1.112969067938071266e+00	1.000000190018859314e+00	-9.999545029641199526e-03	3.337460239200770458e-05	1.400216930452105485e-05
2.433241339417218096e+00	1.714590843481077435e-06	-1.562488264421919967e-04	8.035168787378102473e-03	8.467187832035663053e-01	1.112403816348841445e+00	1.000000189973227815e+00	-9.999545809765364446e-03	3.334742174449880535e-05	1.422466576263691758e-05
2.453268017107894661e+00	1.714588742467840324e-06	-1.562483488219466681e-04	7.902262252338761173e-03	8.467207988510419003e-01	1.111857291259100267e+00	1.000000189928275329e+00	-9.999546528048543909e-03	3.332147659519999307e-05	1.444913266923251996e-05
2.473294694798571669e+00	1.714587197858924971e-06	-1.562479197549179895e-04	7.772739687550253573e-03	8.467227030365189755e-01	1.111329048908326955e+00	1.000000189883989421e+00	-9.999547190470831071e-03	3.329673992522609165e-05	1.467557022115010781e-05
2.493321372489248233e+00	1.714586064701537799e-06	-1.562475306080464974e-04	7.646487786064326900e-03	8.467245030357580804e-01	1.110818662110468757e+00	1.000000189840358322e+00	-9.999547802298610483e-03	3.327318581866132541e-05	1.490397904305938998e-05
2.513348050179924797e+00	1.714585235131729269e-06	-1.562471747148237006e-04	7.523397873274530190e-03	8.467262055774152918e-01	1.110325719507688325e+00	1.000000189797370265e+00	-9.999548368181470151e-03	3.325078941049319309e-05	1.513436010803206700e-05
2.533374727870601362e+00	1.714584629067961160e-06	-1.562468468985203282e-04	7.403365701526329508e-03	8.467278168871995581e-01	1.109849824863294199e+00	1.000000189755013258e+00	-9.999548892231665750e-03	3.322952683763460378e-05	1.536671467567119712e-05
2.553401405561278370e+00	1.714584187188737985e-06	-1.562465431108719710e-04	7.286291250249618198e-03	8.467293427354626312e-01	1.109390596391669259e+00	1.000000189713276866e+00	-9.999549378119393372e-03	3.320937519277685103e-05	1.560104424391736282e-05
2.573428083251954934e+00	1.714583865652141554e-06	-1.562462601597564438e-04	7.172078532798148616e-03	8.467307884702368614e-01	1.108947666123160314e+00	1.000000189672148654e+00	-9.999549829102862691e-03	3.319031248088699009e-05	1.583735051153154020e-05
2.593454760942631498e+00	1.714583632129970202e-06	-1.562459955028845866e-04	7.060635410743267525e-03	8.467321590578007484e-01	1.108520679301931988e+00	1.000000189631617964e+00	-9.999550248115289877e-03	3.317231757814804446e-05	1.607563534887311286e-05
2.613481438633308507e+00	1.714583462837673448e-06	-1.562457470930141135e-04	6.951873416014199558e-03	8.467334591087279927e-01	1.108109293814917740e+00	1.000000189591674360e+00	-9.999550637779169165e-03	3.315537019317798872e-05	1.631590077512391995e-05
2.633508116323985071e+00	1.714583340316374625e-06	-1.562455132607531321e-04	6.845707581037187468e-03	8.467346929115667775e-01	1.107713179650098301e+00	1.000000189552306296e+00	-9.999551000469043827e-03	3.313945083037678294e-05	1.655814894047718955e-05
2.653534794014661635e+00	1.714583251780401715e-06	-1.562452926270209278e-04	6.742056276854523425e-03	8.467358644538298673e-01	1.107332018382402694e+00	1.000000189513504001e+00	-9.999551338320460808e-03	3.312454075525094447e-05	1.680238211221964217e-05
2.673561471705338199e+00	1.714583187886738846e-06	-1.562450840364858922e-04	6.640841059094538916e-03	8.467369774505306701e-01	1.106965502685679947e+00	1.000000189475256374e+00	-9.999551653278933305e-03	3.311062196160379450e-05	1.704860266375760294e-05
2.693588149396015208e+00	1.714583141823436519e-06	-1.562448865080680619e-04	6.541986521559845294e-03	8.467380353603193299e-01	1.106613335869220727e+00	1.000000189437554088e+00	-9.999551947104057259e-03	3.309767714045032465e-05	1.729681306596933730e-05
2.713614827086691772e+00	1.714583108636019242e-06	-1.562446991972195082e-04	6.445420157169529443e-03	8.467390414104019047e-01	1.106275231437443551e+00	1.000000189400386708e+00	-9.999552221402387836e-03	3.308568965057749628e-05	1.754701588032565610e-05
2.733641504777368336e+00	1.714583084728156858e-06	-1.562445213676122132e-04	6.351072225950965544e-03	8.467399986095583975e-01	1.105950912671419761e+00	1.000000189363744907e+00	-9.999552477639993622e-03	3.307464349061471138e-05	1.779921375337509075e-05
2.753668182468045345e+00	1.714583067495703533e-06	-1.562443523697739202e-04	6.258875629758605189e-03	8.467409097684658326e-01	1.105640112231010441e+00	1.000000189327618028e+00	-9.999552717153770490e-03	3.306452327256006888e-05	1.805340941229759027e-05
2.773694860158721909e+00	1.714583055057096065e-06	-1.562441916246262860e-04	6.168765793391528356e-03	8.467417775112118239e-01	1.105342571776427141e+00	1.000000189291997854e+00	-9.999552941174898527e-03	3.305531419663669979e-05	1.830960566127589652e-05
2.793721537849398473e+00	1.714583046055570632e-06	-1.562440386112050978e-04	6.080680551789831474e-03	8.467426042918771989e-01	1.105058041608166786e+00	1.000000189256874616e+00	-9.999553150824472270e-03	3.304700202743777836e-05	1.856780537849426251e-05
2.813748215540075037e+00	1.714583039515173542e-06	-1.562438928569233798e-04	5.994560042982374076e-03	8.467433924046964266e-01	1.104786280324261183e+00	1.000000189222239433e+00	-9.999553347137531828e-03	3.303957307125051491e-05	1.882801151364555656e-05
2.833774893230752046e+00	1.714583034735115687e-06	-1.562437539302870715e-04	5.910346606485656316e-03	8.467441439975555983e-01	1.104527054493902538e+00	1.000000189188083421e+00	-9.999553531060636005e-03	3.303301415452128507e-05	1.909022708581982253e-05
2.853801570921428610e+00	1.714583031213362545e-06	-1.562436214349092025e-04	5.827984686849078944e-03	8.467448610807770670e-01	1.104280138346537932e+00	1.000000189154398811e+00	-9.999553703474850855e-03	3.302731260336908762e-05	1.935445518170100774e-05
2.873828248612105174e+00	1.714583028590990257e-06	-1.562434950051576333e-04	5.747420742069358698e-03	8.467455455387066232e-01	1.104045313475581214e+00	1.000000189121174277e+00	-9.999553865179944614e-03	3.302245622411215543e-05	1.962069895400489865e-05
2.893854926302782182e+00	1.714583026612050877e-06	-1.562433743022260697e-04	5.668603156599840223e-03	8.467461991367639662e-01	1.103822368555979816e+00	1.000000189088404712e+00	-9.999554016920287128e-03	3.301843328473141182e-05	1.988896162011902992e-05
2.913881603993458747e+00	1.714583025093638863e-06	-1.562432590113070868e-04	5.591482158704680523e-03	8.467468235318135195e-01	1.103611099074836011e+00	1.000000189056080346e+00	-9.999554159382417762e-03	3.301523249723168713e-05	2.015924646089308064e-05
2.933908281684135311e+00	1.714583023906207938e-06	-1.562431488390375860e-04	5.516009741908528205e-03	8.467474202775302494e-01	1.103411307074438907e+00	1.000000189024193631e+00	-9.999554293200443866e-03	3.301284300084248715e-05	2.043155681956798083e-05
2.953934959374811875e+00	1.714583022957344478e-06	-1.562430435114691958e-04	5.442139590324364395e-03	8.467479908339551331e-01	1.103222800907016854e+00	1.000000188992736794e+00	-9.999554418960670751e-03	3.301125434601927548e-05	2.070589610080995500e-05
2.973961637065488883e+00	1.714583022181571142e-06	-1.562429427723738805e-04	5.369827007635853515e-03	8.467485365710842871e-01	1.103045395000603168e+00	1.000000188961701397e+00	-9.999554537205088481e-03	3.301045647919480014e-05	2.098226776983856275e-05
2.993988314756165448e+00	1.714583021532602239e-06	-1.562428463816705458e-04	5.299028849538212245e-03	8.467490587779250566e-01	1.102878909635430116e+00	1.000000188931081224e+00	-9.999554648433916712e-03	3.301043972824852798e-05	2.126067535163971025e-05
3.014014992446842012e+00	1.714583020977100668e-06	-1.562427541141178980e-04	5.229703459446164750e-03	8.467495586653015494e-01	1.102723170730319113e+00	1.000000188900868503e+00	-9.999554753113719732e-03	3.301119478864564168e-05	2.154112243023273982e-05
3.034041670137519020e+00	1.714583020492040051e-06	-1.562426657582744230e-04	5.161810607287382023e-03	8.467500373734997421e-01	1.102578009638508494e+00	1.000000188871054574e+00	-9.999554851674882436e-03	3.301271271022020192e-05	2.182361264802129766e-05
3.054068347828195584e+00	1.714583020060477823e-06	-1.562425811152718010e-04	5.095311431220108170e-03	8.467504959749961868e-01	1.102443262952508274e+00	1.000000188841634552e+00	-9.999554944519114738e-03	3.301498488456077357e-05	2.210814970517903516e-05
3.074095025518872148e+00	1.714583019670637897e-06	-1.562424999981857168e-04	5.030168382109389061e-03	8.467509354799072074e-01	1.102318772317452344e+00	1.000000188812601110e+00	-9.999555032013487596e-03	3.301800303297232570e-05	2.239473735909652677e-05
3.094121703209549157e+00	1.714583019314099283e-06	-1.562424222308707495e-04	4.966345170619546751e-03	8.467513568402897928e-01	1.102204384252555291e+00	1.000000188783946475e+00	-9.999555114509395271e-03	3.302175919498231293e-05	2.268337942387452759e-05
3.114148380900225721e+00	1.714583018984562597e-06	-1.562423476475925839e-04	4.903806716780033902e-03	8.467517609526598044e-01	1.102099949980272386e+00	1.000000188755664210e+00	-9.999555192319264929e-03	3.302624571736032313e-05	2.297407976985184385e-05
3.134175058590902285e+00	1.714583018677403675e-06	-1.562422760919514244e-04	4.842519101894652428e-03	8.467521486631887084e-01	1.102005325262758850e+00	1.000000188727749872e+00	-9.999555265744787536e-03	3.303145524363622761e-05	2.326684232317089657e-05
3.154201736281578849e+00	1.714583018389318028e-06	-1.562422074165557319e-04	4.782449522668210176e-03	8.467525207698243239e-01	1.101920370245285996e+00	1.000000188700193027e+00	-9.999555335060682573e-03	3.303738070406998285e-05	2.356167106540228606e-05
3.174228413972255858e+00	1.714583018118032010e-06	-1.562421414822811987e-04	4.723566247438670471e-03	8.467528780259044874e-01	1.101844949306256982e+00	1.000000188672991897e+00	-9.999555400525645885e-03	3.304401530608111373e-05	2.385857003317696612e-05
3.194255091662932422e+00	1.714583017861649748e-06	-1.562420781577625014e-04	4.665838574400717371e-03	8.467532211428075994e-01	1.101778930913524857e+00	1.000000188646137156e+00	-9.999555462380039020e-03	3.305135252507859924e-05	2.415754331785647044e-05
3.214281769353608986e+00	1.714583017618372780e-06	-1.562420173189768590e-04	4.609236791721817508e-03	8.467535507921228888e-01	1.101722187486682047e+00	1.000000188619625030e+00	-9.999555520844576051e-03	3.305938609571096797e-05	2.445859506524146549e-05
3.234308447044285995e+00	1.714583017387343062e-06	-1.562419588486402950e-04	4.553732139446918861e-03	8.467538676093191441e-01	1.101674595265052403e+00	1.000000188593448858e+00	-9.999555576131110082e-03	3.306811000347571847e-05	2.476172947531780327e-05
3.254335124734962559e+00	1.714583017167389569e-06	-1.562419026359589754e-04	4.499296773110276169e-03	8.467541721942645205e-01	1.101636034181107338e+00	1.000000188567602422e+00	-9.999555628430408655e-03	3.307751847670846787e-05	2.506695080199540477e-05
3.274361802425639123e+00	1.714583016957739598e-06	-1.562418485760385355e-04	4.445903728957071102e-03	8.467544651154808033e-01	1.101606387739052062e+00	1.000000188542081059e+00	-9.999555677927412373e-03	3.308760597890003104e-05	2.537426335292610382e-05
3.294388480116315687e+00	1.714583016757719120e-06	-1.562417965697845230e-04	4.393526890702055543e-03	8.467547469095231261e-01	1.101585542898336323e+00	1.000000188516878330e+00	-9.999555724783936242e-03	3.309836720135437286e-05	2.568367148929127903e-05
3.314415157806992696e+00	1.714583016566899537e-06	-1.562417465231725675e-04	4.342140957742632139e-03	8.467550180859149123e-01	1.101573389961863381e+00	1.000000188491989794e+00	-9.999555769166969948e-03	3.310979705614796871e-05	2.599517962565855609e-05
3.334441835497669260e+00	1.714583016384342126e-06	-1.562416983473932024e-04	4.291721414758075184e-03	8.467552791257468847e-01	1.101569822468668969e+00	1.000000188467410123e+00	-9.999555811215005141e-03	3.312189066939107466e-05	2.630879222982834918e-05
3.354468513188345824e+00	1.714583016209934019e-06	-1.562416519581004046e-04	4.242244502621514771e-03	8.467555304858793708e-01	1.101574737090894374e+00	1.000000188443133986e+00	-9.999555851071165180e-03	3.313464337477482036e-05	2.662451382273285053e-05
3.374495190879022832e+00	1.714583016042885781e-06	-1.562416072754883834e-04	4.193687190565534469e-03	8.467557725990441098e-01	1.101588033534806943e+00	1.000000188419155611e+00	-9.999555888861694566e-03	3.314805070737788714e-05	2.694234897832717320e-05
3.394521868569699397e+00	1.714583015883412347e-06	-1.562415642238524510e-04	4.146027149534885388e-03	8.467560058750033258e-01	1.101609614445736574e+00	1.000000188395471445e+00	-9.999555924707234644e-03	3.316210839774645240e-05	2.726230232352568804e-05
3.414548546260375961e+00	1.714583015730472501e-06	-1.562415227313749199e-04	4.099242726674156082e-03	8.467562307032912017e-01	1.101639385316712794e+00	1.000000188372075938e+00	-9.999555958719624771e-03	3.317681236620109822e-05	2.758437853813558582e-05
3.434575223951052525e+00	1.714583015584103726e-06	-1.562414827298649487e-04	4.053312920888747957e-03	8.467564474528546103e-01	1.101677254400665218e+00	1.000000188348964203e+00	-9.999555991007070058e-03	3.319215871739816868e-05	2.790858235482909794e-05
3.454601901641729533e+00	1.714583015443639617e-06	-1.562414441546753567e-04	4.008217359434246806e-03	8.467566564743909119e-01	1.101723132626002855e+00	1.000000188326132244e+00	-9.999556021665344588e-03	3.320814373509340539e-05	2.823491855911861061e-05
3.474628579332406098e+00	1.714583015309100927e-06	-1.562414069443695836e-04	3.963936275481004697e-03	8.467568581003979133e-01	1.101776933515443035e+00	1.000000188303574955e+00	-9.999556050788187614e-03	3.322476387714360605e-05	2.856339198936708675e-05
3.494655257023082662e+00	1.714583015180338366e-06	-1.562413710406179051e-04	3.920450486608604776e-03	8.467570526472639747e-01	1.101838573107936980e+00	1.000000188281287894e+00	-9.999556078461415906e-03	3.324201577068576019e-05	2.889400753679287711e-05
3.514681934713759670e+00	1.714583015056657792e-06	-1.562413363879363833e-04	3.877741374189413483e-03	8.467572404153214105e-01	1.101907969883558769e+00	1.000000188259267064e+00	-9.999556104767340359e-03	3.325989620753996417e-05	2.922677014550656622e-05
3.534708612404436234e+00	1.714583014938004993e-06	-1.562413029335809949e-04	3.835790863611359455e-03	8.467574216904018014e-01	1.101985044691232041e+00	1.000000188237508469e+00	-9.999556129783699135e-03	3.327840213976905761e-05	2.956168481255624122e-05
3.554735290095112799e+00	1.714583014824389923e-06	-1.562412706275222065e-04	3.794581405312042605e-03	8.467575967437365181e-01	1.102069720679168308e+00	1.000000188216007002e+00	-9.999556153576595607e-03	3.329753067544778195e-05	2.989875658800202060e-05
3.574761967785789363e+00	1.714583014714948607e-06	-1.562412394219599024e-04	3.754095956577871863e-03	8.467577658341127744e-01	1.102161923227898743e+00	1.000000188194759110e+00	-9.999556176218993980e-03	3.331727907457324438e-05	3.023799057498104194e-05
3.594788645476466371e+00	1.714583014610152421e-06	-1.562412092715908033e-04	3.714317964074960021e-03	8.467579292070525065e-01	1.102261579885799314e+00	1.000000188173761240e+00	-9.999556197769713523e-03	3.333764474516394486e-05	3.057939192980982753e-05
3.614815323167142935e+00	1.714583014509342371e-06	-1.562411801331480595e-04	3.675231347082703014e-03	8.467580870970062845e-01	1.102368620306993563e+00	1.000000188153006064e+00	-9.999556218291235504e-03	3.335862523949554139e-05	3.092296586208908611e-05
3.634842000857819500e+00	1.714583014412358792e-06	-1.562411519655202427e-04	3.636820481391304233e-03	8.467582397267454652e-01	1.102482976191537345e+00	1.000000188132498247e+00	-9.999556237836871447e-03	3.338021825050216612e-05	3.126871763481835025e-05
3.654868678548496508e+00	1.714583014319425937e-06	-1.562411247295085112e-04	3.599070183837488422e-03	8.467583873087187740e-01	1.102604581227787151e+00	1.000000188112226018e+00	-9.999556256460628498e-03	3.340242160830878096e-05	3.161665256454079868e-05
3.674895356239173072e+00	1.714583014229956176e-06	-1.562410983878102658e-04	3.561965697450681246e-03	8.467585300447955099e-01	1.102733371036867194e+00	1.000000188092188269e+00	-9.999556274207696202e-03	3.342523327691164183e-05	3.196677602147762623e-05
3.694922033929849636e+00	1.714583014144105999e-06	-1.562410729047406454e-04	3.525492677176545603e-03	8.467586681286268790e-01	1.102869283119146004e+00	1.000000188072380336e+00	-9.999556291130567293e-03	3.344865135098245695e-05	3.231909342970005247e-05
3.714948711620526201e+00	1.714583014061471159e-06	-1.562410482463855079e-04	3.489637176159552517e-03	8.467588017436600278e-01	1.103012256802636371e+00	1.000000188052800443e+00	-9.999556307269664296e-03	3.347267405280327949e-05	3.267361026728258724e-05
3.734975389311203209e+00	1.714583013981919307e-06	-1.562410243803140353e-04	3.454385632554000853e-03	8.467589310658847346e-01	1.103162233193245356e+00	1.000000188033444148e+00	-9.999556322668991942e-03	3.349729972932363059e-05	3.303033206650067398e-05
3.755002067001879773e+00	1.714583013905441973e-06	-1.562410012756525949e-04	3.419724856843045589e-03	8.467590562622395733e-01	1.103319155126799345e+00	1.000000188014308122e+00	-9.999556337366610065e-03	3.352252684932944410e-05	3.338926441402690991e-05
3.775028744692556337e+00	1.714583013831980923e-06	-1.562409789028397641e-04	3.385642019643751808e-03	8.467591774933379556e-01	1.103482967122769276e+00	1.000000187995389034e+00	-9.999556351403515383e-03	3.354835400073127372e-05	3.375041295112841835e-05
3.795055422383233346e+00	1.714583013761267436e-06	-1.562409572335626601e-04	3.352124639975083940e-03	8.467592949120872348e-01	1.103653615339629912e+00	1.000000187976684884e+00	-9.999556364823455890e-03	3.357477988794885178e-05	3.411378337387497482e-05
3.815082100073909910e+00	1.714583013693093989e-06	-1.562409362408154602e-04	3.319160573970616514e-03	8.467594086653329466e-01	1.103831047531790510e+00	1.000000187958189457e+00	-9.999556377666026646e-03	3.360180332941032266e-05	3.447938143339225635e-05
3.835108777764586474e+00	1.714583013627371220e-06	-1.562409158985324264e-04	3.286738004015291124e-03	8.467595188938747963e-01	1.104015213008031404e+00	1.000000187939903640e+00	-9.999556389985814198e-03	3.362942325514076716e-05	3.484721293607846509e-05
3.855135455455263482e+00	1.714583013564046402e-06	-1.562408961817959906e-04	3.254845428289553262e-03	8.467596257330849419e-01	1.104206062591388759e+00	1.000000187921818995e+00	-9.999556401835521177e-03	3.365763870444941626e-05	3.521728374386319510e-05
3.875162133145940047e+00	1.714583013503374702e-06	-1.562408770665973359e-04	3.223471650702411980e-03	8.467597293128268365e-01	1.104403548580432215e+00	1.000000187903936633e+00	-9.999556413278064271e-03	3.368644882371024185e-05	3.558959977446790520e-05
3.895188810836616611e+00	1.714583013444747105e-06	-1.562408585299469854e-04	3.192605771198627363e-03	8.467598297576760524e-01	1.104607624711879232e+00	1.000000187886253444e+00	-9.999556424372916738e-03	3.371585286422549573e-05	3.596416700165785361e-05
3.915215488527293175e+00	1.714583013388285160e-06	-1.562408405503345847e-04	3.162237176421126440e-03	8.467599271842474185e-01	1.104818246124496861e+00	1.000000187868765433e+00	-9.999556435148097833e-03	3.374585018018568829e-05	3.634099145555254572e-05
3.935242166217970183e+00	1.714583013333917715e-06	-1.562408231080136681e-04	3.132355530718469033e-03	8.467600216995286866e-01	1.105035369324240291e+00	1.000000187851469713e+00	-9.999556445575652486e-03	3.377644022671341678e-05	3.672007922288096209e-05
3.955268843908646748e+00	1.714583013281582513e-06	-1.562408061856690119e-04	3.102950767480048850e-03	8.467601133973539085e-01	1.105258952150581342e+00	1.000000187834364507e+00	-9.999556455529336196e-03	3.380762255799765666e-05	3.710143644730698166e-05
3.975295521599323312e+00	1.714583013231217723e-06	-1.562407897682086303e-04	3.074013080786565377e-03	8.467602023594981153e-01	1.105488953743983371e+00	1.000000187817445374e+00	-9.999556464795484809e-03	3.383939682551146197e-05	3.748506932972206219e-05
3.995322199289999876e+00	1.714583013182309193e-06	-1.562407738407688162e-04	3.045532917360518812e-03	8.467602886663433415e-01	1.105725334514475522e+00	1.000000187800710760e+00	-9.999556473171217208e-03	3.387176277628819229e-05	3.787098412855751756e-05
