# Time=8.36734693878e-05 and Columns are r	p	Paether	ur	alpha	a	b	K	Sr_tilde	tau_tilde
1.001333884533834630e-02	1.199641070023737578e-02	-1.843496321949294331e-02	1.803543337933185417e-05	6.472570726609387926e-01	1.000047503601063870e+00	1.000000180632698799e+00	-1.000047777778919310e-02	2.037348241266255287e-10	1.503626432013558932e-06
3.004001653601504063e-02	1.196787559338415192e-02	-1.841437688937536121e-02	5.410395294080624814e-05	6.474241174337118654e-01	1.000425926324866266e+00	1.000000180708385811e+00	-1.000047315178577943e-02	5.494014771654815021e-09	1.350555745388820092e-05
5.006669422669172975e-02	1.191099029765544520e-02	-1.837324177432802727e-02	9.016557372841578380e-05	6.477580297676207577e-01	1.001181911069889408e+00	1.000000180859552668e+00	-1.000046383278027813e-02	2.537216898993295197e-08	3.736533547406406118e-05
7.009337191736843276e-02	1.182612309875658366e-02	-1.831163335434774636e-02	1.262161716870460759e-04	6.482584532277022582e-01	1.002313729215629001e+00	1.000000181085787254e+00	-1.000044981331740454e-02	6.936235818638176263e-08	7.279644687144089178e-05
9.012004960804512188e-02	1.171382207293839711e-02	-1.822966549860876445e-02	1.622523283998329800e-04	6.489248496307788994e-01	1.003818769914207598e+00	1.000000181386473397e+00	-1.000043109331175302e-02	1.466897767413320301e-07	1.193732459190740555e-04
1.101467272987218110e-01	1.157480999860799331e-02	-1.812749127120476256e-02	1.982715970292150195e-04	6.497564947491010212e-01	1.005693518931900732e+00	1.000000181760791085e+00	-1.000040763773579061e-02	2.661663387141433886e-07	1.765358723932801638e-04
1.301734049893985001e-01	1.140997761293289364e-02	-1.800530394672169784e-02	2.342727544428604210e-04	6.507524725492233042e-01	1.007933531015693829e+00	1.000000182207726018e+00	-1.000037942154866598e-02	4.360814989536462371e-07	2.435967543168009739e-04
1.502000826800751754e-01	1.122037530849531901e-02	-1.786333820738747122e-02	2.702560356676651332e-04	6.519116683937226098e-01	1.010533396295218544e+00	1.000000182726068720e+00	-1.000034642343896642e-02	6.640994897125034392e-07	3.197486481655600855e-04
1.702267603707518784e-01	1.100720335459392206e-02	-1.770187149240801464e-02	3.062233492462594067e-04	6.532327608783453643e-01	1.013486701375881927e+00	1.000000183314418978e+00	-1.000030863022636878e-02	9.571641311922639118e-07	4.040741553486958560e-04
1.902534380614285814e-01	1.077180074269643018e-02	-1.752122544029582202e-02	3.421784724348995803e-04	6.547142128249313631e-01	1.016785985934819836e+00	1.000000183971198719e+00	-1.000026604275019125e-02	1.321412240819581772e-06	4.955566392719656281e-04
2.102801157521052566e-01	1.051563277051189953e-02	-1.732176737971085137e-02	3.781272268820103782e-04	6.563542612152045708e-01	1.020422695798047119e+00	1.000000184694646244e+00	-1.000021867908228342e-02	1.762096531801184164e-06	5.930924517128252724e-04
2.303067934427819596e-01	1.024027749342416339e-02	-1.710391180058303331e-02	4.140776361534975552e-04	6.581509065569984829e-01	1.024387133654422577e+00	1.000000185482835757e+00	-1.000016657969770954e-02	2.283518759901072168e-06	6.955043605259688885e-04
2.503334711334586626e-01	9.947411185421610111e-03	-1.686812174988940385e-02	4.500400681388033773e-04	6.601019015973714765e-01	1.028668408748167673e+00	1.000000186333673824e+00	-1.000010981000235867e-02	2.888973759129097554e-06	8.015560528863612325e-04
2.703601488241353379e-01	9.638792963988021545e-03	-1.661491007954416996e-02	4.860273661921808946e-04	6.622047398344119706e-01	1.033254387084036496e+00	1.000000187244913796e+00	-1.000004846370098309e-02	3.580704901133196109e-06	9.099675694729274971e-04
2.903868265148120131e-01	9.316248744521927680e-03	-1.634484048453814162e-02	5.220549743728195025e-04	6.644566438724732738e-01	1.038131643873358545e+00	1.000000188214159813e+00	-9.999982663600014490e-03	4.359871427502283945e-06	1.019431505410824633e-03
3.104135042054887439e-01	8.981654699532312658e-03	-1.605852825952481383e-02	5.581410629484110861e-04	6.668545540412827988e-01	1.043285420139211883e+00	1.000000189238874793e+00	-9.999912562315424816e-03	5.226528032545315468e-06	1.128629793747962457e-03
3.304401818961654191e-01	8.636920405909766923e-03	-1.575664071208889710e-02	5.943066616135670582e-04	6.693951174313589325e-01	1.048699585577330229e+00	1.000000190316389981e+00	-9.999838340440318774e-03	6.179617020135837402e-06	1.236250867193213875e-03
3.504668595868420944e-01	8.283971869785031542e-03	-1.543989716730881021e-02	6.305758085856625911e-04	6.720746777448336484e-01	1.054356609926515809e+00	1.000000191443911612e+00	-9.999760203918016052e-03	7.216973310424041271e-06	1.341006974375093036e-03
3.704935372775188251e-01	7.924734622622829280e-03	-1.510906850886777064e-02	6.669757247964986334e-04	6.748892661951901850e-01	1.060237545227393552e+00	1.000000192618533568e+00	-9.999678378939355280e-03	8.335342530164040171e-06	1.441651408713365626e-03
3.905202149681955004e-01	7.561117084040456029e-03	-1.476497620392434526e-02	7.035370229992678106e-04	6.778345938364332968e-01	1.066322021428841138e+00	1.000000193837241813e+00	-9.999593105665918052e-03	9.530412369102896428e-06	1.536995391987989144e-03
4.105468926588721756e-01	7.194994386147193777e-03	-1.440849077127022600e-02	7.402939624707147214e-04	6.809060455970215031e-01	1.072588257823835711e+00	1.000000195096925948e+00	-9.999504629593262278e-03	1.079685732131453933e-05	1.625924341811320296e-03
4.305735703495489064e-01	6.828192850768357962e-03	-1.404052965882615113e-02	7.772847605086146815e-04	6.840986763714703711e-01	1.079013092747089342e+00	1.000000196394387864e+00	-9.999413191639307252e-03	1.212839683886313797e-05	1.707413243522857985e-03
4.506002480402255816e-01	6.462475304548890957e-03	-1.366205451077645745e-02	8.145519726570171586e-04	6.874072094542237332e-01	1.085572033831969430e+00	1.000000197726353512e+00	-9.999319016222325135e-03	1.351786680288832607e-05	1.780540843639038346e-03
4.706269257309022569e-01	6.099527407477681358e-03	-1.327406781517874272e-02	8.521429541027892478e-04	6.908260376045302076e-01	1.092239330892059268e+00	1.000000199089483344e+00	-9.999222298132135617e-03	1.495730405149742720e-05	1.844502385003730536e-03
4.906536034215789877e-01	5.740945157736194668e-03	-1.287760893823851165e-02	8.901104154057068495e-04	6.943492270036704106e-01	1.098988073153357448e+00	1.000000200480380519e+00	-9.999123187977321595e-03	1.643804349547604767e-05	1.898620614216843137e-03
5.106802811122557184e-01	5.388223719926739895e-03	-1.247374956506220635e-02	9.285130863390205196e-04	6.979705242912291885e-01	1.105790312111275320e+00	1.000000201895607788e+00	-9.999021776722063701e-03	1.795082709574097920e-05	1.942354810625964226e-03
5.307069588029323937e-01	5.042747704735112482e-03	-1.206358858225457797e-02	9.674165025035404283e-04	7.016833668668682744e-01	1.112617210721349004e+00	1.000000203331694149e+00	-9.998918079453390784e-03	1.948592367881558070e-05	1.975307613749544174e-03
5.507336364936090689e-01	4.705783006093845755e-03	-1.164824645239773311e-02	1.006893930284195621e-03	7.054808965192368442e-01	1.119439218959867643e+00	1.000000204785150615e+00	-9.998812018834811466e-03	2.103325823101876904e-05	1.997229462714473179e-03
5.707603141842857442e-01	4.378470277208130340e-03	-1.122885914544931481e-02	1.047027447036602901e-03	7.093559764278907220e-01	1.126226275023616497e+00	1.000000206252485757e+00	-9.998703408330268314e-03	2.258254895664962972e-05	2.008020506954211800e-03
5.907869918749625304e-01	4.061820099789122986e-03	-1.080657170502559786e-02	1.087909194904485748e-03	7.133012114625143507e-01	1.132948030597497047e+00	1.000000207730212143e+00	-9.998591935900569966e-03	2.412345002166155328e-05	2.007729901339376597e-03
6.108136695656392057e-01	3.756709872030315148e-03	-1.038253154065087516e-02	1.129642828794034416e-03	7.173089716467505594e-01	1.139574097733949243e+00	1.000000209214868097e+00	-9.998477148041621035e-03	2.564569755900927595e-05	1.996552459864099453e-03
6.308403472563158809e-01	3.463882410901829214e-03	-9.957881546323665151e-03	1.172345181632868235e-03	7.213714185366956189e-01	1.146074313995196547e+00	1.000000210703024361e+00	-9.998358434861043600e-03	2.713925620340967593e-05	1.974822708192831410e-03
6.508670249469925562e-01	3.183946233974854247e-03	-9.533753154393106652e-03	1.216148173513128573e-03	7.254805342123138434e-01	1.152419021650280762e+00	1.000000212191306748e+00	-9.998235016110029391e-03	2.859446318139606725e-05	1.943006444468929053e-03
6.708937026376692314e-01	2.917377456047149341e-03	-9.111259438101459648e-03	1.261200995646187539e-03	7.296281524433959609e-01	1.158579355939774347e+00	1.000000213676397909e+00	-9.998105928638912482e-03	3.000216682711090088e-05	1.901689987046882623e-03
6.909203803283459067e-01	2.664523207200000018e-03	-8.691488378500046227e-03	1.307672605606271469e-03	7.338059915695498425e-01	1.164527536768366067e+00	1.000000215155063321e+00	-9.997970015194561008e-03	3.135385634978991724e-05	1.851567354187753705e-03
7.109470580190225819e-01	2.425606452462610203e-03	-8.275496409362988193e-03	1.355754577194904966e-03	7.380056885088354113e-01	1.170237157703696296e+00	1.000000216624156613e+00	-9.997825915016567838e-03	3.264177975794166846e-05	1.793425681085149617e-03
7.309737357096993682e-01	2.200732069845820048e-03	-7.864302349271089579e-03	1.405664356757260714e-03	7.422188333078558742e-01	1.175683465886626644e+00	1.000000218080630887e+00	-9.997672056082188355e-03	3.385904705877669784e-05	1.728129230797958342e-03
7.510004134003760434e-01	1.989894023903874837e-03	-7.458881821108813426e-03	1.457648988085965235e-03	7.464370035424345851e-01	1.180843626422358073e+00	1.000000219521554712e+00	-9.997506649356634190e-03	3.499971619758057912e-05	1.656602395005328000e-03
7.710270910910527187e-01	1.792983456839307649e-03	-7.060162247609241305e-03	1.511989380422326711e-03	7.506517979510363148e-01	1.185696965038899764e+00	1.000000220944113227e+00	-9.997327685386995719e-03	3.605885967179661201e-05	1.579812105765838245e-03
7.910537687817293939e-01	1.609797508963224915e-03	-6.669018497123698624e-03	1.569005208680325459e-03	7.548548685574925088e-01	1.190225183270673615e+00	1.000000222345629020e+00	-9.997132933353334444e-03	3.703261032917661634e-05	1.498750089183698269e-03
8.110804464724060692e-01	1.440048675346135764e-03	-6.286269235907766990e-03	1.629060552034418061e-03	7.590379507227518197e-01	1.194412541135402517e+00	1.000000223723554127e+00	-9.996919943719016072e-03	3.791818551199638119e-05	1.414415385466917530e-03
8.311071241630827444e-01	1.283374505816431595e-03	-5.912674024578238458e-03	1.692570396364785189e-03	7.631928904519013068e-01	1.198246003191643760e+00	1.000000225075482918e+00	-9.996686055087085354e-03	3.871388940468262695e-05	1.327797537658979756e-03
8.511338018537595307e-01	1.139347460934209393e-03	-5.548931175004151797e-03	1.760008147687382478e-03	7.673116685080623167e-01	1.201715344948077524e+00	1.000000226399150982e+00	-9.996428407057800572e-03	3.941909414593548300e-05	1.239860814635560578e-03
8.711604795444362059e-01	1.007484746831672790e-03	-5.195676362551054049e-03	1.831914326896911475e-03	7.713864208597772665e-01	1.204813217788823332e+00	1.000000227692441124e+00	-9.996143961078429382e-03	4.003420093564796583e-05	1.151529784939731363e-03
8.911871572351128812e-01	8.872579663226006245e-04	-4.853481966307907590e-03	1.908906640112946517e-03	7.754094552364850790e-01	1.207535171819428266e+00	1.000000228953375814e+00	-9.995829532401688186e-03	4.056058297109250640e-05	1.063676499545419948e-03
9.112138349257895564e-01	7.781024417489520052e-04	-4.522857088460947687e-03	1.991691641497686429e-03	7.793732636019619076e-01	1.209879637261097818e+00	1.000000230180117633e+00	-9.995481836827203523e-03	4.100051254865386293e-05	9.771094770444736788e-04
9.312405126164662317e-01	6.794260858512713060e-04	-4.204248182583075234e-03	2.081078223768006823e-03	7.832705306785705535e-01	1.211847866163793919e+00	1.000000231370961501e+00	-9.995097557586433284e-03	4.135707505016170696e-05	8.925646176468832790e-04
9.512671903071429069e-01	5.906177196591708926e-04	-3.898040201264444532e-03	2.177993180325204885e-03	7.870941387322596405e-01	1.213443837215810284e+00	1.000000232524333343e+00	-9.994673438261178142e-03	4.163407277420752621e-05	8.106981063543854723e-04
9.712938679978196932e-01	5.110547601249956513e-04	-3.604558154972106222e-03	2.283499074421578741e-03	7.908371692139235520e-01	1.214674127252761693e+00	1.000000233638774549e+00	-9.994206409373656771e-03	4.183592167654010360e-05	7.320813040463487395e-04
9.913205456884963684e-01	4.401102241181321061e-04	-3.324068958189330732e-03	2.398814612438223380e-03	7.944929020460942404e-01	1.215547753679342424e+00	1.000000234712944414e+00	-9.993693757214500845e-03	4.196754404437994700e-05	6.571975708648648091e-04
1.011347223379172933e+00	3.771590186702896102e-04	-3.056783425667414927e-03	2.525337632468770393e-03	7.980548136987113406e-01	1.216075992394320737e+00	1.000000235745603261e+00	-9.993133343153937087e-03	4.203425997061209258e-05	5.864409214277996503e-04
1.031373901069849497e+00	3.215835092961697047e-04	-2.802858271139792561e-03	2.664670658882646852e-03	8.015165755991622287e-01	1.216272175949434375e+00	1.000000236735606007e+00	-9.992523882962562123e-03	4.204168022524848295e-05	5.201163774983878470e-04
1.051400578760526283e+00	2.727783781731626489e-04	-2.562397956352927952e-03	2.818648700844956709e-03	8.048720546790875119e-01	1.216151476587140623e+00	1.000000237681898607e+00	-9.991865290608331618e-03	4.199560277654685019e-05	4.584418614260878750e-04
1.071427256451203069e+00	2.301548013782804861e-04	-2.335456237892266293e-03	2.989368535066502883e-03	8.081153183909712823e-01	1.215730678515491325e+00	1.000000238583507839e+00	-9.991159089441046040e-03	4.190191481558279456e-05	4.015514626991910190e-04
1.091453934141879634e+00	1.931439887281190216e-04	-2.122037269385964719e-03	3.179218040280383777e-03	8.112406467131313414e-01	1.215027943327559701e+00	1.000000239439542637e+00	-9.990408881605490968e-03	4.176650171653473837e-05	3.494999091759451101e-04
1.111480611832556420e+00	1.612001405508961050e-04	-1.922096135789631583e-03	3.390903154503887348e-03	8.142425540030668873e-01	1.214062571906008081e+00	1.000000240249194539e+00	-9.989620855674780434e-03	4.159516395214822143e-05	3.022680819689605499e-04
1.131507289523232984e+00	1.338028824503461169e-04	-1.735538731540063780e-03	3.627468601725600348e-03	8.171158236014173237e-01	1.212854765527537904e+00	1.000000241011739899e+00	-9.988804290958549353e-03	4.139354260019379491e-05	2.597694256824686302e-04
1.151533967213909770e+00	1.104592413330850203e-04	-1.562220945763247030e-03	3.892306577271323516e-03	8.198555579160415885e-01	1.211425388261960334e+00	1.000000241726556771e+00	-9.987971993914122881e-03	4.116705375444400521e-05	2.218571201324085515e-04
1.171560644904586557e+00	9.070522327627211139e-05	-1.401947190943287616e-03	4.189145013821553298e-03	8.224572460236962979e-01	1.209795732216129016e+00	1.000000242393137340e+00	-9.987140569647161292e-03	4.092083189956538964e-05	1.883318916610145785e-04
1.191587322595263121e+00	7.410704602090887238e-05	-1.254468403644205853e-03	4.522003887709518874e-03	8.249168500222824330e-01	1.207987286774962810e+00	1.000000243011115009e+00	-9.986330409545459905e-03	4.065968214557630388e-05	1.589503473793511291e-04
1.211614000285939907e+00	6.026206618465276295e-05	-1.119479759186549394e-03	4.895104472942846292e-03	8.272309092136260755e-01	1.206021512805807383e+00	1.000000243580289272e+00	-9.985565250429729103e-03	4.038804112631136817e-05	1.334337102991950527e-04
1.231640677976616471e+00	4.879942452035765360e-05	-9.966184615352025305e-04	5.312713063961051890e-03	8.293966595051613933e-01	1.203919622869319861e+00	1.000000244100662128e+00	-9.984871179216675552e-03	4.010994635217341548e-05	1.114768149029927291e-04
1.251667355667293258e+00	3.938041338570471498e-05	-8.854620871055310675e-04	5.778898562671493794e-03	8.314121622485559637e-01	1.201702368843021729e+00	1.000000244572468944e+00	-9.984275001127040222e-03	3.982901381261005333e-05	9.275719129673776144e-05
1.271694033357969822e+00	3.169855169572104257e-05	-7.855280470372952469e-04	6.297184295037542082e-03	8.332764339232147099e-01	1.199389838993113910e+00	1.000000244996216869e+00	-9.983802010504052443e-03	3.954842364023258258e-05	7.694402529780643922e-05
1.291720711048646608e+00	2.547933750860536793e-05	-6.962747636101786512e-04	6.870081098474156017e-03	8.349895662794811768e-01	1.197001267350324971e+00	1.000000245372703045e+00	-9.983473395407206630e-03	3.927091360595356647e-05	6.370673935619153478e-05
1.311747388739323394e+00	2.047964088464611170e-05	-6.171051039663551186e-04	7.498504187772475973e-03	8.365528237300740022e-01	1.194554859118673207e+00	1.000000245703036805e+00	-9.983303734241470370e-03	3.899878014424303834e-05	5.272290647729189111e-05
1.331774066429999959e+00	1.648670302390128849e-05	-5.473724568606801091e-04	8.181103101855770679e-03	8.379687073394381791e-01	1.192067636579248857e+00	1.000000245988634795e+00	-9.983299288339707311e-03	3.873388653119528663e-05	4.368519940299845272e-05
1.351800744120676745e+00	1.331672348255386401e-05	-4.863895813158621408e-04	8.913572237730326558e-03	8.392409749373718197e-01	1.189555310325118853e+00	1.000000246231208978e+00	-9.983457845770440930e-03	3.847767788133258727e-05	3.630710161018623096e-05
1.371827421811353309e+00	1.081304433231720870e-05	-4.334400188886428171e-04	9.688054058945376121e-03	8.403746138707267610e-01	1.187032180478260646e+00	1.000000246432734441e+00	-9.983770657812333568e-03	3.823120288516260933e-05	3.032717077374011251e-05
1.391854099502030095e+00	8.843974235681943021e-06	-3.877915043790084088e-04	1.049278562064528617e-02	8.413757666614510855e-01	1.184511071673406857e+00	1.000000246595412090e+00	-9.984226314238587099e-03	3.799514265001411342e-05	2.551174561427299418e-05
1.411880777192706660e+00	7.300329921586277053e-06	-3.487104981762970493e-04	1.131215217864149809e-02	8.422516163201343442e-01	1.182003304054446646e+00	1.000000246721634678e+00	-9.984815401906344326e-03	3.776984736488048981e-05	2.165610987453137605e-05
1.431907454883383446e+00	6.092800063589658010e-06	-3.154767720045933629e-04	1.212727848913122512e-02	8.430102409531552432e-01	1.179518700477327986e+00	1.000000246813955496e+00	-9.985533870916154728e-03	3.755538126274311262e-05	1.858425153570399550e-05
1.451934132574060232e+00	5.149251080104359940e-06	-2.873969539799138204e-04	1.291719797175339829e-02	8.436604467318159495e-01	1.177065627842255324e+00	1.000000246875075272e+00	-9.986382910282587400e-03	3.735157509302956922e-05	1.614745864407748943e-05
1.471960810264736796e+00	4.412093083206382195e-06	-2.638160862833977406e-04	1.366050383995005314e-02	8.442115874969038369e-01	1.174651068348112837e+00	1.000000246907838397e+00	-9.987364376125389825e-03	3.715808316266656469e-05	1.422205771548948233e-05
1.491987487955413583e+00	3.835808187776379311e-06	-2.441265351853175853e-04	1.433724381586333647e-02	8.446733736792042535e-01	1.172280714809967428e+00	1.000000246915228486e+00	-9.988473084078079017e-03	3.697443991915982502e-05	1.270661914322457904e-05
1.512014165646090147e+00	3.384716996012818360e-06	-2.277739476099769668e-04	1.493072636022551788e-02	8.450556735856281643e-01	1.169959083234015651e+00	1.000000246900339285e+00	-9.989689428612825300e-03	3.680011034437248748e-05	1.151893014376731669e-05
1.532040843336766933e+00	3.031028253504684431e-06	-2.142602971616427304e-04	1.542890598098268194e-02	8.453683086858345685e-01	1.167689635672259030e+00	1.000000246866323605e+00	-9.990976193616536369e-03	3.663452981383260557e-05	1.059298181255825542e-05
1.552067521027443719e+00	2.753187152726841239e-06	-2.031443393392911418e-04	1.582511533867917222e-02	8.456208484615800325e-01	1.165474906894795604e+00	1.000000246816311833e+00	-9.992281617717396758e-03	3.647713197713414669e-05	9.876148535349767608e-06
1.572094198718120284e+00	2.534513648296416639e-06	-1.940399686362783815e-04	1.611807541606544852e-02	8.458224142297899872e-01	1.163316629424033355e+00	1.000000246753314226e+00	-9.993547760087821002e-03	3.632736611362240309e-05	9.326669538162056283e-06
1.592120876408797070e+00	2.362105408147605165e-06	-1.866130360392584343e-04	1.631127989221397429e-02	8.459815032195608930e-01	1.161215852734370335e+00	1.000000246680118554e+00	-9.994720864863637644e-03	3.618470700830778570e-05	8.911483536913696694e-06
1.612147554099473634e+00	2.225970694277932841e-06	-1.805771650514855430e-04	1.641196147825267279e-02	8.461058457022142543e-01	1.159173053715309987e+00	1.000000246599208165e+00	-9.995760012631631219e-03	3.604866037842216394e-05	8.604422957579862976e-06
1.632174231790150420e+00	2.118353311769043719e-06	-1.756890296076242183e-04	1.642988288144475728e-02	8.462023040898252191e-01	1.157188236667602510e+00	1.000000246512715130e+00	-9.996641689864632987e-03	3.591876590592256392e-05	8.384744631173439487e-06
1.652200909480826985e+00	2.033213002774936696e-06	-1.717434580084129599e-04	1.637616342435989011e-02	8.462768198282829557e-01	1.155261022063377885e+00	1.000000246422399153e+00	-9.997359909035654843e-03	3.579459884812267106e-05	8.235957291075051968e-06
1.672227587171503771e+00	1.965828522570791157e-06	-1.685686266650927184e-04	1.626228363274248231e-02	8.463344071891908404e-01	1.153390724025946001e+00	1.000000246329662001e+00	-9.997923027054751374e-03	3.567577051949282765e-05	8.144899572119860534e-06
1.692254264862180557e+00	1.912495677571857984e-06	-1.660215189665754985e-04	1.609933510308313859e-02	8.463791895893568729e-01	1.151576416987662110e+00	1.000000246235581480e+00	-9.998348995619217930e-03	3.556192771221400935e-05	8.101022361225375282e-06
1.712280942552857121e+00	1.870297827216888892e-06	-1.639837538183014322e-04	1.589752230669405977e-02	8.464144694691222437e-01	1.149816992301211593e+00	1.000000246140963167e+00	-9.998660568579299454e-03	3.545275116479488782e-05	8.095833524420079755e-06
1.732307620243533908e+00	1.836931156028953581e-06	-1.623578357764377943e-04	1.566588466001565816e-02	8.464428210522527696e-01	1.148111205753195252e+00	1.000000246046384156e+00	-9.998881400623414045e-03	3.534795329264083609e-05	8.122469124078486038e-06
1.752334297934210472e+00	1.810571125952176468e-06	-1.610638410372239402e-04	1.541218982225135876e-02	8.464661963185031723e-01	1.146457716998704468e+00	1.000000245952253008e+00	-9.999033412365137749e-03	3.524727545508405877e-05	8.175361797852192985e-06
1.772360975624887258e+00	1.789769848545770112e-06	-1.600365295593350330e-04	1.514294693802973810e-02	8.464860330236454455e-01	1.144855121934512221e+00	1.000000245858844172e+00	-9.999135338730615746e-03	3.515048502242555705e-05	8.249983126720910362e-06
1.792387653315563822e+00	1.773376718952615466e-06	-1.592228572215456065e-04	1.486349494959971276e-02	8.465033590449354550e-01	1.143301978981972722e+00	1.000000245766340390e+00	-9.999202227242902016e-03	3.505737245803652641e-05	8.342642140089620684e-06
1.812414331006240609e+00	1.760476632671095797e-06	-1.585798542199601485e-04	1.457813100758353214e-02	8.465188858418380979e-01	1.141796830177334687e+00	1.000000245674856902e+00	-9.999245541599937129e-03	3.496774855542786076e-05	8.450326451835170815e-06
1.832441008696917395e+00	1.750341581858374884e-06	-1.580728309314731374e-04	1.429025414796043433e-02	8.465330895630924779e-01	1.140338217879922400e+00	1.000000245584464320e+00	-9.999273620582976863e-03	3.488144191750419784e-05	8.570575928950369775e-06
1.852467686387593959e+00	1.742392513794458973e-06	-1.576738724693476019e-04	1.400250809377234784e-02	8.465462773376238870e-01	1.138924697816611653e+00	1.000000245495207718e+00	-9.999292263997714217e-03	3.479829670623573341e-05	8.701381386990839930e-06
1.872494364078270745e+00	1.736169126936284618e-06	-1.573605837061220632e-04	1.371691373801600840e-02	8.465586397975103372e-01	1.137554849089984943e+00	1.000000245407109745e+00	-9.999305330412216683e-03	3.471817067352345930e-05	8.841102736028386312e-06
1.892521041768947310e+00	1.731305857379981960e-06	-1.571150494766872219e-04	1.343498659885905555e-02	8.465702910249067736e-01	1.136227281691313484e+00	1.000000245320182390e+00	-9.999315265808749950e-03	3.464093345015219639e-05	8.988402415522633057e-06
1.912547719459624096e+00	1.727512729736174005e-06	-1.569229776806538692e-04	1.315783766486079004e-02	8.465812972169431960e-01	1.134940641980094700e+00	1.000000245234432983e+00	-9.999323534170845643e-03	3.456646507728340748e-05	9.142190984848824227e-06
1.932574397150300882e+00	1.724560055543650541e-06	-1.567729964656344895e-04	1.288625793700107561e-02	8.465916972814612196e-01	1.133693616520477621e+00	1.000000245149859524e+00	-9.999330952512602497e-03	3.449465474428958659e-05	9.301582481658900465e-06
1.952601074840977446e+00	1.722266191210230272e-06	-1.566560804929926414e-04	1.262078801891562858e-02	8.466015156257784557e-01	1.132484934601721394e+00	1.000000245066464233e+00	-9.999337927608547769e-03	3.442539971409492905e-05	9.465857702382429826e-06
1.972627752531654233e+00	1.720487738900626280e-06	-1.565650842273595732e-04	1.236177457187180063e-02	8.466107711084016607e-01	1.131313369714762818e+00	1.000000244984241338e+00	-9.999344629280662589e-03	3.435860440210755759e-05	9.634433956661361172e-06
1.992654430222330797e+00	1.719111703772943376e-06	-1.564943639891136669e-04	1.210941557883003783e-02	8.466194810501381784e-01	1.130177740209572734e+00	1.000000244903188173e+00	-9.999351093954675709e-03	3.429417959319543867e-05	9.806840142879921535e-06
2.012681107913007583e+00	1.718049220867152665e-06	-1.564394725854229408e-04	1.186379627762427190e-02	8.466276644082487701e-01	1.129076909317503929e+00	1.000000244823297191e+00	-9.999357301572064580e-03	3.423204176954028718e-05	9.982696215055806424e-06
2.032707785603684147e+00	1.717230542597528473e-06	-1.563969137609632417e-04	1.162491744703289358e-02	8.466353418105331263e-01	1.128009784688693173e+00	1.000000244744562838e+00	-9.999363207877769513e-03	3.417211253739056373e-05	1.016169628303248013e-05
2.052734463294360712e+00	1.716601038882116588e-06	-1.563639449361446242e-04	1.139271750396731939e-02	8.466425363829681583e-01	1.126975317565889645e+00	1.000000244666975346e+00	-9.999368774202143165e-03	3.411431813302168159e-05	1.034359472256640296e-05
2.072761140985037720e+00	1.716118010396686359e-06	-1.563384195932549501e-04	1.116708964620420109e-02	8.466492725377154915e-01	1.125972501692260597e+00	1.000000244590526943e+00	-9.999373969710574628e-03	3.405858899816358113e-05	1.052819477941402130e-05
2.092787818675714284e+00	1.715748154164373012e-06	-1.563186613209503024e-04	1.094789506146874765e-02	8.466555760113552154e-01	1.125000372030972695e+00	1.000000244515207193e+00	-9.999378780567761207e-03	3.400485941209043775e-05	1.071533923866807771e-05
2.112814496366390848e+00	1.715465551831554905e-06	-1.563033637282776106e-04	1.073497303648252889e-02	8.466614727165117094e-01	1.124058003358134661e+00	1.000000244441003661e+00	-9.999383204482893001e-03	3.395306717183716231e-05	1.090490280219348793e-05
2.132841174057067857e+00	1.715250076083438325e-06	-1.562915108984155041e-04	1.052814863819144693e-02	8.466669885374111804e-01	1.123144508777424333e+00	1.000000244367905911e+00	-9.999387251086823414e-03	3.390315331316608752e-05	1.109678587630714538e-05
2.152867851747744421e+00	1.715086130971656247e-06	-1.562823144595215923e-04	1.032723850383044685e-02	8.466721486809767327e-01	1.122259038193929692e+00	1.000000244295899954e+00	-9.999390937911266375e-03	3.385506186482023305e-05	1.129090952139427000e-05
2.172894529438420985e+00	1.714961658361135175e-06	-1.562751638710435968e-04	1.013205516611225682e-02	8.466769774385342062e-01	1.121400776776078967e+00	1.000000244224973356e+00	-9.999394287531888914e-03	3.380873963214669272e-05	1.148721135660425129e-05
2.192921207129097994e+00	1.714867356031277162e-06	-1.562695872437682928e-04	9.942410248550109797e-03	8.466814979248655781e-01	1.120568943427437292e+00	1.000000244155112128e+00	-9.999397325995557084e-03	3.376413600410193254e-05	1.168564224765178001e-05
2.212947884819774558e+00	1.714796063736730717e-06	-1.562652205764519830e-04	9.758116794319177112e-03	8.466857319203440202e-01	1.119762789284659110e+00	1.000000244086301171e+00	-9.999400079634755689e-03	3.372120278147409852e-05	1.188616363496675663e-05
2.232974562510451122e+00	1.714742282256947796e-06	-1.562617835958410599e-04	9.578990933296480798e-03	8.466896998394295437e-01	1.118981596253359578e+00	1.000000244018526052e+00	-9.999402575238354463e-03	3.367989402195304701e-05	1.208874538407385902e-05
2.253001240201127686e+00	1.714701797503418073e-06	-1.562590608935262877e-04	9.404853046810449091e-03	8.466934207167994275e-01	1.118224675590212547e+00	1.000000243951771006e+00	-9.999404838086941791e-03	3.364016590059755018e-05	1.229336406065823817e-05
2.273027917891804695e+00	1.714671387415107703e-06	-1.562568871881172584e-04	9.235528553017617603e-03	8.466969121783635144e-01	1.117491366536822683e+00	1.000000243886020712e+00	-9.999406891753919585e-03	3.360197658279392004e-05	1.250000155000638544e-05
2.293054595582481259e+00	1.714648593950864836e-06	-1.562551358456261712e-04	9.070848407938446323e-03	8.467001906270619216e-01	1.116781035008786560e+00	1.000000243821259849e+00	-9.999408758459369523e-03	3.356528610867229800e-05	1.270864395494626260e-05
2.313081273273157823e+00	1.714631546133554376e-06	-1.562537099955571074e-04	8.910649394758400968e-03	8.467032711090118902e-01	1.116093072341742598e+00	1.000000243757472207e+00	-9.999410457449170800e-03	3.353005628679512956e-05	1.291928071832367062e-05
2.333107950963834831e+00	1.714618823041739933e-06	-1.562525355979588139e-04	8.754774257309951013e-03	8.467061676262945813e-01	1.115426894094923238e+00	1.000000243694642466e+00	-9.999412006956866564e-03	3.349625059693788712e-05	1.313190392603163631e-05
2.353134628654511395e+00	1.714609347981391205e-06	-1.562515561384800135e-04	8.603071719714193086e-03	8.467088929838139100e-01	1.114781938911870496e+00	1.000000243632754415e+00	-9.999413422321848030e-03	3.346383409951892693e-05	1.334650775479479049e-05
2.373161306345187960e+00	1.714602306933063081e-06	-1.562507284900270131e-04	8.455396424817285955e-03	8.467114590528775908e-01	1.114157667437198240e+00	1.000000243571792291e+00	-9.999414717571866382e-03	3.343277335276716134e-05	1.356308803568591596e-05
2.393187984035864524e+00	1.714597085859559481e-06	-1.562500197527141432e-04	8.311608815007561282e-03	8.467138767586843695e-01	1.113553561287884408e+00	1.000000243511740550e+00	-9.999415905149262179e-03	3.340303633452967603e-05	1.378164190992884086e-05
2.413214661726541532e+00	1.714593222621578867e-06	-1.562494048296373295e-04	8.171574974300965452e-03	8.467161561620686339e-01	1.112969122077179795e+00	1.000000243452583204e+00	-9.999416995575678008e-03	3.337459237078103111e-05	1.400216755805866276e-05
2.433241339417218096e+00	1.714590370189136391e-06	-1.562488645475527418e-04	8.035166444540074726e-03	8.467183065717871493e-01	1.112403870489043767e+00	1.000000243394305155e+00	-9.999417998675241490e-03	3.334741206759322046e-05	1.422466398726755088e-05
2.453268017107894661e+00	1.714588268560658169e-06	-1.562483842444028961e-04	7.902260026399255538e-03	8.467203365911545321e-01	1.111857345400843577e+00	1.000000243336889971e+00	-9.999418922963977316e-03	3.332146724871081395e-05	1.444913086475093919e-05
2.473294694798571669e+00	1.714586723379288728e-06	-1.562479526859485049e-04	7.772737571958285470e-03	8.467222541175528638e-01	1.111329103052046463e+00	1.000000243280323886e+00	-9.999419775603941157e-03	3.329673089592330063e-05	1.467556838734721271e-05
2.493321372489248233e+00	1.714585589688846993e-06	-1.562475612188540060e-04	7.646485774766304672e-03	8.467240665461391869e-01	1.110818716256588345e+00	1.000000243224590690e+00	-9.999420563780789598e-03	3.327317709430781039e-05	1.490397717972277857e-05
2.513348050179924797e+00	1.714584759622093974e-06	-1.562472031777252784e-04	7.523395960584044161e-03	8.467257805887664635e-01	1.110325773656623882e+00	1.000000243169676173e+00	-9.999421292567438682e-03	3.325078097938457151e-05	1.513435821494642182e-05
2.533374727870601362e+00	1.714584153094296864e-06	-1.562468733598384909e-04	7.403363882219063039e-03	8.467274026200323211e-01	1.109849879015451402e+00	1.000000243115565235e+00	-9.999421968116914416e-03	3.322951868910704930e-05	1.536671275261865960e-05
2.553401405561278370e+00	1.714583710782249806e-06	-1.562465677225071022e-04	7.286289519378154680e-03	8.467289383714613482e-01	1.109390650547445123e+00	1.000000243062244110e+00	-9.999422594051407889e-03	3.320936731648836920e-05	1.560104229067773318e-05
2.573428083251954934e+00	1.714583388840925363e-06	-1.562462830490427489e-04	7.172076885856117946e-03	8.467303933301897345e-01	1.108947720282942973e+00	1.000000243009697698e+00	-9.999423175430932273e-03	3.319030486762206573e-05	1.583734852788257395e-05
2.593454760942631498e+00	1.714583154940060826e-06	-1.562460167986807135e-04	7.060633843422268845e-03	8.467317724477431140e-01	1.108520733466101360e+00	1.000000242957912455e+00	-9.999423715289508519e-03	3.317231021879477146e-05	1.607563333459063426e-05
2.613481438633308507e+00	1.714582985293145470e-06	-1.562457669058888159e-04	6.951871924419568763e-03	8.467330804387573906e-01	1.108109347983846416e+00	1.000000242906874615e+00	-9.999424217562355097e-03	3.315536307979945153e-05	1.631589872998200498e-05
2.633508116323985071e+00	1.714582862439666372e-06	-1.562455316990255525e-04	6.845706161407401347e-03	8.467343215986038452e-01	1.107713233824150878e+00	1.000000242856569965e+00	-9.999424684902566765e-03	3.313944395496042935e-05	1.655814686424825400e-05
2.653534794014661635e+00	1.714582773592033406e-06	-1.562453097871956847e-04	6.742054925814536075e-03	8.467354999826341988e-01	1.107332072561937331e+00	1.000000242806985851e+00	-9.999425120292320529e-03	3.312453411097559782e-05	1.680238000467456703e-05
2.673561471705338199e+00	1.714582709405911236e-06	-1.562451000067938405e-04	6.640839773353585107e-03	8.467366193459121559e-01	1.106965556871047252e+00	1.000000242758109170e+00	-9.999425526301206762e-03	3.311061554143937270e-05	1.704860052466580550e-05
2.693588149396015208e+00	1.714582663067757517e-06	-1.562449013755936211e-04	6.541985298178407474e-03	8.467376831576408636e-01	1.106613390060765090e+00	1.000000242709926823e+00	-9.999425904823276354e-03	3.309767093851887984e-05	1.729681089509887284e-05
2.713614827086691772e+00	1.714582629622189797e-06	-1.562447130308295740e-04	6.445418993267247598e-03	8.467386947386824625e-01	1.106275285635502925e+00	1.000000242662426819e+00	-9.999426258699548389e-03	3.308568366075413322e-05	1.754701367744322126e-05
2.733641504777368336e+00	1.714582605471292485e-06	-1.562445342487673130e-04	6.351071118948860110e-03	8.467396570336008788e-01	1.105950966876327435e+00	1.000000242615596058e+00	-9.999426588634962448e-03	3.307463770778951070e-05	1.779921151824616582e-05
2.753668182468045345e+00	1.714582588010126076e-06	-1.562443643543365952e-04	6.258874577143083533e-03	8.467405729879556864e-01	1.105640166443092376e+00	1.000000242569422548e+00	-9.999426897657327437e-03	3.306451769148060636e-05	1.805340714468640193e-05
2.773694860158721909e+00	1.714582575356026438e-06	-1.562442027866322030e-04	6.168764792888108660e-03	8.467414451287127442e-01	1.105342625996003969e+00	1.000000242523894078e+00	-9.999427185868648565e-03	3.305530881284670801e-05	1.830960336094554321e-05
2.793721537849398473e+00	1.714582566151374458e-06	-1.562440489966959050e-04	6.080679601208961380e-03	8.467422760625573641e-01	1.105058095835555143e+00	1.000000242478999324e+00	-9.999427456221539681e-03	3.304699683650652283e-05	1.856780304520668732e-05
2.813748215540075037e+00	1.714582559419159346e-06	-1.562439025270402192e-04	5.994559140307935408e-03	8.467430679983061204e-01	1.104786334559771488e+00	1.000000242434726960e+00	-9.999427708814727367e-03	3.303956806927666351e-05	1.882800914716162174e-05
2.833774893230752046e+00	1.714582554458144972e-06	-1.562437629269173352e-04	5.910345749801382449e-03	8.467438231924211411e-01	1.104527108737841434e+00	1.000000242391065441e+00	-9.999427945858074124e-03	3.303300933777451827e-05	1.909022468589933327e-05
2.853801570921428610e+00	1.714582550765442158e-06	-1.562436298067706206e-04	5.827983874364763006e-03	8.467445436130724978e-01	1.104280192599206512e+00	1.000000242348005663e+00	-9.999428167822118491e-03	3.302730796845865799e-05	1.935445274810274600e-05
2.873828248612105174e+00	1.714582547981503206e-06	-1.562435027925364480e-04	5.747419972097695881e-03	8.467452311957128774e-01	1.104045367737277461e+00	1.000000242305532527e+00	-9.999428376071218746e-03	3.302245176788932301e-05	1.962069648648661978e-05
2.893854926302782182e+00	1.714582545849763105e-06	-1.562433815435707463e-04	5.668602427554408560e-03	8.467458877091599279e-01	1.103822422826996164e+00	1.000000242263638928e+00	-9.999428571490415196e-03	3.301842900430426383e-05	1.988895911843753720e-05
2.913881603993458747e+00	1.714582544186678500e-06	-1.562432657440789789e-04	5.591481469089756330e-03	8.467465148224730953e-01	1.103611153355461783e+00	1.000000242222313984e+00	-9.999428754850723036e-03	3.301522838993141927e-05	2.015924392480421514e-05
2.933908281684135311e+00	1.714582542862273453e-06	-1.562431550932251293e-04	5.516009090319172817e-03	8.467471141220770381e-01	1.103411361364958321e+00	1.000000242181547039e+00	-9.999428927284698121e-03	3.301283906424966162e-05	2.043155424882665526e-05
2.953934959374811875e+00	1.714582541783500127e-06	-1.562430493221306639e-04	5.442138975424878032e-03	8.467476870491761343e-01	1.103222855207712350e+00	1.000000242141328322e+00	-9.999429089072675234e-03	3.301125057785536009e-05	2.070589349517016728e-05
2.973961637065488883e+00	1.714582540884598058e-06	-1.562429481631555058e-04	5.369826428184173300e-03	8.467482350244039946e-01	1.103045449311752080e+00	1.000000242101647840e+00	-9.999429241504473320e-03	3.301045287749375688e-05	2.098226512905340953e-05
2.993988314756165448e+00	1.714582540118788794e-06	-1.562428513851329796e-04	5.299028304333480190e-03	8.467487593023074188e-01	1.102878963957307112e+00	1.000000242062496492e+00	-9.999429384527495565e-03	3.301043629105395469e-05	2.126067267546141747e-05
3.014014992446842012e+00	1.714582539452499125e-06	-1.562427587512380943e-04	5.229702947393114615e-03	8.467492611405865732e-01	1.102723225063195089e+00	1.000000242023864949e+00	-9.999429519363891086e-03	3.301119151442949770e-05	2.154111971841265248e-05
3.034041670137519020e+00	1.714582538862061045e-06	-1.562426700551737665e-04	5.161810127304248923e-03	8.467497416684902634e-01	1.102578063982651901e+00	1.000000241985742999e+00	-9.999429646130278404e-03	3.301270959732056118e-05	2.182360990030993069e-05
3.054068347828195584e+00	1.714582538330530718e-06	-1.562425850927393804e-04	5.095310982335768749e-03	8.467502019680890335e-01	1.102443317308184456e+00	1.000000241948123314e+00	-9.999429765582941443e-03	3.301498193181882045e-05	2.210814692132605304e-05
3.074095025518872148e+00	1.714582537845753434e-06	-1.562425036749106027e-04	5.030167963350069306e-03	8.467506430822715480e-01	1.102318826684923536e+00	1.000000241910997012e+00	-9.999429878237786964e-03	3.301800023901837404e-05	2.239473453885077069e-05
3.094121703209549157e+00	1.714582537398569166e-06	-1.562424256287091838e-04	4.966344781115912543e-03	8.467510659230527148e-01	1.102204438632081063e+00	1.000000241874353879e+00	-9.999429984253389511e-03	3.302175655893977173e-05	2.268337656698402556e-05
3.114148380900225721e+00	1.714582536982876947e-06	-1.562423507800198171e-04	4.903806355660582719e-03	8.467514714560862021e-01	1.102100004372108977e+00	1.000000241838187032e+00	-9.999430084492040224e-03	3.302624323817025890e-05	2.297407687606380398e-05
3.134175058590902285e+00	1.714582536593666790e-06	-1.562422789791676067e-04	4.842518768372736614e-03	8.467518604672303884e-01	1.102005379667161389e+00	1.000000241802488699e+00	-9.999430178835377186e-03	3.303145292064090232e-05	2.326683939223174431e-05
3.154201736281578849e+00	1.714582536227569198e-06	-1.562422100689539711e-04	4.782449215963911066e-03	8.467522338295654372e-01	1.101920424662505837e+00	1.000000241767247777e+00	-9.999430268196909249e-03	3.303737853650312985e-05	2.356166809705765401e-05
3.174228413972255858e+00	1.714582535881859688e-06	-1.562421439175318760e-04	4.723565966835804875e-03	8.467525922368513980e-01	1.101845003736544815e+00	1.000000241732460271e+00	-9.999430352379041001e-03	3.304401329346227559e-05	2.385856702717169069e-05
3.194255091662932422e+00	1.714582535554623968e-06	-1.562420803867791959e-04	4.665838319200588981e-03	8.467529364577015549e-01	1.101778985357127372e+00	1.000000241698115078e+00	-9.999430432064354904e-03	3.305135066690982224e-05	2.415754027393462571e-05
3.214281769353608986e+00	1.714582535243545400e-06	-1.562420193576149433e-04	4.609236561275137541e-03	8.467532671148836343e-01	1.101722241943843938e+00	1.000000241664207312e+00	-9.999430507164940377e-03	3.305938439170426769e-05	2.445859198314634627e-05
3.234308447044285995e+00	1.714582534948053933e-06	-1.562419607076942214e-04	4.553731933128345524e-03	8.467535848924733211e-01	1.101674649736017919e+00	1.000000241630728537e+00	-9.999430578226230909e-03	3.306810845339204188e-05	2.476172635479193527e-05
3.254335124734962559e+00	1.714582534666401714e-06	-1.562419043284120378e-04	4.499296590332197039e-03	8.467538903586445675e-01	1.101636088666117397e+00	1.000000241597670758e+00	-9.999430645306351881e-03	3.307751708045607113e-05	2.506694764278055812e-05
3.274361802425639123e+00	1.714582534397829589e-06	-1.562418501097562684e-04	4.445903569157200717e-03	8.467541841282263393e-01	1.101606442238346251e+00	1.000000241565027981e+00	-9.999430708925380329e-03	3.308760473646004904e-05	2.537426015476328974e-05
3.294388480116315687e+00	1.714582534141586664e-06	-1.562417979535250031e-04	4.393526753342338192e-03	8.467544667159369043e-01	1.101585597412152007e+00	1.000000241532792211e+00	-9.999430769195178162e-03	3.309836611277882019e-05	2.568366825192075655e-05
3.314415157806992696e+00	1.714582533896996795e-06	-1.562417477648828611e-04	4.342140842310060651e-03	8.467547386501208528e-01	1.101573444490437037e+00	1.000000241500957454e+00	-9.999430826341788522e-03	3.310979612157108993e-05	2.599517634881982192e-05
3.334441835497669260e+00	1.714582533663092035e-06	-1.562416994559889479e-04	4.291721320761118265e-03	8.467550003935150338e-01	1.101569877012233745e+00	1.000000241469517270e+00	-9.999430880447971598e-03	3.312188988901147528e-05	2.630878891326016481e-05
3.354468513188345824e+00	1.714582533439512818e-06	-1.562416529405574945e-04	4.242244429594332379e-03	8.467552524276161785e-01	1.101574791649683860e+00	1.000000241438465221e+00	-9.999430931786731230e-03	3.313464274889241104e-05	2.662451046617321174e-05
3.374495190879022832e+00	1.714582533225503803e-06	-1.562416081422113637e-04	4.193687138059199251e-03	8.467554951512517025e-01	1.101588088109051844e+00	1.000000241407792645e+00	-9.999430980271350328e-03	3.314805023633519445e-05	2.694234558151334052e-05
3.394521868569699397e+00	1.714582533020702036e-06	-1.562415649810177775e-04	4.146027117132180737e-03	8.467557290112682766e-01	1.101609669035667149e+00	1.000000241377496213e+00	-9.999431026297382272e-03	3.316210808204542805e-05	2.726229888619418002e-05
3.414548546260375961e+00	1.714582532824743716e-06	-1.562415233863709968e-04	4.099242713963950797e-03	8.467559543787114285e-01	1.101639439922557084e+00	1.000000241347568597e+00	-9.999431069906021541e-03	3.317681220631958400e-05	2.758437506002216544e-05
3.434575223951052525e+00	1.714582532637117025e-06	-1.562414832861271248e-04	4.053312927491565208e-03	8.467561716540694672e-01	1.101677309022650597e+00	1.000000241318003580e+00	-9.999431111463065805e-03	3.319215871398695694e-05	2.790857883566878620e-05
3.454601901641729533e+00	1.714582532457099018e-06	-1.562414446182103830e-04	4.008217384968220179e-03	8.467563811655701711e-01	1.101723187264354697e+00	1.000000241288795833e+00	-9.999431150903710999e-03	3.320814388871027071e-05	2.823491499864567972e-05
3.474628579332406098e+00	1.714582532284694991e-06	-1.562414073199205466e-04	3.963936319599457511e-03	8.467565832597698794e-01	1.101776988170386495e+00	1.000000241259938250e+00	-9.999431188407776824e-03	3.322476418856644994e-05	2.856338838731508047e-05
3.494655257023082662e+00	1.714582532119369618e-06	-1.562413713332951102e-04	3.920450548959652712e-03	8.467567782445706293e-01	1.101838627779695212e+00	1.000000241231426834e+00	-9.999431224041111649e-03	3.324201624057858873e-05	2.889400389289458365e-05
3.514681934713759670e+00	1.714582531960882342e-06	-1.562413366028354183e-04	3.877741454456023681e-03	8.467569664249816608e-01	1.101908024572353817e+00	1.000000241203255369e+00	-9.999431257892052796e-03	3.325989683680217725e-05	2.922676645949401486e-05
3.534708612404436234e+00	1.714582531808926961e-06	-1.562413030754789900e-04	3.835790961470172955e-03	8.467571480859689137e-01	1.101985099397285950e+00	1.000000241175418747e+00	-9.999431290062451086e-03	3.327840292918317138e-05	2.956168108416072261e-05
3.554735290095112799e+00	1.714582531663062805e-06	-1.562412707016901461e-04	3.794581520474752268e-03	8.467573234978640340e-01	1.102069775402700902e+00	1.000000241147910751e+00	-9.999431320589769606e-03	3.329753162603676827e-05	2.989875281695407322e-05
3.574761967785789363e+00	1.714582531523071129e-06	-1.562412394322908041e-04	3.754096088748611493e-03	8.467574929255936578e-01	1.102161977969129403e+00	1.000000241120726274e+00	-9.999431349639703939e-03	3.331728018724709446e-05	3.023798676101045890e-05
3.594788645476466371e+00	1.714582531388443077e-06	-1.562412092226746641e-04	3.714318112990206040e-03	8.467576566107778424e-01	1.102261634644946753e+00	1.000000241093861542e+00	-9.999431377228555282e-03	3.333764602105624629e-05	3.057938807264565316e-05
3.614815323167142935e+00	1.714582531259218248e-06	-1.562411800266214014e-04	3.675231512471096532e-03	8.467578148059823340e-01	1.102368675084275385e+00	1.000000241067307893e+00	-9.999431403611817176e-03	3.335862667962895430e-05	3.092296196145959900e-05
3.634842000857819500e+00	1.714582531135114157e-06	-1.562411518056754220e-04	3.636820663006341044e-03	8.467579677153740381e-01	1.102483030987170487e+00	1.000000241041068882e+00	-9.999431428676656269e-03	3.338021985607560129e-05	3.126871369045104975e-05
3.654868678548496508e+00	1.714582531015875635e-06	-1.562411245189347924e-04	3.599070381430605203e-03	8.467581155657553094e-01	1.102604636041987440e+00	1.000000241015131408e+00	-9.999431452587565980e-03	3.340242338045286473e-05	3.161664857616246584e-05
3.674895356239173072e+00	1.714582530901174245e-06	-1.562410981281928243e-04	3.561965910793942706e-03	8.467582585599013889e-01	1.102733425869850459e+00	1.000000240989493250e+00	-9.999431475450985471e-03	3.342523521690798249e-05	3.196677198881422896e-05
3.694922033929849636e+00	1.714582530791156312e-06	-1.562410726006474961e-04	3.525492906037001797e-03	8.467583968783974901e-01	1.102869337971126740e+00	1.000000240964149523e+00	-9.999431497137719477e-03	3.344865346002524897e-05	3.231908935247683359e-05
3.714948711620526201e+00	1.714582530685303451e-06	-1.562410478993880663e-04	3.489637420330876736e-03	8.467585307191934918e-01	1.103012311673828627e+00	1.000000240939096896e+00	-9.999431517882817824e-03	3.347267633229861791e-05	3.267360614522400356e-05
3.734975389311203209e+00	1.714582530583231746e-06	-1.562410239923999692e-04	3.454385891818300552e-03	8.467586602577978905e-01	1.103162288083862741e+00	1.000000240914330041e+00	-9.999431537704699807e-03	3.349730218052819381e-05	3.303032789933038946e-05
3.755002067001879773e+00	1.714582530485173918e-06	-1.562410008495490794e-04	3.419725131008969927e-03	8.467587856540580438e-01	1.103319210037054354e+00	1.000000240889844072e+00	-9.999431556597838597e-03	3.352252947372372373e-05	3.338926020146784315e-05
3.775028744692556337e+00	1.714582530391064111e-06	-1.562409784388308059e-04	3.385642308508763580e-03	8.467589070851729849e-01	1.103483022052874629e+00	1.000000240865636547e+00	-9.999431574761193098e-03	3.354835679965375124e-05	3.375040869290267477e-05
3.795055422383233346e+00	1.714582530300282931e-06	-1.562409567374801556e-04	3.352124943359575514e-03	8.467590246708801560e-01	1.103653670289797439e+00	1.000000240841702803e+00	-9.999431591885526299e-03	3.357478286292835389e-05	3.411377906970389413e-05
3.815082100073909910e+00	1.714582530212961881e-06	-1.562409357104357108e-04	3.319160891693559955e-03	8.467591386059537539e-01	1.103831102502230932e+00	1.000000240818036179e+00	-9.999431608528400878e-03	3.360180648193623144e-05	3.447937708299637867e-05
3.835108777764586474e+00	1.714582530128624716e-06	-1.562409153428522771e-04	3.286738335903675087e-03	8.467592489648732013e-01	1.104015267998956329e+00	1.000000240794636674e+00	-9.999431624027090015e-03	3.362942658675055583e-05	3.484720853917751737e-05
3.855135455455263482e+00	1.714582530047820738e-06	-1.562408956009319662e-04	3.254845774190629707e-03	8.467593559373084444e-01	1.104206117603008908e+00	1.000000240771495630e+00	-9.999431639006975403e-03	3.365764221686895849e-05	3.521727930017613182e-05
3.875162133145940047e+00	1.714582529969892436e-06	-1.562408764717125175e-04	3.223472010453734462e-03	8.467594595861991369e-01	1.104403603612957196e+00	1.000000240748612823e+00	-9.999431652822242042e-03	3.368645251853232551e-05	3.558959528371287445e-05
3.895188810836616611e+00	1.714582529894524291e-06	-1.562408578953863034e-04	3.192606144660472579e-03	8.467595602432546054e-01	1.104607679765519324e+00	1.000000240725984701e+00	-9.999431667891342523e-03	3.371585674326079264e-05	3.596416246355220388e-05
3.915215488527293175e+00	1.714582529822569266e-06	-1.562408396934722606e-04	3.162237563268831785e-03	8.467596588693523385e-01	1.104818301199461450e+00	1.000000240703605714e+00	-9.999431694289143135e-03	3.374585424326082776e-05	3.634098686981273782e-05
3.935242166217970183e+00	1.714582529754016560e-06	-1.562408212148045272e-04	3.132355929954554197e-03	8.467597589968991478e-01	1.105035424420739210e+00	1.000000240681472752e+00	-9.999431772398630763e-03	3.377644446632004126e-05	3.672007458922256235e-05
3.955268843908646748e+00	1.714582529692712763e-06	-1.562408004541350037e-04	3.102951175451583877e-03	8.467598714948514349e-01	1.105259007268823757e+00	1.000000240659583151e+00	-9.999432029322201723e-03	3.380762693742957306e-05	3.710143176544426893e-05
3.975295521599323312e+00	1.714582529648360000e-06	-1.562407720800882121e-04	3.074013485898063978e-03	8.467600252582849762e-01	1.105489008884181112e+00	1.000000240637932469e+00	-9.999432805141011960e-03	3.383940121952513187e-05	3.748506459936714691e-05
3.995322199289999876e+00	1.714582529646592877e-06	-1.562407234769120680e-04	3.045533286782361754e-03	8.467602886663436745e-01	1.105725389676845527e+00	1.000000240616519820e+00	-9.999434906109780710e-03	3.387176681983300171e-05	3.787097934941811237e-05
