# Time=2.85714285714e-05 and Columns are r	p	Paether	ur	alpha	a	b	K	Sr_tilde	tau_tilde
1.001333884533834630e-02	1.199642259040445240e-02	-1.842344516601963217e-02	1.800233129741055763e-05	6.477288854558947984e-01	1.000047384672192896e+00	1.000000061702159160e+00	-9.999947523544416503e-03	2.033609518379576861e-10	1.503627385844385137e-06
3.004001653601504063e-02	1.196788742353925052e-02	-1.840291501217074591e-02	5.400481378073383932e-05	6.478941789499403914e-01	1.000425807359369701e+00	1.000000061727914780e+00	-9.999946721555630358e-03	5.483949263980925690e-09	1.350556598354628530e-05
5.006669422669172975e-02	1.191100205613535544e-02	-1.836189174033562785e-02	9.000089861924504768e-05	6.482245966213717736e-01	1.001181792031086815e+00	1.000000061779356963e+00	-9.999945112587324547e-03	2.532583769004673833e-08	3.736535901418047765e-05
7.009337191736843276e-02	1.182613475296373159e-02	-1.830044973825663626e-02	1.259867941070849900e-04	6.487197983437742455e-01	1.002313610066729366e+00	1.000000061856345379e+00	-9.999942689944467389e-03	6.923632365642287894e-08	7.279649257747969901e-05
9.012004960804512188e-02	1.171383359008223990e-02	-1.821870126738047921e-02	1.619594107625805103e-04	6.493792704913259328e-01	1.003818650618257813e+00	1.000000061958670194e+00	-9.999939446759760486e-03	1.464249973208866315e-07	1.193733205357119158e-04
1.101467272987218110e-01	1.157482134690432721e-02	-1.811679726853357777e-02	1.979166264322604416e-04	6.502023219346747540e-01	1.005693399451740966e+00	1.000000062086052965e+00	-9.999935371147881252e-03	2.656898914089706618e-07	1.765359821320643856e-04
1.301734049893985001e-01	1.140998876201908784e-02	-1.799492839354249751e-02	2.338575369075896436e-04	6.511880785999238919e-01	1.007933411313916450e+00	1.000000062238150633e+00	-9.999930449852657485e-03	4.353087267092749324e-07	2.435969047457325464e-04
1.502000826800751754e-01	1.122038622971173981e-02	-1.785332622514342396e-02	2.697826889882557573e-04	6.523354769796964048e-01	1.010533276334139252e+00	1.000000062414552415e+00	-9.999924668573408754e-03	6.629365234349852658e-07	3.197488441128890860e-04
1.702267603707518784e-01	1.100721402121198830e-02	-1.769226465270083357e-02	3.056942942667861948e-04	6.536432563740723900e-01	1.013486581117517549e+00	1.000000062614783358e+00	-9.999918011715342239e-03	9.555107269039147542e-07	4.040744008228017961e-04
1.902534380614285814e-01	1.077181113010917610e-02	-1.751206134870731887e-02	3.415964227400985153e-04	6.551099502108036488e-01	1.016785865340877670e+00	1.000000062838308112e+00	-9.999910463678875552e-03	1.319164863722857202e-06	4.955569373987413900e-04
2.102801157521052566e-01	1.051564285638962280e-02	-1.731307929745546856e-02	3.774951767019046173e-04	6.567338763748795660e-01	1.020422574829929818e+00	1.000000063084529378e+00	-9.999902008791788227e-03	1.759151610772519713e-06	5.930928046914983641e-04
2.303067934427819596e-01	1.024028725783630162e-02	-1.709572831255557271e-02	4.133988464519848809e-04	6.585131268329903476e-01	1.024387012273242137e+00	1.000000063352795232e+00	-9.999892632154191649e-03	2.279776029843640519e-06	6.955047696038140544e-04
2.503334711334586626e-01	9.947420610924949738e-03	-1.686046648307045273e-02	4.493180506901073680e-04	6.604455566162452662e-01	1.028668286914775187e+00	1.000000063642395576e+00	-9.999882319655935270e-03	2.884339602980019599e-06	8.015565183522860423e-04
2.703601488241353379e-01	9.638802035681659150e-03	-1.660780148003909718e-02	4.852658656093264281e-04	6.625287724153338109e-01	1.033254264759071006e+00	1.000000063952569240e+00	-9.999871058338652072e-03	3.575095600694207456e-06	9.099680906694576589e-04
2.903868265148120131e-01	9.316257450070473609e-03	-1.633829165717933310e-02	5.212579479220272359e-04	6.647601209550890733e-01	1.038131521017306769e+00	1.000000064282505319e+00	-9.999858836231965975e-03	4.353216230326348979e-06	1.019432080763619988e-03
3.104135042054887439e-01	8.981663029158449066e-03	-1.605254687702778807e-02	5.573126581305968066e-04	6.671366774026745716e-01	1.043285296712489707e+00	1.000000064631344721e+00	-9.999845642189527511e-03	5.218771943938646640e-06	1.128630420811623219e-03
3.304401818961654191e-01	8.636928352358588801e-03	-1.575122899675485827e-02	5.934511914053984148e-04	6.696552340521353397e-01	1.048699461540377076e+00	1.000000064998184834e+00	-9.999831465331787683e-03	6.170723232176911778e-06	1.236251542711827144e-03
3.504668595868420944e-01	8.283979428262054634e-03	-1.543505194991596705e-02	6.296977243700365269e-04	6.723122895579959346e-01	1.054356485239909658e+00	1.000000065382078640e+00	-9.999816294303430497e-03	7.206925187043342225e-06	1.341007694355734114e-03
3.704935372775188251e-01	7.924741790708657307e-03	-1.510478136572220367e-02	6.660795869644766743e-04	6.751040390128171254e-01	1.060237419851979057e+00	1.000000065782043812e+00	-9.999800116183258855e-03	8.324145075757566559e-06	1.441652168510559971e-03
3.905202149681955004e-01	7.561123861584442135e-03	-1.476123367345507503e-02	7.026274693387572507e-04	6.780263651623068544e-01	1.066321895325880398e+00	1.000000066197060278e+00	-9.999782915122549382e-03	9.518093121066678762e-06	1.536996186397017721e-03
4.105468926588721756e-01	7.195000775143300248e-03	-1.440527464799225797e-02	7.393756744463736560e-04	6.810748310819157991e-01	1.072588130955170360e+00	1.000000066626075768e+00	-9.999764670655102161e-03	1.078346662109311868e-05	1.625925165168172178e-03
4.305735703495489064e-01	6.828198855216130285e-03	-1.403781736206047813e-02	7.763624276672256939e-04	6.842446746167666349e-01	1.079012965075318853e+00	1.000000067068009812e+00	-9.999745355711369202e-03	1.211400745442130287e-05	1.707414089808603460e-03
4.506002480402255816e-01	6.462480930302052888e-03	-1.365981952223375116e-02	8.136302554132283016e-04	6.875308049104404962e-01	1.085571905320644737e+00	1.000000067521752412e+00	-9.999724934328628120e-03	1.350257289468438509e-05	1.780541706586427891e-03
4.706269257309022569e-01	6.099532662083777083e-03	-1.327228017837697206e-02	8.512264452846948163e-04	6.909278013069984903e-01	1.092239201505886381e+00	1.000000067986175356e+00	-9.999703359082259130e-03	1.494121949624666169e-05	1.844503258203880960e-03
4.906536034215789877e-01	5.740950050269451668e-03	-1.287623581014194461e-02	8.892036009769590382e-04	6.944299149189083753e-01	1.098987942858412836e+00	1.000000068460128677e+00	-9.999680568255491647e-03	1.642129960392644668e-05	1.898621491223987561e-03
5.106802811122557184e-01	5.388228260816941076e-03	-1.247275580887372004e-02	9.276203058320397999e-04	6.980310730918519724e-01	1.105790180875231732e+00	1.000000068942448861e+00	-9.999656482775762939e-03	1.793356978401941082e-05	1.942355685058372436e-03
5.307069588029323937e-01	5.042751905594951289e-03	-1.206293738857037480e-02	9.665419097302376623e-04	7.017248869854387783e-01	1.112617078513700841e+00	1.000000069431959293e+00	-9.999631002948131467e-03	1.946831017401592451e-05	1.975308479384900538e-03
5.507336364936090689e-01	4.705786879546798238e-03	-1.164789997491443192e-02	1.006041454994245675e-03	7.055046624054567284e-01	1.119439085752162555e+00	1.000000069927479585e+00	-9.999604005020075112e-03	2.101545341225417149e-05	1.997230313578177759e-03
5.707603141842857442e-01	4.378473836719016035e-03	-1.122877913640623129e-02	1.046200758200781841e-03	7.093634139900359958e-01	1.126226140789686525e+00	1.000000070427825127e+00	-9.999575337610666984e-03	2.256472144870499570e-05	2.008021337399312507e-03
5.907869918749625304e-01	4.061823359499039908e-03	-1.080672013575357214e-02	1.087111666369848604e-03	7.132938827487534938e-01	1.132947895313682674e+00	1.000000070931812868e+00	-9.999544818041340363e-03	2.410576817162277794e-05	2.007730706117037776e-03
6.108136695656392057e-01	3.756712846597674068e-03	-1.038287119239770205e-02	1.128877508032764647e-03	7.172885569024484154e-01	1.139573961379317435e+00	1.000000071438267524e+00	-9.999512228600300479e-03	2.562832543289437684e-05	1.996553234183794621e-03
6.308403472563158809e-01	3.463885115350678542e-03	-9.958376557834288864e-03	1.171614762319169670e-03	7.213396958539983750e-01	1.146074176551743928e+00	1.000000071946023583e+00	-9.999477312774498680e-03	2.712234974187847252e-05	1.974823447771667517e-03
6.508670249469925562e-01	3.183948683551952267e-03	-9.534369513742873767e-03	1.215454972595507747e-03	7.254393570593655749e-01	1.152418883103124791e+00	1.000000072453933075e+00	-9.999439771480794770e-03	2.857816664824398484e-05	1.943007145569781557e-03
6.708937026376692314e-01	2.917379666088476368e-03	-9.111965408408995507e-03	1.260546935532258191e-03	7.295794254468908058e-01	1.158579216277321633e+00	1.000000072960866904e+00	-9.999399259329203038e-03	2.998660967349379226e-05	1.901690646505276115e-03
6.909203803283459067e-01	2.664525193007649412e-03	-8.692254849165895539e-03	1.307059201961163460e-03	7.337516449745212777e-01	1.164527395982459357e+00	1.000000073465722172e+00	-9.999355380955702449e-03	3.133915059948505743e-05	1.851567969427641170e-03
7.109470580190225819e-01	2.425608229192612476e-03	-8.276297167338282287e-03	1.355182932745560608e-03	7.379476518035775756e-01	1.170237015789731716e+00	1.000000073967424408e+00	-9.999307687472449441e-03	3.262801799679478928e-05	1.793426250123999078e-03
7.309737357096993682e-01	2.200733652407168943e-03	-7.865114267325322775e-03	1.405135161341950281e-03	7.421590085269954562e-01	1.175683322843648959e+00	1.000000074464932220e+00	-9.999255673102714487e-03	3.384630108468877750e-05	1.728129752241742111e-03
7.510004134003760434e-01	1.989895426868953151e-03	-7.459684963033616674e-03	1.457162525033458460e-03	7.463772388045730732e-01	1.180843482253117305e+00	1.000000074957243301e+00	-9.999198772097464896e-03	3.498803635827353343e-05	1.656602868034205570e-03
7.710270910910527187e-01	1.792984694365958682e-03	-7.060939893032722875e-03	1.511545539173164004e-03	7.505938617497348586e-01	1.185696819749877395e+00	1.000000075443391312e+00	-9.999136356080684518e-03	3.604827488733198371e-05	1.579812530111468927e-03
7.910537687817293939e-01	1.609798594727987302e-03	-6.669757090863068921e-03	1.568603503399440633e-03	7.548004253668437746e-01	1.190225036872077036e+00	1.000000075922457654e+00	-9.999067732037772785e-03	3.702312876697368133e-05	1.498750465099239803e-03
8.110804464724060692e-01	1.440049622488598097e-03	-6.286958269313492990e-03	1.628700145785762221e-03	7.589885383754499948e-01	1.194412393641119063e+00	1.000000076393567028e+00	-9.998992141256959204e-03	3.790979585486939162e-05	1.414415713690864683e-03
8.311071241630827444e-01	1.283375326894130265e-03	-5.913305857729798422e-03	1.692250130292574000e-03	7.631498997633436865e-01	1.198245854619167883e+00	1.000000076855890985e+00	-9.998908759665260312e-03	3.870656263012299753e-05	1.327797819374017339e-03
8.511338018537595307e-01	1.139348167887648542e-03	-5.549500810115094544e-03	1.759726574488688911e-03	7.672763255021666229e-01	1.201715195318401097e+00	1.000000077308648816e+00	-9.998816700167422952e-03	3.941278571651324277e-05	1.239861051423648197e-03
8.711604795444362059e-01	1.007485350958788745e-03	-5.196181179560183799e-03	1.831669747803154431e-03	7.713597719232849759e-01	1.204813067126295101e+00	1.000000077751109329e+00	-9.998715017813034067e-03	4.002885328963124453e-05	1.151529978734589996e-03
8.911871572351128812e-01	8.872584782618949664e-04	-4.853921432019143306e-03	1.908697144489050279e-03	7.753923554043614663e-01	1.207535020151585314e+00	1.000000078182588847e+00	-9.998602718885340676e-03	4.055612819631884496e-05	1.063676652583549860e-03
9.112138349257895564e-01	7.781028714706407935e-04	-4.523232450202412970e-03	1.991515148173703467e-03	7.793663681453782965e-01	1.209879484618471057e+00	1.000000078602451881e+00	-9.998478775326067117e-03	4.099687512475243419e-05	9.771095918157354007e-04
9.312405126164662317e-01	6.794264426555536064e-04	-4.204562156931839281e-03	2.080932523167772306e-03	7.832742900325472268e-01	1.211847712579687153e+00	1.000000079010107124e+00	-9.998342146284117105e-03	4.135417455003294682e-05	8.925646968455915259e-04
9.512671903071429069e-01	5.906180121808467199e-04	-3.898296667161336038e-03	2.177875976547097216e-03	7.871087967881603698e-01	1.213443682726063066e+00	1.000000079405009457e+00	-9.998191808985141052e-03	4.163182642868326063e-05	8.106981528317004160e-04
9.712938679978196932e-01	5.110549963435503506e-04	-3.604761859462811847e-03	2.283408026426057748e-03	7.908627648992287984e-01	1.214673971895489091e+00	1.000000079786652396e+00	-9.998026801532809010e-03	4.183424672034943170e-05	7.320813207646612378e-04
9.913205456884963684e-01	4.401104113725585348e-04	-3.324225241565549778e-03	2.398747373657814878e-03	7.945292740967817569e-01	1.215547597494665011e+00	1.000000080154569870e+00	-9.997846280612704417e-03	4.196635978099362346e-05	6.571975608546885275e-04
1.011347223379172933e+00	3.771591636777453060e-04	-3.056897971076425261e-03	2.525291888203510995e-03	7.981016085343768385e-01	1.216075835424078155e+00	1.000000080508332667e+00	-9.997649597270428373e-03	4.203348951146511060e-05	5.864408877475556182e-04
1.031373901069849497e+00	3.215836181738180840e-04	-2.802936882562253543e-03	2.664644161016292614e-03	8.015732581720886873e-01	1.216272018236885799e+00	1.000000080847543105e+00	-9.997436393825593834e-03	4.204125187890244612e-05	5.201163231973286467e-04
1.051400578760526283e+00	2.727784564624789764e-04	-2.562446366831913711e-03	2.818639299510583389e-03	8.049379223150436857e-01	1.216151318176657670e+00	1.000000081171834809e+00	-9.997206724308390843e-03	4.199545108069769011e-05	4.584417895104664679e-04
1.071427256451203069e+00	2.301548540711915287e-04	-2.335479949094347498e-03	2.989374206977230865e-03	8.081895176491449284e-01	1.215730519452235869e+00	1.000000081480870273e+00	-9.996961199252942659e-03	4.190198122039971539e-05	4.015513761016665660e-04
1.091453934141879634e+00	1.931440202943862541e-04	-2.122041421839499821e-03	3.179236913521332145e-03	8.113221935352036285e-01	1.215027783657154137e+00	1.000000081774340854e+00	-9.996701152790181746e-03	4.176673494117553049e-05	3.494998107281201854e-04
1.111480611832556420e+00	1.612001549663346473e-04	-1.922085408575269563e-03	3.390933529459133275e-03	8.143303575905497249e-01	1.214062411674192932e+00	1.000000082051965666e+00	-9.996428825256423872e-03	4.159552004476796112e-05	3.022679743768630464e-04
1.131507289523232984e+00	1.338028832254173676e-04	-1.735517269210823344e-03	3.627508967704378643e-03	8.172087147215326697e-01	1.212854604779818102e+00	1.000000082313494243e+00	-9.996147547440211584e-03	4.139398473914184098e-05	2.597693115047487798e-04
1.151533967213909770e+00	1.104592315415994997e-04	-1.562192310267381239e-03	3.892355623894841726e-03	8.199523225239160329e-01	1.211425227043248398e+00	1.000000082558708980e+00	-9.995861902807361837e-03	4.116755183005984490e-05	2.218570017610057839e-04
1.171560644904586557e+00	9.070520558398952233e-05	-1.401914335855915976e-03	4.189201635719684395e-03	8.225566652878488760e-01	1.209795570570377565e+00	1.000000082787434685e+00	-9.995577831742714914e-03	4.092136191838569920e-05	1.883317713040783285e-04
1.191587322595263121e+00	7.410702271391543864e-05	-1.254433669183911953e-03	4.522067179973922324e-03	8.250177474334386973e-01	1.207987124744813956e+00	1.000000082999541684e+00	-9.995302628370936193e-03	4.066022549600912687e-05	1.589502270462668661e-04
1.211614000285939907e+00	6.026203919750261815e-05	-1.119444886264738285e-03	4.895173713939694748e-03	8.273322050166812547e-01	1.206021350432261885e+00	1.000000083194960476e+00	-9.995044769122194556e-03	4.038858374697306211e-05	1.334335917876831152e-04
1.231640677976616471e+00	4.879939546404248583e-05	-9.965846249713348950e-04	5.312787680602990004e-03	8.294974308312107469e-01	1.203919460191446467e+00	1.000000083373689508e+00	-9.994813509164666987e-03	4.011047784067273136e-05	1.114766997883970441e-04
1.251667355667293258e+00	3.938038357555001084e-05	-8.854299480334071716e-04	5.778978073037042279e-03	8.315117048678178913e-01	1.201702205897742015e+00	1.000000083535811157e+00	-9.994618198229764452e-03	3.982952651931999269e-05	9.275708092379622148e-05
1.271694033357969822e+00	3.169852217934601457e-05	-7.854978251576032883e-04	6.297268223093599113e-03	8.333743179163323189e-01	1.199389675815072387e+00	1.000000083681500396e+00	-9.994467314388542911e-03	3.954891179124820456e-05	7.694392077536604021e-05
1.291720711048646608e+00	2.547930909402805998e-05	-6.962463292746909295e-04	6.870168858685888301e-03	8.350856729927065292e-01	1.197001103971874425e+00	1.000000083811035445e+00	-9.994367305271305291e-03	3.927137250918793533e-05	6.370664155546637477e-05
1.311747388739323394e+00	2.047961416850693325e-05	-6.170780874950149934e-04	7.498594942512351071e-03	8.366473483659505606e-01	1.194554695569960412e+00	1.000000083924801775e+00	-9.994321462030900105e-03	3.899920553328457568e-05	5.272281603431772947e-05
1.331774066429999959e+00	1.648667841963345678e-05	-5.473463702365235009e-04	8.181195603985121079e-03	8.380621088791601059e-01	1.192067472888375779e+00	1.000000084023288771e+00	-9.994329203655944252e-03	3.873427410241785888e-05	4.368511672588162490e-05
1.351800744120676745e+00	1.331670124809825603e-05	-4.863639425609708072e-04	8.913664683086465826e-03	8.393338599431906522e-01	1.189555146518314288e+00	1.000000084107080189e+00	-9.994386241341288168e-03	3.847802306989319754e-05	3.630702689155367079e-05
1.371827421811353309e+00	1.081302459679901839e-05	-4.334144667817746042e-04	9.688143986198001489e-03	8.404675506828630516e-01	1.187032016579975702e+00	1.000000084176840609e+00	-9.994485999259717507e-03	3.823150090355192010e-05	3.032710400848169055e-05
1.391854099502030095e+00	8.843957024341840800e-06	-3.877658885267844138e-04	1.049286990502225000e-02	8.414690463888984118e-01	1.184510907706245009e+00	1.000000084233293229e+00	-9.994622269262601680e-03	3.799538878262260968e-05	2.551168662225904640e-05
1.411880777192706660e+00	7.300315178286770638e-06	-3.486849308162297961e-04	1.131222716296628045e-02	8.423450005824120179e-01	1.182003140038912825e+00	1.000000084277205881e+00	-9.994792382679472051e-03	3.777003746964735883e-05	2.165605832754791447e-05
1.431907454883383446e+00	6.092787670396904271e-06	-3.154516322667427178e-04	1.212734027679606384e-02	8.431027574061955576e-01	1.179518536431455322e+00	1.000000084309384585e+00	-9.994999473586372446e-03	3.755551239377791526e-05	1.858420698743316494e-05
1.451934132574060232e+00	5.149240873815127023e-06	-2.873728428384394887e-04	1.291724286816696085e-02	8.437503018559265877e-01	1.177065463781288734e+00	1.000000084330672667e+00	-9.995252224776837377e-03	3.735164612628394132e-05	1.614742056161896691e-05
1.471960810264736796e+00	4.412084869085422141e-06	-2.637937400570092316e-04	1.366052888124601183e-02	8.442962503605379032e-01	1.174650904284455510e+00	1.000000084341969853e+00	-9.995561307131322140e-03	3.715809529846088728e-05	1.422202551071099094e-05
1.491987487955413583e+00	3.835801751072351730e-06	-2.441067134810039974e-04	1.433724728095564505e-02	8.447498467353772300e-01	1.172280550753545203e+00	1.000000084344245588e+00	-9.995933429073013479e-03	3.697439695064341867e-05	1.270659220219067718e-05
1.512014165646090147e+00	3.384712111932047910e-06	-2.277573173152631848e-04	1.493070814479325811e-02	8.451209119846549989e-01	1.169958919193016644e+00	1.000000084338549033e+00	-9.996365562193618159e-03	3.680001862151763764e-05	1.151890785265976164e-05
1.532040843336766933e+00	3.031024696154494661e-06	-2.142473340732304070e-04	1.542886773311372139e-02	8.454197016533877562e-01	1.167689471654050237e+00	1.000000084325994631e+00	-9.996842270550986703e-03	3.663439789084540924e-05	1.059296357888054482e-05
1.552067521027443719e+00	2.753184703209803127e-06	-2.031352644249939036e-04	1.582506031186500794e-02	8.456566520543835619e-01	1.165474742906705385e+00	1.000000084307731019e+00	-9.997337667938555397e-03	3.647696999025646600e-05	9.876133803759018699e-06
1.572094198718120284e+00	2.534512101790182849e-06	-1.940347275001234493e-04	1.611800806863044472e-02	8.458420358081888413e-01	1.163316465473751782e+00	1.000000084284890178e+00	-9.997821191372642177e-03	3.632718498602045885e-05	9.326657800888854582e-06
1.592120876408797070e+00	2.362104579580529273e-06	-1.866113205336652765e-04	1.631120532418767546e-02	8.459855806780929299e-01	1.161215688829895010e+00	1.000000084258533040e+00	-9.998264628193660047e-03	3.618451760310418099e-05	8.911474339280754491e-06
1.612147554099473634e+00	2.225970422215256922e-06	-1.805784679430427449e-04	1.641188482749470975e-02	8.460961198041635489e-01	1.159172889864537037e+00	1.000000084229601738e+00	-9.998647649182731273e-03	3.604847272026058443e-05	8.604415899504510098e-06
1.632174231790150420e+00	2.118353460299073005e-06	-1.756927182779248475e-04	1.642980879301174021e-02	8.461813324407896353e-01	1.157188072877751939e+00	1.000000084198890526e+00	-9.998960279639802079e-03	3.591858856580937493e-05	8.384739365695087013e-06
1.652200909480826985e+00	2.033213461467525647e-06	-1.717488522845458043e-04	1.637609567112574202e-02	8.462476086292182176e-01	1.155260858340469099e+00	1.000000084167035785e+00	-9.999202309857527227e-03	3.579443854758291541e-05	8.235953520913507627e-06
1.672227587171503771e+00	1.965829204824956243e-06	-1.685750681648877066e-04	1.626222491774950013e-02	8.463000406375128515e-01	1.153390560374450535e+00	1.000000084134522238e+00	-9.999380717367500893e-03	3.567563196712336682e-05	8.144897045112790818e-06
1.692254264862180557e+00	1.912496517833895332e-06	-1.660284237251625453e-04	1.609928703196287711e-02	8.463425191310177675e-01	1.151576253410376616e+00	1.000000084101703379e+00	-9.999506443176316844e-03	3.556181364959274988e-05	8.101020865286846659e-06
1.712280942552857121e+00	1.870298777592016972e-06	-1.639906448395415256e-04	1.589748549088874224e-02	8.463778984532309702e-01	1.149816828799326229e+00	1.000000084068826567e+00	-9.999591544761167114e-03	3.545266257402737378e-05	8.095832882461525502e-06
1.732307620243533908e+00	1.836932182749623522e-06	-1.623643561461163612e-04	1.566585890091993713e-02	8.464081934871269253e-01	1.148111042326501741e+00	1.000000084036056336e+00	-9.999647223667872814e-03	3.534788970741152336e-05	8.122469189168299189e-06
1.752334297934210472e+00	1.810572206056051400e-06	-1.610697513548704502e-04	1.541217432850234062e-02	8.464347768255290339e-01	1.146457553645870986e+00	1.000000084003501932e+00	-9.999682782224397423e-03	3.524723531731239204e-05	8.175362448767676811e-06
1.772360975624887258e+00	1.789770966978432667e-06	-1.600416943041956333e-04	1.514294053940175126e-02	8.464585551926713247e-01	1.144854958653366506e+00	1.000000083971229969e+00	-9.999705313157124589e-03	3.515046603789584949e-05	8.249984263963045948e-06
1.792387653315563822e+00	1.773377866199409982e-06	-1.592272252300613118e-04	1.486349628272936110e-02	8.464801143175471054e-01	1.143301815769764973e+00	1.000000083939283746e+00	-9.999719850475896968e-03	3.505737191508911195e-05	8.342643682377870107e-06
1.812414331006240609e+00	1.760477802919747198e-06	-1.585834371805401783e-04	1.457813866280480326e-02	8.464998297289865192e-01	1.141796667030954504e+00	1.000000083907688797e+00	-9.999729741592354101e-03	3.496776358918937536e-05	8.450328333067902800e-06
1.832441008696917395e+00	1.750342771651091815e-06	-1.580756831048366735e-04	1.429026677354876609e-02	8.465179462508666264e-01	1.140338054796067757e+00	1.000000083876461554e+00	-9.999737073713597588e-03	3.488146970917726771e-05	8.570578095598615546e-06
1.852467686387593959e+00	1.742393721080183128e-06	-1.576760732620994978e-04	1.400252446282762402e-02	8.465346317123739750e-01	1.138924534791908583e+00	1.000000083845613563e+00	-9.999743060636372832e-03	3.479833462267309114e-05	8.701383795884643760e-06
1.872494364078270745e+00	1.736170350444134752e-06	-1.573622239973267926e-04	1.371693278318256333e-02	8.465500110662746991e-01	1.137554686121072800e+00	1.000000083815152152e+00	-9.999748350892723875e-03	3.471821635075309713e-05	8.841105352491645744e-06
1.892521041768947310e+00	1.731307096223642066e-06	-1.571162217007887000e-04	1.343500742448249310e-02	8.465641866579886043e-01	1.136227118774895350e+00	1.000000083785082206e+00	-9.999753251841580690e-03	3.464098483554809403e-05	8.988405211812828640e-06
1.912547719459624096e+00	1.727513983185126235e-06	-1.569237692485676242e-04	1.315785954219585510e-02	8.465772493042420521e-01	1.134940479112969802e+00	1.000000083755409497e+00	-9.999757880973922028e-03	3.456652043711492677e-05	9.142193938860012178e-06
1.932574397150300882e+00	1.724561322900755228e-06	-1.567734859668342632e-04	1.288628029043875113e-02	8.465892836890978046e-01	1.133693453699556875e+00	1.000000083726135580e+00	-9.999762261319881246e-03	3.449471265126416469e-05	9.301585575849838209e-06
1.952601074840977446e+00	1.722267471760398272e-06	-1.566563358794547821e-04	1.262081040633456983e-02	8.466003704945672670e-01	1.132484771824031400e+00	1.000000083697264452e+00	-9.999766377435943820e-03	3.442545901923311515e-05	9.465860922895365272e-06
1.972627752531654233e+00	1.720489031894820218e-06	-1.565651625136293740e-04	1.236179666405286953e-02	8.466105868510301891e-01	1.131313206977447194e+00	1.000000083668796558e+00	-9.999770205449533961e-03	3.435866420159059060e-05	9.634437292601134831e-06
1.992654430222330797e+00	1.719113008436374380e-06	-1.564943117512823916e-04	1.210943713874558167e-02	8.466200060548038087e-01	1.130177577509887454e+00	1.000000083640732784e+00	-9.999773727175054541e-03	3.429423919134609236e-05	9.806843585726828690e-06
2.012681107913007583e+00	1.718050536412811295e-06	-1.564393270873237491e-04	1.186381714207139157e-02	8.466286970913677878e-01	1.129076746652813101e+00	1.000000083613073354e+00	-9.999776935075449513e-03	3.423210064426184565e-05	9.982699758189344385e-06
2.032707785603684147e+00	1.717231868243518828e-06	-1.563967041760799663e-04	1.162493751027382852e-02	8.466367242207659682e-01	1.128009622056461936e+00	1.000000083585817379e+00	-9.999779832476201127e-03	3.417217030739280596e-05	1.016169992134659029e-05
2.052734463294360712e+00	1.716602373866849744e-06	-1.563636937318053390e-04	1.139273670424716459e-02	8.466441467349734573e-01	1.126975154963677728e+00	1.000000083558961972e+00	-9.999782431642414982e-03	3.411437452972448687e-05	1.034359845215969393e-05
2.072761140985037720e+00	1.716119353989781901e-06	-1.563381437192422970e-04	1.116710795460352547e-02	8.466510188980831408e-01	1.125972339117717214e+00	1.000000083532505357e+00	-9.999784751193925916e-03	3.405864384132647658e-05	1.052819859734122738e-05
2.092787818675714284e+00	1.715749505675417136e-06	-1.563183733583825032e-04	1.094791247304595198e-02	8.466573900500501404e-01	1.125000209481832547e+00	1.000000083506444870e+00	-9.999786813618514666e-03	3.400491258967216059e-05	1.071534314274121623e-05
2.112814496366390848e+00	1.715466910614207687e-06	-1.563030728047205560e-04	1.073498956337966791e-02	8.466633048306136944e-01	1.124057840832210831e+00	1.000000083480775848e+00	-9.999788643200889157e-03	3.395311862368335709e-05	1.090490679082332518e-05
2.132841174057067857e+00	1.715251441538573878e-06	-1.562912234862018194e-04	1.052816430424692064e-02	8.466688034843306010e-01	1.123144346272602734e+00	1.000000083455495403e+00	-9.999790264445501675e-03	3.390320301768420390e-05	1.109678994837710051e-05
2.152867851747744421e+00	1.715087502547117088e-06	-1.562820350078953919e-04	1.032725334061534127e-02	8.466739222114766372e-01	1.122258875708169956e+00	1.000000083430597764e+00	-9.999791700999153751e-03	3.385510982880353626e-05	1.129091367616041092e-05
2.172894529438420985e+00	1.714963035550331861e-06	-1.562748953072569088e-04	1.013206920987259722e-02	8.466786935355476995e-01	1.121400614307404897e+00	1.000000083406079598e+00	-9.999792974950884317e-03	3.380878588249831119e-05	1.148721559361611570e-05
2.192921207129097994e+00	1.714868738371689258e-06	-1.562693313760563465e-04	9.942423538069950287e-03	8.466831466693525154e-01	1.120568780973938194e+00	1.000000083381935134e+00	-9.999794106451137185e-03	3.376418058181131525e-05	1.168564656668995420e-05
2.212947884819774558e+00	1.714797450806358363e-06	-1.562649783858688292e-04	9.758129369303075035e-03	8.466873078642002115e-01	1.119762626844482911e+00	1.000000083358159264e+00	-9.999795113560189588e-03	3.372124573674339747e-05	1.188616803599364080e-05
2.232974562510451122e+00	1.714743673671882413e-06	-1.562615554789027706e-04	9.579002833294977814e-03	8.466912007351795610e-01	1.118981433824711713e+00	1.000000083334746881e+00	-9.999796012237931186e-03	3.367993541076323889e-05	1.208874986719502058e-05
2.253001240201127686e+00	1.714703192914693099e-06	-1.562588468310894575e-04	9.404864310440243583e-03	8.466948465584264172e-01	1.118224513171353518e+00	1.000000083311692212e+00	-9.999796816448204215e-03	3.364020578199284874e-05	1.229336862609204391e-05
2.273027917891804695e+00	1.714672786505047030e-06	-1.562566868751470001e-04	9.235539217489711211e-03	8.466982645376361916e-01	1.117491204126064064e+00	1.000000083288989483e+00	-9.999797538312220693e-03	3.360201501703622003e-05	1.250000619806025072e-05
2.293054595582481259e+00	1.714649996430980267e-06	-1.562549487970437919e-04	9.070858508723753447e-03	8.467014720419200335e-01	1.116780872604490327e+00	1.000000083266633144e+00	-9.999798188291561876e-03	3.356532315576663314e-05	1.270864868599807254e-05
2.313081273273157823e+00	1.714632951741103489e-06	-1.562535356022134287e-04	8.910658965462080194e-03	8.467044848148812530e-01	1.116092909942313582e+00	1.000000083244617421e+00	-9.999798775377993429e-03	3.353009200567097790e-05	1.291928553280725009e-05
2.333107950963834831e+00	1.714620231537887390e-06	-1.562523731933958986e-04	8.754783329542091888e-03	8.467073171592873759e-01	1.115426731698815566e+00	1.000000083222936764e+00	-9.999799307287971298e-03	3.349628504458353727e-05	1.313190882442544033e-05
2.353134628654511395e+00	1.714610759148485749e-06	-1.562514050199950732e-04	8.603080323159600570e-03	8.467099820976927704e-01	1.114781776517578704e+00	1.000000083201585177e+00	-9.999799790633145946e-03	3.346386733082756196e-05	1.334651273761308157e-05
2.373161306345187960e+00	1.714603720572421486e-06	-1.562505879514320642e-04	8.455404587189825974e-03	8.467124915125792128e-01	1.114157505043257945e+00	1.000000083180557331e+00	-9.999800231080359370e-03	3.343280541994302779e-05	1.356309310347184888e-05
2.393187984035864524e+00	1.714598501789571955e-06	-1.562498891019497931e-04	8.311616562210265291e-03	8.467148562694277736e-01	1.113553398892868751e+00	1.000000083159846787e+00	-9.999800633490959004e-03	3.340306728729848003e-05	1.378164706324914505e-05
2.413214661726541532e+00	1.714594640676624635e-06	-1.562492833928646096e-04	8.171582330425886456e-03	8.467170863235058409e-01	1.112968959679700998e+00	1.000000083139449103e+00	-9.999801002049149914e-03	3.337462225599614941e-05	1.400217279749941386e-05
2.433241339417218096e+00	1.714591790217367644e-06	-1.562487516853072321e-04	8.035173432045628061e-03	8.467191908125248911e-01	1.112403708087745358e+00	1.000000083119356953e+00	-9.999801340359998000e-03	3.334744092955530968e-05	1.422466931343093850e-05
2.453268017107894661e+00	1.714589690423138634e-06	-1.562482793528192232e-04	7.902266666142731058e-03	8.467211781397324666e-01	1.111857182994403281e+00	1.000000083099567671e+00	-9.999801651545061829e-03	3.332149512894123943e-05	1.444913627825267158e-05
2.473294694798571669e+00	1.714588146948344706e-06	-1.562478551928000764e-04	7.772743883372917710e-03	8.467230560442984277e-01	1.111328940639175311e+00	1.000000083080073043e+00	-9.999801938316595432e-03	3.329675783354896722e-05	1.467557388881455503e-05
2.493321372489248233e+00	1.714587014847769625e-06	-1.562474705979413766e-04	7.646491775878822179e-03	8.467248316654691909e-01	1.110818553836028233e+00	1.000000083060868850e+00	-9.999802203037066670e-03	3.327320312581845022e-05	1.490398276979292323e-05
2.513348050179924797e+00	1.714586186263328076e-06	-1.562471189266298119e-04	7.523401668214553875e-03	8.467265115975760592e-01	1.110325611227144016e+00	1.000000083041949761e+00	-9.999802447783435674e-03	3.325080613917698639e-05	1.513436389426527208e-05
2.533374727870601362e+00	1.714585581118474247e-06	-1.562467950259378185e-04	7.403369311948859027e-03	8.467281019398922304e-01	1.109849716575849188e+00	1.000000083023310005e+00	-9.999802674376664230e-03	3.322954300905807737e-05	1.536671852183980303e-05
2.553401405561278370e+00	1.714585140098109446e-06	-1.562464948702756661e-04	7.286294685789472536e-03	8.467296083405948526e-01	1.109390488096543947e+00	1.000000083004945362e+00	-9.999802884434277894e-03	3.320939082675896314e-05	1.560104815046169793e-05
2.573428083251954934e+00	1.714584819364450698e-06	-1.562462152886466050e-04	7.172081802426606353e-03	8.467310360353966781e-01	1.108947557819591756e+00	1.000000082986850058e+00	-9.999803079386944751e-03	3.319032759593200892e-05	1.583735447889610031e-05
2.593454760942631498e+00	1.714584586593377765e-06	-1.562459537586556092e-04	7.060638522818040753e-03	8.467323898829661744e-01	1.108520570989173004e+00	1.000000082969019211e+00	-9.999803260513657338e-03	3.317233219152468143e-05	1.607563937750620879e-05
2.613481438633308507e+00	1.714584418004715092e-06	-1.562457082513667942e-04	6.951876378324734450e-03	8.467336743967681656e-01	1.108109185492236470e+00	1.000000082951448377e+00	-9.999803428960804194e-03	3.315538432099410677e-05	1.631590486547740990e-05
2.633508116323985071e+00	1.714584296142900028e-06	-1.562454771145680202e-04	6.845710400849342077e-03	8.467348937722857238e-01	1.107713071316776654e+00	1.000000082934132006e+00	-9.999803585756481331e-03	3.313946448764937497e-05	1.655815309300621142e-05
2.653534794014661635e+00	1.714584208225685109e-06	-1.562452589848643489e-04	6.742058960949868715e-03	8.467360519139406350e-01	1.107331910037737677e+00	1.000000082917066102e+00	-9.999803731829438880e-03	3.312455395597511574e-05	1.680238632738242045e-05
2.673561471705338199e+00	1.714584144912641302e-06	-1.562450527215588681e-04	6.640843613807628429e-03	8.467371524570942443e-01	1.106965394328980334e+00	1.000000082900245335e+00	-9.999803868019642092e-03	3.311063471881297649e-05	1.704860694201528609e-05
2.693588149396015208e+00	1.714584099395012000e-06	-1.562448573569420230e-04	6.541988952810762030e-03	8.467381987900526319e-01	1.106613227499808394e+00	1.000000082883665931e+00	-9.999803995088702227e-03	3.309768946627896906e-05	1.729681740778582833e-05
2.713614827086691772e+00	1.714584066720504301e-06	-1.562446720588411310e-04	6.445422470495711098e-03	8.467391940723051347e-01	1.106275123054652809e+00	1.000000082867323226e+00	-9.999804113731160932e-03	3.308570155631235102e-05	1.754702028616750414e-05
2.733641504777368336e+00	1.714584043295671772e-06	-1.562444961023560174e-04	6.351074426534601865e-03	8.467401412526932569e-01	1.105950804274596466e+00	1.000000082851212113e+00	-9.999804224577838255e-03	3.307465498675067731e-05	1.779921822371136910e-05
2.753668182468045345e+00	1.714584026517659035e-06	-1.562443288484136050e-04	6.258877722454896618e-03	8.467410430847275293e-01	1.105640003819510886e+00	1.000000082835329485e+00	-9.999804328208699092e-03	3.306453436884461140e-05	1.805341394759980150e-05
2.773694860158721909e+00	1.714584014507410316e-06	-1.562441697276401628e-04	6.168767782750539212e-03	8.467419021416966451e-01	1.105342463349618054e+00	1.000000082819670899e+00	-9.999804425151876536e-03	3.305532490211818400e-05	1.830961026201787087e-05
2.793721537849398473e+00	1.714584005909859460e-06	-1.562440182279311446e-04	6.080682442079429935e-03	8.467427208291765650e-01	1.105057933165426443e+00	1.000000082804231027e+00	-9.999804515890759957e-03	3.304701235050496106e-05	1.856781004515206977e-05
2.813748215540075037e+00	1.714583999750614703e-06	-1.562438738848820482e-04	5.994561838208976867e-03	8.467435013983042325e-01	1.104786171864976296e+00	1.000000082789006983e+00	-9.999804600872113508e-03	3.303958301967397472e-05	1.882801624669751283e-05
2.833774893230752046e+00	1.714583995330435948e-06	-1.562437362744755799e-04	5.910348310412278511e-03	8.467442459560100554e-01	1.104526946017468703e+00	1.000000082773994770e+00	-9.999804680504355281e-03	3.303302373548768319e-05	1.909023188574630054e-05
2.853801570921428610e+00	1.714583992148921329e-06	-1.562436050073617833e-04	5.827986303012559766e-03	8.467449564759542691e-01	1.104280029852358735e+00	1.000000082759190168e+00	-9.999804755163174338e-03	3.302732182351719725e-05	1.935446004898445373e-05
2.873828248612105174e+00	1.714583989847897459e-06	-1.562434797241561799e-04	5.747422273797496255e-03	8.467456348077760930e-01	1.104045204963073346e+00	1.000000082744589402e+00	-9.999804825198889413e-03	3.302246508956391057e-05	1.962070388912976805e-05
2.893854926302782182e+00	1.714583988173008814e-06	-1.562433600920167258e-04	5.668604607024172945e-03	8.467462826860190361e-01	1.103822260024563295e+00	1.000000082730189588e+00	-9.999804890928906329e-03	3.301844180112059124e-05	1.988896662357172968e-05
2.913881603993458747e+00	1.714583986942649836e-06	-1.562432458015449994e-04	5.591483530774592203e-03	8.467469017376029194e-01	1.103610990523940183e+00	1.000000082715985839e+00	-9.999804952649763920e-03	3.301524066973314715e-05	2.015925153316192866e-05
2.933908281684135311e+00	1.714583986027927733e-06	-1.562431365643745834e-04	5.516011038404442304e-03	8.467474934902581296e-01	1.103411198503500668e+00	1.000000082701975268e+00	-9.999805010635891972e-03	3.301285083419619703e-05	2.043156196114315846e-05
2.953934959374811875e+00	1.714583985337713407e-06	-1.562430321112274697e-04	5.442140813868232181e-03	8.467480593781789855e-01	1.103222692315479980e+00	1.000000082688153658e+00	-9.999805065137144441e-03	3.301126184455598593e-05	2.070590131218346641e-05
2.973961637065488883e+00	1.714583984806964892e-06	-1.562429321900627572e-04	5.369828160702935435e-03	8.467486007495798050e-01	1.103045286387918544e+00	1.000000082674519675e+00	-9.999805116391100382e-03	3.301046364685748341e-05	2.098227305150421459e-05
2.993988314756165448e+00	1.714583984390493826e-06	-1.562428365647932813e-04	5.299029934465710780e-03	8.467491188714143524e-01	1.102878801001056619e+00	1.000000082661067990e+00	-9.999805164610619038e-03	3.301044656861355369e-05	2.126068070409307102e-05
3.014014992446842012e+00	1.714583984055778805e-06	-1.562427450138029683e-04	5.229704478442677787e-03	8.467496149358696433e-01	1.102723062073718285e+00	1.000000082647796162e+00	-9.999805209998852140e-03	3.301120130494244152e-05	2.154112785397107883e-05
3.034041670137519020e+00	1.714583983780403099e-06	-1.562426573290269158e-04	5.161811562441510556e-03	8.467500900642077610e-01	1.102577900959151425e+00	1.000000082634700194e+00	-9.999805252739819156e-03	3.301271890534932164e-05	2.182361814354361897e-05
3.054068347828195584e+00	1.714583983548347836e-06	-1.562425733147496099e-04	5.095312324507737800e-03	8.467505453128775228e-01	1.102443154249870050e+00	1.000000082621777642e+00	-9.999805293007502441e-03	3.301499076111151157e-05	2.210815527298600977e-05
3.074095025518872148e+00	1.714583983348078754e-06	-1.562424927868518105e-04	5.030169215401874422e-03	8.467509816762616159e-01	1.102318663591013603e+00	1.000000082609025842e+00	-9.999805330961727273e-03	3.301800859323828456e-05	2.239474299969047572e-05
3.094121703209549157e+00	1.714583983171704895e-06	-1.562424155719852297e-04	4.966345945689778704e-03	8.467514000918772155e-01	1.102204275501802888e+00	1.000000082596441020e+00	-9.999805366749981578e-03	3.302176444097613104e-05	2.268338513775940837e-05
3.114148380900225721e+00	1.714583983013922985e-06	-1.562423415067558570e-04	4.903807435308143309e-03	8.467518014434433082e-01	1.102099841204697839e+00	1.000000082584020289e+00	-9.999805400512495196e-03	3.302625065082961242e-05	2.297408555753322672e-05
3.134175058590902285e+00	1.714583982869921667e-06	-1.562422704371600919e-04	4.842519765475011492e-03	8.467521865644713763e-01	1.102005216461858561e+00	1.000000082571761872e+00	-9.999805432374634859e-03	3.303145986607270118e-05	2.326684818515594759e-05
3.154201736281578849e+00	1.714583982737553287e-06	-1.562422022178680601e-04	4.782450132813376338e-03	8.467525562417417273e-01	1.101920261418560587e+00	1.000000082559660664e+00	-9.999805462459069802e-03	3.303738501672717493e-05	2.356167700219975692e-05
3.174228413972255858e+00	1.714583982614555633e-06	-1.562421367117575416e-04	4.723566805585176047e-03	8.467529112179139617e-01	1.101844840453212182e+00	1.000000082547716662e+00	-9.999805490875783229e-03	3.304401930997933310e-05	2.385857604529716708e-05
3.194255091662932422e+00	1.714583982499565193e-06	-1.562420737893220233e-04	4.665839081913850453e-03	8.467532521942719992e-01	1.101778822033670613e+00	1.000000082535924983e+00	-9.999805517728083126e-03	3.305135622102289313e-05	2.415754940581127367e-05
3.214281769353608986e+00	1.714583982391313747e-06	-1.562420133281778754e-04	4.609237249898897118e-03	8.467535798338249320e-01	1.101722078579531860e+00	1.000000082524284295e+00	-9.999805543114024739e-03	3.305938948429413068e-05	2.445860122954428815e-05
3.234308447044285995e+00	1.714583982289180632e-06	-1.562419552127194662e-04	4.553732549522585861e-03	8.467538947628098223e-01	1.101674486330124436e+00	1.000000082512791488e+00	-9.999805567120928843e-03	3.306811308509407333e-05	2.476173571648359058e-05
3.254335124734962559e+00	1.714583982192136067e-06	-1.562418993335432614e-04	4.499297136259616629e-03	8.467541975739040216e-01	1.101635925217923084e+00	1.000000082501444121e+00	-9.999805589834423122e-03	3.307752125156574325e-05	2.506695712054062659e-05
3.274361802425639123e+00	1.714583982100049186e-06	-1.562418455871900276e-04	4.445904046298911408e-03	8.467544888276510306e-01	1.101606278747137013e+00	1.000000082490239972e+00	-9.999805611332835548e-03	3.308760844701980834e-05	2.537426974936874452e-05
3.294388480116315687e+00	1.714583982012083544e-06	-1.562417938757408315e-04	4.393527163302854248e-03	8.467547690546205486e-01	1.101585433877218634e+00	1.000000082479176156e+00	-9.999805631687667951e-03	3.309836936258445041e-05	2.568367796415083407e-05
3.314415157806992696e+00	1.714583981928706067e-06	-1.562417441064918068e-04	4.342141186618294485e-03	8.467550387571589621e-01	1.101573280911074981e+00	1.000000082468250673e+00	-9.999805650968675297e-03	3.310979891017007219e-05	2.599518617945602866e-05
3.334441835497669260e+00	1.714583981848670348e-06	-1.562416961916017607e-04	4.291721600878365371e-03	8.467552984110789938e-01	1.101569713387746230e+00	1.000000082457461303e+00	-9.999805669238810701e-03	3.312189221572709802e-05	2.630879886308622648e-05
3.354468513188345824e+00	1.714583981772403501e-06	-1.562416500478326436e-04	4.242244646911327507e-03	8.467555484675153288e-01	1.101574627979374554e+00	1.000000082446805161e+00	-9.999805686558350601e-03	3.313464461279205033e-05	2.662452053597516474e-05
3.374495190879022832e+00	1.714583981699354533e-06	-1.562416055963165807e-04	4.193687293908052172e-03	8.467557893537970282e-01	1.101587924392231521e+00	1.000000082436280469e+00	-9.999805702981838171e-03	3.314805163629744642e-05	2.694235577207939984e-05
3.394521868569699397e+00	1.714583981629495914e-06	-1.562415627622305847e-04	4.146027212774197612e-03	8.467560214753778736e-01	1.101609505271648803e+00	1.000000082425885450e+00	-9.999805718561283890e-03	3.316210901664636256e-05	2.726230919831480358e-05
3.414548546260375961e+00	1.714583981562628169e-06	-1.562415214745911532e-04	4.099242750616262192e-03	8.467562452168654330e-01	1.101639276110659926e+00	1.000000082415617220e+00	-9.999805733345946968e-03	3.317681267402440446e-05	2.758438549449007104e-05
3.434575223951052525e+00	1.714583981498688828e-06	-1.562414816660221144e-04	4.053312906304461921e-03	8.467564609433716472e-01	1.101677145162196059e+00	1.000000082405474000e+00	-9.999805747381821860e-03	3.319215871295485746e-05	2.790858939327890749e-05
3.454601901641729533e+00	1.714583981437275127e-06	-1.562414432725294107e-04	4.008217307061033401e-03	8.467566690016292696e-01	1.101723023354669095e+00	1.000000082395454015e+00	-9.999805760713050343e-03	3.320814341706886124e-05	2.823492568019520346e-05
3.474628579332406098e+00	1.714583981378510734e-06	-1.562414062334447479e-04	3.963936186024373358e-03	8.467568697204503891e-01	1.101776824210798145e+00	1.000000082385554601e+00	-9.999805773375294859e-03	3.322476324409823212e-05	2.856339919360339569e-05
3.494655257023082662e+00	1.714583981322359862e-06	-1.562413704909880376e-04	3.920450360744496578e-03	8.467570634129404361e-01	1.101838463769536647e+00	1.000000082375774202e+00	-9.999805785409899075e-03	3.324201482106552206e-05	2.889401482472335282e-05
3.514681934713759670e+00	1.714583981268347747e-06	-1.562413359903127175e-04	3.877741212564702906e-03	8.467572503761979785e-01	1.101907860510962456e+00	1.000000082366111043e+00	-9.999805796850757753e-03	3.325989493967263584e-05	2.922677751766712985e-05
3.534708612404436234e+00	1.714583981216487308e-06	-1.562413026792522374e-04	3.835790666846507213e-03	8.467574308929550764e-01	1.101984935283998768e+00	1.000000082356563125e+00	-9.999805807730936455e-03	3.327840055187635101e-05	2.956169226948432500e-05
3.554735290095112799e+00	1.714583981166651912e-06	-1.562412705081862960e-04	3.794581174001733590e-03	8.467576052320677782e-01	1.102069611236860425e+00	1.000000082347128672e+00	-9.999805818081681022e-03	3.329752876564067132e-05	2.989876413023654755e-05
3.574761967785789363e+00	1.714583981118907630e-06	-1.562412394299399557e-04	3.754095691291776688e-03	8.467577736491921359e-01	1.102161813750079489e+00	1.000000082337805463e+00	-9.999805827930988156e-03	3.331727684086188668e-05	3.023799820306244618e-05
3.594788645476466371e+00	1.714583981073111523e-06	-1.562412093995560957e-04	3.714317665360272053e-03	8.467579363880600729e-01	1.102261470372034591e+00	1.000000082328592166e+00	-9.999805837307369771e-03	3.333764218545585023e-05	3.057939964428004414e-05
3.614815323167142935e+00	1.714583981029064751e-06	-1.562411803742571670e-04	3.675231015464346974e-03	8.467580936802644453e-01	1.102368510756850828e+00	1.000000082319486117e+00	-9.999805846235838847e-03	3.335862235160206478e-05	3.092297366349156803e-05
3.634842000857819500e+00	1.714583980986640682e-06	-1.562411523132932413e-04	3.636820117373271936e-03	8.467582457467789370e-01	1.102482866604585166e+00	1.000000082310488647e+00	-9.999805854740780389e-03	3.338021503213846667e-05	3.126872552369807171e-05
3.654868678548496508e+00	1.714583980946074792e-06	-1.562411251778428334e-04	3.599069787904035297e-03	8.467583927978966640e-01	1.102604471603595426e+00	1.000000082301594428e+00	-9.999805862845786639e-03	3.340241805709851788e-05	3.161666054144425856e-05
3.674895356239173072e+00	1.714583980906928106e-06	-1.562410989309147541e-04	3.561965270066910945e-03	8.467585350341257922e-01	1.102733261375007379e+00	1.000000082292803683e+00	-9.999805870570626504e-03	3.342522939038719809e-05	3.196678408695283451e-05
3.694922033929849636e+00	1.714583980869516778e-06	-1.562410735372523750e-04	3.525492218789457333e-03	8.467586726464704228e-01	1.102869173419191107e+00	1.000000082284113967e+00	-9.999805877935032464e-03	3.344864712658880170e-05	3.231910158429657768e-05
3.714948711620526201e+00	1.714583980833349530e-06	-1.562410489631532447e-04	3.489636687199202010e-03	8.467588058175973265e-01	1.103012147064160509e+00	1.000000082275524393e+00	-9.999805884960797850e-03	3.347266948790032624e-05	3.267361851155152258e-05
3.734975389311203209e+00	1.714583980798425091e-06	-1.562410251765604049e-04	3.454385113433833861e-03	8.467589347211063044e-01	1.103162123415823315e+00	1.000000082267033186e+00	-9.999805891663179555e-03	3.349729482118633204e-05	3.303034040099467794e-05
3.755002067001879773e+00	1.714583980765173542e-06	-1.562410021468593204e-04	3.419724307960690223e-03	8.467590595230922723e-01	1.103319045310007906e+00	1.000000082258638567e+00	-9.999805898059746859e-03	3.352252159515334192e-05	3.338927283930018600e-05
3.775028744692556337e+00	1.714583980733113557e-06	-1.562409798448077033e-04	3.385641441382288789e-03	8.467591803819191076e-01	1.103482857266185446e+00	1.000000082250340316e+00	-9.999805904165664713e-03	3.354834839763042503e-05	3.375042146773675570e-05
3.795055422383233346e+00	1.714583980702076152e-06	-1.562409582424605407e-04	3.352124032703782553e-03	8.467592974489474011e-01	1.103653505442831806e+00	1.000000082242135768e+00	-9.999805909996797165e-03	3.357477393296379799e-05	3.411379198237570078e-05
3.815082100073909910e+00	1.714583980672282615e-06	-1.562409373131657309e-04	3.319159938044930706e-03	8.467594108687112042e-01	1.103830937594357575e+00	1.000000082234022925e+00	-9.999805915566966491e-03	3.360179701950726959e-05	3.447939013434431102e-05
3.835108777764586474e+00	1.714583980643573704e-06	-1.562409170314336265e-04	3.286737339778726067e-03	8.467595207792878442e-01	1.104015103029543532e+00	1.000000082226002007e+00	-9.999805920890092112e-03	3.362941658722019763e-05	3.484722173004234033e-05
3.855135455455263482e+00	1.714583980615769636e-06	-1.562408973728539850e-04	3.254844736074583890e-03	8.467596273128663587e-01	1.104205952571426508e+00	1.000000082218070352e+00	-9.999805925982093585e-03	3.365763167535136882e-05	3.521729263140105652e-05
3.875162133145940047e+00	1.714583980589365501e-06	-1.562408783140839335e-04	3.223470930831351215e-03	8.467597305961774845e-01	1.104403438518576808e+00	1.000000082210227292e+00	-9.999805930859882730e-03	3.368644143022320127e-05	3.558960875614346339e-05
3.895188810836616611e+00	1.714583980563589230e-06	-1.562408598326152994e-04	3.192605023985158746e-03	8.467598307509243138e-01	1.104607514607712782e+00	1.000000082202471496e+00	-9.999805935548595689e-03	3.371584510309504621e-05	3.596417607803645224e-05
3.915215488527293175e+00	1.714583980539019133e-06	-1.562408419068381444e-04	3.162236402170215226e-03	8.467599278944568653e-01	1.104818135977601701e+00	1.000000082194801632e+00	-9.999805940080297093e-03	3.374584204811761028e-05	3.634100062720116154e-05
3.935242166217970183e+00	1.714583980515149745e-06	-1.562408245156509127e-04	3.132354729726411196e-03	8.467600221408789762e-01	1.105035259134199643e+00	1.000000082187216366e+00	-9.999805944510071348e-03	3.377643172036160488e-05	3.672008849036821848e-05
3.955268843908646748e+00	1.714583980492225222e-06	-1.562408076382235057e-04	3.102949940030321190e-03	8.467601136032447684e-01	1.105258841916978874e+00	1.000000082179714589e+00	-9.999805948932684665e-03	3.380761367392382796e-05	3.710144581120313509e-05
3.975295521599323312e+00	1.714583980470232223e-06	-1.562407912527831650e-04	3.074012227142404376e-03	8.467602023995847160e-01	1.105488843466402971e+00	1.000000082172294968e+00	-9.999805953557748886e-03	3.383938756009672580e-05	3.748507879059902930e-05
3.995322199289999876e+00	1.714583980448862852e-06	-1.562407753341192628e-04	3.045532037751821301e-03	8.467602886663434525e-01	1.105725224192501521e+00	1.000000082164955950e+00	-9.999805958855276927e-03	3.387175312557953396e-05	3.787099368698890227e-05
