# Time=0.00484848484848 and Columns are r	p	Paether	ur	alpha	a	b	K	Sr_tilde	tau_tilde
2.007699597633165814e-02	1.198456991789785542e-02	-1.854233864451149821e-02	3.874980527539234582e-05	6.445719200763322387e-01	1.000200888777363017e+00	1.000010672832700065e+00	-1.052751743263701141e-02	1.758893910864097433e-09	6.039853987541910113e-06
6.023098792899497789e-02	1.187034464761063841e-02	-1.845794286425955777e-02	1.161720560782043073e-04	6.452966706943916719e-01	1.001720023966005346e+00	1.000010689563133326e+00	-1.051996528805897342e-02	4.723030977906920994e-08	5.392237125982516575e-05
1.003849798816582872e-01	1.164484108636940594e-02	-1.828985932755221658e-02	1.933702042046721065e-04	6.467409154223223711e-01	1.004744281799992978e+00	1.000010722760993342e+00	-1.050467245714239474e-02	2.162752264982398891e-07	1.473825221004067645e-04
1.405389718343216243e-01	1.131388548077918998e-02	-1.803947120503384197e-02	2.702072591687746132e-04	6.488964744817433683e-01	1.009245177807242433e+00	1.000010772002794424e+00	-1.048190326056303544e-02	5.837694290710035812e-07	2.819171667700686931e-04
1.806929637869849337e-01	1.088593261240019747e-02	-1.770882277872348060e-02	3.465960319479459840e-04	6.517528929762926859e-01	1.015178868320135930e+00	1.000010836705541584e+00	-1.045210511904704105e-02	1.213843418528123858e-06	4.510351214468924399e-04
2.208469557396482430e-01	1.037175743351120491e-02	-1.730071153980804535e-02	4.224645564335195941e-04	6.552953674700452424e-01	1.022484903968077230e+00	1.000010916069455913e+00	-1.041574947444806956e-02	2.156368133363799098e-06	6.465646316743357477e-04
2.610009476923115801e-01	9.784055081530698694e-03	-1.681874767699242934e-02	4.978251751338563357e-04	6.595035698738658247e-01	1.031084730970226016e+00	1.000011009159020636e+00	-1.037348927631921713e-02	3.444550549989736078e-06	8.590481112396789864e-04
3.011549396449748617e-01	9.136972198053604916e-03	-1.626736028434932688e-02	5.727052021225199603e-04	6.643521969397975235e-01	1.040880092208038787e+00	1.000011114867498163e+00	-1.032614263123684227e-02	5.092874714874545791e-06	1.078209900887774865e-03
3.413089315976381988e-01	8.445590204379573376e-03	-1.565180559365460938e-02	6.472491574614746548e-04	6.698110741611416064e-01	1.051751528445727280e+00	1.000011232004998529e+00	-1.027470443799047631e-02	7.097036221324904876e-06	1.293478092248049509e-03
3.814629235503015359e-01	7.725382818105619095e-03	-1.497817758108615366e-02	7.216082396595874162e-04	6.758443965476415016e-01	1.063557229358771616e+00	1.000011359247678033e+00	-1.022032343310763126e-02	9.433266047383638306e-06	1.494536317402853001e-03
4.216169155029648175e-01	6.991672658486319282e-03	-1.425338200076109278e-02	7.960838941303284262e-04	6.824103220267173642e-01	1.076132524233140764e+00	1.000011495235657577e+00	-1.016426519391900284e-02	1.206102088520999945e-05	1.671876472046353486e-03
4.617709074556281545e-01	6.259111780846788632e-03	-1.348506665485612460e-02	8.709770170003650839e-04	6.894611550435471026e-01	1.089290326876094728e+00	1.000011638516716372e+00	-1.010786185286872974e-02	1.492319020757496708e-05	1.817319017962618771e-03
5.019248994082914361e-01	5.541210995294689086e-03	-1.268152004792357998e-02	9.467790542135136930e-04	6.969435310571233666e-01	1.102822840599801957e+00	1.000011787638074301e+00	-1.005243999426977571e-02	1.795166507479186457e-05	1.924465089550104948e-03
5.420788913609547732e-01	4.849940156121773996e-03	-1.185153596531875707e-02	1.023984549190094144e-03	7.047986859549442151e-01	1.116504778878929960e+00	1.000011941097623147e+00	-9.999231331791823968e-03	2.106766848525395131e-05	1.989044782814375530e-03
5.822328833136179993e-01	4.195418297005563610e-03	-1.100424211861620281e-02	1.103337265410670245e-03	7.129630863991326395e-01	1.130098250666910387e+00	1.000012097414504808e+00	-9.949276418309095649e-03	2.418997976376706374e-05	2.009130201961258511e-03
6.223868752662813364e-01	3.585706788757539454e-03	-1.014890167895350984e-02	1.185614568676675610e-03	7.213693727720544846e-01	1.143359299453919453e+00	1.000012255101676129e+00	-9.903329140580908671e-03	2.723449106364892228e-05	1.985190248011053493e-03
6.625408672189446735e-01	3.026712278433669762e-03	-9.294700149414053536e-03	1.271935981164004723e-03	7.299474458423815815e-01	1.156045879057453263e+00	1.000012412701978715e+00	-9.861769791965102269e-03	3.012432808913337410e-05	1.919977159950696580e-03
7.026948591716080106e-01	2.522198448892655487e-03	-8.450528735755889059e-03	1.363535025309350456e-03	7.386257146938001172e-01	1.167926826403996365e+00	1.000012568794061307e+00	-9.824536874941083159e-03	3.278765802208669880e-05	1.818250928018269423e-03
7.428488511242713477e-01	2.073898078501818995e-03	-7.624777798896345028e-03	1.462139884562540940e-03	7.473324362413643618e-01	1.178791189383507687e+00	1.000012721982489472e+00	-9.791085123443130436e-03	3.516834485128913238e-05	1.686365201939539742e-03
7.830028430769345738e-01	1.681709874269305153e-03	-6.825154195959764851e-03	1.569759947660525137e-03	7.559970240849106515e-01	1.188457132150252171e+00	1.000012870945340193e+00	-9.760373612256166911e-03	3.722117342033366412e-05	1.531753961588377998e-03
8.231568350295979108e-01	1.343959177298881345e-03	-6.058533951977440948e-03	1.689155667773659629e-03	7.645511970378754407e-01	1.196779610263102311e+00	1.000013014369082187e+00	-9.730885191836168360e-03	3.892139292297290131e-05	1.362369298433903234e-03
8.633108269822612479e-01	1.057698558947803985e-03	-5.330857954953568956e-03	1.823687408555494391e-03	7.729298995917411874e-01	1.203656100781645533e+00	1.000013151042665971e+00	-9.700677621150568045e-03	4.025712808537701231e-05	1.186124616933164483e-03
9.034648189349245850e-01	8.190237723030580888e-04	-4.647074133308097370e-03	1.977911550515847917e-03	7.810719070380616191e-01	1.209029883080044332e+00	1.000013279732282268e+00	-9.667468843461833605e-03	4.123658871659813166e-05	1.010393676620395835e-03
9.436188108875879221e-01	6.233826695807232398e-04	-4.011124497183611581e-03	2.157573651710842713e-03	7.889200824561326542e-01	1.212890650796213610e+00	1.000013399327501773e+00	-9.628766041651928842e-03	4.187846438027074958e-05	8.416049645277477384e-04
9.837728028402512592e-01	4.658587902155227208e-04	-3.425970036362987678e-03	2.370404036210202806e-03	7.964212952391295230e-01	1.215272544849957503e+00	1.000013508661221406e+00	-9.582061874128508516e-03	4.221656546735396169e-05	6.849554408241105086e-04
1.023926794792914485e+00	3.414169463813566214e-04	-2.893641844206666994e-03	2.626376134761769596e-03	8.035260853768878553e-01	1.216249959985741036e+00	1.000013606724093007e+00	-9.525138851432244855e-03	4.228986548345228851e-05	5.442511323354630535e-04
1.064080786745577933e+00	2.451040920500308497e-04	-2.415302706765490564e-03	2.938788076809830969e-03	8.101882154021201599e-01	1.215931656707919695e+00	1.000013692455655967e+00	-9.456538716457872640e-03	4.214521043434847153e-05	4.218676672972686346e-04
1.104234778698241159e+00	1.722045383138312211e-04	-1.991301066636576474e-03	3.324838351541486992e-03	8.163643481070300689e-01	1.214453767684557262e+00	1.000013765066180227e+00	-9.376249130386187652e-03	4.182874021903230938e-05	3.188141216524010982e-04
1.144388770650904386e+00	1.183531907428415079e-04	-1.621199160615186549e-03	3.806806864947239084e-03	8.220141740816486742e-01	1.211972244740616711e+00	1.000013823849473127e+00	-9.286603372919938898e-03	4.138755665941215730e-05	2.348793691860940073e-04
1.184542762603567834e+00	7.961358153909656643e-05	-1.303762167336711955e-03	4.412268376750469803e-03	8.271013797537252188e-01	1.208655162410958717e+00	1.000013868659335836e+00	-9.193236201370186614e-03	4.086358614084995234e-05	1.688406793933924994e-04
1.224696754556231060e+00	5.252835277356199256e-05	-1.036907400292565260e-03	5.173594565251265175e-03	8.315958216400588521e-01	1.204675152381955439e+00	1.000013899759928604e+00	-9.105678890866102104e-03	4.029498748538106725e-05	1.187170218218768880e-04
1.264850746508894508e+00	3.414835280036312786e-05	-8.176345600156480296e-04	6.124153920675248948e-03	8.354770602674524982e-01	1.200202133395813497e+00	1.000013918391218892e+00	-9.036912192449220865e-03	3.971282059968450531e-05	8.205065470707390322e-05
1.305004738461557734e+00	2.204282127581416753e-05	-6.419854983995011135e-04	7.289935313958812065e-03	8.387389309999025988e-01	1.195396510515680299e+00	1.000013926462318459e+00	-9.001214961999029485e-03	3.914271941654566263e-05	5.619688787237837706e-05
1.345158730414220960e+00	1.428891452823772813e-05	-5.051015868810986107e-04	8.673968104329781575e-03	8.413941315946265043e-01	1.190403138008748529e+00	1.000013926883348558e+00	-9.010285128093828769e-03	3.860349990572713435e-05	3.859355429978195839e-05
1.385312722366884408e+00	9.436892454164034033e-06	-4.014358166748486318e-04	1.023608659513250072e-02	8.434772080798969007e-01	1.185346535221527109e+00	1.000013922758475227e+00	-9.068792654898485267e-03	3.810775130390932342e-05	2.697502275967851929e-05
1.425466714319547634e+00	6.450210381252111685e-06	-3.251225402815256359e-04	1.187696079038409909e-02	8.450442716577214464e-01	1.180327923830106318e+00	1.000013917336837199e+00	-9.171476618178809811e-03	3.766000051191682518e-05	1.950034240280037388e-05
1.465620706272211082e+00	4.626773319483229537e-06	-2.704300518236447655e-04	1.344404534782877268e-02	8.461685914434735611e-01	1.175424490404223477e+00	1.000013912946116967e+00	-9.303689993056734470e-03	3.725745437496121910e-05	1.478585305992676442e-05
1.505774698224874308e+00	3.514032873376795692e-06	-2.321723766860785143e-04	1.476994292917011183e-02	8.469326618542660778e-01	1.170690827625266106e+00	1.000013911184380877e+00	-9.445759782953984385e-03	3.689305008142723294e-05	1.186023269035352886e-05
1.545928690177537534e+00	2.831567907967895517e-06	-2.059758970781778607e-04	1.572908391375222106e-02	8.474188141379561667e-01	1.166162018788814425e+00	1.000013912312499142e+00	-9.579322242224767511e-03	3.656084979177946824e-05	1.007780628672443216e-05
1.586082682130200983e+00	2.409918331719787956e-06	-1.883679445808592707e-04	1.627604652796762683e-02	8.477011659322976067e-01	1.161857538447111260e+00	1.000013916116675894e+00	-9.692358988554835089e-03	3.625763811999962576e-05	9.025117181435098548e-06
1.626236674082864209e+00	2.147643677186653798e-06	-1.767232871064176012e-04	1.644336067389135306e-02	8.478408902271669101e-01	1.157785199707040746e+00	1.000013921663165384e+00	-9.780541383826012874e-03	3.598147708897185771e-05	8.442323160722580715e-06
1.666390666035527657e+00	1.983788083707621527e-06	-1.691327518901631743e-04	1.630988051078388623e-02	8.478851200137207389e-01	1.153944631770640106e+00	1.000013928302019739e+00	-9.845264419872977804e-03	3.572989905414177220e-05	8.166371714082827917e-06
1.706544657988190883e+00	1.881279135119639917e-06	-1.642495609670308217e-04	1.596604595317952652e-02	8.478682725962288780e-01	1.150330077240151683e+00	1.000013935162900491e+00	-9.890664013512462382e-03	3.550003562940800238e-05	8.093833345851508305e-06
1.746698649940854109e+00	1.817241867728257205e-06	-1.611465261582529856e-04	1.549145559978844060e-02	8.478145049823040402e-01	1.146932492122412439e+00	1.000013941943866280e+00	-9.921406533697127092e-03	3.528899709609998638e-05	8.158016360518175497e-06
1.786852641893517557e+00	1.777386336155010741e-06	-1.591980022200285665e-04	1.494650280266556809e-02	8.477401912190301037e-01	1.143741047433040725e+00	1.000013948135826336e+00	-9.941605834879315914e-03	3.509443504850345423e-05	8.315245276932379926e-06
1.827006633846180783e+00	1.752714109985978332e-06	-1.579889201824753752e-04	1.437257793361167157e-02	8.476561520623548951e-01	1.140744150040219784e+00	1.000013953775491071e+00	-9.954496499190796516e-03	3.491440725602868296e-05	8.536601297999155488e-06
1.867160625798844231e+00	1.737540241853672263e-06	-1.572479565863686636e-04	1.379601802392203813e-02	8.475692818416216134e-01	1.137930110818378582e+00	1.000013958574900164e+00	-9.962461493132372323e-03	3.474748745645756806e-05	8.802837634860502210e-06
1.907314617751507457e+00	1.728275688663223982e-06	-1.568000545591926838e-04	1.323239984848022764e-02	8.474838888605858989e-01	1.135287554391571474e+00	1.000013962748718122e+00	-9.967185349471691103e-03	3.459243963325075338e-05	9.101140984032773826e-06
1.947468609704170905e+00	1.722662892904419962e-06	-1.565336232444125000e-04	1.269027420642923620e-02	8.474024766093828376e-01	1.132805657787919085e+00	1.000013966091897633e+00	-9.969822837561873735e-03	3.444835015602759929e-05	9.423013760452115877e-06
1.987622601656834131e+00	1.719289859520650351e-06	-1.563783013023274746e-04	1.217371791013498183e-02	8.473264710211582118e-01	1.130474268527533965e+00	1.000013968894974736e+00	-9.971148410006770713e-03	3.431433391389709253e-05	9.762853625875144239e-06
2.027776593609497358e+00	1.717279598056507851e-06	-1.562902099198103310e-04	1.168419936117630342e-02	8.472564913614023530e-01	1.128283952382792776e+00	1.000013970964268362e+00	-9.971670207307862036e-03	3.418974301769849586e-05	1.011699751658572981e-05
2.067930585562160584e+00	1.716091632417090564e-06	-1.562422471892153714e-04	1.122161591809093389e-02	8.471927857763849046e-01	1.126225990691053447e+00	1.000013972620610980e+00	-9.971717173620053831e-03	3.407388113712990485e-05	1.048306959663443094e-05
2.108084577514824254e+00	1.715395626489496036e-06	-1.562178699041392538e-04	1.078508643917342087e-02	8.471352203237915157e-01	1.124292355569450841e+00	1.000013973652396970e+00	-9.971496995097238816e-03	3.396626279560249897e-05	1.085954521445645490e-05
2.148238569467487480e+00	1.714991403043006761e-06	-1.562070626332148348e-04	1.037327022592412010e-02	8.470836014003829684e-01	1.122475666050468224e+00	1.000013974394543093e+00	-9.971140029906535446e-03	3.386631039304234780e-05	1.124545395388447889e-05
2.188392561420150706e+00	1.714758722357268180e-06	-1.562038591275591011e-04	9.984708364236049433e-03	8.470375207192125666e-01	1.120769142822516384e+00	1.000013974607768974e+00	-9.970724458522249936e-03	3.377365326583415812e-05	1.164018666340276116e-05
2.228546553372813932e+00	1.714625996670062277e-06	-1.562047206380733956e-04	9.617858717973206892e-03	8.469966545803110369e-01	1.119166556261429246e+00	1.000013974637336434e+00	-9.970297742229159571e-03	3.368779648464809704e-05	1.204336382711258670e-05
2.268700545325477158e+00	1.714550990636494175e-06	-1.562076135871639918e-04	9.271271814135714773e-03	8.469605147108947296e-01	1.117662181008355571e+00	1.000013974214208456e+00	-9.969885394467229225e-03	3.360845786314746876e-05	1.245475441522584787e-05
2.308854537278140828e+00	1.714509007271554120e-06	-1.562113569690670300e-04	8.943522586247580619e-03	8.469287705710537573e-01	1.116250747805799026e+00	1.000013973694803271e+00	-9.969502275100336486e-03	3.353520305561580241e-05	1.287421885137730342e-05
2.349008529230804054e+00	1.714485741866177061e-06	-1.562153217900523624e-04	8.633332215834833151e-03	8.469009314282077705e-01	1.114927404446529824e+00	1.000013972780783966e+00	-9.969153697073178388e-03	3.346782161773549305e-05	1.330167738271358244e-05
2.389162521183467280e+00	1.714472980817873080e-06	-1.562191480899500552e-04	8.339463862752265547e-03	8.468767088625603900e-01	1.113687674569515451e+00	1.000013971841805960e+00	-9.968842633743063564e-03	3.340592456229426744e-05	1.373708525991685064e-05
2.429316513136130506e+00	1.714466057555393643e-06	-1.562226867461320983e-04	8.060830432595041117e-03	8.468556383913163899e-01	1.112527426099950478e+00	1.000013970551266951e+00	-9.968567215013504623e-03	3.334936158863983723e-05	1.418042211919385205e-05
2.469470505088793733e+00	1.714462340938236617e-06	-1.562258474144351890e-04	7.796377605436916915e-03	8.468374920606200895e-01	1.111442836927323929e+00	1.000013969294263116e+00	-9.968326671892690366e-03	3.329777775996055762e-05	1.463168041977570286e-05
2.509624497041457403e+00	1.714460367879450138e-06	-1.562286362962093890e-04	7.545190944936570193e-03	8.468218370265604422e-01	1.110430370122423183e+00	1.000013967716822272e+00	-9.968116888853054483e-03	3.325107446025816051e-05	1.509086339164410469e-05
2.549778488994120629e+00	1.714459327465230102e-06	-1.562310420852099395e-04	7.306373738807073366e-03	8.468085132577273244e-01	1.109486745460220414e+00	1.000013966221440453e+00	-9.967936367993431024e-03	3.320892200880588325e-05	1.555797865051347244e-05
2.589932480946783855e+00	1.714458781412592223e-06	-1.562331166388745366e-04	7.079157571706337637e-03	8.467971200225261619e-01	1.108608920266711095e+00	1.000013964427404201e+00	-9.967780539639266302e-03	3.317126711995259971e-05	1.603303953410175503e-05
2.630086472899447081e+00	1.714458489446833106e-06	-1.562348652938758803e-04	6.862777126045900740e-03	8.467875626503865716e-01	1.107794065624207569e+00	1.000013962756291841e+00	-9.967648226151626031e-03	3.313779830540458090e-05	1.651606061038727636e-05
2.670240464852110307e+00	1.714458328356715734e-06	-1.562363511619731433e-04	6.656585273167758832e-03	8.467794655062338416e-01	1.107039551759377183e+00	1.000013960800996804e+00	-9.967534915256126213e-03	3.310850278165556508e-05	1.700706034904284910e-05
2.710394456804773977e+00	1.714458229309330975e-06	-1.562375749782902556e-04	6.459925270650448276e-03	8.467728055983509972e-01	1.106342927917586261e+00	1.000013959003608788e+00	-9.967440157725134323e-03	3.308308146332164496e-05	1.750605724770370016e-05
2.750548448757437203e+00	1.714458161923157082e-06	-1.562386023347704439e-04	6.272250477776787798e-03	8.467672193070583386e-01	1.105701911385568836e+00	1.000013956930761783e+00	-9.967359552493539054e-03	3.306155834342851962e-05	1.801307306103899143e-05
2.790702440710100429e+00	1.714458106273207644e-06	-1.562394245618422455e-04	6.092993920222561886e-03	8.467627478537093078e-01	1.105114370218295061e+00	1.000013955046276326e+00	-9.967293407251021434e-03	3.304364193545473901e-05	1.852812907021459188e-05
2.830856432662763655e+00	1.714458058036145818e-06	-1.562401068189225308e-04	5.921692471493970704e-03	8.467590372094079276e-01	1.104578315179128856e+00	1.000013952890501878e+00	-9.967237442385239871e-03	3.302939017161066258e-05	1.905124958835329883e-05
2.871010424615426881e+00	1.714458010169609026e-06	-1.562406283920596956e-04	5.757853648841777458e-03	8.467561973648276563e-01	1.104091884680675983e+00	1.000013950950056074e+00	-9.967192799844188864e-03	3.301851508101688885e-05	1.958245820233537075e-05
2.911164416568090552e+00	1.714457965276287050e-06	-1.562410569915050182e-04	5.601084067143533886e-03	8.467538623889412364e-01	1.103653339085240326e+00	1.000013948738837533e+00	-9.967155095414461166e-03	3.301110634376294418e-05	2.012178145753197413e-05
2.951318408520753778e+00	1.714457919092804512e-06	-1.562413597081822370e-04	5.450953357706429282e-03	8.467522091291735942e-01	1.103261047366910885e+00	1.000013946767197348e+00	-9.967126270762079188e-03	3.300687606954133557e-05	2.066924501141718590e-05
2.991472400473417004e+00	1.714457875999164970e-06	-1.562416058657159924e-04	5.307126683186451539e-03	8.467508634121035938e-01	1.102913483338048284e+00	1.000013944522351261e+00	-9.967101872071225041e-03	3.300594402299964375e-05	2.122487746578789454e-05
3.031626392426080230e+00	1.714457831877811459e-06	-1.562417511598604110e-04	5.169225709629843984e-03	8.467500638771482402e-01	1.102609213646270403e+00	1.000013942539236256e+00	-9.967084600321331894e-03	3.300801937746812890e-05	2.178870640992240461e-05
3.071780384378743456e+00	1.714457791643048509e-06	-1.562418703464641941e-04	5.036965011079865343e-03	8.467494070571429665e-01	1.102346895594812803e+00	1.000013940278075664e+00	-9.967069655839870534e-03	3.301325075390107948e-05	2.236076239097834720e-05
3.111934376331407126e+00	1.714457750690917686e-06	-1.562419059729470234e-04	4.910010057871159496e-03	8.467492027073572070e-01	1.102125266170674855e+00	1.000013938299189054e+00	-9.967060599063864296e-03	3.302134182365846381e-05	2.294107483718833240e-05
3.152088368284070352e+00	1.714457714275334816e-06	-1.562419384683200337e-04	4.788117326731577278e-03	8.467490167602087503e-01	1.101943141199503096e+00	1.000013936035432094e+00	-9.967052305873101703e-03	3.303246911428251988e-05	2.352967616460616954e-05
3.192242360236733578e+00	1.714457677191913266e-06	-1.562418992378853235e-04	4.670989325339593330e-03	8.467492191445052940e-01	1.101799405166731916e+00	1.000013934073242350e+00	-9.967049044063388749e-03	3.304632851962624500e-05	2.412659757506800377e-05
3.232396352189396804e+00	1.714457645061516239e-06	-1.562418762663085614e-04	4.558418242060843437e-03	8.467493349684840354e-01	1.101693011505677777e+00	1.000013931817700152e+00	-9.967045194959660293e-03	3.306312383976931602e-05	2.473187329999924152e-05
3.272550344142060030e+00	1.714457612069410572e-06	-1.562417875382867782e-04	4.450138036612197832e-03	8.467498067278252938e-01	1.101622973012641893e+00	1.000013929882094921e+00	-9.967045929170597132e-03	3.308254120521508275e-05	2.534553626898951035e-05
3.312704336094723701e+00	1.714457584290414072e-06	-1.562417304759052656e-04	4.345971460640517606e-03	8.467501085095867630e-01	1.101588363119461400e+00	1.000013927643226941e+00	-9.967045015514777728e-03	3.310481119057722793e-05	2.596762249255313035e-05
3.352858328047386927e+00	1.714457555292393377e-06	-1.562416107266710282e-04	4.245679295726706610e-03	8.467507494952691838e-01	1.101588306745713286e+00	1.000013925741991550e+00	-9.967048428106844299e-03	3.312960843182534908e-05	2.659816659771313863e-05
3.393012320000050153e+00	1.714457531677343295e-06	-1.562415353494827318e-04	4.149110564849848443e-03	8.467511516530827897e-01	1.101621982425425861e+00	1.000013923526389847e+00	-9.967049315309933072e-03	3.315718997341442177e-05	2.723720635167715005e-05
3.433166311952713379e+00	1.714457506387600232e-06	-1.562413965423585169e-04	4.056049010583644143e-03	8.467518969289882236e-01	1.101688613478673640e+00	1.000013921665611205e+00	-9.967054531559202402e-03	3.318721740362591012e-05	2.788477806119639323e-05
3.473320303905376605e+00	1.714457486618857095e-06	-1.562413139170565715e-04	3.966366323331603494e-03	8.467523393869494930e-01	1.101787470890632559e+00	1.000013919478322633e+00	-9.967056407217336420e-03	3.321997402017322733e-05	2.854092123949737716e-05
3.513474295858040275e+00	1.714457464658225412e-06	-1.562411646445399421e-04	3.879865985119906359e-03	8.467531423324189399e-01	1.101917864701318583e+00	1.000013917662710528e+00	-9.967062788428916395e-03	3.325510705844473663e-05	2.920567386606588605e-05
3.553628287810703501e+00	1.714457448361015045e-06	-1.562410816755324368e-04	3.796439309492722226e-03	8.467535875888622110e-01	1.102079147557256444e+00	1.000013915507545814e+00	-9.967065130109697968e-03	3.329292588983485978e-05	2.987907719937939614e-05
3.593782279763366727e+00	1.714457429323728057e-06	-1.562409272605170759e-04	3.715906813942076222e-03	8.467544192172564710e-01	1.102270706237138187e+00	1.000013913740694038e+00	-9.967072257308111013e-03	3.333306226019647705e-05	3.056117089382096627e-05
3.633936271716029953e+00	1.714457416114455073e-06	-1.562408494366790987e-04	3.638176856774095157e-03	8.467548374480179385e-01	1.102491965810193708e+00	1.000013911620459384e+00	-9.967074652184791661e-03	3.337585150090521807e-05	3.125199796088374692e-05
3.674090263668693179e+00	1.714457399595452518e-06	-1.562406925378701851e-04	3.563084717897836012e-03	8.467556832329732330e-01	1.102742381237426628e+00	1.000013909905055787e+00	-9.967082288032093340e-03	3.342090892755770549e-05	3.195159974009490698e-05
3.714244255621356849e+00	1.714457389112630149e-06	-1.562406227596885256e-04	3.490553593348424619e-03	8.467560585778584059e-01	1.103021442073643499e+00	1.000013907821744708e+00	-9.967084486291553219e-03	3.346859564003714272e-05	3.266002101124132641e-05
3.754398247574020075e+00	1.714457374733998959e-06	-1.562404657167356379e-04	3.420431616606209486e-03	8.467569057243714559e-01	1.103328664096907108e+00	1.000013906159736177e+00	-9.967092459128907081e-03	3.351850983509045251e-05	3.337730481621599876e-05
3.794552239526683302e+00	1.714457366644188027e-06	-1.562404057303580648e-04	3.352654929303065107e-03	8.467572286769557977e-01	1.103663594509718626e+00	1.000013904114692709e+00	-9.967094272098185256e-03	3.357103816414252183e-05	3.410349772518528062e-05
3.834706231479346528e+00	1.714457354070044911e-06	-1.562402485781052110e-04	3.287082902263717930e-03	8.467580768838103289e-01	1.104025803546102580e+00	1.000013902507485897e+00	-9.967100821435332519e-03	3.362576116059191650e-05	3.483864450597676666e-05
3.874860223432010198e+00	1.714457347972872634e-06	-1.562401998591708338e-04	3.223662998116557689e-03	8.467583393034019412e-01	1.104414890186670606e+00	1.000013900501789621e+00	-9.967126170426285695e-03	3.368309082213196966e-05	3.558279354630722324e-05
3.915014215384673424e+00	1.714457338532296779e-06	-1.562400424611862682e-04	3.162264526579478072e-03	8.467591897099457920e-01	1.104830473339619479e+00	1.000013898952851310e+00	-9.966967881517661138e-03	3.374259040968144110e-05	3.633599140126102966e-05
3.955168207337336650e+00	1.714457324681927215e-06	-1.562399995477187838e-04	3.102845260433579559e-03	8.467594185246641869e-01	1.105272199385277210e+00	1.000013897003283914e+00	-9.967442905507261156e-03	3.380470124216045276e-05	3.709828807044411581e-05
3.995322199289999876e+00	1.714584732784040117e-06	-1.562462467465825248e-04	3.045206610830270867e-03	8.467602886663555539e-01	1.105725138389037188e+00	1.000000000000000000e+00	-1.000000000000000021e-02	3.386813387260657833e-05	3.787099207019621079e-05
