# Time=0.0242424242424 and Columns are r	p	Paether	ur	alpha	a	b	K	Sr_tilde	tau_tilde
2.007699597633165814e-02	1.197964404963119435e-02	-1.854474726273477522e-02	4.757723055754141725e-05	6.397300752523964462e-01	1.000249500181926710e+00	1.000059300733630474e+00	-1.291576850576168362e-02	2.159307185242197070e-09	6.038252155244496527e-06
6.023098792899497789e-02	1.186553217362543849e-02	-1.846042806925615731e-02	1.424691441648206732e-04	6.404481117418624470e-01	1.001768527685163113e+00	1.000059349077058179e+00	-1.287915627733717504e-02	5.791441913686442027e-08	5.390836752059680704e-05
1.003849798816582872e-01	1.164016511227478241e-02	-1.829239034394955846e-02	2.364873784130412594e-04	6.418809786485609736e-01	1.004792548457103640e+00	1.000059436888252717e+00	-1.279885006357644323e-02	2.644679656385539075e-07	1.473447850682887430e-04
1.405389718343216243e-01	1.130940276381667275e-02	-1.804201992545001118e-02	3.290349922094306322e-04	6.440212404920839795e-01	1.009293088986921383e+00	1.000059561590355584e+00	-1.267771818723371566e-02	7.107810528761400902e-07	2.818463914462503985e-04
1.806929637869849337e-01	1.088169387202917761e-02	-1.771138587702973666e-02	4.196643211256503620e-04	6.468576989543325384e-01	1.015226316279006946e+00	1.000059722694409459e+00	-1.252004767759302625e-02	1.469577551585739024e-06	4.509247721421132766e-04
2.208469557396482430e-01	1.036780408064337348e-02	-1.730330290794759862e-02	5.079729192709340948e-04	6.503750364404312645e-01	1.022531782530926581e+00	1.000059916481418121e+00	-1.232757258011500656e-02	2.592548641665142685e-06	6.464113978683581072e-04
2.610009476923115801e-01	9.780417962488621372e-03	-1.682137271752540478e-02	5.937087199772303698e-04	6.545533588835112937e-01	1.031130944265591820e+00	1.000060138764152340e+00	-1.210389832208059492e-02	4.107575433358378365e-06	8.588520570277129651e-04
3.011549396449748617e-01	9.133670940093253227e-03	-1.627001423162062824e-02	6.767106401208748895e-04	6.593679376675979364e-01	1.040925558290357822e+00	1.000060385180059130e+00	-1.185337749950195023e-02	6.017197236669514635e-06	1.077974279785348525e-03
3.413089315976381988e-01	8.442633663867648089e-03	-1.565448604489155446e-02	7.570183537980939388e-04	6.647887338161139192e-01	1.051796184495400466e+00	1.000060651481648799e+00	-1.158125051199926196e-02	8.299931406499723750e-06	1.293208920186109502e-03
3.814629235503015359e-01	7.722769748573445406e-03	-1.498088264083143051e-02	8.347679698776367925e-04	6.707801804812492108e-01	1.063601036898472296e+00	1.000060933868137214e+00	-1.129355604111519952e-02	1.091169695518329976e-05	1.494241704121130644e-03
4.216169155029648175e-01	6.989393174634891612e-03	-1.425610629792185141e-02	9.103345088846557165e-04	6.773009028718947055e-01	1.076175474692293355e+00	1.000061228983998518e+00	-1.099695397305852120e-02	1.379099585532713309e-05	1.671565879225831754e-03
4.617709074556281545e-01	6.257148838927583355e-03	-1.348780238770970474e-02	9.841785839938292559e-04	6.843036986752237816e-01	1.089332445340379651e+00	1.000061534346524006e+00	-1.069844953607756825e-02	1.686171795454396749e-05	1.817002439940735388e-03
5.019248994082914361e-01	5.539542267750077048e-03	-1.268425895117393162e-02	1.057025877247748900e-03	6.917356705410501183e-01	1.102864188870406270e+00	1.000061847852425245e+00	-1.040502112109781621e-02	2.004094639333473376e-05	1.924152338669983054e-03
5.420788913609547732e-01	4.848539706193627681e-03	-1.185426921561258916e-02	1.129667043062728728e-03	6.995385895691431655e-01	1.116545453992174419e+00	1.000062168368665905e+00	-1.012317210328367474e-02	2.324093723224692797e-05	1.988744841189000155e-03
5.822328833136179993e-01	4.194258277643680803e-03	-1.100695984085373752e-02	1.203181630278807659e-03	7.076495561423682412e-01	1.130138381789659308e+00	1.000062494577201644e+00	-9.858439185293287749e-03	2.637801555182168537e-05	2.008850776401753611e-03
6.223868752662813364e-01	3.584758806861435259e-03	-1.015159438053834552e-02	1.278702216128511839e-03	7.160018370550902400e-01	1.143399037563481491e+00	1.000062825868532679e+00	-9.614899470302081669e-03	2.937192936217385134e-05	1.984937456244768080e-03
6.625408672189446735e-01	3.025948550709796868e-03	-9.297358581640774097e-03	1.357695692824535498e-03	7.245260173506627988e-01	1.156085385386051101e+00	1.000063160442691501e+00	-9.394727814551646905e-03	3.215477799057871579e-05	1.919755408732116714e-03
7.026948591716080106e-01	2.521592619817943949e-03	-8.453144815863990191e-03	1.441714903915703762e-03	7.331511953209383092e-01	1.167966252325059129e+00	1.000063496727450207e+00	-9.197847127405752929e-03	3.466715034187160035e-05	1.818062910505297307e-03
7.428488511242713477e-01	2.073425765892187612e-03	-7.627344189641731449e-03	1.532756358085913054e-03	7.418063697099041010e-01	1.178830657878698895e+00	1.000063830740639093e+00	-9.021714541794706443e-03	3.686672792483380889e-05	1.686212003220162936e-03
7.830028430769345738e-01	1.681348980672870861e-03	-6.827665068737017069e-03	1.633036112546599247e-03	7.504216950147200027e-01	1.188496711338599132e+00	1.000064158297709227e+00	-8.861258713727301548e-03	3.872175614931229687e-05	1.531635241168263903e-03
8.231568350295979108e-01	1.343689984743814177e-03	-6.060984549632056177e-03	1.745449291575750135e-03	7.589296524988695669e-01	1.196819293701418818e+00	1.000064471674822597e+00	-8.708983992795243587e-03	4.021912450826338871e-05	1.362283490309983093e-03
8.633108269822612479e-01	1.057503724525908021e-03	-5.333244742468008955e-03	1.873422899955504237e-03	7.672659958409374648e-01	1.203695781817746502e+00	1.000064762845942701e+00	-8.555233881617163583e-03	4.135609263715521856e-05	1.186069176910630124e-03
9.034648189349245850e-01	8.188881986795351012e-04	-4.649394608631919439e-03	2.021515573234680847e-03	7.753702955041323897e-01	1.209069342701197813e+00	1.000065019473665329e+00	-8.388634963273640388e-03	4.214726188127353802e-05	1.010365290994827891e-03
9.436188108875879221e-01	6.232933740072565043e-04	-4.013376623852662160e-03	2.195426536694609215e-03	7.831863660828076723e-01	1.212929542711485009e+00	1.000065229387915755e+00	-8.196759962639485128e-03	4.261537098863603585e-05	8.415997963903812168e-04
9.837728028402512592e-01	4.658047171936879568e-04	-3.428152422676235874e-03	2.402802876632894637e-03	7.906619989843353125e-01	1.215310403494063829e+00	1.000065375989179994e+00	-7.967133490892777323e-03	4.279644623758958557e-05	6.849693172315674114e-04
1.023926794792914485e+00	3.413888185680525656e-04	-2.895753424039645019e-03	2.653517543805736321e-03	7.977488115969737503e-01	1.216286213528939175e+00	1.000065444316546204e+00	-7.688771315902982219e-03	4.273055048130146484e-05	5.442797648178366102e-04
1.064080786745577933e+00	2.450942386698276164e-04	-2.417341645252048341e-03	2.960762253271209590e-03	8.044019819631468282e-01	1.215965680332423249e+00	1.000065416244561689e+00	-7.354548207969976124e-03	4.246493642942294865e-05	4.219068133840904911e-04
1.104234778698241159e+00	1.722067613908164407e-04	-1.993264845225799307e-03	3.341638128826090928e-03	8.105798898119465079e-01	1.214484959106519657e+00	1.000065278883522701e+00	-6.964617217335350441e-03	4.204581823542756193e-05	3.188597707711377828e-04
1.144388770650904386e+00	1.183626189862183091e-04	-1.623086452471548874e-03	3.818341057694745952e-03	8.162434448292038569e-01	1.212000163413146314e+00	1.000065020341705413e+00	-6.530857471517787644e-03	4.152005912957024061e-05	2.349278777202490841e-04
1.184542762603567834e+00	7.962654323772667964e-05	-1.305569334705960994e-03	4.418380824527507432e-03	8.213591153380683796e-01	1.208679697925255647e+00	1.000064641201294124e+00	-6.081534655873219869e-03	4.092898112754895406e-05	1.688889140552076221e-04
1.224696754556231060e+00	5.254223220896427565e-05	-1.038627415077000848e-03	5.174078089167198288e-03	8.259014111556672866e-01	1.204696734412447290e+00	1.000064150619637493e+00	-5.664024001442666441e-03	4.030957140005068462e-05	1.187624552414068263e-04
1.264850746508894508e+00	3.416144328996375770e-05	-8.192645040839266132e-04	6.118770455922946903e-03	8.298503729910304827e-01	1.200221881121132927e+00	1.000063578848589652e+00	-5.342077702136821538e-03	3.969110795340906664e-05	8.209144272039818060e-05
1.305004738461557734e+00	2.205415828575284785e-05	-6.435211358718701587e-04	7.278457798145453704e-03	8.332028293865676449e-01	1.195416268331908949e+00	1.000062968668129271e+00	-5.184541136673915217e-03	3.909690356104087496e-05	5.623188931797781776e-05
1.345158730414220960e+00	1.429810274810195542e-05	-5.065334198978882528e-04	8.656279580487971290e-03	8.359822173644229082e-01	1.190425264624707102e+00	1.000062381536911627e+00	-5.245533130415627222e-03	3.854315608901104698e-05	3.862230477272453788e-05
1.385312722366884408e+00	9.443932084477853886e-06	-4.027591737767764811e-04	1.021236993789937514e-02	8.382228028480609439e-01	1.185373483309364095e+00	1.000061877241490649e+00	-5.542406893190118811e-03	3.803988037271793598e-05	2.699764517872723185e-05
1.425466714319547634e+00	6.455339945992670315e-06	-3.263367719994260158e-04	1.184795450455077351e-02	8.399767231646680932e-01	1.180361673665695665e+00	1.000061512154670984e+00	-6.043039829328562471e-03	3.758940993736980483e-05	1.951740840387037357e-05
1.465620706272211082e+00	4.630339262331126215e-06	-2.715343376119548646e-04	1.341119164359068708e-02	8.413238201993200605e-01	1.175466101160741017e+00	1.000061315070755352e+00	-6.671827868776634800e-03	3.718726829706960768e-05	1.479820735415513518e-05
1.505774698224874308e+00	3.516395922849061742e-06	-2.331700095732049593e-04	1.473522184510684362e-02	8.423422264062581100e-01	1.170740250938479665e+00	1.000061294042528637e+00	-7.334084443939284902e-03	3.682519290022935989e-05	1.186881635683303680e-05
1.545928690177537534e+00	2.833048152066497162e-06	-2.068746210305409693e-04	1.569453747445816866e-02	8.431016966458407813e-01	1.166218297592285236e+00	1.000061425692364336e+00	-7.947273432198911566e-03	3.649642209478178598e-05	1.008351496184346657e-05
1.586082682130200983e+00	2.410773281668582823e-06	-1.891766985224198848e-04	1.624328661771084689e-02	8.436696277090095508e-01	1.161919204428411678e+00	1.000061678897845141e+00	-8.462077740604759951e-03	3.619719528933233233e-05	9.028717542534703050e-06
1.626236674082864209e+00	2.148067177572261462e-06	-1.774515032010183621e-04	1.641335032735392538e-02	8.440982848203650857e-01	1.157850711215772765e+00	1.000062011084596580e+00	-8.864199725258772866e-03	3.592523778877965975e-05	8.444423162550917795e-06
1.666390666035527657e+00	1.983919220668824861e-06	-1.697891732516127600e-04	1.628300858803519158e-02	8.444280911480239737e-01	1.154012628616191138e+00	1.000062391832745590e+00	-9.162726112487614219e-03	3.567789553861439272e-05	8.167426883647317125e-06
1.706544657988190883e+00	1.881214253925069475e-06	-1.648424179368207358e-04	1.594232059828255138e-02	8.446855352175509646e-01	1.150399502822073039e+00	1.000062790095981313e+00	-9.376572162498656576e-03	3.545219283829663311e-05	8.094170704723047623e-06
1.746698649940854109e+00	1.817046017190176565e-06	-1.616822900545233834e-04	1.547068912328060028e-02	8.448942161827667219e-01	1.147002570936777488e+00	1.000063191451752154e+00	-9.525850073482850650e-03	3.524518654796760355e-05	8.157863217786599837e-06
1.786852641893517557e+00	1.777102719822897075e-06	-1.596827705177227799e-04	1.492842365783927580e-02	8.450653351139367775e-01	1.143811256196967108e+00	1.000063579014979886e+00	-9.627944472284110516e-03	3.505448538445609833e-05	8.314755731333775055e-06
1.827006633846180783e+00	1.752371090687144571e-06	-1.584272469481279007e-04	1.435690343042434966e-02	8.452123555856880799e-01	1.140814139735024213e+00	1.000063950335870810e+00	-9.696665377909179789e-03	3.487813974241375380e-05	8.535877743572276773e-06
1.867160625798844231e+00	1.737156416385691947e-06	-1.576445148698412573e-04	1.378247149595568551e-02	8.453381932831582901e-01	1.137999676506697533e+00	1.000064296580176038e+00	-9.742282130406653903e-03	3.471469821618212325e-05	8.801946957370855945e-06
1.907314617751507457e+00	1.727863212270203689e-06	-1.571581859325297235e-04	1.322073680063451211e-02	8.454515947471269444e-01	1.135356572084509352e+00	1.000064621486213889e+00	-9.772286713965329386e-03	3.456294240894080075e-05	9.100126197311243496e-06
1.947468609704170905e+00	1.722229846937131055e-06	-1.568570917566740558e-04	1.268026605102140839e-02	8.455515932288755199e-01	1.132874076701686494e+00	1.000064919577027256e+00	-9.791850487198171943e-03	3.442193406431364930e-05	9.421902105929964952e-06
1.987622601656834131e+00	1.718841608125349773e-06	-1.566697492219985019e-04	1.216517329065378364e-02	8.456443196596621359e-01	1.130542065379644079e+00	1.000065197327829614e+00	-9.804597793954851481e-03	3.429082376896368570e-05	9.761662064926259001e-06
2.027776593609497358e+00	1.716819867160158456e-06	-1.565527576444499056e-04	1.167693591968343124e-02	8.457275723065347250e-01	1.128351140937586594e+00	1.000065450175565918e+00	-9.812887082694862415e-03	3.416893166566054246e-05	1.011573639918046374e-05
2.067930585562160584e+00	1.715622969084178481e-06	-1.564781419055786930e-04	1.121548720926660372e-02	8.458055698375067655e-01	1.126292586094473025e+00	1.000065685716965413e+00	-9.818344091329667470e-03	3.405561236637809672e-05	1.048174505733840938e-05
2.108084577514824254e+00	1.714919933528934040e-06	-1.564296661420901135e-04	1.077994699985721297e-02	8.458766140317870441e-01	1.124358394133208927e+00	1.000065899234850564e+00	-9.821972690564206507e-03	3.395033812441092854e-05	1.085816073340435599e-05
2.148238569467487480e+00	1.714510021208422292e-06	-1.563967433645171838e-04	1.036900858832422168e-02	8.459431148695693015e-01	1.122541173814990190e+00	1.000066098806118298e+00	-9.824459990078901472e-03	3.385259476954312607e-05	1.124401134408497255e-05
2.188392561420150706e+00	1.714272746745044747e-06	-1.563734675410871871e-04	9.981207823739571966e-03	8.460045387662428196e-01	1.120834161131026185e+00	1.000066279157399540e+00	-9.826216160706117281e-03	3.376195910868324553e-05	1.163868670612291031e-05
2.228546553372813932e+00	1.714136210631261771e-06	-1.563559943422553197e-04	9.615034599291647291e-03	8.460618608612767710e-01	1.119231111134517231e+00	1.000066448643077699e+00	-9.827514357684479993e-03	3.367800910943433563e-05	1.204180665814414284e-05
2.268700545325477158e+00	1.714058093254338108e-06	-1.563422448006076973e-04	9.269029863066532982e-03	8.461150411028218743e-01	1.117726312350227680e+00	1.000066601310746872e+00	-9.828515544977206933e-03	3.360040105256331439e-05	1.245313977731053585e-05
2.308854537278140828e+00	1.714013492878917433e-06	-1.563308309210844228e-04	8.941799015932899372e-03	8.461646401720194222e-01	1.116314477976294350e+00	1.000066745764063736e+00	-9.829325264652067490e-03	3.352878192763686469e-05	1.287254623627582570e-05
2.349008529230804054e+00	1.713988090021885231e-06	-1.563210521880051209e-04	8.632050310967311416e-03	8.462106867092982210e-01	1.114990770057039171e+00	1.000066875354303164e+00	-9.830005040653502432e-03	3.346287062193505860e-05	1.329994613209522384e-05
2.389162521183467280e+00	1.713973516987649824e-06	-1.563123697529230261e-04	8.338576276323341266e-03	8.462537148586523061e-01	1.113750693519762081e+00	1.000066998965684073e+00	-9.830596038212952373e-03	3.340236786894922033e-05	1.373529461226252850e-05
2.429316513136130506e+00	1.713965125786383733e-06	-1.563045831861586390e-04	8.060274081504933963e-03	8.462935935006195010e-01	1.112590131595013521e+00	1.000067109268035992e+00	-9.831119782389092024e-03	3.334704275069484111e-05	1.417857125371635004e-05
2.469470505088793733e+00	1.713960158306979054e-06	-1.562974683227809575e-04	7.796118186400115280e-03	8.463307532708947978e-01	1.111505242589560405e+00	1.000067215472666193e+00	-9.831592411792511657e-03	3.329663922948757391e-05	1.462976846628971222e-05
2.509624497041457403e+00	1.713957187753809814e-06	-1.562909627623702163e-04	7.545176107048150518e-03	8.463651768733443381e-01	1.110492506162427562e+00	1.000067309587221009e+00	-9.832022747753216274e-03	3.325096778258256980e-05	1.508888945480725346e-05
2.549778488994120629e+00	1.713955293334306277e-06	-1.562849278660643332e-04	7.306579536346603093e-03	8.463973513295072193e-01	1.109548621750670705e+00	1.000067401196280459e+00	-9.832419142598861767e-03	3.320980695962447464e-05	1.555594180586108134e-05
2.589932480946783855e+00	1.713954083697988401e-06	-1.562793672418482044e-04	7.079539934277696150e-03	8.464271360999048310e-01	1.108670564549977477e+00	1.000067481662354263e+00	-9.832784387312510851e-03	3.317300124273979341e-05	1.603093884481860990e-05
2.630086472899447081e+00	1.713953220200743155e-06	-1.562741966048157355e-04	6.863320335782007245e-03	8.464549061727745238e-01	1.107855484494222997e+00	1.000067560983419090e+00	-9.833122344552972655e-03	3.314035762369665883e-05	1.651389511824474663e-05
2.670240464852110307e+00	1.713952632981819113e-06	-1.562694184571158322e-04	6.657251736926231289e-03	8.464806310057843008e-01	1.107100771001442441e+00	1.000067629888192089e+00	-9.833435260916534651e-03	3.311174945236635228e-05	1.700482908931028275e-05
2.710394456804773977e+00	1.713952163386027248e-06	-1.562649930752437084e-04	6.460705832530504351e-03	8.465044533311952835e-01	1.106403951284441467e+00	1.000067698823506213e+00	-9.833724154056687830e-03	3.308700680643301137e-05	1.750375923727656924e-05
2.750548448757437203e+00	1.713951838071267462e-06	-1.562609080239611952e-04	6.273112673447344724e-03	8.465265210499709481e-01	1.105762763149811256e+00	1.000067757890694242e+00	-9.833991571304930707e-03	3.306602816688198552e-05	1.801070731377166898e-05
2.790702440710100429e+00	1.713951554081084602e-06	-1.562571014042518625e-04	6.093933852551417646e-03	8.465470469291707101e-01	1.105175051645784556e+00	1.000067818016452170e+00	-9.834239914994425541e-03	3.304866207728677954e-05	1.852569458247554332e-05
2.830856432662763655e+00	1.713951366565850193e-06	-1.562536079408211075e-04	5.922681532649790546e-03	8.465659451593853246e-01	1.104638849368294817e+00	1.000067868676600913e+00	-9.834468665333263165e-03	3.303482804171405601e-05	1.904874535565168146e-05
2.871010424615426881e+00	1.713951190360063747e-06	-1.562503286556395446e-04	5.758892221174097097e-03	8.465836445862832127e-01	1.104152270737081887e+00	1.000067921304874652e+00	-9.834682625238403558e-03	3.302439060337529492e-05	1.957988320368162402e-05
2.911164416568090552e+00	1.713951089224270764e-06	-1.562473439398625490e-04	5.602146398103396291e-03	8.465997968706506782e-01	1.103713599215802699e+00	1.000067964751138572e+00	-9.834878273416652189e-03	3.301728659338657460e-05	2.011913467193127237e-05
2.951318408520753778e+00	1.713950984310577853e-06	-1.562445261695190508e-04	5.452043364570652480e-03	8.466150406940468054e-01	1.103321178759997689e+00	1.000068010979644484e+00	-9.835062104959501478e-03	3.301339487329254239e-05	2.066652540243801245e-05
2.991472400473417004e+00	1.713950942293628995e-06	-1.562419901253543966e-04	5.308220713930263644e-03	8.466287759947407343e-01	1.102973507565039535e+00	1.000068048211621985e+00	-9.835228375334084672e-03	3.301266650976902910e-05	2.122208399759172360e-05
3.031626392426080230e+00	1.713950887030587901e-06	-1.562395830805063965e-04	5.170330661894900759e-03	8.466418047494850274e-01	1.102669126146538670e+00	1.000068088963167456e+00	-9.835385663551814497e-03	3.301499340034217637e-05	2.178583803124340112e-05
3.071780384378743456e+00	1.713950886535927648e-06	-1.562374386579838941e-04	5.038058749566954285e-03	8.466534167651508236e-01	1.102406717512423695e+00	1.000068120821626882e+00	-9.835526545633372503e-03	3.302033807217103254e-05	2.235781805220562603e-05
3.111934376331407126e+00	1.713950866191238529e-06	-1.562353666673124361e-04	4.911101975047017267e-03	8.466646531213193327e-01	1.102184991347159304e+00	1.000068156874968528e+00	-9.835661915056977123e-03	3.302860422133362085e-05	2.293805347309191061e-05
3.152088368284070352e+00	1.713950894966045079e-06	-1.562335706808569609e-04	4.789186246697474045e-03	8.466743791647588502e-01	1.102002790533312071e+00	1.000068184069844213e+00	-9.835780054373726572e-03	3.303976297865685052e-05	2.352657671262473635e-05
3.192242360236733578e+00	1.713950898787319871e-06	-1.562317858346758169e-04	4.672046884619249392e-03	8.466840669240003336e-01	1.101858971056618230e+00	1.000068216085013395e+00	-9.835896856996637072e-03	3.305373047586714205e-05	2.412341895703645818e-05
3.232396352189396804e+00	1.713950947844767199e-06	-1.562302978383070366e-04	4.559443736496479084e-03	8.466921398553235445e-01	1.101752514729349874e+00	1.000068239218647070e+00	-9.835994909284767954e-03	3.307048268892877785e-05	2.472861444055971233e-05
3.272550344142060030e+00	1.713950967819864080e-06	-1.562287689938463117e-04	4.451145197354391611e-03	8.467004382628963155e-01	1.101682404623410383e+00	1.000068267757368901e+00	-9.836095070015565822e-03	3.308994971839570405e-05	2.534219607735089470e-05
3.312704336094723701e+00	1.713951030422469801e-06	-1.562275430041949872e-04	4.346939667277282225e-03	8.467071108786368150e-01	1.101647743895533660e+00	1.000068287342262385e+00	-9.836176077665518408e-03	3.311210848585974470e-05	2.596419988068991505e-05
3.352858328047386927e+00	1.713951060613593366e-06	-1.562262546389401197e-04	4.246624229487527130e-03	8.467140896337090883e-01	1.101647626465285912e+00	1.000068312884165644e+00	-9.836260607413761098e-03	3.313690455683107264e-05	2.659466046215839646e-05
3.393012320000050153e+00	1.713951131617782307e-06	-1.562252549180910739e-04	4.150011463878324099e-03	8.467195492154196979e-01	1.101681262001405148e+00	1.000068329357603814e+00	-9.836326944579349904e-03	3.316431302293377533e-05	2.723361559250961000e-05
3.433166311952713379e+00	1.713951167617568350e-06	-1.562241848392467735e-04	4.056923323900452939e-03	8.467253568454643498e-01	1.101747841481606871e+00	1.000068352313876696e+00	-9.836397313544645304e-03	3.319429535248162892e-05	2.788110156231725123e-05
3.473320303905376605e+00	1.713951243186756022e-06	-1.562233509680362479e-04	3.967192993237772872e-03	8.467299151039353600e-01	1.101846668439129040e+00	1.000068366050473889e+00	-9.836452680369110746e-03	3.322682283920329175e-05	2.853715788872570886e-05
3.513474295858040275e+00	1.713951281983666780e-06	-1.562224723569649262e-04	3.880663914475320896e-03	8.467346715407473301e-01	1.101977019214851250e+00	1.000068386774501050e+00	-9.836510796300330928e-03	3.326187194797675177e-05	2.920182253450807523e-05
3.553628287810703501e+00	1.713951359299614689e-06	-1.562217994032237729e-04	3.797187169483094704e-03	8.467383724435117998e-01	1.102138280456549158e+00	1.000068398095898203e+00	-9.836555566318124638e-03	3.329941084380918294e-05	2.987513676305108382e-05
3.593782279763366727e+00	1.713951398623191052e-06	-1.562210589009153483e-04	3.716624758528140008e-03	8.467423736456456407e-01	1.102329803851787027e+00	1.000068416892635259e+00	-9.836604697250114077e-03	3.333942960977836210e-05	3.055714021146971229e-05
3.633936271716029953e+00	1.713951475828445308e-06	-1.562205259876603197e-04	3.638843137266903685e-03	8.467453107887292774e-01	1.102551049881965506e+00	1.000068426076190065e+00	-9.836640359602783976e-03	3.338189180494314324e-05	3.124787589506068544e-05
3.674090263668693179e+00	1.713951514042716617e-06	-1.562199300550121746e-04	3.563720691641777093e-03	8.467485197026303201e-01	1.102801437054216960e+00	1.000068443209108260e+00	-9.836680080299073370e-03	3.342680269631957061e-05	3.194738513743786254e-05
3.714244255621356849e+00	1.713951589635752714e-06	-1.562195513121891820e-04	3.491137108867919513e-03	8.467506081045114152e-01	1.103080491792856943e+00	1.000068450494122407e+00	-9.836705634844145410e-03	3.347411988476925156e-05	3.265571272155736170e-05
3.754398247574020075e+00	1.713951625375169722e-06	-1.562190613523943322e-04	3.420985213945104339e-03	8.467532593131905649e-01	1.103387691973473528e+00	1.000068466192028716e+00	-9.836738650327003439e-03	3.352386455278862358e-05	3.337290167318284634e-05
3.794552239526683302e+00	1.713951698427200574e-06	-1.562188106914490172e-04	3.353155841790206575e-03	8.467546495374973503e-01	1.103722623172295192e+00	1.000068471785727775e+00	-9.836755891906088026e-03	3.357598444280737249e-05	3.409899856565048039e-05
3.834706231479346528e+00	1.713951731746836094e-06	-1.562184078955543699e-04	3.287554877470936013e-03	8.467568450948570469e-01	1.104084815916064555e+00	1.000068486248552935e+00	-9.836739469406646091e-03	3.363052019765087327e-05	3.483404815915256802e-05
3.874860223432010198e+00	1.713951788822517742e-06	-1.562182604293644759e-04	3.224082530388824083e-03	8.467576538289609545e-01	1.104473914227713349e+00	1.000068490337233440e+00	-9.837351388545013259e-03	3.368740598118566534e-05	3.557809870833630162e-05
3.915014215384673424e+00	1.713951911282500697e-06	-1.562179512211907620e-04	3.162656684199104725e-03	8.467593682718700387e-01	1.104889463332434429e+00	1.000068503828318800e+00	-9.834521143686054956e-03	3.374670709915509215e-05	3.633119819121725068e-05
3.955168207337336650e+00	1.713951682677872294e-06	-1.562178860940286081e-04	3.103186056924904426e-03	8.467596499325855675e-01	1.105331244716103445e+00	1.000068506769782317e+00	-9.838702439402045516e-03	3.380834515631289932e-05	3.709338939760582678e-05
3.995322199289999876e+00	1.714584732784040117e-06	-1.562496096642452636e-04	3.045206610830270867e-03	8.467602886588949662e-01	1.105725138389037188e+00	1.000000000000000000e+00	-1.000000000000000021e-02	3.386813387260657833e-05	3.787099207019621079e-05
