# Time=0.0339393939394 and Columns are r	p	Paether	ur	alpha	a	b	K	Sr_tilde	tau_tilde
2.007699597633165814e-02	1.197681397213950019e-02	-1.854315575707116831e-02	5.194964589929388184e-05	6.390272987811845828e-01	1.000277413301532636e+00	1.000087227761747855e+00	-1.410348094351466033e-02	2.357579309321889811e-09	6.037331327500357205e-06
6.023098792899497789e-02	1.186277266620368656e-02	-1.845887213594539847e-02	1.555180947785298840e-04	6.397443285268347157e-01	1.001796314176441438e+00	1.000087274855268049e+00	-1.405494025222953428e-02	6.321443824184922797e-08	5.390033634192629747e-05
1.003849798816582872e-01	1.163749230274172680e-02	-1.829087056144685849e-02	2.579005140776978173e-04	6.411753750291022680e-01	1.004820040271019899e+00	1.000087345264969674e+00	-1.394288316359018273e-02	2.883948624698232470e-07	1.473232118761154061e-04
1.405389718343216243e-01	1.130685265399739708e-02	-1.804055180396106975e-02	3.582477864715694700e-04	6.433129303257903997e-01	1.009320136581989047e+00	1.000087434813473397e+00	-1.377245556204702813e-02	7.738352164787881890e-07	2.818061248390207993e-04
1.806929637869849337e-01	1.087929777859372553e-02	-1.770998392646324499e-02	4.559458402901791531e-04	6.461458092657965668e-01	1.015252786467204738e+00	1.000087546548490636e+00	-1.355125212000100193e-02	1.596526859798977173e-06	4.508623886481242702e-04
2.208469557396482430e-01	1.036558702993076696e-02	-1.730198040505829399e-02	5.504265995704877863e-04	6.496587293611416625e-01	1.022557539249914438e+00	1.000087675540086485e+00	-1.328111952907815377e-02	2.809052230576486879e-06	6.463254621451270743e-04
2.610009476923115801e-01	9.778397702967482272e-03	-1.682014077816883224e-02	6.413060819847972221e-04	6.538318174234278857e-01	1.031155862114733424e+00	1.000087816300337717e+00	-1.296721220161708467e-02	4.436630612035414964e-06	8.587431663762247827e-04
3.011549396449748617e-01	9.131857637397244529e-03	-1.626888170118549054e-02	7.283291803102410209e-04	6.586404059067351158e-01	1.040949525541032372e+00	1.000087963550914782e+00	-1.261562976294147362e-02	6.475848074013821471e-06	1.077844892364564948e-03
3.413089315976381988e-01	8.441030275164832300e-03	-1.565345937569256538e-02	8.114828567941404988e-04	6.640544776895452861e-01	1.051819108777113598e+00	1.000088112539320839e+00	-1.223372573537559460e-02	8.896663552422041590e-06	1.293063023796621903e-03
3.814629235503015359e-01	7.721372641800002684e-03	-1.497996548315809473e-02	8.908952237803929256e-04	6.700385585656726262e-01	1.063622850540142162e+00	1.000088259922215173e+00	-1.182997136332334873e-02	1.164487875400997032e-05	1.494084346061358946e-03
4.216169155029648175e-01	6.988193237113927633e-03	-1.425530024938891430e-02	9.669771017954019096e-04	6.765512846833068306e-01	1.076196140971874105e+00	1.000088403411697247e+00	-1.141370895997071908e-02	1.464855431891193803e-05	1.671402662590608683e-03
4.617709074556281545e-01	6.256132648295952697e-03	-1.348710602342417797e-02	1.040268016866807872e-03	6.835455876878353543e-01	1.089351962527238538e+00	1.000088542880391618e+00	-1.099476684145970183e-02	1.782211509645187315e-05	1.816839005921810565e-03
5.019248994082914361e-01	5.538693463828372326e-03	-1.268366967883397152e-02	1.111609187060522618e-03	6.909685680673220975e-01	1.102882594173734354e+00	1.000088678993697577e+00	-1.058293649595461704e-02	2.107525951708138552e-05	1.923993940855103389e-03
5.420788913609547732e-01	4.847840227505967152e-03	-1.185378151396018591e-02	1.181937957306364480e-03	6.987621711341958086e-01	1.116562822502372043e+00	1.000088814634608525e+00	-1.018734847044397603e-02	2.431577538236053199e-05	1.988596001848047350e-03
5.822328833136179993e-01	4.193689536631276318e-03	-1.100656845607315103e-02	1.252499650055797619e-03	7.068634754693506883e-01	1.130154824352791465e+00	1.000088952218258997e+00	-9.815780085719474565e-03	2.745875376975074554e-05	2.008715091365582527e-03
6.223868752662813364e-01	3.584302603399509325e-03	-1.015129158018357632e-02	1.324602874669216640e-03	7.152059481063214319e-01	1.143414690904609454e+00	1.000089095681198748e+00	-9.473970574801052202e-03	3.042586988993874531e-05	1.984817503932721338e-03
6.625408672189446735e-01	3.025587776604702142e-03	-9.297138179660236271e-03	1.399885613080491774e-03	7.237201341882939509e-01	1.156100401442884618e+00	1.000089246352276806e+00	-9.164995499727593073e-03	3.315368565161398246e-05	1.919652777511747467e-03
7.026948591716080106e-01	2.521311695590994998e-03	-8.452998734133207112e-03	1.480058650491386909e-03	7.323353480794690951e-01	1.167980778437438749e+00	1.000089405930530084e+00	-8.888783413084216933e-03	3.558900083906053180e-05	1.817978290679427185e-03
7.428488511242713477e-01	2.073210859153575784e-03	-7.627266582996808549e-03	1.567249463601591737e-03	7.409805517415182230e-01	1.178844818858656662e+00	1.000089570962271690e+00	-8.641810203994428757e-03	3.769638059199358239e-05	1.686145321350281459e-03
7.830028430769345738e-01	1.681188049579762298e-03	-6.827648904903650673e-03	1.663775345995359683e-03	7.495860921306518598e-01	1.188510583016574307e+00	1.000089737334795004e+00	-8.417017417248746566e-03	3.945081676467468922e-05	1.531585809566278619e-03
8.231568350295979108e-01	1.343572682825408754e-03	-6.061025048545836021e-03	1.772594480491552311e-03	7.580844272520268490e-01	1.196832883422465077e+00	1.000089893474198188e+00	-8.203954402965785153e-03	4.084500345912937179e-05	1.362250137040030545e-03
8.633108269822612479e-01	1.057421249940452895e-03	-5.333336226715514571e-03	1.897163918282716681e-03	7.664114804374083656e-01	1.203709002486007540e+00	1.000090026843292401e+00	-7.989152604763708962e-03	4.188080139573665590e-05	1.186050372210668662e-03
9.034648189349245850e-01	8.188330952701156204e-04	-4.649533083149887114e-03	2.042036932785007766e-03	7.745068423191570073e-01	1.209082000457947892e+00	1.000090115933657042e+00	-7.756748420833243195e-03	4.257599965821020531e-05	1.010359234110467944e-03
9.436188108875879221e-01	6.232593573189546205e-04	-4.013557450911054217e-03	2.212883429863130892e-03	7.823144354508810849e-01	1.212941321484573676e+00	1.000090139195431771e+00	-7.489415329067219788e-03	4.295540066716630601e-05	8.416045092360370473e-04
9.837728028402512592e-01	4.657865040579074896e-04	-3.428372033755731126e-03	2.417298002809641858e-03	7.897820966841393453e-01	1.215320872643905981e+00	1.000090065981621867e+00	-7.169780176663887242e-03	4.305613042110005605e-05	6.849827063491538588e-04
1.023926794792914485e+00	3.413820059213133447e-04	-2.896006685181119322e-03	2.665091161526994979e-03	7.968616970904968122e-01	1.216294840273645983e+00	1.000089868585305020e+00	-6.782582567208567115e-03	4.291882726017070339e-05	5.442997043523320347e-04
1.064080786745577933e+00	2.450951973226549846e-04	-2.417625010067319443e-03	2.969381887109119773e-03	8.035083098707743732e-01	1.215971882616319277e+00	1.000089512842607942e+00	-6.317993683436780306e-03	4.259093093661913060e-05	4.219312083114714349e-04
1.104234778698241159e+00	1.722125672759095255e-04	-1.993573661326689811e-03	3.347199200582697508e-03	8.096803090277576720e-01	1.214488180454738053e+00	1.000088974699170796e+00	-5.776404802571062300e-03	4.211871558422407687e-05	3.188866427760448968e-04
1.144388770650904386e+00	1.183709897521204377e-04	-1.623414243009896818e-03	3.820662450596415492e-03	8.153396233064079679e-01	1.212000011381982434e+00	1.000088231906453906e+00	-5.174664009766822594e-03	4.154890832566335811e-05	2.349554355201772030e-04
1.184542762603567834e+00	7.963578773683506386e-05	-1.305909685459916971e-03	4.417206065631049117e-03	8.204525916378538897e-01	1.208676110958735839e+00	1.000087286501396333e+00	-4.552539043578900449e-03	4.092253894621369242e-05	1.689156333272381514e-04
1.224696754556231060e+00	5.255118888056047619e-05	-1.038978859384352823e-03	5.169070926082919987e-03	8.249911522612417558e-01	1.204690189156277569e+00	1.000086157038531542e+00	-3.976453480923757000e-03	4.027601245465707558e-05	1.187871351843108479e-04
1.264850746508894508e+00	3.416940912588581618e-05	-8.196169248247538956e-04	6.109521476027833173e-03	8.289399871327548519e-01	1.200213536865732955e+00	1.000084902904500916e+00	-3.535599120615505377e-03	3.963775231219814050e-05	8.211324794345423845e-05
1.305004738461557734e+00	2.206079947894737478e-05	-6.438660767705834797e-04	7.264502451951156993e-03	8.322983527356526690e-01	1.195407994804569718e+00	1.000083607193611002e+00	-3.325825675333592569e-03	3.902990513009490012e-05	5.625035446232755734e-05
1.345158730414220960e+00	1.430335682672980530e-05	-5.068700994157363622e-04	8.637178148721016968e-03	8.350796502543790245e-01	1.190419420078298485e+00	1.000082388368499942e+00	-3.421544706021012374e-03	3.846739864090634609e-05	3.863730847692689379e-05
1.385312722366884408e+00	9.447910273134366629e-06	-4.030833870235418933e-04	1.018785761448150542e-02	8.373230540164884328e-01	1.185372483974619362e+00	1.000081360054706714e+00	-3.844983003038823267e-03	3.795898731333307061e-05	2.700935042543172609e-05
1.425466714319547634e+00	6.458243173524736985e-06	-3.266407047358987643e-04	1.181815075493197406e-02	8.390912495943786409e-01	1.180367426072278070e+00	1.000080627596660499e+00	-4.548797729178366382e-03	3.750590978475280417e-05	1.952618249031588414e-05
1.465620706272211082e+00	4.632394179533197986e-06	-2.718186098950789442e-04	1.337676270980108460e-02	8.404520518581651833e-01	1.175479570027984533e+00	1.000080241194007957e+00	-5.425339791281412298e-03	3.710283248438750784e-05	1.480453082004678319e-05
1.505774698224874308e+00	3.517813695597562933e-06	-2.334349269687597823e-04	1.469736605461454543e-02	8.414831021332227490e-01	1.170761305615711345e+00	1.000080210328789798e+00	-6.342199414888777600e-03	3.674090404836786842e-05	1.187319753983777039e-05
1.545928690177537534e+00	2.834004257517999587e-06	-2.071214360348438901e-04	1.565472048334560357e-02	8.422609220516339423e-01	1.166245942727002660e+00	1.000080484005502202e+00	-7.186099047761996227e-03	3.641293144575441200e-05	1.008642466694913431e-05
1.586082682130200983e+00	2.411402868542472650e-06	-1.894069942228029447e-04	1.620290895603111389e-02	8.428486991753108004e-01	1.161951987486350868e+00	1.000080997890782530e+00	-7.891187422463441861e-03	3.611488072966932320e-05	9.030552601521751855e-06
1.626236674082864209e+00	2.148469167633203202e-06	-1.776683129129933618e-04	1.637350755833761468e-02	8.432991859538799817e-01	1.157887145165486409e+00	1.000081666978081207e+00	-8.440051494821874944e-03	3.584429576393170829e-05	8.445495417319623296e-06
1.666390666035527657e+00	1.984163430722519636e-06	-1.699944887915508262e-04	1.624444100381155706e-02	8.436494509256893259e-01	1.154051421264165489e+00	1.000082431241696268e+00	-8.846761285495113522e-03	3.559844256144263918e-05	8.167968764406321029e-06
1.706544657988190883e+00	1.881348828943338878e-06	-1.650380869084309195e-04	1.590545128688873946e-02	8.439316205780861280e-01	1.150439659309255402e+00	1.000083229936797879e+00	-9.137971006450728781e-03	3.537428122568795702e-05	8.094348584382630830e-06
1.746698649940854109e+00	1.817103571613217412e-06	-1.618696824336131237e-04	1.543572536154456075e-02	8.441617838222715831e-01	1.147043362504026831e+00	1.000084034995350590e+00	-9.341349622419000548e-03	3.516885625003422691e-05	8.157792583478064489e-06
1.786852641893517557e+00	1.777105220422644646e-06	-1.598629174609451963e-04	1.489542289548958197e-02	8.443584612520976806e-01	1.143852190654691903e+00	1.000084813447089660e+00	-9.480600338119699391e-03	3.497974523492223956e-05	8.314514843562886774e-06
1.827006633846180783e+00	1.752333245143458940e-06	-1.586008935149929306e-04	1.432584567532172067e-02	8.445270701886037346e-01	1.140854886577604699e+00	1.000085560513368277e+00	-9.574443220083576553e-03	3.480500460234163638e-05	8.535518624709965719e-06
1.867160625798844231e+00	1.737088175079852810e-06	-1.578122156581270030e-04	1.375328354396619657e-02	8.446782161596264604e-01	1.138040040373802020e+00	1.000086258827986185e+00	-9.636820860163585259e-03	3.464316038556482144e-05	8.801503612412112345e-06
1.907314617751507457e+00	1.727771326966768636e-06	-1.573203619847883268e-04	1.319333005219323202e-02	8.448128114143417244e-01	1.135396432877902706e+00	1.000086915625995498e+00	-9.677882934062067774e-03	3.449300788068398983e-05	9.099620522150160087e-06
1.947468609704170905e+00	1.722119039164953234e-06	-1.570139740768896600e-04	1.265453579923420807e-02	8.449377823981749636e-01	1.132913384011646984e+00	1.000087520070401803e+00	-9.704689167065421243e-03	3.435358828038947748e-05	9.421347981232133822e-06
1.987622601656834131e+00	1.718715207877730008e-06	-1.568216020921011332e-04	1.214102078594115827e-02	8.450514689270286484e-01	1.130580794420479762e+00	1.000088084748271378e+00	-9.722154877428484249e-03	3.422406916054466483e-05	9.761068149492473423e-06
2.027776593609497358e+00	1.716680346680989795e-06	-1.566997326734227442e-04	1.165425836183544943e-02	8.451588656492959872e-01	1.128389302876519285e+00	1.000088600629379210e+00	-9.733524351516708445e-03	3.410375057985585214e-05	1.011510798046272021e-05
2.067930585562160584e+00	1.715472172157968877e-06	-1.566204106376244099e-04	1.119419389380604465e-02	8.452576273524396999e-01	1.126330193050652628e+00	1.000089082519129979e+00	-9.741004628785335587e-03	3.399200648281712716e-05	1.048108527867712880e-05
2.108084577514824254e+00	1.714759332648485191e-06	-1.565673664193562627e-04	1.075994599326943885e-02	8.453521821057404795e-01	1.124395479241978135e+00	1.000089521113288082e+00	-9.745986155469420209e-03	3.388828789518771547e-05	1.085747137773313460e-05
2.148238569467487480e+00	1.714340775803269762e-06	-1.565299594455131147e-04	1.035022125380448063e-02	8.454390715254459510e-01	1.122577759950566856e+00	1.000089932181215335e+00	-9.749405088440531858e-03	3.379210243835565404e-05	1.124329334741534271e-05
2.188392561420150706e+00	1.714095846498000947e-06	-1.565023781392922719e-04	9.963553900683423670e-03	8.455230594625907647e-01	1.120870286590799125e+00	1.000090305352134612e+00	-9.751824794874637548e-03	3.370300288375998194e-05	1.163794047092044577e-05
2.228546553372813932e+00	1.713952462958938866e-06	-1.564806461446244246e-04	9.598447313624521721e-03	8.455999736816113277e-01	1.119266799047174965e+00	1.000090656955974655e+00	-9.753624958559673278e-03	3.362059300774608458e-05	1.204103226236518717e-05
2.268700545325477158e+00	1.713868223427118315e-06	-1.564627748079268907e-04	9.253439292355485762e-03	8.456751791165437737e-01	1.117761599912577175e+00	1.000090975309180008e+00	-9.755024232445331372e-03	3.354450055178279864e-05	1.245233709160372205e-05
2.308854537278140828e+00	1.713818101952471526e-06	-1.564472993918851322e-04	8.927148574774945722e-03	8.457435856021303655e-01	1.116349385005371175e+00	1.000091277241394350e+00	-9.756169713729560128e-03	3.347440251380427490e-05	1.287171500966438688e-05
2.349008529230804054e+00	1.713787737300251255e-06	-1.564336247966328182e-04	8.618278893371883465e-03	8.458109243606489747e-01	1.115025330788313562e+00	1.000091549717670114e+00	-9.757140604773315712e-03	3.340998507708764107e-05	1.329908603015146707e-05
2.389162521183467280e+00	1.713768666112934537e-06	-1.564211020584555575e-04	8.325636085977016279e-03	8.458718599126029414e-01	1.113784923618642786e+00	1.000091810124121627e+00	-9.757998456387625974e-03	3.335098393258269879e-05	1.373440525555393526e-05
2.429316513136130506e+00	1.713756220735572531e-06	-1.564096126963908145e-04	8.048111337807833943e-03	8.459321916464909163e-01	1.112624062172956396e+00	1.000092044100182820e+00	-9.758768875693544717e-03	3.329713023004306129e-05	1.417765222527287974e-05
2.469470505088793733e+00	1.713747563930205287e-06	-1.563988764797927722e-04	7.784692421082177981e-03	8.459862996361174892e-01	1.111538885330169535e+00	1.000092269676681855e+00	-9.759475327406619272e-03	3.324820792906175618e-05	1.462881933294935607e-05
2.509624497041457403e+00	1.713741262151075913e-06	-1.563888616377306277e-04	7.534439724514779314e-03	8.460402923322597468e-01	1.110525889421601908e+00	1.000092471203756883e+00	-9.760128890463478854e-03	3.320398470419683824e-05	1.508790976210044333e-05
2.549778488994120629e+00	1.713736326870597462e-06	-1.563793806886907504e-04	7.296498178445438333e-03	8.460887052866145064e-01	1.109581753668470228e+00	1.000092667444675509e+00	-9.760741736870541876e-03	3.316428374571383115e-05	1.555493109440788730e-05
2.589932480946783855e+00	1.713732368540351428e-06	-1.563705351800698251e-04	7.070071121308450952e-03	8.461370037890431073e-01	1.108703471216538006e+00	1.000092841492049800e+00	-9.761312246088782452e-03	3.312890162913240355e-05	1.602989663951847037e-05
2.630086472899447081e+00	1.713728988135689717e-06	-1.563621644704179213e-04	6.854435161087900699e-03	8.461798729782270545e-01	1.107888170972851194e+00	1.000093012918994440e+00	-9.761849056772213193e-03	3.309769645379343151e-05	1.651282094431439688e-05
2.670240464852110307e+00	1.713726124172788688e-06	-1.563542866979890399e-04	6.648912109659838379e-03	8.462232115465416760e-01	1.107133261617474496e+00	1.000093163582307376e+00	-9.762354530341089617e-03	3.307048751916939614e-05	1.700372245814452699e-05
2.710394456804773977e+00	1.713723564057759739e-06	-1.563468593473354756e-04	6.452887302500592316e-03	8.462612354639271750e-01	1.106436248398177113e+00	1.000093313933417605e+00	-9.762829040928275304e-03	3.304716129811932168e-05	1.750261966262006401e-05
2.750548448757437203e+00	1.713721346983103001e-06	-1.563398487146864700e-04	6.265780891066005144e-03	8.463000313006451281e-01	1.105794889702048645e+00	1.000093444604409187e+00	-9.763277692825911985e-03	3.302755694094117433e-05	1.800953429626373981e-05
2.790702440710100429e+00	1.713719321398190500e-06	-1.563332244747534102e-04	6.087068132280699581e-03	8.463340066915341353e-01	1.105207007661667129e+00	1.000093576985044974e+00	-9.763700214019064780e-03	3.301158446898877036e-05	1.852448762695990607e-05
2.830856432662763655e+00	1.713717557661436012e-06	-1.563270246015447014e-04	5.916250785653683238e-03	8.463684651368759138e-01	1.104670656745325719e+00	1.000093690486681064e+00	-9.764096291596281729e-03	3.299909926550808584e-05	1.904750395376156351e-05
2.871010424615426881e+00	1.713715926097585144e-06	-1.563211326331550926e-04	5.752879200650364185e-03	8.463985579986390562e-01	1.104183927430103518e+00	1.000093807489733422e+00	-9.764471517887415505e-03	3.299003337006840787e-05	1.957860685249235476e-05
2.911164416568090552e+00	1.713714508119055674e-06	-1.563156402860699289e-04	5.596522773544400885e-03	8.464292790836583924e-01	1.103745126372403851e+00	1.000093906183249892e+00	-9.764822378212675846e-03	3.298425324079971014e-05	2.011782285520047185e-05
2.951318408520753778e+00	1.713713183721384149e-06	-1.563103514542669200e-04	5.446794861375451463e-03	8.464561784421377189e-01	1.103352572486170580e+00	1.000094009984707322e+00	-9.765158715888263077e-03	3.298171159263686735e-05	2.066517761040332303e-05
2.991472400473417004e+00	1.713712039453472795e-06	-1.563054881638025959e-04	5.303321142491906025e-03	8.464835524394870303e-01	1.103004788456621199e+00	1.000094095854459519e+00	-9.765468954057670778e-03	3.298228128848048116e-05	2.122069970628704798e-05
3.031626392426080230e+00	1.713710959771103056e-06	-1.563008424639676782e-04	5.165768578226957904e-03	8.465071438427563821e-01	1.102700288650984684e+00	1.000094188288704444e+00	-9.765764562034486354e-03	3.298593753435429904e-05	2.178441672461535955e-05
3.071780384378743456e+00	1.713710034177283124e-06	-1.562966243540595511e-04	5.033810063504193764e-03	8.465309490018289029e-01	1.102437781877138923e+00	1.000094263009040807e+00	-9.766033756946842365e-03	3.299255685306779222e-05	2.235635919925190999e-05
3.111934376331407126e+00	1.713709150451517422e-06	-1.562925125385662359e-04	4.907157891526367152e-03	8.465519835406533078e-01	1.102215950489625174e+00	1.000094345629130022e+00	-9.766294988613572967e-03	3.300213543214893479e-05	2.293655655175332438e-05
3.152088368284070352e+00	1.713708400994341695e-06	-1.562888222608432409e-04	4.785524251531976005e-03	8.465726437964327111e-01	1.102033664537124258e+00	1.000094410618447949e+00	-9.766530402160073301e-03	3.301454764237562718e-05	2.352504118554806745e-05
3.192242360236733578e+00	1.713707675269497502e-06	-1.562851809279347016e-04	4.668660485277790866e-03	8.465913566863516593e-01	1.101889751427877817e+00	1.000094484745128076e+00	-9.766762157762658852e-03	3.302981287303161350e-05	2.412184429622477266e-05
3.232396352189396804e+00	1.713707068278094273e-06	-1.562819796603681578e-04	4.556311776563575118e-03	8.466095183555969461e-01	1.101783221513242372e+00	1.000094541210746701e+00	-9.766966191756189242e-03	3.304779954175991784e-05	2.472700010252819059e-05
3.272550344142060030e+00	1.713706470119834586e-06	-1.562788079606115387e-04	4.448263306490964596e-03	8.466257095161292545e-01	1.101713028002451189e+00	1.000094607971722338e+00	-9.767168037611077130e-03	3.306855267199821605e-05	2.534054152817209483e-05
3.312704336094723701e+00	1.713705978176579138e-06	-1.562760986820531763e-04	4.344288010370518649e-03	8.466411163443443577e-01	1.101678303973704365e+00	1.000094656944339633e+00	-9.767341001833702158e-03	3.309193108705706262e-05	2.596250457030421896e-05
3.352858328047386927e+00	1.713705482785479678e-06	-1.562732819252119214e-04	4.244200425794353825e-03	8.466554865831477095e-01	1.101678112210713989e+00	1.000094717305471725e+00	-9.767520164917555328e-03	3.311800695385336334e-05	2.659292385161757106e-05
3.393012320000050153e+00	1.713705084434171108e-06	-1.562709651876220934e-04	4.147796334146207700e-03	8.466686529728313371e-01	1.101711693678361748e+00	1.000094759668020528e+00	-9.767668278092641113e-03	3.314662174007878431e-05	2.723183712517515264e-05
3.433166311952713379e+00	1.713704672226343092e-06	-1.562685530845682859e-04	4.054916545749126001e-03	8.466810013678665037e-01	1.101778206901270929e+00	1.000094814460318560e+00	-9.767821943387208078e-03	3.317788153655710750e-05	2.787928069421435746e-05
3.473320303905376605e+00	1.713704349543213452e-06	-1.562665974737644848e-04	3.965376018516881228e-03	8.466921520150794134e-01	1.101876988074302899e+00	1.000094850971929183e+00	-9.767946955952363716e-03	3.321160663984923253e-05	2.853529405569555499e-05
3.513474295858040275e+00	1.713704004580731630e-06	-1.562645619543040877e-04	3.879038429130223994e-03	8.467024489014169930e-01	1.102007279792040828e+00	1.000094900911803864e+00	-9.768076933628572558e-03	3.324793723054298659e-05	2.919991518811326374e-05
3.553628287810703501e+00	1.713703742922383113e-06	-1.562630172966979192e-04	3.795735113476128835e-03	8.467110872867739113e-01	1.102168502760614288e+00	1.000094932226696098e+00	-9.768175845272512176e-03	3.328667104351140654e-05	2.987318533216564689e-05
3.593782279763366727e+00	1.713703451796530644e-06	-1.562612375416113134e-04	3.715349967958572405e-03	8.467202844668287876e-01	1.102359973517438085e+00	1.000094977934668394e+00	-9.768289782106575128e-03	3.332798475700118472e-05	3.055514414204061030e-05
3.633936271716029953e+00	1.713703239875464028e-06	-1.562600495166693816e-04	3.637727391074537658e-03	8.467269001668591422e-01	1.102581188121261491e+00	1.000095004618416716e+00	-9.768366293348229937e-03	3.337164357492908995e-05	3.124583461012367771e-05
3.674090263668693179e+00	1.713702991785722317e-06	-1.562586491501502940e-04	3.562770312471983010e-03	8.467343610017924460e-01	1.102831528409171424e+00	1.000095046633251661e+00	-9.768456153056786009e-03	3.341787266175565130e-05	3.194529807644701567e-05
3.714244255621356849e+00	1.713702819557742775e-06	-1.562577042311868525e-04	3.490333649147868249e-03	8.467396123254610218e-01	1.103110557960361948e+00	1.000095069175751972e+00	-9.768517071103932636e-03	3.346639766103593725e-05	3.265357930170665544e-05
3.754398247574020075e+00	1.713702606234868819e-06	-1.562565789362152545e-04	3.420336814069384768e-03	8.467455040749807260e-01	1.103417716464286658e+00	1.000095107966737507e+00	-9.768590035420535167e-03	3.351748947054241685e-05	3.337072132788026677e-05
3.794552239526683302e+00	1.713702465960456318e-06	-1.562559573626092196e-04	3.352644050031965660e-03	8.467490655496227037e-01	1.103752628187115503e+00	1.000095126794308564e+00	-9.768630801298729127e-03	3.357083630825717581e-05	3.409677070538824872e-05
3.834706231479346528e+00	1.713702282658910125e-06	-1.562551288826875091e-04	3.287189770631239634e-03	8.467534366033301341e-01	1.104114783375119480e+00	1.000095162772870694e+00	-9.768598679995715850e-03	3.362675945374435799e-05	3.483177222660774510e-05
3.874860223432010198e+00	1.713702132471673371e-06	-1.562547533070134597e-04	3.223845677598722714e-03	8.467554441406075494e-01	1.104503875369670762e+00	1.000095178269372997e+00	-9.769801444141731905e-03	3.368490329889609552e-05	3.557577388338740342e-05
3.915014215384673424e+00	1.713702187101953960e-06	-1.562542082238330989e-04	3.162559767767021517e-03	8.467582980751253707e-01	1.104919356661946184e+00	1.000095211998806022e+00	-9.764881138578604750e-03	3.374564324954809868e-05	3.632882560231817491e-05
3.955168207337336650e+00	1.713701527241930324e-06	-1.562540999408922710e-04	3.103210603815444169e-03	8.467588093217806033e-01	1.105361167344441453e+00	1.000095224712727715e+00	-9.769346582050099023e-03	3.380857926866416270e-05	3.709096242828815293e-05
3.995322199289999876e+00	1.714584732784040117e-06	-1.562982408437234912e-04	3.045206610830270867e-03	8.467602885708476190e-01	1.105725138389037188e+00	1.000000000000000000e+00	-1.000000000000000021e-02	3.386813387260657833e-05	3.787099207019621079e-05
