# Time=0.00787878787879 and Columns are r	p	Paether	ur	alpha	a	b	K	Sr_tilde	tau_tilde
2.007699597633165814e-02	1.198386412791007348e-02	-1.854486004037933511e-02	4.014379746109969673e-05	6.433909609281611708e-01	1.000207858028852259e+00	1.000017643478900986e+00	-1.090132664693830612e-02	1.822135722050749315e-09	6.039624574948108696e-06
6.023098792899497789e-02	1.186965405707071132e-02	-1.846048568743642940e-02	1.203214219893144387e-04	6.441137327783453825e-01	1.001726990473131185e+00	1.000017668768423906e+00	-1.088880546759531803e-02	4.891639445736728437e-08	5.392036203150106283e-05
1.003849798816582872e-01	1.164416857532796744e-02	-1.829240382555732264e-02	2.001716791312641019e-04	6.455552230147327819e-01	1.004751242344168904e+00	1.000017718760859875e+00	-1.086320647400792171e-02	2.238784848868658066e-07	1.473770953385742158e-04
1.405389718343216243e-01	1.131323860111171226e-02	-1.804198680485810669e-02	2.794890095595394734e-04	6.477077795142783811e-01	1.009252129571323264e+00	1.000017792753330914e+00	-1.082505424292366444e-02	6.038120466425131517e-07	2.819069547020283239e-04
1.806929637869849337e-01	1.088531823547904745e-02	-1.771129558247950056e-02	3.581276629672841202e-04	6.505604179499131501e-01	1.015185808961478919e+00	1.000017889844722063e+00	-1.077517207646311662e-02	1.254208976140980319e-06	4.510191286314848983e-04
2.208469557396482430e-01	1.037118127629656911e-02	-1.730314025799588318e-02	4.359642163831547231e-04	6.540979334049407123e-01	1.022491831519376948e+00	1.000018008744971043e+00	-1.071430571417266928e-02	2.225239332952776803e-06	6.465423009683590174e-04
2.610009476923115801e-01	9.783521559631571871e-03	-1.682112641808567940e-02	5.129698318895249860e-04	6.583002277468852359e-01	1.031091644170633481e+00	1.000018147955479053e+00	-1.064356095912675701e-02	3.549287163559024559e-06	8.590193524034259219e-04
3.011549396449748617e-01	9.136484321471193687e-03	-1.626967842311298484e-02	5.891424072785977472e-04	6.631422780943505568e-01	1.040886990778953747e+00	1.000018305734455826e+00	-1.056431340496090561e-02	5.238972813574778453e-06	1.078175075695706657e-03
3.413089315976381988e-01	8.445149620587136252e-03	-1.565405578213274404e-02	6.646102740325335843e-04	6.685938925564598456e-01	1.051758413366977285e+00	1.000018480231376294e+00	-1.047822254652820868e-02	7.287305836697767193e-06	1.293437968516730069e-03
3.814629235503015359e-01	7.724989866151440315e-03	-1.498035477516902400e-02	7.395225333471295345e-04	6.746192960571776309e-01	1.063564103198042288e+00	1.000018669434578289e+00	-1.038720306307183185e-02	9.667337467375347647e-06	1.494491988456997595e-03
4.216169155029648175e-01	6.991326531113158625e-03	-1.425548051571903264e-02	8.141925722785326542e-04	6.811768177933715807e-01	1.076139391405444901e+00	1.000018871304731105e+00	-1.029336691485155560e-02	1.233524297897228955e-05	1.671829264120862878e-03
4.617709074556281545e-01	6.258810679894302384e-03	-1.348708120148658755e-02	8.889466386540345469e-04	6.882189143995423031e-01	1.089297193844045886e+00	1.000019083720210311e+00	-1.019893559304166190e-02	1.523093279554498333e-05	1.817270381150205968e-03
5.019248994082914361e-01	5.540952347893189980e-03	-1.268344662052742731e-02	9.643134219448176898e-04	6.956923451993182184e-01	1.102829715928581145e+00	1.000019304576830415e+00	-1.010612093576900017e-02	1.828397595396803255e-05	1.924416498030958244e-03
5.420788913609547732e-01	4.849720806085629742e-03	-1.185337145706085588e-02	1.040834320837839399e-03	7.035385063354677726e-01	1.116511673058222298e+00	1.000019531752283752e+00	-1.001698004326114638e-02	2.141418378674522397e-05	1.988997636884653683e-03
5.822328833136179993e-01	4.195234712902949289e-03	-1.100598400047821633e-02	1.119306418186248467e-03	7.116940579155593971e-01	1.130105175734046785e+00	1.000019763142707241e+00	-9.933256787778720412e-03	2.453994509242728828e-05	2.009085753474464109e-03
6.223868752662813364e-01	3.585555236486511616e-03	-1.015054848525340919e-02	1.200563338016398919e-03	7.200918216149451156e-01	1.143366268211140069e+00	1.000019996672318223e+00	-9.856223430491702076e-03	2.757774324358396113e-05	1.985149539593654769e-03
6.625408672189446735e-01	3.026588979682878853e-03	-9.296251073397158310e-03	1.285779962022852788e-03	7.286619161123957245e-01	1.156052904140446369e+00	1.000020230244302866e+00	-9.786538194649023470e-03	3.045209863642175287e-05	1.919940990251747109e-03
7.026948591716080106e-01	2.522099704300259908e-03	-8.451984001473424740e-03	1.376240677183995223e-03	7.373329535302347582e-01	1.167933918857980480e+00	1.000020461823490026e+00	-9.724132272449365066e-03	3.309310462989437167e-05	1.818219834776525290e-03
7.428488511242713477e-01	2.073820362715858307e-03	-7.626138224492168098e-03	1.473717000118684615e-03	7.460334321076347308e-01	1.178798357312631273e+00	1.000020689285976427e+00	-9.668140987116350879e-03	3.544677353734772740e-05	1.686339464049276243e-03
7.830028430769345738e-01	1.681649904616263746e-03	-6.826421602179688110e-03	1.580251963279979618e-03	7.546929827299329041e-01	1.188464378912039043e+00	1.000020910599754842e+00	-9.616883093187620496e-03	3.746997359081291243e-05	1.531733617351162778e-03
8.231568350295979108e-01	1.343913953909662813e-03	-6.059710461957362390e-03	1.698629063038357848e-03	7.632436032085347932e-01	1.196786933116412932e+00	1.000021123562194969e+00	-9.567893654422251690e-03	3.913975886439510267e-05	1.362354171585958198e-03
8.633108269822612479e-01	1.057665390397654693e-03	-5.331946543384950485e-03	1.832221185059017786e-03	7.716204868748317569e-01	1.203663489196294289e+00	1.000021326097483954e+00	-9.518006698274811966e-03	4.044565840709691933e-05	1.186114354867332833e-03
9.034648189349245850e-01	8.190002791463972531e-04	-4.648078048141433480e-03	1.985588226517402428e-03	7.797627029683568134e-01	1.209037317973842729e+00	1.000021515876440725e+00	-9.463496217296026719e-03	4.139686743369628473e-05	1.010387786180261911e-03
9.436188108875879221e-01	6.233667830591005073e-04	-4.012047426544834532e-03	2.164472184504279660e-03	7.876134451421907823e-01	1.212898103618346823e+00	1.000021690749184566e+00	-9.400287132511137705e-03	4.201268806773313086e-05	8.416028557704334631e-04
9.837728028402512592e-01	4.658487365417566107e-04	-3.426815907249167441e-03	2.376595782148232042e-03	7.951199241290023423e-01	1.215279978241779579e+00	1.000021848258767054e+00	-9.324275594450290999e-03	4.232726930152194250e-05	6.849564619464384779e-04
1.023926794792914485e+00	3.414112316396379870e-04	-2.894414690405942587e-03	2.631923516210331413e-03	8.022331260273943832e-01	1.216257328784978275e+00	1.000021986249116202e+00	-9.231825472113000530e-03	4.237974346016851196e-05	5.442546089949480952e-04
1.064080786745577933e+00	2.451014789559833912e-04	-2.416006557868304559e-03	2.943746474423286803e-03	8.089073105611204184e-01	1.215938911725622740e+00	1.000022102327558393e+00	-9.120529977531450366e-03	4.221702063043955555e-05	4.218729310196450070e-04
1.104234778698241159e+00	1.722040255754642385e-04	-1.991939892332664219e-03	3.329260332126691719e-03	8.150997726400264209e-01	1.214460860990403956e+00	1.000022194739928816e+00	-8.990325870841670008e-03	4.188525113777952734e-05	3.188205401517455839e-04
1.144388770650904386e+00	1.183539884696078656e-04	-1.621776838176356350e-03	3.810748628331796835e-03	8.207709355040981869e-01	1.211979139360788604e+00	1.000022261891033937e+00	-8.844948421455023704e-03	4.143150671843245572e-05	2.348863670171972466e-04
1.184542762603567834e+00	7.961508901244310308e-05	-1.304282025653463652e-03	4.415796894946766478e-03	8.258855390377471961e-01	1.208661844050385792e+00	1.000022303590909489e+00	-8.693477816798512309e-03	4.089762292893246780e-05	1.688477589034470744e-04
1.224696754556231060e+00	5.253013416362771064e-05	-1.037372920991822250e-03	5.176794321742287514e-03	8.304143970147288556e-01	1.204681644149068642e+00	1.000022320645792107e+00	-8.551285240158884582e-03	4.032158217588694148e-05	1.187237765556116794e-04
1.264850746508894508e+00	3.415011373550016761e-05	-8.180483276367738702e-04	6.127131953706424668e-03	8.343386070150136113e-01	1.200208506530831887e+00	1.000022316286012680e+00	-8.439305004030771620e-03	3.973416981878563007e-05	8.205678090183936920e-05
1.305004738461557734e+00	2.204438385065114205e-05	-6.423502192480100206e-04	7.292822689132856702e-03	8.376532985024274236e-01	1.195402887623903565e+00	1.000022295310736942e+00	-8.380530706720248912e-03	3.916065317960772308e-05	5.620218847790381123e-05
1.345158730414220960e+00	1.429019235803987536e-05	-5.054193333622928556e-04	8.676920201394419663e-03	8.403725735827046739e-01	1.190409679506915008e+00	1.000022264881839984e+00	-8.393765503240040865e-03	3.861943752707351505e-05	3.859793713462444839e-05
1.385312722366884408e+00	9.437865597273316696e-06	-4.017088211712996023e-04	1.023928015218710831e-02	8.425319641628516987e-01	1.185353411271349966e+00	1.000022232384619736e+00	-8.486478214486687516e-03	3.812270258220280291e-05	2.697848914712119923e-05
1.425466714319547634e+00	6.450901918970413364e-06	-3.253528678311869561e-04	1.188058811355376457e-02	8.441876014167285502e-01	1.180335275271096052e+00	1.000022205284577304e+00	-8.650203475021923244e-03	3.767462589478264256e-05	1.950296736750230597e-05
1.465620706272211082e+00	4.627228898138289077e-06	-2.706204553134711785e-04	1.344829013022947814e-02	8.454113720520443076e-01	1.175432396270388535e+00	1.000022188394661393e+00	-8.861469676838078929e-03	3.727214116613876069e-05	1.478775842001661248e-05
1.505774698224874308e+00	3.514304972351714125e-06	-2.323259057979317735e-04	1.477493495273288562e-02	8.462827154488781201e-01	1.170699289356049055e+00	1.000022184445949369e+00	-9.088853718030252479e-03	3.690799702089623315e-05	1.186155890331027046e-05
1.545928690177537534e+00	2.831705709357573465e-06	-2.060962802663748731e-04	1.573484476485429231e-02	8.468800217826861765e-01	1.166170971327050943e+00	1.000022192644458796e+00	-9.303114818728388385e-03	3.657612413637922579e-05	1.007868929180641853e-05
1.586082682130200983e+00	2.409962745003598269e-06	-1.884589366111513113e-04	1.628247570834373895e-02	8.472728088946086533e-01	1.161866877026661138e+00	1.000022211063945843e+00	-9.485174937529192163e-03	3.627322973900532936e-05	9.025674411395423217e-06
1.626236674082864209e+00	2.147626062162029650e-06	-1.767887805973199797e-04	1.645026848608453426e-02	8.475185774670707106e-01	1.157794811766505338e+00	1.000022236137411813e+00	-9.628107985875511768e-03	3.599732831759099711e-05	8.442648217084404460e-06
1.666390666035527657e+00	1.983731013753078264e-06	-1.691762166378542971e-04	1.631705092581129182e-02	8.476612201768251031e-01	1.153954416888475665e+00	1.000022265302646263e+00	-9.733979130089337115e-03	3.574593512655635324e-05	8.166534932738937728e-06
1.706544657988190883e+00	1.881198102399591162e-06	-1.642741279116575093e-04	1.597328039281444359e-02	8.477347215026294069e-01	1.150339957257706436e+00	1.000022295675550010e+00	-9.809148025038832291e-03	3.551616889205397120e-05	8.093885297204856663e-06
1.746698649940854109e+00	1.817147080085235693e-06	-1.611551043433567744e-04	1.549859917240512495e-02	8.477600193287577746e-01	1.146942410078107599e+00	1.000022326043354282e+00	-9.860835119621951320e-03	3.530514187287598412e-05	8.157992217987117484e-06
1.786852641893517557e+00	1.777284318135008777e-06	-1.591930290707982507e-04	1.495344363197756953e-02	8.477557030481756017e-01	1.143750965421122645e+00	1.000022354804463331e+00	-9.895476554440061842e-03	3.511050444846998934e-05	8.315168888178537003e-06
1.827006633846180783e+00	1.752608900515289584e-06	-1.579726466002113463e-04	1.437924289615898771e-02	8.477306562743611718e-01	1.140754043329493816e+00	1.000022381876097155e+00	-9.918165715449929823e-03	3.493032161922916617e-05	8.536488504827468329e-06
1.867160625798844231e+00	1.737434274342063569e-06	-1.572223275978191180e-04	1.380236112362038907e-02	8.476940504213446026e-01	1.137939965379568985e+00	1.000022406407406805e+00	-9.932700904192636598e-03	3.476317058785703771e-05	8.802698781627506719e-06
1.907314617751507457e+00	1.728170366878029800e-06	-1.567667641932251081e-04	1.323839609659372384e-02	8.476498502964682213e-01	1.135297362165577750e+00	1.000022428897945792e+00	-9.941791621759992620e-03	3.460782473636951222e-05	9.100982719362366916e-06
1.947468609704170905e+00	1.722558989939723577e-06	-1.564942499700567214e-04	1.269591107925279426e-02	8.476018920276033874e-01	1.132815415994976149e+00	1.000022448792768914e+00	-9.947306994941567879e-03	3.446337462511642213e-05	9.422840293994744654e-06
1.987622601656834131e+00	1.719187751203814046e-06	-1.563341332763635758e-04	1.217899362741262960e-02	8.475520519579149425e-01	1.130483976332001372e+00	1.000022466840168933e+00	-9.950522063181893584e-03	3.432894637306687459e-05	9.762667577507631240e-06
2.027776593609497358e+00	1.717179435205760704e-06	-1.562424783136107098e-04	1.168911671979239175e-02	8.475020528884276150e-01	1.128293611539032071e+00	1.000022482547564762e+00	-9.952271555028809752e-03	3.420389473799853271e-05	1.011680048601753499e-05
2.067930585562160584e+00	1.715993419547300932e-06	-1.561919723370065608e-04	1.122618398612035794e-02	8.474525167497050093e-01	1.126235602989348550e+00	1.000022496761140411e+00	-9.953109594510506711e-03	3.408753610943856123e-05	1.048286253218035372e-05
2.108084577514824254e+00	1.715299300304990216e-06	-1.561659600179278039e-04	1.078931519871999603e-02	8.474043686755882154e-01	1.124301924246469797e+00	1.000022508952981948e+00	-9.953388712881462708e-03	3.397938590184195655e-05	1.085932865613918458e-05
2.148238569467487480e+00	1.714896849370461918e-06	-1.561543212088134904e-04	1.037717382533674855e-02	8.473576300115883697e-01	1.122485193547725801e+00	1.000022520011019767e+00	-9.953333458941785589e-03	3.387887956660993143e-05	1.124522818367043821e-05
2.188392561420150706e+00	1.714665816394417878e-06	-1.561509230459312482e-04	9.988300280740382633e-03	8.473130413013910678e-01	1.120778632622469795e+00	1.000022529337736277e+00	-9.953088436726171412e-03	3.378564615329746247e-05	1.163995180547354809e-05
2.228546553372813932e+00	1.714534598415291775e-06	-1.561522262897091441e-04	9.621155326708886665e-03	8.472701471336729906e-01	1.119176010703776480e+00	1.000022537847573112e+00	-9.952735580858834002e-03	3.369920305288244788e-05	1.204311990486803019e-05
2.268700545325477158e+00	1.714460967941212028e-06	-1.561559969404260439e-04	9.274288313614410806e-03	8.472296012147013666e-01	1.117671603382788925e+00	1.000022544864713758e+00	-9.952334904222778431e-03	3.361926764327633410e-05	1.245450139275392445e-05
2.308854537278140828e+00	1.714420226579807123e-06	-1.561609975527755408e-04	8.946276025784847749e-03	8.471914151874817556e-01	1.116260140110283849e+00	1.000022551330196796e+00	-9.951917863537671285e-03	3.354541611971279560e-05	1.287395665242202886e-05
2.349008529230804054e+00	1.714398083300284595e-06	-1.561666056458439506e-04	8.635838024256208001e-03	8.471548982336661870e-01	1.114936769664826688e+00	1.000022556490198555e+00	-9.951497610632764959e-03	3.347743647701921234e-05	1.330140590920594799e-05
2.389162521183467280e+00	1.714386325464736377e-06	-1.561722944187459426e-04	8.341739323545326740e-03	8.471209045375289737e-01	1.113697014317807543e+00	1.000022561317284397e+00	-9.951092421617775338e-03	3.341495136703258675e-05	1.373680439604134515e-05
2.429316513136130506e+00	1.714380303107021200e-06	-1.561778618112942768e-04	8.062890372774775966e-03	8.470889970012246417e-01	1.112536743059503896e+00	1.000022564982150586e+00	-9.950706969932932716e-03	3.335780565336221950e-05	1.418013174127595214e-05
2.469470505088793733e+00	1.714377386573111145e-06	-1.561832028674790059e-04	7.798238523923912806e-03	8.470593248007659559e-01	1.111452132360061018e+00	1.000022568494737918e+00	-9.950342999978895736e-03	3.330565595562023213e-05	1.463138039461385836e-05
2.509624497041457403e+00	1.714376128238994012e-06	-1.561883251922696538e-04	7.546866807115282759e-03	8.470310654063007982e-01	1.110439646448397655e+00	1.000022570952885825e+00	-9.949997603704959642e-03	3.325839793955224024e-05	1.509055358353109459e-05
2.549778488994120629e+00	1.714375717713047533e-06	-1.561930531600457016e-04	7.307880264441081984e-03	8.470054233838113511e-01	1.109496003630183303e+00	1.000022573409186988e+00	-9.949680218508135873e-03	3.321571435568705042e-05	1.555765891720000150e-05
2.589932480946783855e+00	1.714375732821150908e-06	-1.561974461719319290e-04	7.080507192574610545e-03	8.469815503705261373e-01	1.108618162486305847e+00	1.000022574890580218e+00	-9.949386440119225086e-03	3.317754206112255507e-05	1.603270973292549105e-05
2.630086472899447081e+00	1.714375932385684160e-06	-1.562015756929397347e-04	6.863984209109066058e-03	8.469592945222438329e-01	1.107803292576842180e+00	1.000022576497040516e+00	-9.949110952950692907e-03	3.314358308148191909e-05	1.651572059324147614e-05
2.670240464852110307e+00	1.714376206888137899e-06	-1.562053920526346325e-04	6.657661166915567787e-03	8.469386233355727933e-01	1.107048765478299890e+00	1.000022577185845973e+00	-9.948856814494290435e-03	3.311381495370895387e-05	1.700670996851593952e-05
2.710394456804773977e+00	1.714376486933721146e-06	-1.562087996977853607e-04	6.460882885164636290e-03	8.469202968804901976e-01	1.106352128855106143e+00	1.000022578108200388e+00	-9.948629665756634349e-03	3.308795063057485213e-05	1.750569635124406487e-05
2.750548448757437203e+00	1.714376755433711479e-06	-1.562120169509768918e-04	6.273099295949135720e-03	8.469029198155111349e-01	1.105711101439388777e+00	1.000022578152471642e+00	-9.948415673246021815e-03	3.306600108240482773e-05	1.801270149738480131e-05
2.790702440710100429e+00	1.714376989074462997e-06	-1.562149974079093083e-04	6.093745816130187974e-03	8.468868641104169148e-01	1.105123549640812941e+00	1.000022578524533801e+00	-9.948217447230669683e-03	3.304769126749482834e-05	1.852774668317983580e-05
2.830856432662763655e+00	1.714377196110211820e-06	-1.562176329654213134e-04	5.922355686203552121e-03	8.468725650438333474e-01	1.104587485762589694e+00	1.000022578043893384e+00	-9.948041988832753008e-03	3.303306373704455287e-05	1.905085622350775656e-05
2.871010424615426881e+00	1.714377367176400760e-06	-1.562200001457684530e-04	5.758438211619410635e-03	8.468598805953448938e-01	1.104101046503659589e+00	1.000022577974079452e+00	-9.947884147589049209e-03	3.302184395387876113e-05	1.958205370018925031e-05
2.911164416568090552e+00	1.714377515183472963e-06	-1.562223258312827137e-04	5.601596821443048484e-03	8.468473063915683552e-01	1.103662493859216998e+00	1.000022577065692753e+00	-9.947729606920713979e-03	3.301410710102973829e-05	2.012136566081932450e-05
2.951318408520753778e+00	1.714377631374869584e-06	-1.562242973614675083e-04	5.451403735211445174e-03	8.468366703844252275e-01	1.103270195017753474e+00	1.000022576642394911e+00	-9.947598022625460737e-03	3.300958367856719798e-05	2.066881775786138861e-05
2.991472400473417004e+00	1.714377732381363622e-06	-1.562260166420741711e-04	5.307519682108859105e-03	8.468274285059536055e-01	1.102922625516189914e+00	1.000022575385343782e+00	-9.947483047080062091e-03	3.300837014072629632e-05	2.122443859545733845e-05
3.031626392426080230e+00	1.714377808650888088e-06	-1.562276609526183949e-04	5.169569229125322608e-03	8.468185111762706052e-01	1.102618350141869374e+00	1.000022574680865084e+00	-9.947373182559490767e-03	3.301019618039697769e-05	2.178825575780626923e-05
3.071780384378743456e+00	1.714377874373980339e-06	-1.562292230680395152e-04	5.037263473861205640e-03	8.468101174180077129e-01	1.102356028014567446e+00	1.000022573140015636e+00	-9.947268992710400423e-03	3.301519132123465400e-05	2.236029979486227776e-05
3.111934376331407126e+00	1.714377920031207448e-06	-1.562304293392795013e-04	4.910270551153435824e-03	8.468035324492193539e-01	1.102134394182032517e+00	1.000022572213710381e+00	-9.947187727288879858e-03	3.302307902018950620e-05	2.294060012959169586e-05
3.152088368284070352e+00	1.714377961403450731e-06	-1.562316276046591627e-04	4.788342498688573194e-03	8.467970568761735706e-01	1.101952266381410528e+00	1.000022570442178349e+00	-9.947107369586167397e-03	3.303400865821403407e-05	2.352918918098925496e-05
3.192242360236733578e+00	1.714377985741583194e-06	-1.562327242400900641e-04	4.671185777236803137e-03	8.467910945656365040e-01	1.101808527075960331e+00	1.000022569343080869e+00	-9.947033690796245817e-03	3.304770514175035291e-05	2.412609814564597747e-05
3.232396352189396804e+00	1.714378008883336465e-06	-1.562336430317203526e-04	4.558587970781242081e-03	8.467861631462442196e-01	1.101702131703997667e+00	1.000022567384668548e+00	-9.946971662349620227e-03	3.306434225948410774e-05	2.473136125815658922e-05
3.272550344142060030e+00	1.714378018746851330e-06	-1.562343258323622801e-04	4.450286397058923413e-03	8.467823464233825703e-01	1.101632090954727028e+00	1.000022566153238035e+00	-9.946924846517114435e-03	3.308363191481333783e-05	2.534501144256994328e-05
3.312704336094723701e+00	1.714378030765875098e-06	-1.562351708271709691e-04	4.346099304875367109e-03	8.467777577449755455e-01	1.101597480361437009e+00	1.000022564044134032e+00	-9.946867973085778483e-03	3.310577323085834548e-05	2.596708471285433646e-05
3.352858328047386927e+00	1.714378029819338437e-06	-1.562357985263105968e-04	4.245792252571383048e-03	8.467743057150164399e-01	1.101597422647860869e+00	1.000022562714094621e+00	-9.946825107720758813e-03	3.313047834408560375e-05	2.659761569050424893e-05
3.393012320000050153e+00	1.714378033764053882e-06	-1.562362353033419692e-04	4.149208420998431145e-03	8.467719242351908759e-01	1.101631098545629017e+00	1.000022560484163492e+00	-9.946794605896697519e-03	3.315796075893748268e-05	2.723664214619399133e-05
3.433166311952713379e+00	1.714378027344441150e-06	-1.562366914059380902e-04	4.056136161659199164e-03	8.467694821147097040e-01	1.101697729089945010e+00	1.000022559083477480e+00	-9.946763049593812522e-03	3.318791945644752878e-05	2.788420038092305573e-05
3.473320303905376605e+00	1.714378026234119234e-06	-1.562372266252325928e-04	3.966442616487953279e-03	8.467665319468162810e-01	1.101796587560673224e+00	1.000022556757658831e+00	-9.946726605267743396e-03	3.322060216432007242e-05	2.854032991180513438e-05
3.513474295858040275e+00	1.714378014974114913e-06	-1.562375288980218839e-04	3.879935798262913391e-03	8.467649744522185440e-01	1.101926981619783419e+00	1.000022555309659333e+00	-9.946705173337500733e-03	3.325569470104699262e-05	2.920506871234860501e-05
3.553628287810703501e+00	1.714378011100438852e-06	-1.562377764973505107e-04	3.796501472450109719e-03	8.467635780192021011e-01	1.102088266308109077e+00	1.000022552908455431e+00	-9.946687320546035091e-03	3.329346040926627547e-05	2.987845804496309780e-05
3.593782279763366727e+00	1.714377998061837290e-06	-1.562380536326133014e-04	3.715965071392411841e-03	8.467620731606934070e-01	1.102279825931190116e+00	1.000022551432642404e+00	-9.946667768763944179e-03	3.333357428357464796e-05	3.056053755790237857e-05
3.633936271716029953e+00	1.714377992402985081e-06	-1.562382937057591804e-04	3.638230225661461849e-03	8.467606744233320271e-01	1.102501088054181011e+00	1.000022548973227510e+00	-9.946650649404446473e-03	3.337633059519009898e-05	3.125135026694314506e-05
3.674090263668693179e+00	1.714377978299881216e-06	-1.562383042676794152e-04	3.563136364130225706e-03	8.467606259108075850e-01	1.102751505066206228e+00	1.000022547485885926e+00	-9.946648308880551986e-03	3.342138286928054779e-05	3.195093750512659431e-05
3.714244255621356849e+00	1.714377973057158930e-06	-1.562385172709518789e-04	3.490601706441397428e-03	8.467595044225234568e-01	1.103030569120000415e+00	1.000022544982497985e+00	-9.946633116488726514e-03	3.346904651777785083e-05	3.265934405662551578e-05
3.754398247574020075e+00	1.714377958420819448e-06	-1.562385939644934788e-04	3.420479814154748534e-03	8.467590907319710869e-01	1.103337793323260430e+00	1.000022543497386396e+00	-9.946626810728616264e-03	3.351897168261720749e-05	3.337661295690296751e-05
3.794552239526683302e+00	1.714377953382245020e-06	-1.562386703838346844e-04	3.352701046670444017e-03	8.467586903823630662e-01	1.103672727580484070e+00	1.000022540961829964e+00	-9.946620463675911669e-03	3.357148950205773776e-05	3.410279078055049757e-05
3.834706231479346528e+00	1.714377939329314304e-06	-1.562385695660162624e-04	3.287130071851259838e-03	8.467592624663077272e-01	1.104034939343762289e+00	1.000022539490514006e+00	-9.946621120377141523e-03	3.362623320978354243e-05	3.483792228892677449e-05
3.874860223432010198e+00	1.714377935251841480e-06	-1.562387020449249378e-04	3.223708582708504754e-03	8.467585301697510003e-01	1.104424030537688006e+00	1.000022536933370843e+00	-9.946674850417171546e-03	3.368355664963804818e-05	3.558205587075125514e-05
3.915014215384673424e+00	1.714377927225581947e-06	-1.562385479101167495e-04	3.162312187315154295e-03	8.467593493037265384e-01	1.104839616131819247e+00	1.000022535492730125e+00	-9.946263311466656612e-03	3.374308847001352671e-05	3.633523814161873303e-05
3.955168207337336650e+00	1.714377897251687394e-06	-1.562385805507794103e-04	3.102891602073800520e-03	8.467591867867695354e-01	1.105281349358441689e+00	1.000022532961345911e+00	-9.947404926038488915e-03	3.380519549575101561e-05	3.709751866463816911e-05
3.995322199289999876e+00	1.714584732784040117e-06	-1.562487797405429384e-04	3.045206610830270867e-03	8.467602886274813168e-01	1.105725138389037188e+00	1.000000000000000000e+00	-1.000000000000000021e-02	3.386813387260657833e-05	3.787099207019621079e-05
