# Time=0.0321212121212 and Columns are r	p	Paether	ur	alpha	a	b	K	Sr_tilde	tau_tilde
2.007699597633165814e-02	1.197736337647520820e-02	-1.854348361214803315e-02	5.113123369387058583e-05	6.391210505451523360e-01	1.000271994934984754e+00	1.000081806559789399e+00	-1.388109335293242694e-02	2.320470855128885219e-09	6.037510110722159795e-06
6.023098792899497789e-02	1.186330816070639733e-02	-1.845919297183814395e-02	1.530743214367723867e-04	6.398382293902266094e-01	1.001790922846697685e+00	1.000081854557812955e+00	-1.383464582895622963e-02	6.222195098673766816e-08	5.390189488567990626e-05
1.003849798816582872e-01	1.163801060703175544e-02	-1.829118391717361736e-02	2.538891954828311295e-04	6.412695366769053384e-01	1.004814713134378312e+00	1.000081930382405559e+00	-1.372850421495014177e-02	2.839130200318206479e-07	1.473273953947647479e-04
1.405389718343216243e-01	1.130734662334140044e-02	-1.804085529543924052e-02	3.527754606673274684e-04	6.434074522227446469e-01	1.009314906343516727e+00	1.000082030193700122e+00	-1.356733096185529577e-02	7.620244699111392615e-07	2.818139248608167902e-04
1.806929637869849337e-01	1.087976124106103393e-02	-1.771027324047408716e-02	4.491492286528093927e-04	6.462408707936730945e-01	1.015247681965661508e+00	1.000082156107956699e+00	-1.335802517187703944e-02	1.572747295858216038e-06	4.508744553094336900e-04
2.208469557396482430e-01	1.036601507217516961e-02	-1.730225433801919552e-02	5.424738139175202091e-04	6.497543939208767494e-01	1.022552590214985457e+00	1.000082303406506501e+00	-1.310243959449245051e-02	2.768497851143772601e-06	6.463420536427445968e-04
2.610009476923115801e-01	9.778786878101656740e-03	-1.682039533143615817e-02	6.323896020455038562e-04	6.539282636967130857e-01	1.031151095974836673e+00	1.000082466827858507e+00	-1.280543608273254468e-02	4.374992333362545846e-06	8.587641421804275126e-04
3.011549396449748617e-01	9.132206020415180314e-03	-1.626911695723280357e-02	7.186594581695246366e-04	6.587376606101499332e-01	1.040944966825188445e+00	1.000082641229299130e+00	-1.247278498497574398e-02	6.389933977713958478e-06	1.077869749423519732e-03
3.413089315976381988e-01	8.441337385251617212e-03	-1.565367221393470024e-02	8.012798870260440980e-04	6.641527256147945479e-01	1.051814777888010255e+00	1.000082821901742580e+00	-1.211144689173709703e-02	8.784882190650740192e-06	1.293090964602751185e-03
3.814629235503015359e-01	7.721639311775543510e-03	-1.498015709235190826e-02	8.803808400495187134e-04	6.701377987818915027e-01	1.063618762616997726e+00	1.000083005330258956e+00	-1.172943461120479550e-02	1.150753728033310001e-05	1.494114373698221185e-03
4.216169155029648175e-01	6.988421386530379621e-03	-1.425546877878618862e-02	9.563661546084883903e-04	6.766516891321325833e-01	1.076192304540088740e+00	1.000083188923080790e+00	-1.133559084709014585e-02	1.448791274107154821e-05	1.671433681918355497e-03
4.617709074556281545e-01	6.256325042050117809e-03	-1.348725367405043292e-02	1.029760857358786620e-03	6.836471279503912868e-01	1.089348378634047210e+00	1.000083371965747592e+00	-1.093921239628118693e-02	1.764221077928156611e-05	1.816869926151117639e-03
5.019248994082914361e-01	5.538853432937002920e-03	-1.268379524676126018e-02	1.101384331210023340e-03	6.910714067523813231e-01	1.102879255521303614e+00	1.000083554449062051e+00	-1.054956677827339519e-02	2.088151068319553903e-05	1.924023758859361600e-03
5.420788913609547732e-01	4.847971416991269170e-03	-1.185388757317962748e-02	1.172146602711451923e-03	6.988662769754333537e-01	1.116559713666482212e+00	1.000083738308590542e+00	-1.017528973496709468e-02	2.411444061204661416e-05	1.988623867639516783e-03
5.822328833136179993e-01	4.193795668646051883e-03	-1.100665497649581590e-02	1.243261869768197414e-03	7.069689530707242708e-01	1.130151922205067327e+00	1.000083925076062696e+00	-9.823740838418255905e-03	2.725632192427588006e-05	2.008740343325185300e-03
6.223868752662813364e-01	3.584387294161408850e-03	-1.015136047379732072e-02	1.316005807912245217e-03	7.153128066431002630e-01	1.143411966708035798e+00	1.000084117626799163e+00	-9.500346581798400913e-03	3.022846989982738825e-05	1.984839682555438346e-03
6.625408672189446735e-01	3.025654397849806936e-03	-9.297191029224284239e-03	1.391984349476703192e-03	7.238283524907381805e-01	1.156097823092378851e+00	1.000084316537598772e+00	-9.208013365217466648e-03	3.296661046561322959e-05	1.919671615827776541e-03
7.026948591716080106e-01	2.521363291203483192e-03	-8.453036756284858233e-03	1.472878740245959746e-03	7.324450000041778930e-01	1.167978314674494866e+00	1.000084522723190705e+00	-8.946669104236170886e-03	3.541638071970878477e-05	1.817993692288576244e-03
7.428488511242713477e-01	2.073250106940448256e-03	-7.627291611686889093e-03	1.560791878093728113e-03	7.410915376598694593e-01	1.178842443063313983e+00	1.000084732540460042e+00	-8.712971897668876642e-03	3.754105455092636955e-05	1.686157331112564427e-03
7.830028430769345738e-01	1.681217258749256220e-03	-6.827661979007268109e-03	1.658022228674707090e-03	7.496984531724995016e-01	1.188508278844557564e+00	1.000084941784945780e+00	-8.500236178010775814e-03	3.931436225092168631e-05	1.531594582610649015e-03
8.231568350295979108e-01	1.343593819037540178e-03	-6.061027433864251031e-03	1.767516055148048897e-03	7.581980538660587632e-01	1.196830648940504727e+00	1.000085139639382836e+00	-8.298563641887475584e-03	4.072790661502695355e-05	1.362255912864818175e-03
8.633108269822612479e-01	1.057435971054426988e-03	-5.333328484266695348e-03	1.892724998786196036e-03	7.665264608211941333e-01	1.203706855713199353e+00	1.000085314465376074e+00	-8.095200470024240327e-03	4.178268976395989163e-05	1.186053450819019766e-03
9.034648189349245850e-01	8.188427954494409801e-04	-4.649516420565000599e-03	2.038203181847905374e-03	7.746230120353322368e-01	1.209079981977955853e+00	1.000085446659612964e+00	-7.875122586469017472e-03	4.249589803985635134e-05	1.010359960601918492e-03
9.436188108875879221e-01	6.232652051250306934e-04	-4.013532195814345852e-03	2.209626373666813328e-03	7.824318402867564970e-01	1.212939497758424023e+00	1.000085516622053250e+00	-7.621921946621449014e-03	4.289195262584038023e-05	8.416032577194057247e-04
9.837728028402512592e-01	4.657894783115884519e-04	-3.428339749516651734e-03	2.414598813502243438e-03	7.899005229724656019e-01	1.215319334372304994e+00	1.000085496662535212e+00	-7.319139994892088531e-03	4.300776672570209673e-05	6.849798699133514794e-04
1.023926794792914485e+00	3.413829207724580002e-04	-2.895966855868201215e-03	2.662943351882013192e-03	7.969813078868789313e-01	1.216293699778211890e+00	1.000085361751157365e+00	-6.952320376337783533e-03	4.288387884009930935e-05	5.442956808766231816e-04
1.064080786745577933e+00	2.450947232379515239e-04	-2.417580856532186660e-03	2.967792229054101553e-03	8.036285122036848083e-01	1.215971262570658684e+00	1.000085081113372798e+00	-6.512131158403057160e-03	4.256768310046426298e-05	4.219263894870601021e-04
1.104234778698241159e+00	1.722112440020600070e-04	-1.993523572314192215e-03	3.346189436997225580e-03	8.098014876164708609e-01	1.214488197982406259e+00	1.000084633040358106e+00	-5.998926204191109245e-03	4.210545807787047348e-05	3.188813983567320666e-04
1.144388770650904386e+00	1.183692377734429208e-04	-1.623359779690480148e-03	3.820267658535251958e-03	8.154618477918021968e-01	1.212000748574374898e+00	1.000083997467834607e+00	-5.428617587355996470e-03	4.154393623585872866e-05	2.349500999858290156e-04
1.184542762603567834e+00	7.963391704980037024e-05	-1.305852856456811645e-03	4.417477503377450349e-03	8.205748646736047425e-01	1.208677579420836867e+00	1.000083176095533100e+00	-4.838807634164256355e-03	4.092421888666459515e-05	1.689104904795028588e-04
1.224696754556231060e+00	5.254941007907994741e-05	-1.038924011062715945e-03	5.170074632900351248e-03	8.251116060727055057e-01	1.204692285927905004e+00	1.000082185465163143e+00	-4.292335314204315765e-03	4.028280921607335256e-05	1.187824070933194787e-04
1.264850746508894508e+00	3.416784656298498939e-05	-8.195555873174144518e-04	6.111340146924774258e-03	8.290647323632620580e-01	1.200216013867946518e+00	1.000081078748595198e+00	-3.873677127396243144e-03	3.964830484998644488e-05	8.210908692913974514e-05
1.305004738461557734e+00	2.205950841256721382e-05	-6.438066259524238139e-04	7.267224689742835843e-03	8.324233509667551267e-01	1.195410453179390542e+00	1.000079930475801238e+00	-3.673576019234433502e-03	3.904303604768581080e-05	5.624684249289587827e-05
1.345158730414220960e+00	1.430234220462680401e-05	-5.068164143760320707e-04	8.640894978672080534e-03	8.351966100843171148e-01	1.190421357879845488e+00	1.000078847010528182e+00	-3.762619633043395948e-03	3.848220773926250738e-05	3.863446271078460116e-05
1.385312722366884408e+00	9.447145688155723906e-06	-4.030302644530734486e-04	1.019262359714795570e-02	8.374435005668670051e-01	1.185373388213459833e+00	1.000077930605086429e+00	-4.162224873296981563e-03	3.797478958257634991e-05	2.700713515498628388e-05
1.425466714319547634e+00	6.457686826624477037e-06	-3.265888926897313237e-04	1.182394739315203482e-02	8.392143776443210523e-01	1.180366893702208930e+00	1.000077276297736573e+00	-4.827911384459530886e-03	3.752222768622548221e-05	1.952452469655081686e-05
1.465620706272211082e+00	4.632000822238148914e-06	-2.717722551671252081e-04	1.338346465503799723e-02	8.405687577879266126e-01	1.175477399357667041e+00	1.000076929893635169e+00	-5.657973312616595106e-03	3.711934506525341784e-05	1.480333742420400071e-05
1.505774698224874308e+00	3.517541995194311656e-06	-2.333918311718379554e-04	1.470475181558831765e-02	8.415967527850201080e-01	1.170757527826116418e+00	1.000076900719277351e+00	-6.527147077658864219e-03	3.675742029237617255e-05	1.187237128393171437e-05
1.545928690177537534e+00	2.833820371846766313e-06	-2.070812291141836442e-04	1.566250730649592499e-02	8.423754853816596277e-01	1.166240771567339962e+00	1.000077143784898315e+00	-7.327900900685519262e-03	3.642932074513443821e-05	1.008587608469302746e-05
1.586082682130200983e+00	2.411280910612818698e-06	-1.893696363922130383e-04	1.621083105776040950e-02	8.429583491741240442e-01	1.161945732072864779e+00	1.000077601884800993e+00	-7.997427086714735747e-03	3.613108095584076915e-05	9.030206584803979655e-06
1.626236674082864209e+00	2.148390340233343758e-06	-1.776333593452555763e-04	1.638134941219934054e-02	8.434075077940541565e-01	1.157880120469668039e+00	1.000078199063296314e+00	-8.518889513866281099e-03	3.586026514701513504e-05	8.445293084987578753e-06
1.666390666035527657e+00	1.984114479964045776e-06	-1.699613707804645127e-04	1.625206051980768174e-02	8.437530018475364324e-01	1.154043900151042967e+00	1.000078881572442624e+00	-8.905417402055379114e-03	3.561416788482781997e-05	8.167866292460663406e-06
1.706544657988190883e+00	1.881320677702292204e-06	-1.650062677970747839e-04	1.591275981067061945e-02	8.440346510868013130e-01	1.150431851431466646e+00	1.000079594965104901e+00	-9.182219790371530521e-03	3.538974564063615194e-05	8.094314628882245659e-06
1.746698649940854109e+00	1.817090044122877192e-06	-1.618395520260028646e-04	1.544268244919367282e-02	8.442575151090541130e-01	1.147035421303311598e+00	1.000080314046475571e+00	-9.375496845981946478e-03	3.518405858409208653e-05	8.157805396234394919e-06
1.786852641893517557e+00	1.777102177832478652e-06	-1.598335335842802343e-04	1.490201343868570449e-02	8.444550199566552839e-01	1.143844219708761711e+00	1.000081009255105347e+00	-9.507852407300664346e-03	3.499468129084785142e-05	8.314559688927069376e-06
1.827006633846180783e+00	1.752337910644695009e-06	-1.585728956288229492e-04	1.433207112975729697e-02	8.446159299935432907e-01	1.140846955490929293e+00	1.000081676291889599e+00	-9.596999415959865665e-03	3.481967114540540474e-05	8.535585706398568485e-06
1.867160625798844231e+00	1.737098658685620509e-06	-1.577847826124014038e-04	1.375915791624572615e-02	8.447687390575866484e-01	1.138032190266243360e+00	1.000082299604842406e+00	-9.656283780974101241e-03	3.465756284037763428e-05	8.801586526677077665e-06
1.907314617751507457e+00	1.727786367497655142e-06	-1.572939531429636440e-04	1.319886584329758167e-02	8.448958298399601441e-01	1.135388689094809944e+00	1.000082885677193278e+00	-9.695284782668640161e-03	3.450713704317344031e-05	9.099715143291982284e-06
1.947468609704170905e+00	1.722137722937007152e-06	-1.569878457869665659e-04	1.265975568268055788e-02	8.450241333608390359e-01	1.132905757159368365e+00	1.000083424818297262e+00	-9.720783980336251615e-03	3.436745596003014033e-05	9.421451694392038849e-06
1.987622601656834131e+00	1.718736932528333504e-06	-1.567963352911549827e-04	1.214593667812729864e-02	8.451304641464327805e-01	1.130573289769034595e+00	1.000083928308590275e+00	-9.737375938857796565e-03	3.423765783776545971e-05	9.761179321004273790e-06
2.027776593609497358e+00	1.716704610687213295e-06	-1.566750994945428942e-04	1.165889576602167910e-02	8.452398503509573890e-01	1.128381918044629950e+00	1.000084388077975728e+00	-9.748188344460633273e-03	3.411708095805164235e-05	1.011522561441686737e-05
2.067930585562160584e+00	1.715498655783911649e-06	-1.565965392299592442e-04	1.119856258833430360e-02	8.453311126850809876e-01	1.126322925530292451e+00	1.000084817389881753e+00	-9.755300079020867710e-03	3.400505729944623147e-05	1.048120878054304531e-05
2.108084577514824254e+00	1.714787722283617137e-06	-1.565439643752173325e-04	1.076407035749890086e-02	8.454279692645679800e-01	1.124388322006725227e+00	1.000085207928889108e+00	-9.760053529158067495e-03	3.390108385518707582e-05	1.085760041217592137e-05
2.148238569467487480e+00	1.714370885100104047e-06	-1.565071530003606559e-04	1.035410746317556863e-02	8.455080220430279958e-01	1.122570708223674218e+00	1.000085573816068996e+00	-9.763315379166593797e-03	3.380461595768776540e-05	1.124342773590592304e-05
2.188392561420150706e+00	1.714127451651458309e-06	-1.564802850302198509e-04	9.967225116449146896e-03	8.455927171323256442e-01	1.120863332250377820e+00	1.000085905781486373e+00	-9.765617338229068758e-03	3.371526347001164796e-05	1.163808013854029030e-05
2.228546553372813932e+00	1.713985440483019836e-06	-1.564590613424783388e-04	9.601907918400848230e-03	8.456638754919875156e-01	1.119259937264771798e+00	1.000086218442381769e+00	-9.767343289026174033e-03	3.363257195921644498e-05	1.204117719259934894e-05
2.268700545325477158e+00	1.713902403666549863e-06	-1.564420053609025219e-04	9.256710101343349970e-03	8.457386921290099835e-01	1.117754822790462343e+00	1.000086501354564561e+00	-9.768665885293471504e-03	3.355622825783030253e-05	1.245248730965661170e-05
2.308854537278140828e+00	1.713853394881634601e-06	-1.564270108737436898e-04	8.930233099648325276e-03	8.458019090074916368e-01	1.116342688417296891e+00	1.000086769577354540e+00	-9.769767424530945502e-03	3.348585164606163097e-05	1.287187056132113538e-05
2.349008529230804054e+00	1.713824010933731499e-06	-1.564138850783117695e-04	8.621195168385492949e-03	8.458692816970797557e-01	1.115018707459558112e+00	1.000087011458366870e+00	-9.770695566462790985e-03	3.342118418600432950e-05	1.329924697900032349e-05
2.389162521183467280e+00	1.713805855199049954e-06	-1.564016119497074558e-04	8.328385893794641379e-03	8.459256765453091464e-01	1.113778370299608911e+00	1.000087242550558919e+00	-9.771534044397898675e-03	3.336190291901598433e-05	1.373457167162209320e-05
2.429316513136130506e+00	1.713794219659792185e-06	-1.563907004328148422e-04	8.050710433586011697e-03	8.459865772838330855e-01	1.112617572252402098e+00	1.000087450016806434e+00	-9.772266027947406480e-03	3.330779594278617927e-05	1.417782418750008633e-05
2.469470505088793733e+00	1.713786320239725293e-06	-1.563805486565495177e-04	7.787142576853875800e-03	8.460353576589492164e-01	1.111532456393862001e+00	1.000087649983231852e+00	-9.772935632610335599e-03	3.325859327425030956e-05	1.462899692163509025e-05
2.509624497041457403e+00	1.713780686365732135e-06	-1.563711410560262183e-04	7.536756020384936285e-03	8.460891474766588649e-01	1.110519515445807182e+00	1.000087828460176187e+00	-9.773550997780372854e-03	3.321412055584201968e-05	1.508809306330692699e-05
2.549778488994120629e+00	1.713776380067583152e-06	-1.563620654100427571e-04	7.298681153656496820e-03	8.461330568359088922e-01	1.109575432987093491e+00	1.000088002226171557e+00	-9.774139289600579025e-03	3.317414068643242486e-05	1.555512019334594036e-05
2.589932480946783855e+00	1.713772976836271839e-06	-1.563538062728196936e-04	7.072134302529529959e-03	8.461816847410060793e-01	1.108697198287333263e+00	1.000088156167734166e+00	-9.774673589619909536e-03	3.313851005538587366e-05	1.603009162600444604e-05
2.630086472899447081e+00	1.713770121017687042e-06	-1.563458929266282622e-04	6.856378698509245015e-03	8.462196868901170621e-01	1.107881944773606575e+00	1.000088307785412134e+00	-9.775182926504423844e-03	3.310702753421611126e-05	1.651302190645364011e-05
2.670240464852110307e+00	1.713767719520470098e-06	-1.563384974982664393e-04	6.650748436689169797e-03	8.462628539611173339e-01	1.107127076975184865e+00	1.000088440861065520e+00	-9.775658914038223152e-03	3.307957243871312996e-05	1.700392948812427856e-05
2.710394456804773977e+00	1.713765599711254674e-06	-1.563313400648537769e-04	6.454615584046629988e-03	8.462983945218974791e-01	1.106430104873704856e+00	1.000088573678943993e+00	-9.776117720668428546e-03	3.305596840557867641e-05	1.750283285084827713e-05
2.750548448757437203e+00	1.713763771483167269e-06	-1.563246066362293171e-04	6.267412140016304957e-03	8.463372603334180511e-01	1.105788782410084714e+00	1.000088688926659586e+00	-9.776549762829149504e-03	3.303611562271886466e-05	1.800975373669165896e-05
2.790702440710100429e+00	1.713762118714519746e-06	-1.563184823750566092e-04	6.088600782462576938e-03	8.463676409877700646e-01	1.105200936658780719e+00	1.000088805725825480e+00	-9.776942103487427232e-03	3.301986055708287917e-05	1.852471341170846970e-05
2.830856432662763655e+00	1.713760680282958019e-06	-1.563126610179030969e-04	5.917696494782295064e-03	8.464013549176003792e-01	1.104664617367770330e+00	1.000088905673307549e+00	-9.777315255984941542e-03	3.300713062741639263e-05	1.904773617862990656e-05
2.871010424615426881e+00	1.713759364266084796e-06	-1.563071392152910212e-04	5.754235227910579203e-03	8.464285076211581771e-01	1.104177920167208393e+00	1.000089008774827093e+00	-9.777668382545614753e-03	3.299778051060593779e-05	1.957884561090875679e-05
2.911164416568090552e+00	1.713758219882589232e-06	-1.563020250047206336e-04	5.597800441121489161e-03	8.464575381133694343e-01	1.103739146722611864e+00	1.000089095535369843e+00	-9.777996222162431417e-03	3.299175729892793614e-05	2.011806824447721765e-05
2.951318408520753778e+00	1.713757163400947645e-06	-1.562970209959286128e-04	5.447990766665368120e-03	8.464824980573137925e-01	1.103346621330322019e+00	1.000089186886369719e+00	-9.778315734011392563e-03	3.298892979365452795e-05	2.066542972526916219e-05
2.991472400473417004e+00	1.713756250134822357e-06	-1.562927528698271232e-04	5.304446135050973864e-03	8.465074128621077332e-01	1.102998861403062136e+00	1.000089262235307919e+00	-9.778589401457841654e-03	3.298925694614797128e-05	2.122095864531645278e-05
3.031626392426080230e+00	1.713755396815404515e-06	-1.562879296601361618e-04	5.166819689312179831e-03	8.465316074466811003e-01	1.102694386935192394e+00	1.000089343476545878e+00	-9.778896909909066959e-03	3.299263090768850422e-05	2.178468258397836711e-05
3.071780384378743456e+00	1.713754670597885938e-06	-1.562844998362310494e-04	5.034795031392816193e-03	8.465515930562597102e-01	1.102431901180773055e+00	1.000089408911082556e+00	-9.779117406248184763e-03	3.299899614224360763e-05	2.235663207833609342e-05
3.111934376331407126e+00	1.713753976562699366e-06	-1.562802215268981314e-04	4.908076919940385953e-03	8.465732518236770421e-01	1.102210092373725026e+00	1.000089481431476024e+00	-9.779389771332070574e-03	3.300830179672277801e-05	2.293683654850008354e-05
3.152088368284070352e+00	1.713753400134773267e-06	-1.562770360301395057e-04	4.786381245842769895e-03	8.465922182915507355e-01	1.102027824717506377e+00	1.000089538219279151e+00	-9.779594209516080661e-03	3.302044734605580703e-05	2.352532839993709212e-05
3.192242360236733578e+00	1.713752835024971713e-06	-1.562734721189879331e-04	4.669457790961843019e-03	8.466084804227738125e-01	1.101883931765093250e+00	1.000089603199541655e+00	-9.779821703764936258e-03	3.303544277691480136e-05	2.412213882773931340e-05
3.232396352189396804e+00	1.713752377282687237e-06	-1.562705261117349810e-04	4.557051486716050606e-03	8.466263284428117153e-01	1.101777417729880248e+00	1.000089652419317243e+00	-9.780010321335203677e-03	3.305315550312618738e-05	2.472730205202653395e-05
3.272550344142060030e+00	1.713751916596269550e-06	-1.562676207858387225e-04	4.448948199033031688e-03	8.466393846912696475e-01	1.101707242234896356e+00	1.000089710867041681e+00	-9.780195996037072473e-03	3.307363633714677345e-05	2.534085099622634883e-05
3.312704336094723701e+00	1.713751552170380487e-06	-1.562653179569428881e-04	4.344920151459621266e-03	8.466543347778566764e-01	1.101672531940747879e+00	1.000089753439285412e+00	-9.780343962939750876e-03	3.309673981601358881e-05	2.596282165933110577e-05
3.352858328047386927e+00	1.713751173259766605e-06	-1.562626504797894468e-04	4.244782920509190469e-03	8.466657208777527144e-01	1.101672356304212563e+00	1.000089806217004718e+00	-9.780514288334601555e-03	3.312254695063853360e-05	2.659324866310634224e-05
3.393012320000050153e+00	1.713750885009130841e-06	-1.562603997765899227e-04	4.148329875261626276e-03	8.466796929494161406e-01	1.101705949581237576e+00	1.000089842929776873e+00	-9.780658588275132834e-03	3.315088135441123239e-05	2.723216976265954996e-05
3.433166311952713379e+00	1.713750573793327423e-06	-1.562583653514226659e-04	4.055403740987666150e-03	8.466889083577275876e-01	1.101772477243646575e+00	1.000089890779317869e+00	-9.780789032889859042e-03	3.318186478443585356e-05	2.787962125978810571e-05
3.473320303905376605e+00	1.713750344752496110e-06	-1.562565868166341198e-04	3.965818646166508615e-03	8.466989884315408998e-01	1.101871268500645540e+00	1.000089922309947532e+00	-9.780903279215723972e-03	3.321531176561340652e-05	2.853564265482079858e-05
3.513474295858040275e+00	1.713750087061829065e-06	-1.562543726521856786e-04	3.879437996922347528e-03	8.467098408863709125e-01	1.102001573166012216e+00	1.000089965870389008e+00	-9.781044733135015393e-03	3.325136086498800141e-05	2.920027192352077754e-05
3.553628287810703501e+00	1.713749908712419706e-06	-1.562530951969452937e-04	3.796091746664238820e-03	8.467186881598343096e-01	1.102162804649181371e+00	1.000089992802401628e+00	-9.781127165061241288e-03	3.328979828988173440e-05	2.987355031023295027e-05
3.593782279763366727e+00	1.713749692481379462e-06	-1.562514409588754442e-04	3.715666884810036718e-03	8.467260087269244950e-01	1.102354287026685142e+00	1.000090032627320324e+00	-9.781233531856177443e-03	3.333082816314732026e-05	3.055551746704004420e-05
3.633936271716029953e+00	1.713749553090361974e-06	-1.562502476551522212e-04	3.638004048013382570e-03	8.467329611591665195e-01	1.102575508718426800e+00	1.000090055464904149e+00	-9.781310527982031017e-03	3.337418288812123531e-05	3.124621638931683690e-05
3.674090263668693179e+00	1.713749370781020646e-06	-1.562489365895725795e-04	3.563009270513482936e-03	8.467389506228683027e-01	1.102825859434260369e+00	1.000090092034431777e+00	-9.781395012611576734e-03	3.342011606023649649e-05	3.194568841519025015e-05
3.714244255621356849e+00	1.713749261872688592e-06	-1.562482479110068262e-04	3.490534702493070223e-03	8.467436842150988241e-01	1.103104894779479483e+00	1.000090111214122723e+00	-9.781439981952869123e-03	3.346832813930140812e-05	3.265397830860276211e-05
3.754398247574020075e+00	1.713749104464174726e-06	-1.562475947900668458e-04	3.420503388458495057e-03	8.467469603143200629e-01	1.103412062634639312e+00	1.000090144946311543e+00	-9.781483545756345169e-03	3.351912513189818572e-05	3.337112910942083662e-05
3.794552239526683302e+00	1.713749017210223874e-06	-1.562468306633905241e-04	3.352776564084152672e-03	8.467512635799842036e-01	1.103746978971546833e+00	1.000090160847430631e+00	-9.781533178999284386e-03	3.357216710178279924e-05	3.409718737187991591e-05
3.834706231479346528e+00	1.713748883390349814e-06	-1.562461929586163106e-04	3.287288979912860246e-03	8.467542899092403985e-01	1.104109142679984723e+00	1.000090192108297193e+00	-9.781498361629928709e-03	3.362777877091741800e-05	3.483219788126551289e-05
3.874860223432010198e+00	1.713748784616965391e-06	-1.562456127216522300e-04	3.223912914112414454e-03	8.467575048198355825e-01	1.104498236304961134e+00	1.000090205072584171e+00	-9.782591231252673464e-03	3.368561078187243957e-05	3.557620869172361714e-05
3.915014215384673424e+00	1.713748856682041288e-06	-1.562449012266823288e-04	3.162594025542091788e-03	8.467608340829450020e-01	1.104913733130853837e+00	1.000090234359520602e+00	-9.778243139634474820e-03	3.374601417988947946e-05	3.632926928847602321e-05
3.955168207337336650e+00	1.713748292692503275e-06	-1.562446315469227668e-04	3.103213289732400897e-03	8.467619134101838085e-01	1.105355539286551281e+00	1.000090244903684811e+00	-9.781974592795774845e-03	3.380861476545723543e-05	3.709141636463691538e-05
3.995322199289999876e+00	1.714584732784040117e-06	-1.562870104460303692e-04	3.045206610830270867e-03	8.467602884007722208e-01	1.105725138389037188e+00	1.000000000000000000e+00	-1.000000000000000021e-02	3.386813387260657833e-05	3.787099207019621079e-05
