# Time=0.0236363636364 and Columns are r	p	Paether	ur	alpha	a	b	K	Sr_tilde	tau_tilde
2.007699597633165814e-02	1.197981275770159705e-02	-1.854483075472941264e-02	4.730330815673374341e-05	6.397928208691816554e-01	1.000247835993928414e+00	1.000057635784022292e+00	-1.284139863781138050e-02	2.146884427419901681e-09	6.038307038351944491e-06
6.023098792899497789e-02	1.186569677048079571e-02	-1.846050937481961626e-02	1.416522204965910700e-04	6.405109453500290595e-01	1.001766869919237912e+00	1.000057683885924975e+00	-1.280559295814819032e-02	5.758257702971627923e-08	5.390884653324474736e-05
1.003849798816582872e-01	1.164032469827322967e-02	-1.829246995086598535e-02	2.351472773930428925e-04	6.419439563230259216e-01	1.004790905212696650e+00	1.000057771830670461e+00	-1.272728731790840132e-02	2.629703843938035057e-07	1.473460731003850338e-04
1.405389718343216243e-01	1.130955525978241324e-02	-1.804209685771704375e-02	3.272067530962270601e-04	6.440844404167823667e-01	1.009291467588662616e+00	1.000057897126613859e+00	-1.260923159946334728e-02	7.068344935807564174e-07	2.818487993071794339e-04
1.806929637869849337e-01	1.088183745187119682e-02	-1.771145929694009635e-02	4.173937178381415284e-04	6.469211971663155758e-01	1.015224723343995272e+00	1.000058059167718616e+00	-1.245553876879088896e-02	1.461631912602376421e-06	4.509285102392594433e-04
2.208469557396482430e-01	1.036793727635186221e-02	-1.730337187509215294e-02	5.053160508133486576e-04	6.504389099143621511e-01	1.022530224726132531e+00	1.000058254317124362e+00	-1.226792351162502709e-02	2.578998002804128985e-06	6.464165606955802690e-04
2.610009476923115801e-01	9.780539716600072236e-03	-1.682143675333211061e-02	5.907299551995540176e-04	6.546176726523342815e-01	1.031129427720046232e+00	1.000058478476311796e+00	-1.204989609212473237e-02	4.086980570838100597e-06	8.588586197079550863e-04
3.011549396449748617e-01	9.133780625412072154e-03	-1.627007252263036607e-02	6.734802168335624539e-04	6.594327689213671517e-01	1.040924088425760896e+00	1.000058727355727095e+00	-1.180569981820836674e-02	5.988491460429321475e-06	1.077982107062788004e-03
3.413089315976381988e-01	8.442731063367171079e-03	-1.565453840661730142e-02	7.536098032327466197e-04	6.648541396449878516e-01	1.051794765739973769e+00	1.000058996761830743e+00	-1.154044247364037316e-02	8.262583582065914666e-06	1.293217784525970381e-03
3.814629235503015359e-01	7.722855022982976457e-03	-1.498092892731087318e-02	8.312553261421595395e-04	6.708462135713525454e-01	1.063599672413006347e+00	1.000059282902713509e+00	-1.126001051457259199e-02	1.086580910044210015e-05	1.494251312088372982e-03
4.216169155029648175e-01	6.989466801471512156e-03	-1.425614632978567872e-02	9.067895514612040343e-04	6.773676202452805217e-01	1.076174166056584891e+00	1.000059582401416680e+00	-1.097089602005724487e-02	1.373732316588438014e-05	1.671575900026743685e-03
4.617709074556281545e-01	6.257211548826013651e-03	-1.348783610410442604e-02	9.806681494765061204e-04	6.843711517621431373e-01	1.089331192347926303e+00	1.000059892691465668e+00	-1.067992755503768820e-02	1.680160774076698316e-05	1.817012535382264574e-03
5.019248994082914361e-01	5.539594968327347241e-03	-1.268428693338218873e-02	1.053609554846090353e-03	6.918038796916916588e-01	1.102862989335771537e+00	1.000060211564459012e+00	-1.039390699216807303e-02	1.997620762747170342e-05	1.924162188244170780e-03
5.420788913609547732e-01	4.848583413592674925e-03	-1.185429154004508448e-02	1.126395268691719785e-03	6.996075932692268351e-01	1.116544303809362315e+00	1.000060537721091825e+00	-1.011917382913444727e-02	2.317365885541753989e-05	1.988754163110592436e-03
5.822328833136179993e-01	4.194294050295793892e-03	-1.100697627722087985e-02	1.200094405725246876e-03	7.077194155222523708e-01	1.130137275053497259e+00	1.000060869690178045e+00	-9.861124926116720396e-03	2.631036239838841531e-05	2.008859340396910737e-03
6.223868752662813364e-01	3.584787693516294609e-03	-1.015160582071175828e-02	1.275828544247283427e-03	7.160725403276917422e-01	1.143397967081694055e+00	1.000061206669036862e+00	-9.623732611424119093e-03	2.930594590869339149e-05	1.984945090683921855e-03
6.625408672189446735e-01	3.025971549218384876e-03	-9.297365350006497886e-03	1.355053863434878660e-03	7.245975724828054298e-01	1.156084343239649481e+00	1.000061546734523521e+00	-9.409115907073875226e-03	3.209222936969386916e-05	1.919762000862941867e-03
7.026948591716080106e-01	2.521610650466685807e-03	-8.453146982813249111e-03	1.439313312878599772e-03	7.332236412134252035e-01	1.167965230889652872e+00	1.000061888184263559e+00	-9.217197946208306042e-03	3.460941299176972975e-05	1.818068402760859110e-03
7.428488511242713477e-01	2.073439656568763171e-03	-7.627342576615639413e-03	1.530595167684498494e-03	7.418796570140465674e-01	1.178829650755881309e+00	1.000062227042754825e+00	-9.045496557265464768e-03	3.681474698358294325e-05	1.686216386623502241e-03
7.830028430769345738e-01	1.681359461683001183e-03	-6.827659875262574903e-03	1.631109203402076376e-03	7.504958298363539893e-01	1.188495714715718465e+00	1.000062559154740738e+00	-8.889065602256704390e-03	3.867605641121693203e-05	1.531638547278738917e-03
8.231568350295979108e-01	1.343697691625516224e-03	-6.060976204894677651e-03	1.743746495659448826e-03	7.590045999267386323e-01	1.196818307359964972e+00	1.000062877022208863e+00	-8.740594249444283773e-03	4.017986581035091381e-05	1.362285783762828915e-03
8.633108269822612479e-01	1.057509204193153585e-03	-5.333232897048267515e-03	1.871932234198534894e-03	7.673418092500741139e-01	1.203694810463433518e+00	1.000063172877510009e+00	-8.590665891231327386e-03	4.132314930413368307e-05	1.186070547582809831e-03
9.034648189349245850e-01	8.188919189025644762e-04	-4.649380471994702703e-03	2.020225178916161025e-03	7.754468216917830281e-01	1.209068396600060158e+00	1.000063434875922308e+00	-8.428186106982673426e-03	4.212030522573909590e-05	1.010365848196664211e-03
9.436188108875879221e-01	6.232957318811076404e-04	-4.013359457503213462e-03	2.194326613149714510e-03	7.832636959386067854e-01	1.212928638476424181e+00	1.000063651349702987e+00	-8.241037372456540971e-03	4.259394925996034712e-05	8.415996623665261602e-04
9.837728028402512592e-01	4.658060481089003595e-04	-3.428133499141341415e-03	2.401886418388287335e-03	7.907399554107921169e-01	1.215309563693071082e+00	1.000063806436896963e+00	-8.017048215082979781e-03	4.278003091199019206e-05	6.849686225949686274e-04
1.023926794792914485e+00	3.413894027318196750e-04	-2.895732066690976346e-03	2.652781893667389545e-03	7.978274440643794430e-01	1.216285466037353213e+00	1.000063885847358058e+00	-7.745505672227833045e-03	4.271858717518652444e-05	5.442786427664004709e-04
1.064080786745577933e+00	2.450943073153049397e-04	-2.417319236618078234e-03	2.960208466677896177e-03	8.044810597163962740e-01	1.215965055615079393e+00	1.000063872291775402e+00	-7.419451115296992090e-03	4.245684763893576815e-05	4.219053953647588151e-04
1.104234778698241159e+00	1.722065009998012129e-04	-1.993241706656028595e-03	3.341272478977310671e-03	8.106591173829214014e-01	1.214484486358622606e+00	1.000063753467518080e+00	-7.039023635616163156e-03	4.204103622700449577e-05	3.188581809598076740e-04
1.144388770650904386e+00	1.183621754914894258e-04	-1.623060575861951611e-03	3.818173484484506126e-03	8.163237945731042222e-01	1.211999863435557323e+00	1.000063518024743248e+00	-6.615805456176637039e-03	4.151801281802680279e-05	2.349262286900285232e-04
1.184542762603567834e+00	7.962602544688103859e-05	-1.305542338093212528e-03	4.418425678380894124e-03	8.214399735247153167e-01	1.208679574520671318e+00	1.000063166481950150e+00	-6.177332059641285622e-03	4.092911999690934167e-05	1.688873019632682710e-04
1.224696754556231060e+00	5.254171587503671009e-05	-1.038603006781991557e-03	5.174354580851737301e-03	8.259804987696857115e-01	1.204696763692225892e+00	1.000062707518827976e+00	-5.769772940435970686e-03	4.031138522852152769e-05	1.187609564911279951e-04
1.264850746508894508e+00	3.416097559306642713e-05	-8.192391595573506567e-04	6.119303048960526153e-03	8.299298726191546294e-01	1.200222004000501830e+00	1.000062169893032538e+00	-5.455324328183458818e-03	3.969414765869974394e-05	8.209011141294901125e-05
1.305004738461557734e+00	2.205376333136873266e-05	-6.434922569065263916e-04	7.279271157146809806e-03	8.332866151307093405e-01	1.195416388986795253e+00	1.000061594303649715e+00	-5.301159492701109678e-03	3.910077435299896717e-05	5.623075684689567036e-05
1.345158730414220960e+00	1.429778739387577875e-05	-5.065089611583621252e-04	8.657396956173289346e-03	8.360610243432119448e-01	1.190425261728321971e+00	1.000061039261333384e+00	-5.360029481725214935e-03	3.854754981525602227e-05	3.862138116512338500e-05
1.385312722366884408e+00	9.443691774269682496e-06	-4.027364517409193038e-04	1.021380814074898322e-02	8.382982800246052690e-01	1.185373232008832156e+00	1.000060561746136667e+00	-5.649035079754855665e-03	3.804458633336748209e-05	2.699692249483663339e-05
1.425466714319547634e+00	6.455163941086864079e-06	-3.263136078173303257e-04	1.184970190054483730e-02	8.400563279486691348e-01	1.180361074730955862e+00	1.000060215560348187e+00	-6.137035338757250436e-03	3.759426334836447724e-05	1.951686549436217080e-05
1.465620706272211082e+00	4.630214609058198890e-06	-2.715118515458085266e-04	1.341320486129693283e-02	8.414032567581047894e-01	1.175465103448725346e+00	1.000060028329721407e+00	-6.750364493968844144e-03	3.719216362388777367e-05	1.479781548079012445e-05
1.505774698224874308e+00	3.516310169425708644e-06	-2.331500908266775885e-04	1.473742542712649581e-02	8.424173424028752466e-01	1.170738859776271346e+00	1.000060007969279630e+00	-7.396651825756224430e-03	3.683005997284102243e-05	1.186854459349524771e-05
1.545928690177537534e+00	2.832990719565059199e-06	-2.068560287013592684e-04	1.569684556868379544e-02	8.431736062709302981e-01	1.166216563425817920e+00	1.000060132469130059e+00	-7.995357893535741736e-03	3.650122807623305880e-05	1.008333440014081578e-05
1.586082682130200983e+00	2.410735964241632741e-06	-1.891587512795980558e-04	1.624561247511058584e-02	8.437429856118233706e-01	1.161917202023617257e+00	1.000060372389126595e+00	-8.498226600347730947e-03	3.620190926643936460e-05	9.028603684025154831e-06
1.626236674082864209e+00	2.148043893181173885e-06	-1.774352344573231692e-04	1.641563080712096778e-02	8.441655769209541749e-01	1.157848517752633866e+00	1.000060687330447617e+00	-8.891076945512907045e-03	3.592984954690106288e-05	8.444356694816616653e-06
1.666390666035527657e+00	1.983905652443154865e-06	-1.697733811000789192e-04	1.628520244069986758e-02	8.444958408406709749e-01	1.154010311489003904e+00	1.000061048405058495e+00	-9.182801121251561727e-03	3.568239968766508704e-05	8.167393385197455210e-06
1.706544657988190883e+00	1.881207437083246678e-06	-1.648273085706036519e-04	1.594440208213804971e-02	8.447509476898023006e-01	1.150397114110556007e+00	1.000061426104272844e+00	-9.391768695673681847e-03	3.545658041507642789e-05	8.094159840999572942e-06
1.746698649940854109e+00	1.817043915218844393e-06	-1.616681035916186929e-04	1.547264992754875286e-02	8.449564549774298827e-01	1.147000148826876842e+00	1.000061806720803137e+00	-9.537611767360601803e-03	3.524945964105699413e-05	8.157867812001533113e-06
1.786852641893517557e+00	1.777103976449798339e-06	-1.596691260314628052e-04	1.493026095937083526e-02	8.451251791578335837e-01	1.143808826512129340e+00	1.000062174201756360e+00	-9.637357994053153201e-03	3.505864130308947852e-05	8.314770918842028844e-06
1.827006633846180783e+00	1.752374788827375607e-06	-1.584143281177980735e-04	1.435862071264698038e-02	8.452693203765160312e-01	1.140811719782162337e+00	1.000062526225297788e+00	-9.704475005828673215e-03	3.488218007679499006e-05	8.535900291202585909e-06
1.867160625798844231e+00	1.737161941521334352e-06	-1.576322075257037591e-04	1.378407403846438305e-02	8.453920341198475352e-01	1.137997276530919200e+00	1.000062854394649259e+00	-9.749019908264293030e-03	3.471862352870399931e-05	8.801974752154364623e-06
1.907314617751507457e+00	1.727870146405299680e-06	-1.571456783545905993e-04	1.322223101458399122e-02	8.455071119358416043e-01	1.135354198348524690e+00	1.000063162273300277e+00	-9.778360740585679417e-03	3.456675356992010181e-05	9.100157879209686305e-06
1.947468609704170905e+00	1.722237917482206761e-06	-1.568452507842566358e-04	1.268165530334243278e-02	8.456036396589829973e-01	1.132871731848810626e+00	1.000063444655550304e+00	-9.797447292406391561e-03	3.442562308331235222e-05	9.421936812577761674e-06
1.987622601656834131e+00	1.718850589187903865e-06	-1.566583390468974401e-04	1.216646837090872534e-02	8.456944413927740545e-01	1.130539750685662481e+00	1.000063707706985161e+00	-9.809889174233954109e-03	3.429440239124255353e-05	9.761699259686915794e-06
2.027776593609497358e+00	1.716829627535397481e-06	-1.565419081867055041e-04	1.167813924528857301e-02	8.457746939382336793e-01	1.128348855821729169e+00	1.000063947087555194e+00	-9.817968394969438933e-03	3.417238974163779795e-05	1.011577575346920397e-05
2.067930585562160584e+00	1.715633372309371234e-06	-1.564681941471631832e-04	1.121660989037819890e-02	8.458481958627881436e-01	1.126290329909312327e+00	1.000064170029234756e+00	-9.823259014345690418e-03	3.405896554439398201e-05	1.048178637720938420e-05
2.108084577514824254e+00	1.714930904277649315e-06	-1.564197331248936998e-04	1.078099183133588920e-02	8.459191387581962429e-01	1.124356165149708708e+00	1.000064372042251071e+00	-9.826819177430836175e-03	3.395357927324831802e-05	1.085820390799371232e-05
2.148238569467487480e+00	1.714521482552308950e-06	-1.563875910231709069e-04	1.036998223673461957e-02	8.459816906387399582e-01	1.122538970830281091e+00	1.000064560815452142e+00	-9.829215858826456653e-03	3.385572957564667528e-05	1.124405631584942040e-05
2.188392561420150706e+00	1.714284640539014093e-06	-1.563642187716650183e-04	9.982115123117370203e-03	8.460436750198302436e-01	1.120831982144379513e+00	1.000064731328348611e+00	-9.830952766612699109e-03	3.376498896929604096e-05	1.163873345023361682e-05
2.228546553372813932e+00	1.714148495717509195e-06	-1.563473458392211786e-04	9.615877989023743216e-03	8.460980231093342407e-01	1.119228954929051278e+00	1.000064891533282374e+00	-9.832198106388023717e-03	3.368092841483642010e-05	1.204185516969581148e-05
2.268700545325477158e+00	1.714070716831650510e-06	-1.563336026105351844e-04	9.269816261950898639e-03	8.461510701025305448e-01	1.117724176988753371e+00	1.000065035763513244e+00	-9.833189460603714016e-03	3.360322071887047752e-05	1.245319006491633803e-05
2.308854537278140828e+00	1.714026434665650355e-06	-1.563224730857962848e-04	8.942527836377341111e-03	8.461994162843042844e-01	1.116312362412481329e+00	1.000065172207557529e+00	-9.833976027712678855e-03	3.353148721996695525e-05	1.287259831504729338e-05
2.349008529230804054e+00	1.714001302539290294e-06	-1.563132892875794793e-04	8.632729351148253280e-03	8.462421071409730322e-01	1.114988672511697532e+00	1.000065294536842009e+00	-9.834614820269007435e-03	3.346547840510003240e-05	1.330000002359980638e-05
2.389162521183467280e+00	1.713986982477813424e-06	-1.563049263361972153e-04	8.339205822844574303e-03	8.462836440578030972e-01	1.113748613160628009e+00	1.000065411205445232e+00	-9.835183871771553329e-03	3.340486787386091238e-05	1.373535033984040680e-05
2.429316513136130506e+00	1.713978807962006777e-06	-1.562976166123825300e-04	8.060860539662840010e-03	8.463207342266695354e-01	1.112588066804099718e+00	1.000065515237181124e+00	-9.835676206306492517e-03	3.334944960125693582e-05	1.417862884385890135e-05
2.469470505088793733e+00	1.713974043234167542e-06	-1.562908731850445973e-04	7.796661895696293913e-03	8.463560561502878610e-01	1.111503192746641888e+00	1.000065615396411811e+00	-9.836124812273432452e-03	3.329894412237049175e-05	1.462982794588497085e-05
2.509624497041457403e+00	1.713971245995562508e-06	-1.562848152305404599e-04	7.545682789140561661e-03	8.463879577787407626e-01	1.110490469791902912e+00	1.000065704077681250e+00	-9.836526340217290054e-03	3.325318531589872964e-05	1.508895085258374111e-05
2.549778488994120629e+00	1.713969514686781697e-06	-1.562789965586416354e-04	7.307049282922777576e-03	8.464191527647419999e-01	1.109546598415443341e+00	1.000065790399619292e+00	-9.836908879003503775e-03	3.321192843561429576e-05	1.555600515041799981e-05
2.589932480946783855e+00	1.713968445901107966e-06	-1.562737846579511757e-04	7.079977240764709703e-03	8.464470203389929948e-01	1.108668552891822534e+00	1.000065866143761140e+00	-9.837251845287969809e-03	3.317503825848589757e-05	1.603100416597241001e-05
2.630086472899447081e+00	1.713967714931523644e-06	-1.562688262072074014e-04	6.863725377367024122e-03	8.464738335954211657e-01	1.107853484236336561e+00	1.000065940821337929e+00	-9.837576339553250754e-03	3.314230274222908798e-05	1.651396244569791600e-05
2.670240464852110307e+00	1.713967242898137187e-06	-1.562641599914286409e-04	6.657628186180212376e-03	8.464988352610074429e-01	1.107098780879533173e+00	1.000066005611520703e+00	-9.837882004766368774e-03	3.311361239190479107e-05	1.700489845361561489e-05
2.710394456804773977e+00	1.713966883865660112e-06	-1.562599169013675850e-04	6.461053083960774553e-03	8.465219286277256838e-01	1.106401971158867958e+00	1.000066070452052314e+00	-9.838159393042937573e-03	3.308877691753480803e-05	1.750383066878142844e-05
2.750548448757437203e+00	1.713966653364503976e-06	-1.562558960426482292e-04	6.273434522671217546e-03	8.465434710235372195e-01	1.105760791830624701e+00	1.000066125925816785e+00	-9.838422604886777265e-03	3.306771741251248738e-05	1.801078084373490152e-05
2.790702440710100429e+00	1.713966462026842386e-06	-1.562525668633402652e-04	6.094229170139417798e-03	8.465616528609678504e-01	1.105173089116262997e+00	1.000066182426496031e+00	-9.838640913219887790e-03	3.305025738799715669e-05	1.852577024184073323e-05
2.830856432662763655e+00	1.713966348649645182e-06	-1.562494813105179858e-04	5.922955902712114841e-03	8.465781287396758614e-01	1.104636894494868127e+00	1.000066229942523588e+00	-9.838843820908944882e-03	3.303635292122960096e-05	1.904882317654848925e-05
2.871010424615426881e+00	1.713966246580324059e-06	-1.562464866973169370e-04	5.759144046422619984e-03	8.465945365038793913e-01	1.104150323604657924e+00	1.000066279348980514e+00	-9.839039880783544134e-03	3.302583001458378660e-05	1.957996321748447195e-05
2.911164416568090552e+00	1.713966204539352076e-06	-1.562436590751678967e-04	5.602380528016407193e-03	8.466095732360272574e-01	1.103711658735603951e+00	1.000066320039757040e+00	-9.839225500046278744e-03	3.301866242635557785e-05	2.011921691120897027e-05
2.951318408520753778e+00	1.713966161495136483e-06	-1.562409344580399813e-04	5.452257261059398341e-03	8.466245383933083124e-01	1.103319245109208202e+00	1.000066363393894875e+00	-9.839403490711355268e-03	3.301468666719609157e-05	2.066660989887619603e-05
2.991472400473417004e+00	1.713966168083627891e-06	-1.562387908216500312e-04	5.308418993576484619e-03	8.466359974748584039e-01	1.102971579684943526e+00	1.000066398208169227e+00	-9.839544949679137828e-03	3.301389675756895623e-05	2.122217078417846028e-05
3.031626392426080230e+00	1.713966162477462403e-06	-1.562363632959448136e-04	5.170511731217119003e-03	8.466492872703063055e-01	1.102667204299885739e+00	1.000066436385753876e+00	-9.839703522705144784e-03	3.301614725375563378e-05	2.178592714030189509e-05
3.071780384378743456e+00	1.713966202962746570e-06	-1.562345240934981687e-04	5.038225585951066655e-03	8.466591021332858791e-01	1.102404800661065387e+00	1.000066466121116937e+00	-9.839825110886638374e-03	3.302142962175467681e-05	2.235790951690270594e-05
3.111934376331407126e+00	1.713966222891124924e-06	-1.562323426668203654e-04	4.911253972873163946e-03	8.466710004987516580e-01	1.102183079827749657e+00	1.000066499861063107e+00	-9.839967359247116241e-03	3.302962495108780605e-05	2.293814732625427735e-05
3.152088368284070352e+00	1.713966286889752751e-06	-1.562312321637680302e-04	4.789324959219209456e-03	8.466769814621825097e-01	1.102000883322434399e+00	1.000066525190771660e+00	-9.840042269249015677e-03	3.304071880467181942e-05	2.352667298768244253e-05
3.192242360236733578e+00	1.713966319745816456e-06	-1.562292144870853442e-04	4.672174666423662207e-03	8.466879169362457880e-01	1.101857068561272746e+00	1.000066555119162537e+00	-9.840173697285323900e-03	3.305463368350233772e-05	2.412351768766521291e-05
3.232396352189396804e+00	1.713966400429933283e-06	-1.562282112206816336e-04	4.559558479520563028e-03	8.466932885116242868e-01	1.101750615931388344e+00	1.000066576613958924e+00	-9.840241183897696989e-03	3.307131445519178019e-05	2.472871566006574218e-05
3.272550344142060030e+00	1.713966441561215385e-06	-1.562264687001207932e-04	4.451251795523782952e-03	8.467029123261677892e-01	1.101680509997383428e+00	1.000066603263570331e+00	-9.840354747569968544e-03	3.309074190952778042e-05	2.534229982016908409e-05
3.312704336094723701e+00	1.713966533590839850e-06	-1.562251280777967027e-04	4.347032980352920177e-03	8.467100576105247578e-01	1.101645852416117233e+00	1.000066621409067658e+00	-9.840442974903419737e-03	3.311281933292265883e-05	2.596430617998894932e-05
3.352858328047386927e+00	1.713966582320351808e-06	-1.562243255926244224e-04	4.246709689796317709e-03	8.467145129183325514e-01	1.101645738677380360e+00	1.000066645234754192e+00	-9.840496851652062033e-03	3.313757165965212215e-05	2.659476935290554735e-05
3.393012320000050153e+00	1.713966675907295685e-06	-1.562230905790301552e-04	4.150086225376221905e-03	8.467211826760293603e-01	1.101679376869064475e+00	1.000066660445543931e+00	-9.840577945975245711e-03	3.316491095703085374e-05	2.723372710866309244e-05
3.433166311952713379e+00	1.713966728908704599e-06	-1.562222932270402741e-04	4.056990111920164878e-03	8.467255889923888112e-01	1.101745959608521286e+00	1.000066681836694782e+00	-9.840631114054235531e-03	3.319484248863297605e-05	2.788121573867894529e-05
3.473320303905376605e+00	1.713966822178111071e-06	-1.562217947172425962e-04	3.967250915788743740e-03	8.467283702132338830e-01	1.101844788777304851e+00	1.000066694467789841e+00	-9.840665290966815054e-03	3.322730882056302676e-05	2.853727476001444811e-05
3.513474295858040275e+00	1.713966872833183664e-06	-1.562210830083580072e-04	3.880716126670110365e-03	8.467322343454236622e-01	1.101975142428827770e+00	1.000066713758932302e+00	-9.840712879389675385e-03	3.326232045183881225e-05	2.920194213604315490e-05
3.553628287810703501e+00	1.713966964480545759e-06	-1.562202200570929280e-04	3.797231764173584958e-03	8.467370886876673941e-01	1.102136405476558112e+00	1.000066724114625050e+00	-9.840769586852817288e-03	3.329980305454685922e-05	2.987525912967047099e-05
3.593782279763366727e+00	1.713967014817099659e-06	-1.562199657740317136e-04	3.716663493815465773e-03	8.467384637264585567e-01	1.102327931400027605e+00	1.000066741594372699e+00	-9.840788001442682398e-03	3.333977833551278821e-05	3.055726537866237642e-05
3.633936271716029953e+00	1.713967101593937815e-06	-1.562192237434718053e-04	3.638876649906590439e-03	8.467425831969774830e-01	1.102549178869065782e+00	1.000066749937323030e+00	-9.840836807022263627e-03	3.338220060248284665e-05	3.124800389850610052e-05
3.674090263668693179e+00	1.713967150378904386e-06	-1.562189221379203991e-04	3.563748033748537214e-03	8.467441804274673522e-01	1.102799568257923024e+00	1.000066765854738193e+00	-9.840857935928639874e-03	3.342706063388343622e-05	3.194751601261563664e-05
3.714244255621356849e+00	1.713967232693365453e-06	-1.562182853439126294e-04	3.491160628052976909e-03	8.467476360547553371e-01	1.103078624099779192e+00	1.000066772411532634e+00	-9.840899723231162632e-03	3.347434694359266173e-05	3.265584650476524185e-05
3.754398247574020075e+00	1.713967279678213369e-06	-1.562174656024178931e-04	3.421001521245784719e-03	8.467521538312128282e-01	1.103385826213052479e+00	1.000066786983005995e+00	-9.840953429542853917e-03	3.352402602863036144e-05	3.337303839990735918e-05
3.794552239526683302e+00	1.713967360436347957e-06	-1.562175756527396675e-04	3.353167141926619108e-03	8.467514531988645787e-01	1.103720758210486208e+00	1.000066791949980827e+00	-9.840947919875300126e-03	3.357609935251061904e-05	3.409913827263264224e-05
3.834706231479346528e+00	1.713967401482822792e-06	-1.562174958095730298e-04	3.287560879934528588e-03	8.467521288801778123e-01	1.104082952651613603e+00	1.000066805364998590e+00	-9.840913287327116704e-03	3.363058344618946160e-05	3.483419088200333128e-05
3.874860223432010198e+00	1.713967464023478853e-06	-1.562172775009586798e-04	3.224085437032979482e-03	8.467531750024052117e-01	1.104472051148675416e+00	1.000066808918010475e+00	-9.841499924387455550e-03	3.368743824961434422e-05	3.557824449378334334e-05
3.915014215384673424e+00	1.713967587712692539e-06	-1.562171671848036245e-04	3.162654419715099901e-03	8.467538818269811918e-01	1.104887603286924591e+00	1.000066821424884456e+00	-9.838787553707803446e-03	3.374668489811629427e-05	3.633134699526673669e-05
3.955168207337336650e+00	1.713967376798539092e-06	-1.562171209794133619e-04	3.103181736571323027e-03	8.467540209699793152e-01	1.105329382590922505e+00	1.000066823908668523e+00	-9.842821605366317700e-03	3.380830017552149600e-05	3.709354157255968494e-05
3.995322199289999876e+00	1.714584732784040117e-06	-1.562470376827465276e-04	3.045206610830270867e-03	8.467602885971263760e-01	1.105725138389037188e+00	1.000000000000000000e+00	-1.000000000000000021e-02	3.386813387260657833e-05	3.787099207019621079e-05
