# Mass=0.188869990326 and Radius=1.33478413497 and Columns are 	r	p	Paether	m
0.000000000000000000e+00	1.200000000000000025e-02	-1.841944192555021453e-02	0.000000000000000000e+00
2.012237389408769866e-02	1.198551253439433806e-02	-1.840904112833727929e-02	3.843821224503807849e-06
4.024474778817539733e-02	1.194214845113875274e-02	-1.837785978634259507e-02	3.070638105202638584e-05
6.036712168226309599e-02	1.187019055312563826e-02	-1.832595312375724303e-02	1.033858499239324760e-04
8.048949557635079466e-02	1.177010917807529491e-02	-1.825341508379855343e-02	2.442416962293587467e-04
1.006118694704384864e-01	1.164255656215749772e-02	-1.816037817705560414e-02	4.749815346797420755e-04
1.207342433645261920e-01	1.148836063252618549e-02	-1.804701439874434321e-02	8.164552370940412335e-04
1.408566172586138976e-01	1.130851720261771831e-02	-1.791353640478858186e-02	1.288458699526674354e-03
1.609789911527015893e-01	1.110418061587830491e-02	-1.776019888379829284e-02	1.909549407626982267e-03
1.811013650467892810e-01	1.087665290785837235e-02	-1.758730005815688571e-02	2.696875733145577721e-03
2.012237389408769728e-01	1.062737153414601218e-02	-1.739518321295836431e-02	3.666021998968697904e-03
2.213461128349646923e-01	1.035789590692534276e-02	-1.718423828007550197e-02	4.830870910811178344e-03
2.414684867290523840e-01	1.006989327716587869e-02	-1.695490372691748487e-02	6.203484323455187542e-03
2.615908606231400757e-01	9.765122366765176601e-03	-1.670766730527439153e-02	7.794004681841713508e-03
2.817132345172277952e-01	9.445417499563898284e-03	-1.644306759574502841e-02	9.610576239045813540e-03
3.018356084113154592e-01	9.112672279149486992e-03	-1.616169545060442206e-02	1.165928805928703217e-02
3.219579823054031786e-01	8.768821435364894737e-03	-1.586419394619412518e-02	1.394414137060196249e-02
3.420803561994908981e-01	8.415823851963166041e-03	-1.555125905000903121e-02	1.646703388263585227e-02
3.622027300935785621e-01	8.055645132206386630e-03	-1.522363949281503072e-02	1.922776881247453482e-02
3.823251039876662816e-01	7.690240345005887670e-03	-1.488213614560646159e-02	2.222408821493405962e-02
4.024474778817539455e-01	7.321536861411622604e-03	-1.452760051730717095e-02	2.545172257632766916e-02
4.225698517758416650e-01	6.951417646606569169e-03	-1.416093239402037296e-02	2.890445790353772526e-02
4.426922256699293845e-01	6.581705689630156127e-03	-1.378307724328680511e-02	3.257422801709256716e-02
4.628145995640170485e-01	6.214152114320721856e-03	-1.339502566740025970e-02	3.645121716877647994e-02
4.829369734581047680e-01	5.850420608440515258e-03	-1.299780752469419098e-02	4.052398571378838105e-02
5.030593473521924874e-01	5.492074445504483565e-03	-1.259248626958526379e-02	4.477959469254436803e-02
5.231817212462801514e-01	5.140565714873115283e-03	-1.218015344210589962e-02	4.920376319375439206e-02
5.433040951403678154e-01	4.797230377561489435e-03	-1.176192764747685526e-02	5.378100504118935726e-02
5.634264690344555904e-01	4.463278622913994034e-03	-1.133894592971248540e-02	5.849480647566743241e-02
5.835488429285432543e-01	4.139787412168764204e-03	-1.091235479829813677e-02	6.332778098211423734e-02
6.036712168226309183e-01	3.827696470887769972e-03	-1.048330245518467110e-02	6.826185207593901683e-02
6.237935907167186933e-01	3.527810086318768253e-03	-1.005293663305591341e-02	7.327839647246647825e-02
6.439159646108063573e-01	3.240796983467048031e-03	-9.622397869375146073e-03	7.835841784328541337e-02
6.640383385048940212e-01	2.967188024827620372e-03	-9.192806994054589925e-03	8.348272031306538943e-02
6.841607123989817962e-01	2.707378513151871557e-03	-8.765256025049534411e-03	8.863207377786005980e-02
7.042830862930694602e-01	2.461635807089193866e-03	-8.340805480935395422e-03	9.378734684531798982e-02
7.244054601871571242e-01	2.230106818211668486e-03	-7.920480801629412732e-03	9.892963266589219207e-02
7.445278340812448992e-01	2.012822807410653142e-03	-7.505262528476620495e-03	1.040404022763389141e-01
7.646502079753325631e-01	1.809705842112053478e-03	-7.096077425839950222e-03	1.091016210725618552e-01
7.847725818694202271e-01	1.620580298603883961e-03	-6.693797892084702578e-03	1.140958590623449287e-01
8.048949557635078911e-01	1.445181626978527065e-03	-6.299236510665176536e-03	1.190063762971791672e-01
8.250173296575956661e-01	1.283167173374925515e-03	-5.913144456354898701e-03	1.238172194283480299e-01
8.451397035516833300e-01	1.134124472084463344e-03	-5.536204757305481644e-03	1.285132819999524334e-01
8.652620774457709940e-01	9.975836139818794641e-04	-5.169035535103718056e-03	1.330803704968041568e-01
8.853844513398587690e-01	8.730254542689607020e-04	-4.812184662952671658e-03	1.375052564363831720e-01
9.055068252339464330e-01	7.598930885431716929e-04	-4.466134354560898946e-03	1.417757116162582653e-01
9.256291991280340969e-01	6.575996780203275218e-04	-4.131297888176455047e-03	1.458805348403091895e-01
9.457515730221218719e-01	5.655384177717455614e-04	-3.808024960833389545e-03	1.498095680249504347e-01
9.658739469162095359e-01	4.830897758383116952e-04	-3.496601392179801877e-03	1.535537151574881687e-01
9.859963208102971999e-01	4.096293974082370194e-04	-3.197254060404503950e-03	1.571049414857808579e-01
1.006118694704384975e+00	3.445345160101528112e-04	-2.910154004245588989e-03	1.604562747143390145e-01
1.026241068598472639e+00	2.871897703729825598e-04	-2.635420806342135287e-03	1.636017970372944663e-01
1.046363442492560303e+00	2.369923799547317368e-04	-2.373128342362271301e-03	1.665366392355318859e-01
1.066485816386647967e+00	1.933561393287844819e-04	-2.123309206597044033e-03	1.692569731881919948e-01
1.086608190280735631e+00	1.557151275693076115e-04	-1.885962222776918365e-03	1.717599992971828859e-01
1.106730564174823517e+00	1.235263029732538759e-04	-1.661058622576641478e-03	1.740439478629662584e-01
1.126852938068911181e+00	9.627158347352684565e-05	-1.448550161712196640e-03	1.761080690462006049e-01
1.146975311962998845e+00	7.345939111530130840e-05	-1.248379458826926088e-03	1.779526551193192363e-01
1.167097685857086509e+00	5.462521096718335863e-05	-1.060489367559500811e-03	1.795790418221564488e-01
1.187220059751174173e+00	3.933220913509334632e-05	-8.848409430550742633e-04	1.809896692500337911e-01
1.207342433645261837e+00	2.717068339032602706e-05	-7.214316496440217625e-04	1.821881414556716927e-01
1.227464807539349723e+00	1.775733565646640003e-05	-5.703270291601611865e-04	1.831793446595524621e-01
1.247587181433437387e+00	1.073402264110821219e-05	-4.317161513513678652e-04	1.839696447830140857e-01
1.267709555327525051e+00	5.766196477666176784e-06	-3.060354221456104262e-04	1.845672232285116843e-01
1.287831929221612715e+00	2.541888400670203410e-06	-1.943660569136122665e-04	1.849828664377775322e-01
1.307954303115700379e+00	7.688052655444468277e-07	-1.001251550382587554e-04	1.852323570108795892e-01
1.328076677009788042e+00	1.118868315679729370e-07	-3.434668094089766863e-05	1.853451946126363215e-01
1.348199050903875706e+00	9.306791460826526069e-09	-8.631263694210756691e-06	1.853786625749545836e-01
1.368321424797963592e+00	2.389357813013079076e-09	-4.055536218191754127e-06	1.853891501423142463e-01
1.388443798692051256e+00	1.790639207432533461e-09	-3.455078365764668248e-06	1.853961824234173494e-01
1.408566172586138920e+00	1.721066562960350902e-09	-3.379848977796428573e-06	1.854028962278428116e-01
1.428688546480226584e+00	1.712048387430930005e-09	-3.369999361309284379e-06	1.854097633650367283e-01
1.448810920374314248e+00	1.710923576251732741e-09	-3.368769230897153814e-06	1.854168179000632022e-01
1.468933294268401912e+00	1.710349769908169926e-09	-3.368141558981462340e-06	1.854240717139900574e-01
1.489055668162489798e+00	1.710262052937496280e-09	-3.368045599408398322e-06	1.854315266705322263e-01
1.509178042056577462e+00	1.710258141479114981e-09	-3.368041320346513290e-06	1.854391869729183351e-01
1.529300415950665126e+00	1.710256218272569321e-09	-3.368039216393136516e-06	1.854470511923486109e-01
1.549422789844752790e+00	1.710254992327006572e-09	-3.368037875230188452e-06	1.854551259315015688e-01
1.569545163738840454e+00	1.710256603496770380e-09	-3.368039637821569319e-06	1.854634151485844151e-01
1.589667537632928118e+00	1.710259065849969560e-09	-3.368042331591230811e-06	1.854719199518393979e-01
1.609789911527015782e+00	1.710261019106543030e-09	-3.368044468417207491e-06	1.854806423726653442e-01
1.629912285421103668e+00	1.710261383966470615e-09	-3.368044867566989457e-06	1.854895845966413048e-01
1.650034659315191332e+00	1.710261387332986727e-09	-3.368044871249893370e-06	1.854987500748138396e-01
1.670157033209278996e+00	1.710261393186846108e-09	-3.368044877653903756e-06	1.855081417847238567e-01
1.690279407103366660e+00	1.710261400362574643e-09	-3.368044885504012411e-06	1.855177625035479838e-01
1.710401780997454324e+00	1.710261407694698836e-09	-3.368044893525215792e-06	1.855276150084628761e-01
1.730524154891541988e+00	1.710261414017744780e-09	-3.368044900442506968e-06	1.855377020766451335e-01
1.750646528785629874e+00	1.710261418166238772e-09	-3.368044904980879430e-06	1.855480264852714389e-01
1.770768902679717538e+00	1.710261419152531712e-09	-3.368044906059865573e-06	1.855585910111894610e-01
1.790891276573805202e+00	1.710261419152978389e-09	-3.368044906060353888e-06	1.855693984253948270e-01
1.811013650467892866e+00	1.710261419153839691e-09	-3.368044906061296212e-06	1.855804515010842370e-01
1.831136024361980530e+00	1.710261419154934465e-09	-3.368044906062493916e-06	1.855917530132789872e-01
1.851258398256068194e+00	1.710261419156081764e-09	-3.368044906063748796e-06	1.856033057370004014e-01
1.871380772150156080e+00	1.710261419157100644e-09	-3.368044906064863491e-06	1.856151124472697200e-01
1.891503146044243744e+00	1.710261419157810365e-09	-3.368044906065640220e-06	1.856271759191082948e-01
1.911625519938331408e+00	1.710261419158035151e-09	-3.368044906065885860e-06	1.856394989269785079e-01
1.931747893832419072e+00	1.710261419158035151e-09	-3.368044906065885860e-06	1.856520842019139250e-01
1.951870267726506736e+00	1.710261419158035151e-09	-3.368044906065885860e-06	1.856649344784374878e-01
1.971992641620594400e+00	1.710261419158035151e-09	-3.368044906065885860e-06	1.856780525135121596e-01
1.992115015514682064e+00	1.710261419158035151e-09	-3.368044906065885860e-06	1.856914410641009039e-01
2.012237389408769950e+00	1.710261419158035151e-09	-3.368044906065885860e-06	1.857051028871666842e-01
2.032359763302857392e+00	1.710261419158035151e-09	-3.368044906065885860e-06	1.857190407396724641e-01
2.052482137196945278e+00	1.710261419158035151e-09	-3.368044906065885860e-06	1.857332573785811791e-01
2.072604511091033164e+00	1.710261419158035151e-09	-3.368044906065885860e-06	1.857477555608557651e-01
2.092726884985120606e+00	1.710261419158035151e-09	-3.368044906065885860e-06	1.857625380434592133e-01
2.112849258879208492e+00	1.710261419158035151e-09	-3.368044906065885860e-06	1.857776075833544871e-01
2.132971632773295934e+00	1.710261419158035151e-09	-3.368044906065885860e-06	1.857929669375044945e-01
2.153094006667383820e+00	1.710261419158035151e-09	-3.368044906065885860e-06	1.858086188628722546e-01
2.173216380561471262e+00	1.710261419158035151e-09	-3.368044906065885860e-06	1.858245661164206752e-01
2.193338754455559148e+00	1.710261419158035151e-09	-3.368044906065885860e-06	1.858408114551127477e-01
2.213461128349647034e+00	1.710261419158035151e-09	-3.368044906065885860e-06	1.858573576359114077e-01
2.233583502243734475e+00	1.710261419158035151e-09	-3.368044906065885860e-06	1.858742074157795909e-01
2.253705876137822361e+00	1.710261419158035151e-09	-3.368044906065885860e-06	1.858913635516802887e-01
2.273828250031909803e+00	1.710261419158035151e-09	-3.368044906065885860e-06	1.859088288005764367e-01
2.293950623925997689e+00	1.710261419158035151e-09	-3.368044906065885860e-06	1.859266059194310261e-01
2.314072997820085131e+00	1.710261419158035151e-09	-3.368044906065885860e-06	1.859446976652069650e-01
2.334195371714173017e+00	1.710261419158035151e-09	-3.368044906065885860e-06	1.859631067948672445e-01
2.354317745608260903e+00	1.710261419158035151e-09	-3.368044906065885860e-06	1.859818360653748004e-01
2.374440119502348345e+00	1.710261419158035151e-09	-3.368044906065885860e-06	1.860008882336925962e-01
2.394562493396436231e+00	1.710261419158035151e-09	-3.368044906065885860e-06	1.860202660567835953e-01
2.414684867290523673e+00	1.710261419158035151e-09	-3.368044906065885860e-06	1.860399722916107335e-01
2.434807241184611559e+00	1.710261419158035151e-09	-3.368044906065885860e-06	1.860600096951370019e-01
2.454929615078699445e+00	1.710261419158035151e-09	-3.368044906065885860e-06	1.860803810243253087e-01
2.475051988972786887e+00	1.710261419158035151e-09	-3.368044906065885860e-06	1.861010890361386727e-01
2.495174362866874773e+00	1.710261419158035151e-09	-3.368044906065885860e-06	1.861221364875400019e-01
2.515296736760962215e+00	1.710261419158035151e-09	-3.368044906065885860e-06	1.861435261354922599e-01
2.535419110655050101e+00	1.710261419158035151e-09	-3.368044906065885860e-06	1.861652607369583823e-01
2.555541484549137543e+00	1.710261419158035151e-09	-3.368044906065885860e-06	1.861873430489013881e-01
2.575663858443225429e+00	1.710261419158035151e-09	-3.368044906065885860e-06	1.862097758282841853e-01
2.595786232337313315e+00	1.710261419158035151e-09	-3.368044906065885860e-06	1.862325618320697374e-01
2.615908606231400757e+00	1.710261419158035151e-09	-3.368044906065885860e-06	1.862557038172210078e-01
2.636030980125488643e+00	1.710261419158035151e-09	-3.368044906065885860e-06	1.862792045407009600e-01
2.656153354019576085e+00	1.710261419158035151e-09	-3.368044906065885860e-06	1.863030667594725298e-01
2.676275727913663971e+00	1.710261419158035151e-09	-3.368044906065885860e-06	1.863272932304987084e-01
2.696398101807751413e+00	1.710261419158035151e-09	-3.368044906065885860e-06	1.863518867107424037e-01
2.716520475701839299e+00	1.710261419158035151e-09	-3.368044906065885860e-06	1.863768499571666071e-01
2.736642849595927185e+00	1.710261419158035151e-09	-3.368044906065885860e-06	1.864021857267342541e-01
2.756765223490014627e+00	1.710261419158035151e-09	-3.368044906065885860e-06	1.864278967764083084e-01
2.776887597384102513e+00	1.710261419158035151e-09	-3.368044906065885860e-06	1.864539858631517333e-01
2.797009971278189955e+00	1.710261419158035151e-09	-3.368044906065885860e-06	1.864804557565922782e-01
2.817132345172277841e+00	1.710261419158035151e-09	-3.368044906065885860e-06	1.865073092608555694e-01
2.837254719066365727e+00	1.710261419158035151e-09	-3.368044906065885860e-06	1.865345491398644195e-01
2.857377092960453169e+00	1.710261419158035151e-09	-3.368044906065885860e-06	1.865621781534379797e-01
2.877499466854541055e+00	1.710261419158035151e-09	-3.368044906065885860e-06	1.865901990613954287e-01
2.897621840748628497e+00	1.710261419158035151e-09	-3.368044906065885860e-06	1.866186146235559729e-01
2.917744214642716383e+00	1.710261419158035151e-09	-3.368044906065885860e-06	1.866474275997387355e-01
2.937866588536803825e+00	1.710261419158035151e-09	-3.368044906065885860e-06	1.866766407497629232e-01
2.957988962430891711e+00	1.710261419158035151e-09	-3.368044906065885860e-06	1.867062568334477424e-01
2.978111336324979597e+00	1.710261419158035151e-09	-3.368044906065885860e-06	1.867362786106123163e-01
2.998233710219067039e+00	1.710261419158035151e-09	-3.368044906065885860e-06	1.867667088410758514e-01
3.018356084113154925e+00	1.710261419158035151e-09	-3.368044906065885860e-06	1.867975502846574987e-01
3.038478458007242367e+00	1.710261419158035151e-09	-3.368044906065885860e-06	1.868288057011764647e-01
3.058600831901330253e+00	1.710261419158035151e-09	-3.368044906065885860e-06	1.868604778504519282e-01
3.078723205795417694e+00	1.710261419158035151e-09	-3.368044906065885860e-06	1.868925694923030401e-01
3.098845579689505580e+00	1.710261419158035151e-09	-3.368044906065885860e-06	1.869250833865489791e-01
3.118967953583593467e+00	1.710261419158035151e-09	-3.368044906065885860e-06	1.869580222930089519e-01
3.139090327477680908e+00	1.710261419158035151e-09	-3.368044906065885860e-06	1.869913889715021094e-01
3.159212701371768794e+00	1.710261419158035151e-09	-3.368044906065885860e-06	1.870251861818476302e-01
3.179335075265856236e+00	1.710261419158035151e-09	-3.368044906065885860e-06	1.870594166838646932e-01
3.199457449159944122e+00	1.710261419158035151e-09	-3.368044906065885860e-06	1.870940832373724771e-01
3.219579823054031564e+00	1.710261419158035151e-09	-3.368044906065885860e-06	1.871291886021901607e-01
3.239702196948119450e+00	1.710261419158035151e-09	-3.368044906065885860e-06	1.871647355381369227e-01
3.259824570842207336e+00	1.710261419158035151e-09	-3.368044906065885860e-06	1.872007268050319417e-01
3.279946944736294778e+00	1.710261419158035151e-09	-3.368044906065885860e-06	1.872371651626943967e-01
3.300069318630382664e+00	1.710261419158035151e-09	-3.368044906065885860e-06	1.872740533709434385e-01
3.320191692524470106e+00	1.710261419158035151e-09	-3.368044906065885860e-06	1.873113941895982459e-01
3.340314066418557992e+00	1.710261419158035151e-09	-3.368044906065885860e-06	1.873491903784780532e-01
3.360436440312645878e+00	1.710261419158035151e-09	-3.368044906065885860e-06	1.873874446974019559e-01
3.380558814206733320e+00	1.710261419158035151e-09	-3.368044906065885860e-06	1.874261599061891881e-01
3.400681188100821206e+00	1.710261419158035151e-09	-3.368044906065885860e-06	1.874653387646589286e-01
3.420803561994908648e+00	1.710261419158035151e-09	-3.368044906065885860e-06	1.875049840326303008e-01
3.440925935888996534e+00	1.710261419158035151e-09	-3.368044906065885860e-06	1.875450984699225387e-01
3.461048309783083976e+00	1.710261419158035151e-09	-3.368044906065885860e-06	1.875856848363547658e-01
3.481170683677171862e+00	1.710261419158035151e-09	-3.368044906065885860e-06	1.876267458917462161e-01
3.501293057571259748e+00	1.710261419158035151e-09	-3.368044906065885860e-06	1.876682843959160407e-01
3.521415431465347190e+00	1.710261419158035151e-09	-3.368044906065885860e-06	1.877103031086833906e-01
3.541537805359435076e+00	1.710261419158035151e-09	-3.368044906065885860e-06	1.877528047898674723e-01
3.561660179253522518e+00	1.710261419158035151e-09	-3.368044906065885860e-06	1.877957921992874646e-01
3.581782553147610404e+00	1.710261419158035151e-09	-3.368044906065885860e-06	1.878392680967625183e-01
3.601904927041697846e+00	1.710261419158035151e-09	-3.368044906065885860e-06	1.878832352421118401e-01
3.622027300935785732e+00	1.710261419158035151e-09	-3.368044906065885860e-06	1.879276963951546087e-01
3.642149674829873618e+00	1.710261419158035151e-09	-3.368044906065885860e-06	1.879726543157099750e-01
3.662272048723961060e+00	1.710261419158035151e-09	-3.368044906065885860e-06	1.880181117635972010e-01
3.682394422618048946e+00	1.710261419158035151e-09	-3.368044906065885860e-06	1.880640714986406836e-01
3.702516796512136388e+00	1.710261419158035151e-09	-3.368044906065885860e-06	1.881105362806630155e-01
3.722639170406224274e+00	1.710261419158035151e-09	-3.368044906065885860e-06	1.881575088694837361e-01
3.742761544300312160e+00	1.710261419158035151e-09	-3.368044906065885860e-06	1.882049920249223851e-01
3.762883918194399602e+00	1.710261419158035151e-09	-3.368044906065885860e-06	1.882529885067985298e-01
3.783006292088487488e+00	1.710261419158035151e-09	-3.368044906065885860e-06	1.883015010749317375e-01
3.803128665982574930e+00	1.710261419158035151e-09	-3.368044906065885860e-06	1.883505324891415478e-01
3.823251039876662816e+00	1.710261419158035151e-09	-3.368044906065885860e-06	1.884000855092475557e-01
3.843373413770750258e+00	1.710261419158035151e-09	-3.368044906065885860e-06	1.884501628950692731e-01
3.863495787664838144e+00	1.710261419158035151e-09	-3.368044906065885860e-06	1.885007674064262673e-01
3.883618161558926030e+00	1.710261419158035151e-09	-3.368044906065885860e-06	1.885519018031381056e-01
3.903740535453013472e+00	1.710261419158035151e-09	-3.368044906065885860e-06	1.886035688450243275e-01
3.923862909347101358e+00	1.710261419158035151e-09	-3.368044906065885860e-06	1.886557712919045282e-01
3.943985283241188800e+00	1.710261419158035151e-09	-3.368044906065885860e-06	1.887085119035982195e-01
3.964107657135276686e+00	1.710261419158035151e-09	-3.368044906065885860e-06	1.887617934399249686e-01
3.984230031029364127e+00	1.710261419158035151e-09	-3.368044906065885860e-06	1.888156186607043430e-01
4.004352404923452013e+00	1.710261419158035151e-09	-3.368044906065885860e-06	1.888699903257558821e-01
