# Time=0.00110002200044 and Columns are r	p	Paether	ur	alpha	a	b	K	Sr_tilde	tau_tilde
1.001333884533834630e-02	1.199619070274672919e-02	-1.852031904773597873e-02	1.841859805280258856e-05	6.444287394249234024e-01	1.000049696802244981e+00	1.000002373870363170e+00	-1.007969361602187829e-02	2.080620347005288189e-10	1.503608750751389237e-06
3.004001653601504063e-02	1.196765671588841291e-02	-1.849937680272974519e-02	5.525155738207834831e-05	6.446066970241819405e-01	1.000428120170618884e+00	1.000002374882453804e+00	-1.007937450927341022e-02	5.610517878084548566e-09	1.350539934414444332e-05
5.006669422669172975e-02	1.191077275782119298e-02	-1.845753257311911685e-02	9.207186480433330830e-05	6.449623929025379843e-01	1.001184106203837132e+00	1.000002376903120549e+00	-1.007872347812391670e-02	2.590844779726119499e-08	3.736489913472822974e-05
7.009337191736843276e-02	1.182590750479593257e-02	-1.839486865534748980e-02	1.288715572925155678e-04	6.454953791071897928e-01	1.002315926284040648e+00	1.000002379926604457e+00	-1.007774551665161118e-02	7.082124344766293852e-08	7.279559969607216248e-05
9.012004960804512188e-02	1.171360903643462771e-02	-1.831150862386579994e-02	1.656434897065957356e-04	6.462049836921595070e-01	1.003820969566708188e+00	1.000002383944565532e+00	-1.007644793432989176e-02	1.497548594423844217e-07	1.193718629446263935e-04
1.101467272987218110e-01	1.157460011211927826e-02	-1.820761837707812747e-02	2.023815645923006585e-04	6.470903009520919680e-01	1.005695721821298960e+00	1.000002388945659293e+00	-1.007483321772919410e-02	2.716822342914000984e-07	1.765338385760613859e-04
1.301734049893985001e-01	1.140977144216567818e-02	-1.808340690605322182e-02	2.390810072260798251e-04	6.481501893693236704e-01	1.007935737799171783e+00	1.000002394915788129e+00	-1.007290694672740086e-02	4.450293427344010215e-07	2.435939665857504417e-04
1.502000826800751754e-01	1.122017338702495197e-02	-1.793912746512310238e-02	2.757386537382788784e-04	6.493832590438717300e-01	1.010535607634861055e+00	1.000002401838163690e+00	-1.007067575910368211e-02	6.775683609189496229e-07	3.197450172107396921e-04
1.702267603707518784e-01	1.100700617956174888e-02	-1.777507854274786026e-02	3.123531530776730647e-04	6.507878692938210419e-01	1.013488917939185718e+00	1.000002409693382166e+00	-1.006814782665429488e-02	9.763190546376609674e-07	4.040696071092556734e-04
1.902534380614285814e-01	1.077160877124456670e-02	-1.759160528459396272e-02	3.489252286925367884e-04	6.523621112269766265e-01	1.016788208394968640e+00	1.000002418459492892e+00	-1.006533286296489027e-02	1.347459779541158248e-06	4.955511160980418783e-04
2.102801157521052566e-01	1.051544641685568313e-02	-1.738910048687279664e-02	3.854578275105697985e-04	6.541038056911268050e-01	1.020424924834089753e+00	1.000002428112101160e+00	-1.006224237778789721e-02	1.796248651439794790e-06	5.930859131826154941e-04
2.303067934427819596e-01	1.024009712659087849e-02	-1.716800603683032306e-02	4.219563540850412593e-04	6.560104826824239010e-01	1.024389369951163919e+00	1.000002438624445711e+00	-1.005888964711697774e-02	2.326956285112633409e-06	6.954967839109670470e-04
2.503334711334586626e-01	9.947237127613294330e-03	-1.692881371614803759e-02	4.584287731298222431e-04	6.580793800257567217e-01	1.028670652995938184e+00	1.000002449967492213e+00	-1.005528996081153821e-02	2.942809963873783356e-06	8.015474332633349330e-04
2.703601488241353379e-01	9.638625489589849188e-03	-1.667206641047038265e-02	4.948858257930236187e-04	6.603074209283035234e-01	1.033256639978101354e+00	1.000002462110070933e+00	-1.005146051395169708e-02	3.645950847182951079e-06	9.099579194934001233e-04
2.903868265148120131e-01	9.316088079706297265e-03	-1.639835849263105230e-02	5.313411019227205420e-04	6.626912136967545441e-01	1.038133906113226423e+00	1.000002475018933135e+00	-1.004742060438789525e-02	4.437403261182695624e-06	1.019420854742188751e-03
3.104135042054887439e-01	8.981501022454849853e-03	-1.610833650378929935e-02	5.678112574653745295e-04	6.652270304235717857e-01	1.043287692427474989e+00	1.000002488658935595e+00	-1.004319143604336453e-02	5.317058127088031845e-06	1.128618188211968215e-03
3.304401818961654191e-01	8.636773847436265625e-03	-1.580269891092120696e-02	6.043160808928003036e-04	6.679108073160968662e-01	1.048701868618430622e+00	1.000002502993067921e+00	-1.003879621239604086e-02	6.283668636032118451e-06	1.236238367628069443e-03
3.504668595868420944e-01	8.283832514724474502e-03	-1.548219598620446773e-02	6.408787396874585270e-04	6.707381272490321455e-01	1.054358904424973042e+00	1.000002517982688355e+00	-1.003425984220827037e-02	7.334860918076577461e-06	1.340993655257973708e-03
3.704935372775188251e-01	7.924602511399710114e-03	-1.514762872116678753e-02	6.775258724893878145e-04	6.737042218333471055e-01	1.060239851885956375e+00	1.000002533587523779e+00	-1.002960890316910263e-02	8.467156720629177480e-06	1.441637356577496649e-03
3.905202149681955004e-01	7.560992214765922814e-03	-1.479984770887598708e-02	7.142878998894510150e-04	6.768039590443728493e-01	1.066324340946039229e+00	1.000002549765945492e+00	-1.002487122767740414e-02	9.676011753138003636e-06	1.536980703677583507e-03
4.105468926588721756e-01	7.194876717022334958e-03	-1.443975103899934435e-02	7.511991804856835023e-04	6.800318484587731804e-01	1.072590590891502549e+00	1.000002566474952559e+00	-1.002007572705139980e-02	1.095586540945869692e-05	1.625909122612328311e-03
4.305735703495489064e-01	6.828082302771202282e-03	-1.406828201264168944e-02	7.882984271943097596e-04	6.833820368531241529e-01	1.079015440047187857e+00	1.000002583670484446e+00	-1.001525187400814296e-02	1.230020658011581241e-05	1.707397605214918583e-03
4.506002480402255816e-01	6.462371764342003493e-03	-1.368642594978974891e-02	8.256289704139919104e-04	6.868483165146911373e-01	1.085574396033466948e+00	1.000002601307396599e+00	-1.001042937277993490e-02	1.370164968970776841e-05	1.780524902506556810e-03
4.706269257309022569e-01	6.099430730485561232e-03	-1.329520667424751237e-02	8.632393271763733620e-04	6.904241305055600630e-01	1.092241708647049503e+00	1.000002619339802390e+00	-1.000563755816596262e-02	1.515202682171639223e-05	1.844486259849662186e-03
4.906536034215789877e-01	5.740855171337277268e-03	-1.289568221510819200e-02	9.011836197222278071e-04	6.941025856847715669e-01	1.098990467093309720e+00	1.000002637721045806e+00	-1.000090494460349928e-02	1.664248815029035941e-05	1.898604424413939890e-03
5.106802811122557184e-01	5.388140226709586464e-03	-1.248894011829191145e-02	9.395223502232317439e-04	6.978764682722568002e-01	1.105792722842507958e+00	1.000002656404088697e+00	-9.996258569817385170e-03	1.816361774399431644e-05	1.942338674244061675e-03
5.307069588029323937e-01	5.042670485775199544e-03	-1.207609214949301353e-02	9.783230291956601220e-04	7.017382618842774589e-01	1.112619638820745660e+00	1.000002675341440384e+00	-9.991723460960541536e-03	1.970555470952570400e-05	1.975291645787942765e-03
5.507336364936090689e-01	4.705711824202513105e-03	-1.165826858830387724e-02	1.017661215670141034e-03	7.056801739786958683e-01	1.119441664969815564e+00	1.000002694485626842e+00	-9.987321974957752077e-03	2.125812798402755958e-05	1.997213773470543109e-03
5.707603141842857442e-01	4.378404880122902312e-03	-1.123661214305057138e-02	1.057621417885035078e-03	7.096941588797573974e-01	1.126228739447359573e+00	1.000002713789070796e+00	-9.983073240219721145e-03	2.281099221612664025e-05	2.008005200549756696e-03
5.907869918749625304e-01	4.061760223261507569e-03	-1.081227150543499771e-02	1.098298468830827398e-03	7.137719542579608056e-01	1.132950513893735245e+00	1.000002733204619965e+00	-9.978992545671309250e-03	2.435377438030251898e-05	2.007715074426750547e-03
6.108136695656392057e-01	3.756655242792329881e-03	-1.038639478678515284e-02	1.139798774388830430e-03	7.179051082958506358e-01	1.139576600312048438e+00	1.000002752685380969e+00	-9.975090824412891077e-03	2.587621590798116136e-05	1.996538200524922580e-03
6.308403472563158809e-01	3.463832749473362733e-03	-9.960122696148992691e-03	1.182242109966734518e-03	7.220850246639873848e-01	1.146076836209728667e+00	1.000002772185299760e+00	-9.971374147995605217e-03	2.736832149276243110e-05	1.974809095041275310e-03
6.508670249469925562e-01	3.183901257304653978e-03	-9.534581883198445240e-03	1.225763311431161398e-03	7.263029921806123390e-01	1.152421563796415915e+00	1.000002791658938461e+00	-9.967843315167814258e-03	2.882049678516110239e-05	1.942993545963385242e-03
6.708937026376692314e-01	2.917336879955787030e-03	-9.110878161968125749e-03	1.270514603898116775e-03	7.305502357994312357e-01	1.158581918248055231e+00	1.000002811062097541e+00	-9.964493500837440579e-03	3.022368793143892436e-05	1.901677861011762593e-03
6.909203803283459067e-01	2.664486748628280659e-03	-8.690090184009784113e-03	1.316667863167720340e-03	7.348179463491597563e-01	1.164530119400649211e+00	1.000002830351533589e+00	-9.961313999977849942e-03	3.156950293846350167e-05	1.851556047540800151e-03
7.109470580190225819e-01	2.425573831500168077e-03	-8.273263155779562311e-03	1.364417627959405542e-03	7.390973334384414173e-01	1.170239760748526203e+00	1.000002849485600809e+00	-9.958288048896273351e-03	3.285032997713358151e-05	1.793415229762418319e-03
7.309737357096993682e-01	2.200703011552640389e-03	-7.861403230645989601e-03	1.413984110357995819e-03	7.433796543870014872e-01	1.175686089356070774e+00	1.000002868423881530e+00	-9.955392785585067891e-03	3.405943092834355309e-05	1.728119659864760672e-03
7.510004134003760434e-01	1.989868259905218113e-03	-7.455472148404469583e-03	1.465617103319015024e-03	7.476562632978935863e-01	1.180846270248335550e+00	1.000002887127874107e+00	-9.952599222376340773e-03	3.519102774960539099e-05	1.656593718937335704e-03
7.710270910910527187e-01	1.792960726714867229e-03	-7.056382694750090723e-03	1.519599995313663902e-03	7.519186368062112935e-01	1.185699629071217176e+00	1.000002905560488875e+00	-9.949872446031125459e-03	3.624035904985123033e-05	1.579804328883432831e-03
7.910537687817293939e-01	1.609777561416225527e-03	-6.664994573074688872e-03	1.576254874689879361e-03	7.561584162097108042e-01	1.190227867274606721e+00	1.000002923686775569e+00	-9.947171740745188590e-03	3.720372699423918469e-05	1.498743206218293824e-03
8.110804464724060692e-01	1.440031269178760698e-03	-6.282111185342687323e-03	1.635947911299939815e-03	7.603674273926293026e-01	1.194415244791201536e+00	1.000002941473316254e+00	-9.944451036058832988e-03	3.807851180528103462e-05	1.414409382239442074e-03
8.311071241630827444e-01	1.283359410702354479e-03	-5.908476937997198322e-03	1.699096084325002693e-03	7.645377119311881353e-01	1.198248726093540162e+00	1.000002958888927207e+00	-9.941659161456796109e-03	3.886317633279626871e-05	1.327792391846512651e-03
8.511338018537595307e-01	1.139334458018131761e-03	-5.544775454220194494e-03	1.766174438966755219e-03	7.686615396252611809e-01	1.201718086605457536e+00	1.000002975903965696e+00	-9.938740566862457743e-03	3.955723851365761681e-05	1.239856496606119409e-03
8.711604795444362059e-01	1.007473629150467667e-03	-5.191628343261410830e-03	1.837725025525989864e-03	7.727314277495975769e-01	1.204815977626812362e+00	1.000002992491038967e+00	-9.935635752754395228e-03	4.016123597160942355e-05	1.151526258631106487e-03
8.911871572351128812e-01	8.872485390798458531e-04	-4.849594815724440726e-03	1.914366715748125509e-03	7.767401436467461506e-01	1.207537949181850090e+00	1.000003008624170908e+00	-9.932282309643738344e-03	4.067666160874202307e-05	1.063673723370262133e-03
9.112138349257895564e-01	7.780945224400700544e-04	-4.519171784854645463e-03	1.996807125906553595e-03	7.806807125681344273e-01	1.209882431412770964e+00	1.000003024279572106e+00	-9.928615637339779920e-03	4.110589536467521092e-05	9.771074047998824785e-04
9.312405126164662317e-01	6.794195042713550414e-04	-4.200794679930758280e-03	2.085855857381866199e-03	7.845464111126767559e-01	1.211850676295454621e+00	1.000003039434658403e+00	-9.924570462460187079e-03	4.145211221474981683e-05	8.925631994146464429e-04
9.512671903071429069e-01	5.906123177922264697e-04	-3.894838606251143764e-03	2.182440330747169571e-03	7.883307636736854862e-01	1.213446662448395719e+00	1.000003054068887343e+00	-9.920082046285774030e-03	4.171919149680034867e-05	8.106972893742662827e-04
9.712938679978196932e-01	5.110503919454377833e-04	-3.601620001933167857e-03	2.287623410560854324e-03	7.920275289646118155e-01	1.214676966644684608e+00	1.000003068162672593e+00	-9.915088456468115763e-03	4.191160888780046231e-05	7.320810335536074697e-04
9.913205456884963684e-01	4.401067553039487296e-04	-3.321398419750243823e-03	2.402624057378914893e-03	7.956306911027742901e-01	1.215550606233276598e+00	1.000003081698303209e+00	-9.909532651464027231e-03	4.203433496338662218e-05	6.571977908794429798e-04
1.011347223379172933e+00	3.771563262563117536e-04	-3.054378567388614345e-03	2.528840077303598933e-03	7.991344401105053841e-01	1.216078857067550922e+00	1.000003094658791669e+00	-9.903365854761333673e-03	4.209272286565570982e-05	5.864415754916973110e-04
1.031373901069849497e+00	3.215814812666388826e-04	-2.800712165216273294e-03	2.667873958795111741e-03	8.025331669481762242e-01	1.216275051664099660e+00	1.000003107028907490e+00	-9.896551000971916950e-03	4.209240702125256100e-05	5.201174093538620674e-04
1.051400578760526283e+00	2.727769130189103860e-04	-2.560499821316084956e-03	2.821560435389406686e-03	8.058214403472263587e-01	1.216154362244803444e+00	1.000003118794007051e+00	-9.889067551575007539e-03	4.203919650075233064e-05	4.584432156360593574e-04
1.071427256451203069e+00	2.301538076167634265e-04	-2.333792360793116201e-03	2.991996053670419476e-03	8.089940198243101843e-01	1.215733573012202529e+00	1.000003129941250402e+00	-9.880916694579442577e-03	4.193898252922376315e-05	4.015530852070646798e-04
1.091453934141879634e+00	1.931433844079378040e-04	-2.120591962710381695e-03	3.181568269961841579e-03	8.120458365403093737e-01	1.215030845573907170e+00	1.000003140458451290e+00	-9.872127634053737971e-03	4.179764462955450868e-05	3.495017478098846539e-04
1.111480611832556420e+00	1.611998527374912144e-04	-1.920852428042122383e-03	3.392982697930977450e-03	8.149720345762329066e-01	1.214065480848200762e+00	1.000003150335525337e+00	-9.862764235994518625e-03	4.162097248496234784e-05	3.022700868911958353e-04
1.131507289523232984e+00	1.338028467106304866e-04	-1.734479107913046913e-03	3.629283590899317832e-03	8.177679699522841794e-01	1.212857680173634156e+00	1.000003159563435551e+00	-9.852931856794184748e-03	4.141458879241915157e-05	2.597715497904477637e-04
1.151533967213909770e+00	1.104594012134941437e-04	-1.561327800211565137e-03	3.893862827122111792e-03	8.204292910756075807e-01	1.211428307708604990e+00	1.000003168135912723e+00	-9.842783657316649809e-03	4.118388803585164293e-05	2.218593194135955670e-04
1.171560644904586557e+00	9.070552978813773695e-05	-1.401203340795984919e-03	4.190447922705582001e-03	8.229519741944919531e-01	1.209798655679184209e+00	1.000003176048480880e+00	-9.832525153599986842e-03	4.093397732395965166e-05	1.883341255074957160e-04
1.191587322595263121e+00	7.410745712514885087e-05	-1.253857332870894842e-03	4.523058655068265196e-03	8.253324424731776077e-01	1.207990213617960329e+00	1.000003183300469445e+00	-9.822416037633683109e-03	4.066963246324142633e-05	1.589525788623920939e-04
1.211614000285939907e+00	6.026254628605117841e-05	-1.118985920153956143e-03	4.895916062923283928e-03	8.275676568576310066e-01	1.206024442568220945e+00	1.000003189894070221e+00	-9.812767399872142360e-03	4.039525653495803262e-05	1.334359064062329465e-04
1.231640677976616471e+00	4.879994396133752042e-05	-9.962273578148254320e-04	5.313286514800376337e-03	8.296552576878628571e-01	1.203922555287207485e+00	1.000003195836485892e+00	-9.803933051166769524e-03	4.011485265829331845e-05	1.114789467326527962e-04
1.251667355667293258e+00	3.938094794707754304e-05	-8.851603904340269759e-04	5.779239062992492550e-03	8.315937220978475430e-01	1.201705303862751872e+00	1.000003201138854658e+00	-9.796294051000905417e-03	3.983199965238603439e-05	9.275923420823438750e-05
1.271694033357969822e+00	3.169908209378986461e-05	-7.853035734978381938e-04	6.297297643971292401e-03	8.333824883864139332e-01	1.199392776770217939e+00	1.000003205818325913e+00	-9.790235472300319944e-03	3.954984071864317758e-05	7.694595900441750659e-05
1.291720711048646608e+00	2.547984889521358486e-05	-6.961164664751312960e-04	6.869973981486811668e-03	8.350221498730701075e-01	1.197004208235124212e+00	1.000003209896539014e+00	-9.786117861679190233e-03	3.927107549320747385e-05	6.370854795361468649e-05
1.311747388739323394e+00	2.048012234177632799e-05	-6.170029904171746640e-04	7.498184867074483145e-03	8.365145189782170476e-01	1.194557803623455650e+00	1.000003213401355229e+00	-9.784244342043986117e-03	3.899796366538066741e-05	5.272457839361021340e-05
1.331774066429999959e+00	1.648714706134258545e-05	-5.473175106742344176e-04	8.180581954716371201e-03	8.378628046283637110e-01	1.192070585332276611e+00	1.000003216364688585e+00	-9.784830062782405580e-03	3.873233212566904306e-05	4.368672726108697947e-05
1.351800744120676745e+00	1.331712553540663080e-05	-4.863736768754115284e-04	8.912862654818073591e-03	8.390715375741610860e-01	1.189558264012657185e+00	1.000003218823695139e+00	-9.787975966436684994e-03	3.847559201293458561e-05	3.630848199423183150e-05
1.371827421811353309e+00	1.081340227059933644e-05	-4.334558222938005045e-04	9.687173102618389792e-03	8.401466871822228510e-01	1.187035139783528370e+00	1.000003220818027838e+00	-9.793655640642285817e-03	3.822875967498321197e-05	3.032840389976448268e-05
1.391854099502030095e+00	8.844287888855163903e-06	-3.878324198979816290e-04	1.049175477063092783e-02	8.410953962251596083e-01	1.184514037218362459e+00	1.000003222390656532e+00	-9.801713034600987098e-03	3.799248688450456091e-05	2.551283490967740043e-05
1.411880777192706660e+00	7.300600632579914962e-06	-3.487705807410821052e-04	1.131099753717430302e-02	8.419260139409623367e-01	1.182006276351469820e+00	1.000003223584817968e+00	-9.811877087100928999e-03	3.776709685499335818e-05	2.165706148164276424e-05
1.431907454883383446e+00	6.093030278311997680e-06	-3.155507227176003373e-04	1.212603059528508109e-02	8.426476344286065734e-01	1.179521679894658837e+00	1.000003224444856453e+00	-9.823783021594725134e-03	3.755262990364482414e-05	1.858507375989061993e-05
1.451934132574060232e+00	5.149443984567173769e-06	-2.874800584134604348e-04	1.291589077400535218e-02	8.432700694311360268e-01	1.177068614581437522e+00	1.000003225013200270e+00	-9.837004163583663863e-03	3.734889542197958703e-05	1.614816137463143648e-05
1.471960810264736796e+00	4.412252292632329824e-06	-2.639042394449923434e-04	1.365917302040422186e-02	8.438032893887746910e-01	1.174654062434070223e+00	1.000003225331423717e+00	-9.851080668393899162e-03	3.715552908661735160e-05	1.422265184971806999e-05
1.491987487955413583e+00	3.835937492727097354e-06	-2.442161987368705010e-04	1.433592451446952763e-02	8.442573782888167511e-01	1.172283716086733207e+00	1.000003225437424259e+00	-9.865551812141291899e-03	3.697204915402734946e-05	1.270711604624678711e-05
1.512014165646090147e+00	3.384820165027127885e-06	-2.278621859663778845e-04	1.492945070035027293e-02	8.446419765991276529e-01	1.169962091370696733e+00	1.000003225366735693e+00	-9.879980554887014821e-03	3.679790671036170643e-05	1.151934117238614012e-05
1.532040843336766933e+00	3.031108888881984205e-06	-2.143447282297587689e-04	1.542770089698992757e-02	8.449663335020648480e-01	1.167692650174244395e+00	1.000003225150020381e+00	-9.893980184162105840e-03	3.663252551714496171e-05	1.059331792575903764e-05
1.552067521027443719e+00	2.753248594672715310e-06	-2.032231561867563880e-04	1.582400094893100101e-02	8.452388391456668870e-01	1.165477927128959479e+00	1.000003224814771663e+00	-9.907230404863125173e-03	3.647532951350346389e-05	9.876420003059981615e-06
1.572094198718120284e+00	2.534558917898564097e-06	-1.941118645472295274e-04	1.611706443204492106e-02	8.454672326750892752e-01	1.163319654649945800e+00	1.000003224383315237e+00	-9.919492882108754336e-03	3.632576041512547486e-05	9.326885749457456540e-06
1.592120876408797070e+00	2.362137183590166500e-06	-1.866772112475555286e-04	1.631037769546799313e-02	8.456581926720133646e-01	1.161218882147460496e+00	1.000003223874972313e+00	-9.930611268192659699e-03	3.618328695197164702e-05	8.911652898112691566e-06
1.612147554099473634e+00	2.225991308290800992e-06	-1.806332217914460251e-04	1.641116721350360450e-02	8.458177344503707840e-01	1.159176086487947899e+00	1.000003223304561040e+00	-9.940510919793976718e-03	3.604741080661755335e-05	8.604552864398682174e-06
1.632174231790150420e+00	2.118364767923405361e-06	-1.757369545008483547e-04	1.642919060977436618e-02	8.459508725272806284e-01	1.157191271991855563e+00	1.000003222684789694e+00	-9.949183342425685361e-03	3.591766864552338473e-05	8.384841495679103612e-06
1.652200909480826985e+00	2.033216998679721395e-06	-1.717835116364502528e-04	1.637556388978370428e-02	8.460620391861823908e-01	1.155264059181410730e+00	1.000003222024972604e+00	-9.956674801553572207e-03	3.579363451856578315e-05	8.236026605231300404e-06
1.672227587171503771e+00	1.965826482188358970e-06	-1.686013120462016162e-04	1.626176542651155965e-02	8.461548405230975289e-01	1.153393762254866228e+00	1.000003221333349179e+00	-9.963066439898865187e-03	3.567491900782437356e-05	8.144945992126957228e-06
1.692254264862180557e+00	1.912488781626770255e-06	-1.660474775587905585e-04	1.609888620542215820e-02	8.462324453628786713e-01	1.151579455731642998e+00	1.000003220615750976e+00	-9.968462960442039250e-03	3.556116970659519241e-05	8.101049800994343246e-06
1.712280942552857121e+00	1.870287047815048595e-06	-1.640037385902322906e-04	1.589713067652618120e-02	8.462973763554783035e-01	1.149820031055894365e+00	1.000003219877706906e+00	-9.972977110488017230e-03	3.545206806278180226e-05	8.095845249779322597e-06
1.732307620243533908e+00	1.836917284868357380e-06	-1.623726308071127993e-04	1.566553926764720911e-02	8.463518307013295772e-01	1.148114244104430304e+00	1.000003219122979736e+00	-9.976723691446332323e-03	3.534732848495458828e-05	8.122467842751965119e-06
1.752334297934210472e+00	1.810554804992842078e-06	-1.610742315831995941e-04	1.541188063526825747e-02	8.463976046194511271e-01	1.146460754614611277e+00	1.000003218355493884e+00	-9.979811754624768813e-03	3.524669373131934607e-05	8.175349742080140875e-06
1.772360975624887258e+00	1.789751592607091754e-06	-1.600432744589658750e-04	1.514266552071282836e-02	8.464361296164324422e-01	1.144858158558891725e+00	1.000003217577764447e+00	-9.982340887924660150e-03	3.514993361486826097e-05	8.249962127390336649e-06
1.792387653315563822e+00	1.773356940128656162e-06	-1.592266411754756923e-04	1.486323409938021187e-02	8.464687372027366319e-01	1.143305014421239330e+00	1.000003216792728633e+00	-9.984401803687441637e-03	3.505684017419204331e-05	8.342613691796416984e-06
1.812414331006240609e+00	1.760455657108699418e-06	-1.585813132965510608e-04	1.457788505531592768e-02	8.464963112603404172e-01	1.141799864294720912e+00	1.000003216002081308e+00	-9.986071400234417667e-03	3.496722653261478888e-05	8.450291769350803259e-06
1.832441008696917395e+00	1.750319667690186456e-06	-1.580724971641812024e-04	1.429001850920907923e-02	8.465198373064962700e-01	1.140341250581105692e+00	1.000003215208125740e+00	-9.987418902929116535e-03	3.488092275119941623e-05	8.570535995480798517e-06
1.852467686387593959e+00	1.742369863047397089e-06	-1.576722270873413129e-04	1.400227938317810845e-02	8.465398472644872774e-01	1.138927729047184645e+00	1.000003214411967711e+00	-9.988499933216201873e-03	3.479777490878563660e-05	8.701336995190430443e-06
1.872494364078270745e+00	1.736145897873984408e-06	-1.573580029742850097e-04	1.371668938804737441e-02	8.465570724747086828e-01	1.137557878821744861e+00	1.000003213615468844e+00	-9.989364730155656999e-03	3.471764197011914689e-05	8.841054522423516399e-06
1.892521041768947310e+00	1.731282172767148389e-06	-1.571118644684504982e-04	1.343476485660172540e-02	8.465718456733875019e-01	1.136230309923142334e+00	1.000003212819299714e+00	-9.990052097708585280e-03	3.464039495919945383e-05	8.988350889327646992e-06
1.912547719459624096e+00	1.727488684836113220e-06	-1.569194364906563021e-04	1.315761733750777512e-02	8.465846693829552905e-01	1.134943668724777588e+00	1.000003212025009081e+00	-9.990596853762188576e-03	3.456591485346280704e-05	9.142136551819998435e-06
1.932574397150300882e+00	1.724535723733492263e-06	-1.567693074411947789e-04	1.288603832997723721e-02	8.465957847948799575e-01	1.133696641809502026e+00	1.000003211232920464e+00	-9.991025693936011684e-03	3.449409176694962875e-05	9.301525463844078864e-06
1.952601074840977446e+00	1.722241628960349039e-06	-1.566523949055167520e-04	1.262056878783968973e-02	8.466055188588381686e-01	1.132487958472315759e+00	1.000003210444379675e+00	-9.991361967969434460e-03	3.442482362862982410e-05	9.465798354270377817e-06
1.972627752531654233e+00	1.720462989482367878e-06	-1.565615194693946856e-04	1.236155564747423198e-02	8.466140670554265224e-01	1.131316392216386468e+00	1.000003209659420467e+00	-9.991623895797899224e-03	3.435801541967897364e-05	9.634372478443736779e-06
1.992654430222330797e+00	1.719086800293651879e-06	-1.564910055683115756e-04	1.210919708567123783e-02	8.466216178325536301e-01	1.130180761392506783e+00	1.000003208879258088e+00	-9.991826552365490680e-03	3.429357834970926802e-05	9.806776691182173182e-06
2.012681107913007583e+00	1.718024188589601396e-06	-1.564363745456600892e-04	1.186357848104897111e-02	8.466283554348114082e-01	1.129079929240146107e+00	1.000003208103696251e+00	-9.991982517972531133e-03	3.423142923961903925e-05	9.982630911698775014e-06
2.032707785603684147e+00	1.717205400862577853e-06	-1.563941224447598644e-04	1.162470068876204042e-02	8.466343420891833116e-01	1.128012803406986508e+00	1.000003207333845845e+00	-9.992100851692229183e-03	3.417148989742439379e-05	1.016162922203862529e-05
2.052734463294360712e+00	1.716575802335288994e-06	-1.563614732089168647e-04	1.139250220970047800e-02	8.466397790612182339e-01	1.126978335141690435e+00	1.000003206569336278e+00	-9.992190598417322392e-03	3.411368681581174655e-05	1.034352597588290992e-05
2.072761140985037720e+00	1.716092690456501551e-06	-1.563362854479573196e-04	1.116687621812150963e-02	8.466446646766189188e-01	1.125975518183296886e+00	1.000003205811217821e+00	-9.992257011491692195e-03	3.405795040131614132e-05	1.052812440140731352e-05
2.092787818675714284e+00	1.715722759356564041e-06	-1.563168553865479555e-04	1.094768397331118484e-02	8.466491695811048102e-01	1.125003387499214691e+00	1.000003205058972222e+00	-9.992306316181720841e-03	3.400421519369558769e-05	1.071526726982817830e-05
2.112814496366390848e+00	1.715440089108019748e-06	-1.563018894350400706e-04	1.073476466668745431e-02	8.466532518868896684e-01	1.124061017859895095e+00	1.000003204313611338e+00	-9.992341314307592176e-03	3.395241875487491518e-05	1.090482927196208814e-05
2.132841174057067857e+00	1.715224550489211519e-06	-1.562903439803677453e-04	1.052794345165846378e-02	8.466570854668689083e-01	1.123147522373007634e+00	1.000003203574489907e+00	-9.992366638612939361e-03	3.390250244724324363e-05	1.109671080547907009e-05
2.152867851747744421e+00	1.715060547037117863e-06	-1.562814488087628355e-04	1.032703680505250680e-02	8.466605977926577875e-01	1.122262050937316014e+00	1.000003202842614458e+00	-9.992383460023828573e-03	3.385440985337223358e-05	1.129083292384860468e-05
2.172894529438420985e+00	1.714936019199755979e-06	-1.562745703050963083e-04	1.013185737936282173e-02	8.466639370108072216e-01	1.121403788724670170e+00	1.000003202117220713e+00	-9.992395068663516983e-03	3.380808822168057009e-05	1.148713324086679759e-05
2.192921207129097994e+00	1.714841664895482196e-06	-1.562692538010737218e-04	9.942216586954637919e-03	8.466670345054839730e-01	1.120571954632076039e+00	1.000003201399319197e+00	-9.992401856957896719e-03	3.376348630659978196e-05	1.168556261792099904e-05
2.212947884819774558e+00	1.714770322697034210e-06	-1.562651164684728553e-04	9.757927626409370128e-03	8.466700118948935483e-01	1.119765799799616213e+00	1.000003200688055705e+00	-9.992406162426269167e-03	3.372055647780017583e-05	1.188608249214863313e-05
2.232974562510451122e+00	1.714716493926438132e-06	-1.562618937793057883e-04	9.578806376187307473e-03	8.466728064823548783e-01	1.118984606126274040e+00	1.000003199984445645e+00	-9.992407932740686796e-03	3.367925198830026248e-05	1.208866272635259999e-05
2.253001240201127686e+00	1.714675963406157399e-06	-1.562593553259755750e-04	9.404673408397496923e-03	8.466755157381696817e-01	1.118227684871673011e+00	1.000003199287563760e+00	-9.992408822223550896e-03	3.363952971254098953e-05	1.229327988419769069e-05
2.273027917891804695e+00	1.714645509862004975e-06	-1.562573517938876727e-04	9.235353858637230726e-03	8.466780737560541947e-01	1.117494375271455676e+00	1.000003198598427456e+00	-9.992408420841994432e-03	3.360134686068683933e-05	1.249991584924350986e-05
2.293054595582481259e+00	1.714622674167661009e-06	-1.562557425435442309e-04	9.070678911470248657e-03	8.466805697418641197e-01	1.116784043244002156e+00	1.000003197916052411e+00	-9.992408044546555179e-03	3.356466431959653790e-05	1.270855672308271149e-05
2.313081273273157823e+00	1.714605586298221244e-06	-1.562544447476893993e-04	8.910485038025937540e-03	8.466829460122242690e-01	1.116096080119004297e+00	1.000003197241462916e+00	-9.992407189926087036e-03	3.352944278963121790e-05	1.291919194743688056e-05
2.333107950963834831e+00	1.714592824218023610e-06	-1.562533753054640574e-04	8.754615245608349944e-03	8.466852627060391656e-01	1.115429901458264039e+00	1.000003196573629571e+00	-9.992406678175086085e-03	3.349564674408603748e-05	1.313181360744333801e-05
2.353134628654511395e+00	1.714583312271521588e-06	-1.562524870557220689e-04	8.602917926524457706e-03	8.466874844138387868e-01	1.114784945900236579e+00	1.000003195913583554e+00	-9.992406172527308963e-03	3.346324001158569410e-05	1.334641587907891332e-05
2.373161306345187960e+00	1.714576235307500640e-06	-1.562517301684492412e-04	8.455248012558317511e-03	8.466896563991634928e-01	1.114160674091571934e+00	1.000003195260251498e+00	-9.992406237339821959e-03	3.343219026498557122e-05	1.356299459294763110e-05
2.393187984035864524e+00	1.714570980375684564e-06	-1.562510805105133955e-04	8.311465598487631501e-03	8.466917458087219739e-01	1.113556567644814033e+00	1.000003194614671465e+00	-9.992406484928247415e-03	3.340246413704918443e-05	1.378154688975609066e-05
2.413214661726541532e+00	1.714567084175300976e-06	-1.562505088244607316e-04	8.171437082470110747e-03	8.466937809362211631e-01	1.112972128174964936e+00	1.000003193975749216e+00	-9.992407252327957165e-03	3.337403219677737172e-05	1.400207094974589946e-05
2.433241339417218096e+00	1.714564200784797212e-06	-1.562499996783461398e-04	8.035033647174177548e-03	8.466957551835238016e-01	1.112406876361788477e+00	1.000003193344512820e+00	-9.992408421893016549e-03	3.334686360564713403e-05	1.422456577973071647e-05
2.453268017107894661e+00	1.714562069040571194e-06	-1.562495384844196395e-04	7.902132422206338547e-03	8.466976722842489700e-01	1.111860351084638987e+00	1.000003192719856271e+00	-9.992410019606587368e-03	3.332093152475591101e-05	1.444903104672337569e-05
2.473294694798571669e+00	1.714560495679172422e-06	-1.562491175953257443e-04	7.772614897490535621e-03	8.466995256690165172e-01	1.111332108578900302e+00	1.000003192102804084e+00	-9.992411903569585127e-03	3.329620742457520445e-05	1.467546694726954451e-05
2.493321372489248233e+00	1.714559334579365812e-06	-1.562487272010229761e-04	7.646368110397297815e-03	8.467013230862440176e-01	1.110821721660297134e+00	1.000003191492235377e+00	-9.992414155752376084e-03	3.327266682891310775e-05	1.490387410591664394e-05
2.513348050179924797e+00	1.714558478963493843e-06	-1.562483617370361575e-04	7.523283017640529195e-03	8.467030716820497238e-01	1.110328778967589969e+00	1.000003190889174887e+00	-9.992416772985021969e-03	3.325028327861570874e-05	1.513425349550238504e-05
2.533374727870601362e+00	1.714557847591508882e-06	-1.562480195241867909e-04	7.403255725515546157e-03	8.467047533491002254e-01	1.109852884265322581e+00	1.000003190292488631e+00	-9.992419523717360058e-03	3.322903443458990764e-05	1.536660637554080800e-05
2.553401405561278370e+00	1.714557382195669959e-06	-1.562476938907700753e-04	7.286185847180315193e-03	8.467063924190246782e-01	1.109393655764828068e+00	1.000003189703199569e+00	-9.992422629005874232e-03	3.320889575193009316e-05	1.560093424377956319e-05
2.573428083251954934e+00	1.714557037808840622e-06	-1.562473866810998562e-04	7.171977751993824368e-03	8.467079628507493405e-01	1.108950725498083489e+00	1.000003189120165725e+00	-9.992425753457254145e-03	3.318984681484190506e-05	1.583723879891964833e-05
2.593454760942631498e+00	1.714556783115102777e-06	-1.562470912191380747e-04	7.060538940011061929e-03	8.467094963568702060e-01	1.108523738705747386e+00	1.000003188544413169e+00	-9.992429204714494209e-03	3.317186483000110166e-05	1.607552191114653759e-05
2.613481438633308507e+00	1.714556593245153620e-06	-1.562468135180408225e-04	6.951781298436506169e-03	8.467109482809397347e-01	1.108112353276918816e+00	1.000003187974789043e+00	-9.992432449819661430e-03	3.315493113001642824e-05	1.631578559960366904e-05
2.633508116323985071e+00	1.714556451697850923e-06	-1.562465426373053641e-04	6.845619508369454875e-03	8.467123791404962407e-01	1.107716239195948082e+00	1.000003187412320083e+00	-9.992436119062617778e-03	3.313902454533229467e-05	1.655803201432758321e-05
2.653534794014661635e+00	1.714556344672536637e-06	-1.562462866172637985e-04	6.741972283951027343e-03	8.467137358165420791e-01	1.107335078040082355e+00	1.000003186855843884e+00	-9.992439590876164499e-03	3.312412795685080688e-05	1.680226342257580847e-05
2.673561471705338199e+00	1.714556263724769159e-06	-1.562460369024402181e-04	6.640760842311113112e-03	8.467150685475808292e-01	1.106968562479249574e+00	1.000003186306390290e+00	-9.992443372836157939e-03	3.311022169471942609e-05	1.704848219760845852e-05
2.693588149396015208e+00	1.714556201079885694e-06	-1.562458019889195347e-04	6.541910112700919516e-03	8.467163232336808454e-01	1.106616395825431143e+00	1.000003185762793345e+00	-9.992446838196600983e-03	3.309729007688317319e-05	1.729669081028430009e-05
2.713614827086691772e+00	1.714556152625954211e-06	-1.562455715680247136e-04	6.445347262621616002e-03	8.467175601319699707e-01	1.106278291579185113e+00	1.000003185226087332e+00	-9.992450620883054982e-03	3.308531481416564788e-05	1.754689182194100740e-05
2.733641504777368336e+00	1.714556113867369788e-06	-1.562453555176869372e-04	6.351002875051835368e-03	8.467187196019985151e-01	1.105953973024413006e+00	1.000003184695087421e+00	-9.992454025953417807e-03	3.307428151828871069e-05	1.779908787911117069e-05
2.753668182468045345e+00	1.714556082981575446e-06	-1.562451439474559845e-04	6.258809541853594706e-03	8.467198585666785293e-01	1.105643172817244446e+00	1.000003184170845882e+00	-9.992457667059031004e-03	3.306417318457054643e-05	1.805328170885473136e-05
2.773694860158721909e+00	1.714556057248444940e-06	-1.562449443792091009e-04	6.168702998166767856e-03	8.467209328264790891e-01	1.105345632620637897e+00	1.000003183652166117e+00	-9.992461011520844399e-03	3.305497660959362912e-05	1.830947611533685024e-05
2.793721537849398473e+00	1.714556036047674233e-06	-1.562447499684573081e-04	6.080620779463771428e-03	8.467219810723650708e-01	1.105061102731206502e+00	1.000003183140108165e+00	-9.992464485404781854e-03	3.304667595065636425e-05	1.856767397662837282e-05
2.813748215540075037e+00	1.714556017606386095e-06	-1.562445691995786824e-04	5.994503327734370009e-03	8.467229555820716680e-01	1.104789341749629727e+00	1.000003182633461662e+00	-9.992467500024363597e-03	3.303925912432092483e-05	1.882787824240198091e-05
2.833774893230752046e+00	1.714556001914377381e-06	-1.562443893880050656e-04	5.910292694893438080e-03	8.467239260402344980e-01	1.104530116241901894e+00	1.000003182133297974e+00	-9.992470860123104509e-03	3.303271137014615052e-05	1.909009193165484968e-05
2.853801570921428610e+00	1.714555987743327497e-06	-1.562442239689555950e-04	5.827933610281357119e-03	8.467248190589535817e-01	1.104283200439940327e+00	1.000003181638400296e+00	-9.992473665786398215e-03	3.302702156638719273e-05	1.935431813104379091e-05
2.873828248612105174e+00	1.714555975355767529e-06	-1.562440591289512642e-04	5.747372266201945627e-03	8.467257087849944241e-01	1.104048375933551540e+00	1.000003181149847098e+00	-9.992476794555839661e-03	3.302217601166236778e-05	1.962055999319514777e-05
2.893854926302782182e+00	1.714555963841657983e-06	-1.562439084780935629e-04	5.668557310762121181e-03	8.467265226132870692e-01	1.103825431400818458e+00	1.000003180666408920e+00	-9.992479345547452055e-03	3.301816445197496794e-05	1.988882073547570937e-05
2.913881603993458747e+00	1.714555953574341124e-06	-1.562437570998553849e-04	5.591438728530726855e-03	8.467273399307639892e-01	1.103614162324589421e+00	1.000003180189181773e+00	-9.992482262208944241e-03	3.301497417785895206e-05	2.015910363864399036e-05
2.933908281684135311e+00	1.714555943844439778e-06	-1.562436195132716843e-04	5.515968752675705182e-03	8.467280833698740405e-01	1.103414370750855023e+00	1.000003179716914659e+00	-9.992484590940962225e-03	3.301259570954227736e-05	2.043141204592476953e-05
2.953934959374811875e+00	1.714555935048729375e-06	-1.562434803499799813e-04	5.442100847551723311e-03	8.467288346484656003e-01	1.103225865027587682e+00	1.000003179250727792e+00	-9.992487308364736073e-03	3.301101727999995381e-05	2.070574936190210918e-05
2.973961637065488883e+00	1.714555926616964466e-06	-1.562433520720395467e-04	5.369790530790219223e-03	8.467295275838684354e-01	1.103048459586424723e+00	1.000003178789353520e+00	-9.992489592385970371e-03	3.301023010223281764e-05	2.098211905177209594e-05
2.993988314756165448e+00	1.714555918933072262e-06	-1.562432275946739029e-04	5.298994459702838743e-03	8.467301999500180809e-01	1.102881974703310952e+00	1.000003178333926268e+00	-9.992491891597144252e-03	3.301022328157676461e-05	2.126052464044605645e-05
3.014014992446842012e+00	1.714555911494477624e-06	-1.562431110545287744e-04	5.229671182434891819e-03	8.467308301535921844e-01	1.102726236300666907e+00	1.000003177883160399e+00	-9.992493920372146413e-03	3.301098876041398255e-05	2.154096971191609580e-05
3.034041670137519020e+00	1.714555904689980108e-06	-1.562429961775775339e-04	5.161780274614663835e-03	8.467314504024465727e-01	1.102581075727741222e+00	1.000003177438217650e+00	-9.992496074513419757e-03	3.301251636042293406e-05	2.182345790852265123e-05
3.054068347828195584e+00	1.714555898064940922e-06	-1.562428905647549287e-04	5.095283070519392339e-03	8.467320217691697293e-01	1.102446329580415219e+00	1.000003176997786181e+00	-9.992497850049138208e-03	3.301479870061064658e-05	2.210799293040336503e-05
3.074095025518872148e+00	1.714555891985310698e-06	-1.562427868664043767e-04	5.030141838814538788e-03	8.467325819094742023e-01	1.102321839499919465e+00	1.000003176563050822e+00	-9.992499712366098574e-03	3.301782632078265826e-05	2.239457853489462531e-05
3.094121703209549157e+00	1.714555886040133613e-06	-1.562426908174619226e-04	4.966320475223485326e-03	8.467331013298465825e-01	1.102207452008759692e+00	1.000003176132681526e+00	-9.992501278489938563e-03	3.302159245070108859e-05	2.268321853605405282e-05
3.114148380900225721e+00	1.714555880578584812e-06	-1.562425927654032356e-04	4.903783724595774975e-03	8.467336304700897598e-01	1.102103018325655936e+00	1.000003175707887548e+00	-9.992503161663930308e-03	3.302608827218345237e-05	2.297391680417618448e-05
3.134175058590902285e+00	1.714555875235527027e-06	-1.562425041045446329e-04	4.842497837615359312e-03	8.467341109854172876e-01	1.102008394216033915e+00	1.000003175287312862e+00	-9.992504619253191403e-03	3.303130754612309259e-05	2.326667726535306318e-05
3.154201736281578849e+00	1.714555870316570169e-06	-1.562424137116698883e-04	4.782429855503326534e-03	8.467345985653845775e-01	1.101923439821385742e+00	1.000003174872191813e+00	-9.992506357418634577e-03	3.303724214145760331e-05	2.356150390111912769e-05
3.174228413972255858e+00	1.714555865503677082e-06	-1.562423340324370585e-04	4.723548198209201812e-03	8.467350302417164798e-01	1.101848019523476552e+00	1.000003174461152389e+00	-9.992507570208036469e-03	3.304388629161905661e-05	2.385840074804906850e-05
3.194255091662932422e+00	1.714555861055405420e-06	-1.562422499892188188e-04	4.665822029616704079e-03	8.467354833308405881e-01	1.101782001786548282e+00	1.000003174055445809e+00	-9.992509216063224717e-03	3.305123253174516027e-05	2.415737189748120382e-05
3.214281769353608986e+00	1.714555856713159838e-06	-1.562421796636030182e-04	4.609221763564167774e-03	8.467358643772537885e-01	1.101725259033266680e+00	1.000003173653683630e+00	-9.992510130070146948e-03	3.305927546781970051e-05	2.445842149514424637e-05
3.234308447044285995e+00	1.714555852670944336e-06	-1.562421000307951562e-04	4.553718537546044137e-03	8.467362936332036849e-01	1.101677667499701752e+00	1.000003173257141942e+00	-9.992511775837934623e-03	3.306800834870837812e-05	2.476155374102027038e-05
3.254335124734962559e+00	1.714555848756470721e-06	-1.562420359279698948e-04	4.499284590654350179e-03	8.467366421714100921e-01	1.101639107120740535e+00	1.000003172864406986e+00	-9.992512561993606435e-03	3.307742599356027337e-05	2.506677288891923677e-05
3.274361802425639123e+00	1.714555845075490631e-06	-1.562419602880200790e-04	4.445892901927655724e-03	8.467370494410250137e-01	1.101609461398288969e+00	1.000003172476776836e+00	-9.992514214090355770e-03	3.308752244202743485e-05	2.537408324652530217e-05
3.294388480116315687e+00	1.714555841552551854e-06	-1.562419020552945797e-04	4.393517389049531735e-03	8.467373662538544288e-01	1.101588617293754124e+00	1.000003172092827075e+00	-9.992514872737051981e-03	3.309829262556641792e-05	2.568348917489390493e-05
3.314415157806992696e+00	1.714555838192020210e-06	-1.562418322676335780e-04	4.342132748490037594e-03	8.467377415440719979e-01	1.101576465107339864e+00	1.000003171713877759e+00	-9.992516384006146224e-03	3.310973142820204706e-05	2.599499508863283367e-05
3.334441835497669260e+00	1.714555835019090059e-06	-1.562417783289322265e-04	4.291714444612714993e-03	8.467380363370166085e-01	1.101572898380891674e+00	1.000003171338469166e+00	-9.992516992437746465e-03	3.312183381282026551e-05	2.630860545541948288e-05
3.354468513188345824e+00	1.714555831947596762e-06	-1.562417116905111540e-04	4.242238766445858775e-03	8.467383937100168012e-01	1.101577813783224391e+00	1.000003170967964428e+00	-9.992518518516730133e-03	3.313459547581658311e-05	2.662432479622699714e-05
3.374495190879022832e+00	1.714555829097660813e-06	-1.562416620609688705e-04	4.193682609035196199e-03	8.467386644061812850e-01	1.101591111023651814e+00	1.000003170600869407e+00	-9.992519053565792481e-03	3.314801136801533621e-05	2.694215768487771880e-05
3.394521868569699397e+00	1.714555826285655212e-06	-1.562416006079768427e-04	4.146023748699990442e-03	8.467389946245720278e-01	1.101612692744562638e+00	1.000003170238580763e+00	-9.992520445194840589e-03	3.316207804069672659e-05	2.726210874835199239e-05
3.414548546260375961e+00	1.714555823725815343e-06	-1.562415530339927568e-04	4.099240402673605919e-03	8.467392544026567380e-01	1.101642464441518809e+00	1.000003169879575937e+00	-9.992521039333871966e-03	3.317679037460713432e-05	2.758418266629579461e-05
3.434575223951052525e+00	1.714555821153978946e-06	-1.562414955851773850e-04	4.053311724969065229e-03	8.467395624637682472e-01	1.101680334364209868e+00	1.000003169525284674e+00	-9.992522351477853976e-03	3.319214571417454876e-05	2.790838417145460827e-05
3.454601901641729533e+00	1.714555818858114777e-06	-1.562414499401382044e-04	4.008217166458599191e-03	8.467398113493349587e-01	1.101726213444458091e+00	1.000003169174145778e+00	-9.992522993653619665e-03	3.320813890170963079e-05	2.823471804918719830e-05
3.474628579332406098e+00	1.714555816508224306e-06	-1.562413971061442700e-04	3.963937158693567678e-03	8.467400957386309601e-01	1.101780015201226481e+00	1.000003168827643396e+00	-9.992524175803632960e-03	3.322476802009185858e-05	2.856318913792935888e-05
3.494655257023082662e+00	1.714555814450323244e-06	-1.562413521588419609e-04	3.920452304399994412e-03	8.467403409097501443e-01	1.101841655677186615e+00	1.000003168484162153e+00	-9.992524930992023949e-03	3.324202790169955080e-05	2.889380232874206884e-05
3.514681934713759670e+00	1.714555812311057044e-06	-1.562413015482807003e-04	3.877744214146560970e-03	8.467406126954858392e-01	1.101911053347815361e+00	1.000003168145240373e+00	-9.992526122638884997e-03	3.325991726055769175e-05	2.922656256579590295e-05
3.534708612404436234e+00	1.714555810473831782e-06	-1.562412599892226662e-04	3.835794570656767075e-03	8.467408400404514701e-01	1.101988129067127620e+00	1.000003167809206062e+00	-9.992526801791501087e-03	3.327843097528962425e-05	2.956147484600897963e-05
3.554735290095112799e+00	1.714555808524262634e-06	-1.562412116545011870e-04	3.794586084583993421e-03	8.467411000070543814e-01	1.102072805978028258e+00	1.000003167477664601e+00	-9.992527986566484069e-03	3.329756838862067144e-05	2.989854421949041653e-05
3.574761967785789363e+00	1.714555806891146478e-06	-1.562411705207181483e-04	3.754101436819093189e-03	8.467413238963854560e-01	1.102165009466163248e+00	1.000003167148881600e+00	-9.992528774826330354e-03	3.331732434539438702e-05	3.023777578923970158e-05
3.594788645476466371e+00	1.714555805121779566e-06	-1.562411259336019226e-04	3.714324364559818716e-03	8.467415633879943337e-01	1.102264667074201121e+00	1.000003166824527279e+00	-9.992529844787793533e-03	3.333769880654796283e-05	3.057917471161792120e-05
3.614815323167142935e+00	1.714555803673557785e-06	-1.562410844118606635e-04	3.675238486633804810e-03	8.467417897040978580e-01	1.102371708462029698e+00	1.000003166502801077e+00	-9.992530777251252411e-03	3.335868664001114046e-05	3.092274619609987097e-05
3.634842000857819500e+00	1.714555802078611474e-06	-1.562410406488996351e-04	3.636828485119975810e-03	8.467420257880005074e-01	1.102486065323920350e+00	1.000003166185449155e+00	-9.992531915212593888e-03	3.338028829129742583e-05	3.126849550573073175e-05
3.654868678548496508e+00	1.714555800805891108e-06	-1.562410000138975987e-04	3.599078862636229288e-03	8.467422474949937161e-01	1.102607671353498464e+00	1.000003165870597011e+00	-9.992532902353006702e-03	3.340249871929534944e-05	3.161642795691011360e-05
3.674895356239173072e+00	1.714555799376093987e-06	-1.562409580127885193e-04	3.561975183175434666e-03	8.467424728253707400e-01	1.102736462166657327e+00	1.000003165560059193e+00	-9.992534035481413779e-03	3.342531883788804332e-05	3.196654891992348419e-05
3.694922033929849636e+00	1.714555798266999210e-06	-1.562409177224712670e-04	3.525502774649435980e-03	8.467426926487795491e-01	1.102872375269200678e+00	1.000003165251897697e+00	-9.992535104023118550e-03	3.344874368651473673e-05	3.231886381869938886e-05
3.714948711620526201e+00	1.714555796994621469e-06	-1.562408768906962942e-04	3.489648021164441435e-03	8.467429123555626491e-01	1.103015349983465843e+00	1.000003164948005230e+00	-9.992536260031223763e-03	3.347277459724011013e-05	3.267337813136679151e-05
3.734975389311203209e+00	1.714555796041008907e-06	-1.562408323252371966e-04	3.454397024112997733e-03	8.467431551590209882e-01	1.103165327420644992e+00	1.000003164646366738e+00	-9.992537697998212301e-03	3.349740670065521708e-05	3.303009739004977418e-05
3.755002067001879773e+00	1.714555794934361208e-06	-1.562407929232344044e-04	3.419736923569792302e-03	8.467433670295178016e-01	1.103322250410999406e+00	1.000003164348947760e+00	-9.992538856732695665e-03	3.352264162905063986e-05	3.338902718147921674e-05
3.775028744692556337e+00	1.714555794129261474e-06	-1.562407462722430662e-04	3.385654566037177727e-03	8.467436205817089334e-01	1.103486063479733437e+00	1.000003164053664184e+00	-9.992540516407475218e-03	3.354847480575487819e-05	3.375017314678438620e-05
3.795055422383233346e+00	1.714555793190933198e-06	-1.562407027700833467e-04	3.352137779912539757e-03	8.467438559946146581e-01	1.103656712779415461e+00	1.000003163762554825e+00	-9.992542020971870165e-03	3.357490796776504098e-05	3.411354098208026252e-05
3.815082100073909910e+00	1.714555792544915569e-06	-1.562406483267319895e-04	3.319174111511142156e-03	8.467441521567126150e-01	1.103834146070878486e+00	1.000003163473468737e+00	-9.992544260685047239e-03	3.360193683944377540e-05	3.447913643837707554e-05
3.835108777764586474e+00	1.714555791791637734e-06	-1.562406118195405140e-04	3.286752033402855558e-03	8.467443492333233124e-01	1.104018312655874912e+00	1.000003163188519117e+00	-9.992545396543884781e-03	3.362956325308203966e-05	3.484696532207995953e-05
3.855135455455263482e+00	1.714555791273959996e-06	-1.562405709792720639e-04	3.254859788641215838e-03	8.467445709770615725e-01	1.104209163363882640e+00	1.000003162905478638e+00	-9.992546842897485904e-03	3.365778364516364563e-05	3.521703349501151812e-05
3.875162133145940047e+00	1.714555790663723791e-06	-1.562405228783107260e-04	3.223486424751447355e-03	8.467448311209994083e-01	1.104406650487379071e+00	1.000003162626534436e+00	-9.992548782277697883e-03	3.368659965243634428e-05	3.558934687492210411e-05
3.895188810836616611e+00	1.714555790354390747e-06	-1.562403445417822386e-04	3.192620742487188232e-03	8.467457979957188074e-01	1.104610727769204770e+00	1.000003162349393460e+00	-9.992559136818802631e-03	3.371600739893882966e-05	3.596391143544845035e-05
3.915215488527293175e+00	1.714555790308345612e-06	-1.562402286608030285e-04	3.162252153278276735e-03	8.467464265154099889e-01	1.104821350341851804e+00	1.000003162076329222e+00	-9.992565090366105351e-03	3.374600643176606110e-05	3.634073320670685704e-05
3.935242166217970183e+00	1.714555790168095802e-06	-1.562406993000360720e-04	3.132370586678533651e-03	8.467438758209783201e-01	1.105038474718865960e+00	1.000003161805028906e+00	-9.992537077338922713e-03	3.377659899821600130e-05	3.671981827536769007e-05
3.955268843908646748e+00	1.714555787588606039e-06	-1.562412564338916962e-04	3.102967124571449388e-03	8.467408557305978745e-01	1.105262059085635018e+00	1.000003161538085328e+00	-9.992837834962376223e-03	3.380779717551912842e-05	3.710117277802929965e-05
3.975295521599323312e+00	1.714555786770828763e-06	-1.562399811207268907e-04	3.074030801152767122e-03	8.467477671450418519e-01	1.105492061505456425e+00	1.000003161275379693e+00	-9.992553585420510184e-03	3.383958827413748445e-05	3.748480293735671499e-05
3.995322199289999876e+00	1.714584732784533302e-06	-1.562391264526298540e-04	3.045531353289996409e-03	8.467602886663195827e-01	1.105725138389047624e+00	1.000000000000000000e+00	-1.000000000000000021e-02	3.387174561589884471e-05	3.787100112148618141e-05
