# Time=0.0321006420128 and Columns are r	p	Paether	ur	alpha	a	b	K	Sr_tilde	tau_tilde
1.001333884533834630e-02	1.198820296879020073e-02	-1.855145751931232614e-02	2.550460071003850354e-05	6.390422149992746048e-01	1.000129062461196039e+00	1.000081743641253906e+00	-1.388459460022694637e-02	2.880492136128678170e-10	1.502965366800830042e-06
3.004001653601504063e-02	1.195971462228047344e-02	-1.853046358458844411e-02	7.650170540961939388e-05	6.392207560660809751e-01	1.000507454934788765e+00	1.000081765283346247e+00	-1.387878938537515788e-02	7.766799513902518799e-09	1.349965043806345346e-05
5.006669422669172975e-02	1.190288814476527304e-02	-1.848849421595030046e-02	1.273688502094117618e-04	6.395777422732945583e-01	1.001263324882492478e+00	1.000081789747045091e+00	-1.385347661948926543e-02	3.583362175570505756e-08	3.734905172523121257e-05
7.009337191736843276e-02	1.181810702713856180e-02	-1.842564258711486269e-02	1.779744488285946115e-04	6.401126750633662210e-01	1.002394965946018734e+00	1.000081816270268487e+00	-1.381191665643839370e-02	9.778625370667723624e-08	7.276488375440918165e-05
9.012004960804512188e-02	1.170591863090652586e-02	-1.834203344676262754e-02	2.282450732399545683e-04	6.408248859879953629e-01	1.003899783417107061e+00	1.000081850692676078e+00	-1.375842241688374906e-02	2.063110575168797226e-07	1.193218328297097420e-04
1.101467272987218110e-01	1.156704495520050578e-02	-1.823783433625411274e-02	2.780895279480485329e-04	6.417134782890863143e-01	1.005774252545184266e+00	1.000081892869688405e+00	-1.369162372349710596e-02	3.732420178836020431e-07	1.764604694464376434e-04
1.301734049893985001e-01	1.140237527297637346e-02	-1.811325597897303977e-02	3.274231592188168137e-04	6.427773170635716626e-01	1.008013930177764639e+00	1.000081942440255389e+00	-1.361203172852244042e-02	6.093542217516074852e-07	2.434937369201512110e-04
1.502000826800751754e-01	1.121295829544990963e-02	-1.796855361195477327e-02	3.761668186800495774e-04	6.440150280220788837e-01	1.010613407087354476e+00	1.000081998895660185e+00	-1.351992127570065746e-02	9.241750846583035402e-07	3.196149789468232015e-04
1.702267603707518784e-01	1.099999239157819185e-02	-1.780402807793130329e-02	4.242479329906611208e-04	6.454249797092214136e-01	1.013566270968303762e+00	1.000082061661327071e+00	-1.341566398656723023e-02	1.325822952549037979e-06	4.039074404867288594e-04
1.902534380614285814e-01	1.076481448128869742e-02	-1.762002705738866318e-02	4.716016365406066149e-04	6.470052830643582276e-01	1.016865062866203928e+00	1.000082130119691604e+00	-1.329968947110436554e-02	1.820876372632018562e-06	4.953551684369298259e-04
2.102801157521052566e-01	1.050888765410176381e-02	-1.741694623811556458e-02	5.181712524645088217e-04	6.487537705862953530e-01	1.020501230345818744e+00	1.000082203619089283e+00	-1.317249599711974722e-02	2.414274056215243170e-06	5.928552207587036230e-04
2.303067934427819596e-01	1.023378766147305455e-02	-1.719523051382738574e-02	5.639094797406609587e-04	6.506679962377989179e-01	1.024465078238427473e+00	1.000082281496740721e+00	-1.303465218456794326e-02	3.109251478499663028e-06	6.952310770454632558e-04
2.503334711334586626e-01	9.941188413009420174e-03	-1.695537503415630795e-02	6.087786228235803933e-04	6.527452107908112700e-01	1.028745718406527843e+00	1.000082363083838022e+00	-1.288679931904992970e-02	3.907308766408561773e-06	8.012471247876340507e-04
2.703601488241353379e-01	9.632846641335653451e-03	-1.669792607538277129e-02	6.527517573382646092e-04	6.549823645764807356e-01	1.033331019976351017e+00	1.000082447731844626e+00	-1.272965239628352785e-02	4.808218343115781062e-06	9.096240777950061586e-04
2.903868265148120131e-01	9.310585890008070409e-03	-1.642348172756643437e-02	6.958126909544942208e-04	6.573760804431987292e-01	1.038207561854524341e+00	1.000082534813615309e+00	-1.256400012279313902e-02	5.810060116142294995e-06	1.019055162375399849e-03
3.104135042054887439e-01	8.976280009202185564e-03	-1.613269222357735858e-02	7.379570977368249494e-04	6.599226591420751520e-01	1.043360589338782951e+00	1.000082623752292177e+00	-1.239070327244362092e-02	6.909297155336954807e-06	1.128222888197818368e-03
3.304401818961654191e-01	8.631836332042898755e-03	-1.582625998606947484e-02	7.791921895427824599e-04	6.626180523422678936e-01	1.048773977038252703e+00	1.000082714016560237e+00	-1.221069157283540332e-02	8.100870670772972125e-06	1.235816199002691971e-03
3.504668595868420944e-01	8.279178729920309843e-03	-1.550493917297948374e-02	8.195378133045768537e-04	6.654578719887241922e-01	1.054430200214695468e+00	1.000082805151119025e+00	-1.202495852460658092e-02	9.378334263283861859e-06	1.340547780620080605e-03
3.704935372775188251e-01	7.920230731059544824e-03	-1.516953485467851213e-02	8.590258188547166950e-04	6.684373649216940327e-01	1.060310317078605458e+00	1.000082896764227902e+00	-1.183455448758815622e-02	1.073399508384940476e-05	1.441171283455830411e-03
3.905202149681955004e-01	7.556898905925322867e-03	-1.482090159158207243e-02	8.977011209803361985e-04	6.715514272189011535e-01	1.066393964318104626e+00	1.000082988558671726e+00	-1.164057741022637288e-02	1.215909185123764479e-05	1.536498202739180769e-03
4.105468926588721756e-01	7.191056706104367174e-03	-1.445994155137309868e-02	9.356207616769724334e-04	6.747945827300301236e-01	1.072659368539965241e+00	1.000083080309892791e+00	-1.144416182591627418e-02	1.364396405248614586e-05	1.625414144463221055e-03
4.305735703495489064e-01	6.824528955304107365e-03	-1.408760197765184310e-02	9.728549519097924115e-04	6.781610034918806873e-01	1.079083375828906899e+00	1.000083171896832157e+00	-1.124646538026186429e-02	1.517825543187034479e-05	1.706894198720325601e-03
4.506002480402255816e-01	6.459077170627121507e-03	-1.370487215621925964e-02	1.009485845268666979e-03	6.816444937438173035e-01	1.085641501969830225e+00	1.000083263268928047e+00	-1.104865393052694919e-02	1.675109083634882830e-05	1.780017136017986645e-03
4.706269257309022569e-01	6.096385896045524409e-03	-1.331277971607632178e-02	1.045608595983510761e-03	6.852385173898762893e-01	1.092308005121487069e+00	1.000083354476680064e+00	-1.085188429770257007e-02	1.835128587572617200e-05	1.843978147852421519e-03
4.906536034215789877e-01	5.738050205493006040e-03	-1.291238642440307484e-02	1.081329889146809362e-03	6.889361897677720448e-01	1.099055982971733014e+00	1.000083445626420264e+00	-1.065728625599977018e-02	1.996751154717021752e-05	1.898099860406336119e-03
5.106802811122557184e-01	5.385564528071755397e-03	-1.250478338948582575e-02	1.116769081560416068e-03	6.927303121770540528e-01	1.105857495314786387e+00	1.000083536910745252e+00	-1.046594249887541385e-02	2.158849254684404369e-05	1.941841371717979671e-03
5.307069588029323937e-01	5.040312919248837557e-03	-1.209108579317516932e-02	1.152056572223720491e-03	6.966133714589629600e-01	1.112683713128513219e+00	1.000083628550630710e+00	-1.027886884991202274e-02	2.320314322241977525e-05	1.974805087451283244e-03
5.507336364936090689e-01	4.703560888584812361e-03	-1.167242713568506993e-02	1.187335130988323786e-03	7.005775832139187198e-01	1.119505093789599171e+00	1.000083720826570932e+00	-1.009699299990593317e-02	2.480074139309364892e-05	1.996741169825795581e-03
5.707603141842857442e-01	4.376448862375962104e-03	-1.124995313131495894e-02	1.222758238035329299e-03	7.046148985811083731e-01	1.126291582139441472e+00	1.000083814008157823e+00	-9.921134742513226107e-03	2.637102493127729352e-05	2.007549457333707762e-03
5.907869918749625304e-01	4.059987339066026268e-03	-1.082481526851959870e-02	1.258491748622964654e-03	7.087170554959923985e-01	1.133012835356812076e+00	1.000083908387637388e+00	-9.751985369114143237e-03	2.790433407133357708e-05	2.007278769287545919e-03
6.108136695656392057e-01	3.755053761026995278e-03	-1.039816417605277273e-02	1.294712378922826005e-03	7.128755918293383509e-01	1.139638469709092661e+00	1.000084004197496323e+00	-9.590090010072986615e-03	2.939166486537042114e-05	1.996123567957983850e-03
6.308403472563158809e-01	3.462391100845998645e-03	-9.971142864043804066e-03	1.331609897756356109e-03	7.170819035007042208e-01	1.146138325275283920e+00	1.000084101648911705e+00	-9.435829677284918865e-03	3.082477940803519749e-05	1.974418019350002856e-03
6.508670249469925562e-01	3.182608126258109835e-03	-9.544879964913618661e-03	1.369385982912506685e-03	7.213272612268869510e-01	1.152482745054615787e+00	1.000084200838520010e+00	-9.289407704331353183e-03	3.219621893732148684e-05	1.942627561015258927e-03
6.708937026376692314e-01	2.916181280651059145e-03	-9.120483045999163221e-03	1.408257168934440003e-03	7.256028743455378294e-01	1.158642862818275887e+00	1.000084301794503805e+00	-9.150836245323298868e-03	3.349938656023426748e-05	1.901338156141010958e-03
6.909203803283459067e-01	2.663458085367581551e-03	-8.699032173733141360e-03	1.448454338287828366e-03	7.298999087858465407e-01	1.164590894790743958e+00	1.000084404374113278e+00	-9.019928428475657706e-03	3.472852728034143591e-05	1.851243478373636739e-03
7.109470580190225819e-01	2.424661944810216439e-03	-8.281573731072598699e-03	1.490226686557027469e-03	7.342095517706387353e-01	1.170300428272642579e+00	1.000084508320420840e+00	-8.896290561880199760e-03	3.587879038182042850e-05	1.793130333112594567e-03
7.309737357096993682e-01	2.199898211186357942e-03	-7.869114719767072302e-03	1.533842149416562127e-03	7.385230292905262672e-01	1.175746701651440684e+00	1.000084613152071311e+00	-8.779321019125832515e-03	3.694618524092636630e-05	1.727862671700031464e-03
7.510004134003760434e-01	1.989161346166764665e-03	-7.462617481392758503e-03	1.579592676787022580e-03	7.428316681705600111e-01	1.180906868478596605e+00	1.000084718233773984e+00	-8.668208752109581375e-03	3.792763007024276309e-05	1.656364594534549210e-03
7.710270910910527187e-01	1.792343001876987776e-03	-7.062995086536840925e-03	1.627795936827858584e-03	7.471269103742056439e-01	1.185760240367534024e+00	1.000084822659392580e+00	-8.561939272567549442e-03	3.882089107504359038e-05	1.579602764536829507e-03
7.910537687817293939e-01	1.609240832574854825e-03	-6.671107302900943815e-03	1.678802230813047349e-03	7.514003666671268400e-01	1.190288501941957344e+00	1.000084925339051134e+00	-8.459299492732136327e-03	3.962462145576519057e-05	1.498568661692587477e-03
8.110804464724060692e-01	1.439567844466360224e-03	-6.287757303323844062e-03	1.732997874953374519e-03	7.556438267579215218e-01	1.194475893910141417e+00	1.000085024876402606e+00	-8.358890825728498494e-03	4.033828844020495412e-05	1.414261103735294216e-03
8.311071241630827444e-01	1.282962089948431420e-03	-5.913689054890817337e-03	1.790814154343229334e-03	7.598493038906241059e-01	1.198309358977044825e+00	1.000085119674694711e+00	-8.259140356919766196e-03	4.096220279628135993e-05	1.327669434776263457e-03
8.511338018537595307e-01	1.138996519652029499e-03	-5.549585507177259500e-03	1.852732875426103300e-03	7.640090321137733564e-01	1.201778648825773566e+00	1.000085207809022769e+00	-8.158321308872128891e-03	4.149743508198162461e-05	1.239757748301994122e-03
8.711604795444362059e-01	1.007188814068008973e-03	-5.196067401136535840e-03	1.919297868101206084e-03	7.681155061940442286e-01	1.204876389002449200e+00	1.000085287153808622e+00	-8.054571387192866264e-03	4.194583319766245430e-05	1.151450460370257584e-03
8.911871572351128812e-01	8.870110329754558572e-04	-4.853692902591608821e-03	1.991123334355804787e-03	7.721614632636157882e-01	1.207598102537869034e+00	1.000085355250831309e+00	-7.945922229217314628e-03	4.230992731183229972e-05	1.063619492094539185e-03
9.112138349257895564e-01	7.778989369391117563e-04	-4.522957715559786963e-03	2.068908554904123464e-03	7.761399152285132219e-01	1.209942191443137860e+00	1.000085409461508812e+00	-7.830327703301947703e-03	4.259293217709773428e-05	9.770732539608139276e-04
9.312405126164662317e-01	6.792608580124229363e-04	-4.204295948912462749e-03	2.153449815246734258e-03	7.800441157873431175e-01	1.211909879461314343e+00	1.000085446832824188e+00	-7.705706584061014497e-03	4.279864031881973520e-05	8.925475594666387518e-04
9.512671903071429069e-01	5.904860174632754928e-04	-3.898081244678103588e-03	2.245659110487045404e-03	7.838675907771119888e-01	1.213505117199197514e+00	1.000085464279183656e+00	-7.569986848393874153e-03	4.293140709869876535e-05	8.106985273620869381e-04
9.712938679978196932e-01	5.109522140910325097e-04	-3.604628519809628413e-03	2.346580517429829472e-03	7.876040899713097065e-01	1.214734455046049044e+00	1.000085458450842513e+00	-7.421169515637157134e-03	4.299603347418699752e-05	7.320974723690970923e-04
9.913205456884963684e-01	4.400328286720380845e-04	-3.324195720589211839e-03	2.457413672240138427e-03	7.912476136253387970e-01	1.215606886271200615e+00	1.000085425953174179e+00	-7.257398853241539029e-03	4.299773438516100202e-05	6.572277276406491512e-04
1.011347223379172933e+00	3.771031152294566707e-04	-3.056985910612427821e-03	2.579535247533366188e-03	7.947923631096536212e-01	1.216133666887871945e+00	1.000085363225447610e+00	-7.077059042164998183e-03	4.294201480800685438e-05	5.864832996073324894e-04
1.031373901069849497e+00	3.215457700074412844e-04	-2.803149133363943158e-03	2.714527443176183684e-03	7.982327649916224344e-01	1.216328115008460831e+00	1.000085266809024542e+00	-6.878882927989903029e-03	4.283462477809322415e-05	5.201692197412334691e-04
1.051400578760526283e+00	2.727557906665163765e-04	-2.562784345525581046e-03	2.864204188174024942e-03	8.015634130939190971e-01	1.216205396507281655e+00	1.000085133247736735e+00	-6.662093388386981438e-03	4.268143447842734345e-05	4.585034376014328165e-04
1.071427256451203069e+00	2.301446540974163646e-04	-2.335940665850348708e-03	3.030643080292273230e-03	8.047791342851753349e-01	1.215782299120220067e+00	1.000084959418915176e+00	-6.426560283226627479e-03	4.248838143790875535e-05	4.016200864799499308e-04
1.091453934141879634e+00	1.931438570349439934e-04	-2.122618568980073721e-03	3.216212964799266064e-03	8.078749359429461263e-01	1.215077001178603622e+00	1.000084742467451271e+00	-6.172989380252507687e-03	4.226135126261012500e-05	3.495739541490107188e-04
1.111480611832556420e+00	1.612078731373480845e-04	-1.922770446268993192e-03	3.423603178904520428e-03	8.108459758179632493e-01	1.214108835791289920e+00	1.000084480210645888e+00	-5.903117780517918786e-03	4.200612377993134323e-05	3.023459967691861038e-04
1.131507289523232984e+00	1.338165881186997169e-04	-1.736300054062114026e-03	3.655842363858782373e-03	8.136876872750909984e-01	1.212898055501401284e+00	1.000084171110096509e+00	-5.619925494415861991e-03	4.172826687808413012e-05	2.598497484411910609e-04
1.151533967213909770e+00	1.104772756758307887e-04	-1.563061069937087509e-03	3.916308964877402224e-03	8.163961143577637136e-01	1.211465596585652227e+00	1.000083814746496769e+00	-5.327822154476985310e-03	4.143308788542677477e-05	2.219384917361658669e-04
1.171560644904586557e+00	9.072617521907615809e-05	-1.402857666811108909e-03	4.208717404523365166e-03	8.189670013752271549e-01	1.209832846783727600e+00	1.000083411809489897e+00	-5.032790060141490406e-03	4.112554650982515705e-05	1.884130679378280657e-04
1.191587322595263121e+00	7.412972379475947342e-05	-1.255441097310716712e-03	4.537076179297788552e-03	8.213962549076032627e-01	1.208021414241443159e+00	1.000082964603887792e+00	-4.742443218696614469e-03	4.081022200849637526e-05	1.590302096693919562e-04
1.211614000285939907e+00	6.028548267838940047e-05	-1.120503265724764365e-03	4.905595025785459279e-03	8.236827153206505159e-01	1.206052900839054143e+00	1.000082476993265024e+00	-4.465982654652794065e-03	4.049124938020564978e-05	1.335112743487493691e-04
1.231640677976616471e+00	4.882278171351386734e-05	-9.976816442938561593e-04	5.318530024583338969e-03	8.258243078884975885e-01	1.203948677353767982e+00	1.000081954847088506e+00	-4.213928147860520300e-03	4.017230067545843618e-05	1.115512375213252566e-04
1.251667355667293258e+00	3.940308589721617437e-05	-8.865599005172552539e-04	5.779941135724877763e-03	8.278147492887855119e-01	1.201729664439182610e+00	1.000081405821667380e+00	-3.997660243926486751e-03	3.985656024188687801e-05	9.282777461583875483e-05
1.271694033357969822e+00	3.172006939873284182e-05	-7.866499762536733296e-04	6.293347087623637863e-03	8.296577156243167828e-01	1.199416118267686127e+00	1.000080839615894224e+00	-3.828825862107286277e-03	3.954673010920443498e-05	7.701021816169866343e-05
1.291720711048646608e+00	2.549936750007960037e-05	-6.974052984839905706e-04	6.861257634341593956e-03	8.313603955693906755e-01	1.197027427377151509e+00	1.000080267456322503e+00	-3.718451982420957740e-03	3.924501333819970010e-05	6.376813573798038870e-05
1.311747388739323394e+00	2.049796898493442919e-05	-6.182407750069360578e-04	7.484597559929316406e-03	8.329122457948738845e-01	1.194581922373947558e+00	1.000079702054050612e+00	-3.675863092456331353e-03	3.895315443885247187e-05	5.277924069565327267e-05
1.331774066429999959e+00	1.650321527483241226e-05	-5.485088847258848526e-04	8.162042241951762006e-03	8.343156550457052623e-01	1.192096708079488865e+00	1.000079156738367336e+00	-3.707830615983045454e-03	3.867246533402557629e-05	4.373633826106559062e-05
1.351800744120676745e+00	1.333138809394618563e-05	-4.875117750276720735e-04	8.889331280487217102e-03	8.355920528172434691e-01	1.189587521725687491e+00	1.000078645138401612e+00	-3.817747219145239089e-03	3.840384430075237024e-05	3.635303356587248248e-05
1.371827421811353309e+00	1.082589452219381068e-05	-4.345409707698736365e-04	9.658676253228738046e-03	8.367374333659186592e-01	1.187068627385470032e+00	1.000078180083208146e+00	-4.004846889307273929e-03	3.814781538815163709e-05	3.036799255042016890e-05
1.391854099502030095e+00	8.855092293787432352e-06	-3.888691316316941716e-04	1.045841429628077864e-02	8.377491023114967961e-01	1.184552748391856758e+00	1.000077773216373034e+00	-4.264092281429431551e-03	3.790459041488312308e-05	2.554764668026972570e-05
1.411880777192706660e+00	7.309832917877392894e-06	-3.497571006817207923e-04	1.127305454190111363e-02	8.386479193201722415e-01	1.182051044267575568e+00	1.000077433935474769e+00	-4.586530973675924730e-03	3.767409441718808306e-05	2.168735541587614698e-05
1.431907454883383446e+00	6.100827359869747756e-06	-3.164859518527618422e-04	1.208386011502240315e-02	8.394431433615110461e-01	1.179573128338242682e+00	1.000077169240263464e+00	-4.959796968288640064e-03	3.745601685677495672e-05	1.861116456263427329e-05
1.451934132574060232e+00	5.155953759648114810e-06	-2.883661308303464717e-04	1.287000329941688156e-02	8.401369113044270254e-01	1.177127126625291620e+00	1.000076982993484354e+00	-5.369132480608714703e-03	3.724987029977288336e-05	1.617040199468555844e-05
1.471960810264736796e+00	4.417625340009807665e-06	-2.647426009156156551e-04	1.361019746713870715e-02	8.407416998638331807e-01	1.174719768185230828e+00	1.000076876227237399e+00	-5.798753845936680321e-03	3.705504425016043093e-05	1.424141671337456611e-05
1.491987487955413583e+00	3.840320659914355948e-06	-2.450082629331497091e-04	1.428457119116832708e-02	8.412691293112255497e-01	1.172356502558852709e+00	1.000076846864165869e+00	-6.233158931421486741e-03	3.687085080743895748e-05	1.272278570592581686e-05
1.512014165646090147e+00	3.388351894357036476e-06	-2.286102739675495963e-04	1.487646412655530860e-02	8.417269738672531476e-01	1.170041630710005442e+00	1.000076890514891792e+00	-6.658355903220157003e-03	3.669657524612315148e-05	1.153228903970799614e-05
1.532040843336766933e+00	3.033916143756422958e-06	-2.150516138645569358e-04	1.537380852988425896e-02	8.421238436280487072e-01	1.167778443689432954e+00	1.000077000572459962e+00	-7.062863466429090617e-03	3.653150746517654904e-05	1.060389961973296452e-05
1.552067521027443719e+00	2.755445146695950210e-06	-2.038916546961182176e-04	1.576986918371721738e-02	8.424685297715913679e-01	1.165569356304293480e+00	1.000077169298628554e+00	-7.438260878897684156e-03	3.637496654444611070e-05	9.884965579346040047e-06
1.572094198718120284e+00	2.536244755673306273e-06	-1.947449860900990655e-04	1.606326644899273501e-02	8.427682718477379487e-01	1.163416033997290988e+00	1.000077388000840894e+00	-7.779267117544435423e-03	3.622631066772751381e-05	9.333694797477461215e-06
1.592120876408797070e+00	2.363398746809600448e-06	-1.872779207898136349e-04	1.625737849681488378e-02	8.430296244387660565e-01	1.161319505426785970e+00	1.000077648084753079e+00	-8.083449342961786938e-03	3.608494557316676546e-05	8.916992212623063506e-06
1.612147554099473634e+00	2.226902309413437232e-06	-1.812044206782637034e-04	1.635932131651413740e-02	8.432583107966586944e-01	1.159280264599197752e+00	1.000077941025234063e+00	-8.350674626962839922e-03	3.595032302964594641e-05	8.608656216924335549e-06
1.632174231790150420e+00	2.118987346135014939e-06	-1.762812930242902722e-04	1.637875197227270721e-02	8.434594641009570681e-01	1.157298358765868063e+00	1.000078259187674679e+00	-8.582474164556491356e-03	3.582194335761490576e-05	8.387910946700156888e-06
1.652200909480826985e+00	2.033603049873372119e-06	-1.723034577996117843e-04	1.632669994506261157e-02	8.436372984291121702e-01	1.155373468131007719e+00	1.000078595506968870e+00	-8.781436632859022234e-03	3.569935102807439040e-05	8.238234820840926534e-06
1.672227587171503771e+00	1.966019004180342432e-06	-1.690990353117873229e-04	1.621457527975023877e-02	8.437955115595119349e-01	1.153504973663859623e+00	1.000078944093019340e+00	-8.950718788341941942e-03	3.558213604845314199e-05	8.146439110908287236e-06
1.692254264862180557e+00	1.912523177358747688e-06	-1.665249229185548191e-04	1.605341596619933725e-02	8.439371698903578300e-01	1.151692018869982181e+00	1.000079299697755442e+00	-9.093679867564539651e-03	3.546992805579660195e-05	8.101950508780280115e-06
1.712280942552857121e+00	1.870192305591249581e-06	-1.644625695918824069e-04	1.585338896225517782e-02	8.440649030997859903e-01	1.149933560997667747e+00	1.000079658213953948e+00	-9.213642056523450169e-03	3.536239688751106734e-05	8.096255827466124615e-06
1.732307620243533908e+00	1.836717043534395646e-06	-1.628143031944558462e-04	1.562350749400307458e-02	8.441808764545908339e-01	1.148228417483942110e+00	1.000080016036444253e+00	-9.313741736084867051e-03	3.525924547235809343e-05	8.122473041546725555e-06
1.752334297934210472e+00	1.810268265624518904e-06	-1.614999875682994696e-04	1.537152317618177728e-02	8.442868823824095648e-01	1.146575302779352379e+00	1.000080370543202868e+00	-9.396851474863774506e-03	3.516021008373756529e-05	8.175019407523264201e-06
1.772360975624887258e+00	1.789394313961066650e-06	-1.604541727237999494e-04	1.510393488015665184e-02	8.443844799020707725e-01	1.144972861726948121e+00	1.000080719415477493e+00	-9.465545389329341891e-03	3.506505278623190530e-05	8.249353537694814847e-06
1.792387653315563822e+00	1.772941495815385112e-06	-1.596235972012897627e-04	1.482607685186277530e-02	8.444748893012583579e-01	1.143419694483738258e+00	1.000081061145756900e+00	-9.522093410965454946e-03	3.497356209249186711e-05	8.341773606026925148e-06
1.812414331006240609e+00	1.759992199386281390e-06	-1.589650977110473764e-04	1.454224371872362039e-02	8.445591777062553263e-01	1.141914379465265306e+00	1.000081394343104613e+00	-9.568471235076796838e-03	3.488554563788875550e-05	8.449258196723988829e-06
1.832441008696917395e+00	1.749816380969921631e-06	-1.584437954544056599e-04	1.425583497171791642e-02	8.446381489470549120e-01	1.140455489089513108e+00	1.000081718283697407e+00	-9.606381217756842714e-03	3.480083173887481426e-05	8.569339707950216376e-06
1.852467686387593959e+00	1.741833350195313148e-06	-1.580316071592637484e-04	1.396949505329083026e-02	8.447125753619857402e-01	1.139041604950185693e+00	1.000082032208128080e+00	-9.637277121533104410e-03	3.471926243596016096e-05	8.700002808176479895e-06
1.872494364078270745e+00	1.735581483646975002e-06	-1.577059889461571792e-04	1.368524728539832411e-02	8.447829812901296309e-01	1.137671326883643363e+00	1.000082335917141796e+00	-9.662390362591349174e-03	3.464069601397182636e-05	8.839602371639765951e-06
1.892521041768947310e+00	1.730694162176240456e-06	-1.574488958826260603e-04	1.340460900634274366e-02	8.448499094041029833e-01	1.136343282649474151e+00	1.000082629059711792e+00	-9.682757222878661876e-03	3.456500043537344944e-05	8.986796729316605216e-06
1.912547719459624096e+00	1.726880561249772903e-06	-1.572459280022733634e-04	1.312869419375141400e-02	8.449137010895928501e-01	1.135056132352116887e+00	1.000082911772051109e+00	-9.699243728580088375e-03	3.449205668667088849e-05	9.140493101920526024e-06
1.932574397150300882e+00	1.723910318826733880e-06	-1.570856159177362512e-04	1.285829586766307209e-02	8.449747387153748734e-01	1.133808574405558378e+00	1.000083183952877874e+00	-9.712570393986492967e-03	3.442175246219535736e-05	9.299802823473802342e-06
1.952601074840977446e+00	1.721601249292825578e-06	-1.569588640191075732e-04	1.259395761153050096e-02	8.450332318184683444e-01	1.132599346833537801e+00	1.000083445942411720e+00	-9.723332233271734723e-03	3.435398617415530529e-05	9.464004508586300308e-06
1.972627752531654233e+00	1.719809527132697635e-06	-1.568584566749162612e-04	1.233602797911768044e-02	8.450894754159965494e-01	1.131427230809636919e+00	1.000083697780970171e+00	-9.732019805570065255e-03	3.428866080997974825e-05	9.632513711360202424e-06
1.992654430222330797e+00	1.718421812098426142e-06	-1.567787044229335537e-04	1.208470773210216717e-02	8.451435967350490186e-01	1.130291049944410098e+00	1.000083939924931498e+00	-9.739034079056260382e-03	3.422568841926472107e-05	9.804857922071791513e-06
2.012681107913007583e+00	1.717348967958306521e-06	-1.567151119989669647e-04	1.184008377549450840e-02	8.451958242763945028e-01	1.129189672316752713e+00	1.000084172485152800e+00	-9.744703128753967949e-03	3.416498406464798577e-05	9.980655968006996859e-06
2.032707785603684147e+00	1.716521026183221734e-06	-1.566641560586475750e-04	1.160215942711891220e-02	8.452462096030985972e-01	1.128122008494793160e+00	1.000084395977535179e+00	-9.749292635877841381e-03	3.410647070615087747e-05	1.015960106005962787e-05
2.052734463294360712e+00	1.715883183953665755e-06	-1.566230618680003819e-04	1.137087454117048299e-02	8.452949455992202488e-01	1.127087012688121170e+00	1.000084610538518826e+00	-9.753018432137713217e-03	3.405007315560447281e-05	1.034144685814058136e-05
2.072761140985037720e+00	1.715392599183142143e-06	-1.565896643016449167e-04	1.114612462895481042e-02	8.453420733624322780e-01	1.126083680024013933e+00	1.000084816708342039e+00	-9.756054279785684319e-03	3.399572329443662817e-05	1.052599603952581627e-05
2.092787818675714284e+00	1.715015857868572697e-06	-1.565622650820569278e-04	1.092777209946502875e-02	8.453877316546726250e-01	1.125111047222094429e+00	1.000085014621586055e+00	-9.758540327329345496e-03	3.394335394212332814e-05	1.071309093840514594e-05
2.112814496366390848e+00	1.714726947813670112e-06	-1.565395496794931118e-04	1.071565835507374588e-02	8.454319305784827598e-01	1.124168189455420963e+00	1.000085204822000584e+00	-9.760588170785301429e-03	3.389290442250467546e-05	1.090260590007350661e-05
2.132841174057067857e+00	1.714505669181789553e-06	-1.565204844789069155e-04	1.050960950180417595e-02	8.454748086666312723e-01	1.123254220831247041e+00	1.000085387426445038e+00	-9.762288019215352441e-03	3.384431429151762603e-05	1.109444104881474306e-05
2.152867851747744421e+00	1.714336362788251000e-06	-1.565042774582951269e-04	1.030944411769006350e-02	8.455163533721058444e-01	1.122368291038372101e+00	1.000085562970624009e+00	-9.763710876319026122e-03	3.379752917944116742e-05	1.128851722277726158e-05
2.172894529438420985e+00	1.714206922063490361e-06	-1.564903031604823551e-04	1.011497561633618869e-02	8.455566874722939552e-01	1.121509585793634800e+00	1.000085731545177659e+00	-9.764913998650398552e-03	3.375249438483935962e-05	1.148477186563133054e-05
2.192921207129097994e+00	1.714108000797327822e-06	-1.564780873049846546e-04	9.926017408010929383e-03	8.455958056390124877e-01	1.120677323416126914e+00	1.000085893671939674e+00	-9.765942125601702328e-03	3.370916096217782987e-05	1.168315570520820573e-05
2.212947884819774558e+00	1.714032405467182020e-06	-1.564672563617255539e-04	9.742383277269029210e-03	8.456337960832976952e-01	1.119870755332829759e+00	1.000086049411431643e+00	-9.766831213091404021e-03	3.366747916505214724e-05	1.188363007298285199e-05
2.232974562510451122e+00	1.713974605065333680e-06	-1.564575299448994154e-04	9.563891013901627824e-03	8.456706504022797333e-01	1.119089162651381697e+00	1.000086199269420328e+00	-9.767608985942411587e-03	3.362740480328931328e-05	1.208616474911700525e-05
2.253001240201127686e+00	1.713930361879771758e-06	-1.564486821272099450e-04	9.390361620619297120e-03	8.457064451766594937e-01	1.118331856785400147e+00	1.000086343275132794e+00	-9.768298037063220460e-03	3.358889246673918020e-05	1.229073623156528665e-05
2.273027917891804695e+00	1.713896429959824150e-06	-1.564405456671062668e-04	9.221622058956786133e-03	8.457412049275389032e-01	1.117598176063758109e+00	1.000086481918110337e+00	-9.768915590073617983e-03	3.355190213792874301e-05	1.249732635266478582e-05
2.293054595582481259e+00	1.713870333930672233e-06	-1.564329877340062624e-04	9.057503794888368404e-03	8.457749689765298173e-01	1.116887486502036841e+00	1.000086615196615680e+00	-9.769475489206768531e-03	3.351639220711008044e-05	1.270592117283792725e-05
2.313081273273157823e+00	1.713850184130047446e-06	-1.564259079193320765e-04	8.897845059544339658e-03	8.458077695028043408e-01	1.116199178467250031e+00	1.000086743584956528e+00	-9.769988446424435896e-03	3.348232638939303379e-05	1.291651010186812748e-05
2.333107950963834831e+00	1.713834546505491648e-06	-1.564192325785317725e-04	8.742489005323596588e-03	8.458396119682279890e-01	1.115532667612824769e+00	1.000086867051696693e+00	-9.770462686160092877e-03	3.344966643628298090e-05	1.312908519873231853e-05
2.353134628654511395e+00	1.713822329194308731e-06	-1.564128976028503974e-04	8.591285733275669939e-03	8.458705488143479778e-01	1.114887391588376797e+00	1.000086986057533212e+00	-9.770904912723707772e-03	3.341837945360174998e-05	1.334364061925242989e-05
2.373161306345187960e+00	1.713812707983001473e-06	-1.564068550034882767e-04	8.444090193401291092e-03	8.459006052497738404e-01	1.114262811152705535e+00	1.000087100542810026e+00	-9.771320449433972682e-03	3.338843014844730374e-05	1.356017217699047974e-05
2.393187984035864524e+00	1.713805056175604889e-06	-1.564010720581816827e-04	8.300764131903826809e-03	8.459298002573526487e-01	1.113658406930315259e+00	1.000087210956476902e+00	-9.771713148389206752e-03	3.335978863948991824e-05	1.377867699966366640e-05
2.413214661726541532e+00	1.713798903499998623e-06	-1.563955179492135846e-04	8.161173863837412057e-03	8.459581626742062044e-01	1.113073680679096178e+00	1.000087317212408067e+00	-9.772086341817773011e-03	3.333242233461200364e-05	1.399915325598336639e-05
2.433241339417218096e+00	1.713793892132520719e-06	-1.563901730265506189e-04	8.025192169264420625e-03	8.459857142714064526e-01	1.112508152100702752e+00	1.000087419749654982e+00	-9.772442263386929562e-03	3.330630407441256358e-05	1.422159994424188565e-05
2.453268017107894661e+00	1.713789755468981609e-06	-1.563850138247416591e-04	7.892696008780225939e-03	8.460124958601648038e-01	1.111961360258447717e+00	1.000087518457355662e+00	-9.772783366260832591e-03	3.328140368338676231e-05	1.444601672321310761e-05
2.473294694798571669e+00	1.713786289804058447e-06	-1.563800328516547905e-04	7.763568407719344602e-03	8.460385108971162360e-01	1.111432860422137514e+00	1.000087613766427186e+00	-9.773110714705783922e-03	3.325769644425133277e-05	1.467240378362091176e-05
2.493321372489248233e+00	1.713783344737890785e-06	-1.563752129676461151e-04	7.637696164254144382e-03	8.460637787852512970e-01	1.110922225636540750e+00	1.000087705542836103e+00	-9.773425950110511615e-03	3.323515439582076363e-05	1.490076174384844024e-05
2.513348050179924797e+00	1.713780804201407536e-06	-1.563705489158537384e-04	7.514971719633708157e-03	8.460883405840479154e-01	1.110429043588332831e+00	1.000087794211143244e+00	-9.773729777785259906e-03	3.321375504458466400e-05	1.513109157259217025e-05
2.533374727870601362e+00	1.713778583591603312e-06	-1.563660294071146423e-04	7.395290877081828716e-03	8.461121770051002189e-01	1.109952918318110493e+00	1.000087879615553010e+00	-9.774023301989289217e-03	3.319347241312510391e-05	1.536339452444800439e-05
2.553401405561278370e+00	1.713776616313685408e-06	-1.563616516254669533e-04	7.278554684212246335e-03	8.461353482626100542e-01	1.109493467095891139e+00	1.000087962175840728e+00	-9.774306844045080322e-03	3.317428605576550526e-05	1.559767209412217387e-05
2.573428083251954934e+00	1.713774854762204561e-06	-1.563574033511389277e-04	7.164667155375482877e-03	8.461578488183222335e-01	1.109050322273547051e+00	1.000088041715782250e+00	-9.774581460766269825e-03	3.315617178836283759e-05	1.583392597615228416e-05
2.593454760942631498e+00	1.713773260127490310e-06	-1.563532862322165840e-04	7.053537171259969228e-03	8.461797105649474515e-01	1.108623128163275684e+00	1.000088118651749847e+00	-9.774847093756901251e-03	3.313911101097800709e-05	1.607215803843175861e-05
2.613481438633308507e+00	1.713771805474026010e-06	-1.563492899240046885e-04	6.945076225702029663e-03	8.462009248704467357e-01	1.108211543017338707e+00	1.000088192788254782e+00	-9.775104596836857451e-03	3.312308119422110683e-05	1.631237029643754134e-05
2.633508116323985071e+00	1.713770467530839491e-06	-1.563454123463116992e-04	6.839200326535679712e-03	8.462215700915818317e-01	1.107815235899880513e+00	1.000088264539575444e+00	-9.775354175342131427e-03	3.310806543316549344e-05	1.655456489837753382e-05
2.653534794014661635e+00	1.713769230903719130e-06	-1.563416515216934743e-04	6.735827763001124742e-03	8.462415727414360767e-01	1.107433888791541143e+00	1.000088333691992126e+00	-9.775595973955202717e-03	3.309404266375239875e-05	1.679874410820144149e-05
2.673561471705338199e+00	1.713768080972617277e-06	-1.563380010366001471e-04	6.634881041619541606e-03	8.462610344374428273e-01	1.107067193447839548e+00	1.000088400658823540e+00	-9.775830505074649748e-03	3.308099761167946490e-05	1.704491029767426325e-05
2.693588149396015208e+00	1.713767008796516933e-06	-1.563344596515816329e-04	6.536284624615910054e-03	8.462798954810311081e-01	1.106714853629853001e+00	1.000088465209002075e+00	-9.776057945006863883e-03	3.306891049699177588e-05	1.729306593459877602e-05
2.713614827086691772e+00	1.713766004621972835e-06	-1.563310204043082390e-04	6.439966934070744456e-03	8.462982591702081780e-01	1.106376581919318314e+00	1.000088527756026302e+00	-9.776278591191706058e-03	3.305776755235842847e-05	1.754321357908857618e-05
2.733641504777368336e+00	1.713765063138792500e-06	-1.563276866887513487e-04	6.345858050530260759e-03	8.463160283181448973e-01	1.106052102090248734e+00	1.000088588052172378e+00	-9.776492412300883880e-03	3.304755015053916271e-05	1.779535587475696850e-05
2.753668182468045345e+00	1.713764177319664913e-06	-1.563244470490570911e-04	6.253891795326981494e-03	8.463333457163371154e-01	1.105741145883052168e+00	1.000088646512069968e+00	-9.776700114210109399e-03	3.303824597029758088e-05	1.804949554762503894e-05
2.773694860158721909e+00	1.713763343967822722e-06	-1.563213097228526266e-04	6.164003359639892016e-03	8.463500752955849249e-01	1.105443455485881854e+00	1.000088702872114599e+00	-9.776901172314379079e-03	3.302983737735413480e-05	1.830563539911418501e-05
2.793721537849398473e+00	1.713762557608002181e-06	-1.563182604741806256e-04	6.076131500041002768e-03	8.463664027211180718e-01	1.105158780278345798e+00	1.000088757548822427e+00	-9.777096563017688771e-03	3.302231345144134012e-05	1.856377830638090723e-05
2.813748215540075037e+00	1.713761816305418890e-06	-1.563153107114183152e-04	5.990216063801729121e-03	8.463821439318909290e-01	1.104886879423609525e+00	1.000088810263327188e+00	-9.777285510891936537e-03	3.301565741711458377e-05	1.882392721648248345e-05
2.833774893230752046e+00	1.713761115506489792e-06	-1.563124397146506807e-04	5.906200321427496069e-03	8.463975320311535322e-01	1.104627518560476584e+00	1.000088861434880627e+00	-9.777469221549177011e-03	3.300985970082877052e-05	1.908608514763224795e-05
2.853801570921428610e+00	1.713760454078793460e-06	-1.563096612340160387e-04	5.824028357493114295e-03	8.464123634975775357e-01	1.104380472530363422e+00	1.000088910769741268e+00	-9.777647181223085571e-03	3.300490420856769816e-05	1.935025518392158349e-05
2.873828248612105174e+00	1.713759828022153061e-06	-1.563069649579231272e-04	5.743647579259152959e-03	8.464268283888018995e-01	1.104145521981588995e+00	1.000088958690711793e+00	-9.777819810231040340e-03	3.300078267934572116e-05	1.961644047723635703e-05
2.893854926302782182e+00	1.713759236731289650e-06	-1.563043545848929279e-04	5.665005964975171684e-03	8.464407664773757611e-01	1.103922456232494964e+00	1.000089004889642252e+00	-9.777986808774990352e-03	3.299747972723329601e-05	1.988464424262079334e-05
2.913881603993458747e+00	1.713758676590708313e-06	-1.563018173233068735e-04	5.588054691041712853e-03	8.464543842447294075e-01	1.103711069822729929e+00	1.000089049793404961e+00	-9.778149143159194437e-03	3.299498822245282623e-05	2.015486976005249352e-05
2.933908281684135311e+00	1.713758147364111634e-06	-1.562993630279026767e-04	5.512745293478029524e-03	8.464674941349872306e-01	1.103511165473296529e+00	1.000089093079867597e+00	-9.778306181791507692e-03	3.299329336468979375e-05	2.042712037049823626e-05
2.953934959374811875e+00	1.713757645704603505e-06	-1.562969828730757836e-04	5.439032419574911167e-03	8.464802785095234539e-01	1.103322550574522998e+00	1.000089135180655342e+00	-9.778458418865260474e-03	3.299238918015325831e-05	2.070139947786258386e-05
2.973961637065488883e+00	1.713757171636583558e-06	-1.562946792503115603e-04	5.366870873896117076e-03	8.464925959136622158e-01	1.103145040267695665e+00	1.000089175759910631e+00	-9.778605770872500491e-03	3.299226142802021475e-05	2.097771054513911706e-05
2.993988314756165448e+00	1.713756722039427831e-06	-1.562924427242104691e-04	5.296218475642966092e-03	8.465046173076112845e-01	1.102978453860351760e+00	1.000089215254550190e+00	-9.778748801262757834e-03	3.299290514353838706e-05	2.125605709658263403e-05
3.014014992446842012e+00	1.713756297154318155e-06	-1.562902811201803666e-04	5.227033026650720546e-03	8.465161808024430634e-01	1.102822618016013001e+00	1.000089253315278981e+00	-9.778887045634723427e-03	3.299430656166077778e-05	2.153644271405718818e-05
3.034041670137519020e+00	1.713755894017346913e-06	-1.562881853361828481e-04	5.159275274526245111e-03	8.465274468547776543e-01	1.102677363102080976e+00	1.000089290384797325e+00	-9.779021047156709681e-03	3.299646175575901628e-05	2.181887103925829262e-05
3.054068347828195584e+00	1.713755513045146105e-06	-1.562861603478939534e-04	5.092905775553008968e-03	8.465382888868384637e-01	1.102542526487895858e+00	1.000089326100648712e+00	-9.779150540660469862e-03	3.299935737956922311e-05	2.210334577025409167e-05
3.074095025518872148e+00	1.713755151416089319e-06	-1.562841958337037420e-04	5.027887967013069427e-03	8.465488486015679825e-01	1.102417948821128091e+00	1.000089360911719849e+00	-9.779276163975938671e-03	3.300299046321110902e-05	2.238987066377997644e-05
3.094121703209549157e+00	1.713754809708844052e-06	-1.562822984499639262e-04	4.964184935042816570e-03	8.465590229301279690e-01	1.102303477425781830e+00	1.000089394442645219e+00	-9.779397464402320855e-03	3.300734799652860441e-05	2.267844953187764958e-05
3.114148380900225721e+00	1.713754485210341118e-06	-1.562804622033556548e-04	4.901762600728507349e-03	8.465688841753942206e-01	1.102198962513134983e+00	1.000089427148927124e+00	-9.779514875619342226e-03	3.301242796043891200e-05	2.296908624421289887e-05
3.134175058590902285e+00	1.713754178616323849e-06	-1.562786904808512168e-04	4.840586388289182078e-03	8.465783932258270639e-01	1.102104260681291192e+00	1.000089458642395179e+00	-9.779628188845529771e-03	3.301821768623828569e-05	2.326178472490806999e-05
3.154201736281578849e+00	1.713753887332256636e-06	-1.562769720106344765e-04	4.780624503375490407e-03	8.465876277888755297e-01	1.102019231049738091e+00	1.000089489385607600e+00	-9.779738052629218317e-03	3.302471602365258143e-05	2.355654895496294435e-05
3.174228413972255858e+00	1.713753612178437314e-06	-1.562753159155432815e-04	4.721844513717748243e-03	8.465965268100509311e-01	1.101943738858007116e+00	1.000089518977773428e+00	-9.779843974233122864e-03	3.303191051300592327e-05	2.385338296888482864e-05
3.194255091662932422e+00	1.713753350634667367e-06	-1.562737128583835823e-04	4.664216747920143027e-03	8.466051358367274737e-01	1.101877651536982805e+00	1.000089547888822983e+00	-9.779946472358354986e-03	3.303980092962060611e-05	2.415229085758225993e-05
3.214281769353608986e+00	1.713753103624082900e-06	-1.562721708578061720e-04	4.607710755874953011e-03	8.466134233963379385e-01	1.101820842394982680e+00	1.000089575705437328e+00	-9.780045108437969772e-03	3.304837500875096014e-05	2.445327676472116823e-05
3.234308447044285995e+00	1.713752868698253864e-06	-1.562706743039016352e-04	4.552298827008276726e-03	8.466214594427743378e-01	1.101773186617271305e+00	1.000089602905270603e+00	-9.780140827170699658e-03	3.305763340693056260e-05	2.475634488983396506e-05
3.254335124734962559e+00	1.713752646899143016e-06	-1.562692402869793643e-04	4.497952328651693039e-03	8.466291734683191184e-01	1.101734565052034931e+00	1.000089629062660412e+00	-9.780232557541009702e-03	3.306756391393461176e-05	2.506149948470734782e-05
3.274361802425639123e+00	1.713752435803814939e-06	-1.562678465182987632e-04	4.444645384201814133e-03	8.466366680070825934e-01	1.101704860134809838e+00	1.000089654663181671e+00	-9.780321732571213567e-03	3.307816817891437536e-05	2.536874485656454150e-05
3.294388480116315687e+00	1.713752236584974256e-06	-1.562665146887195252e-04	4.392351027316597836e-03	8.466438313390898251e-01	1.101683959767835397e+00	1.000089679268971077e+00	-9.780406965299876659e-03	3.308943390562100220e-05	2.567808536446720104e-05
3.314415157806992696e+00	1.713752046826188856e-06	-1.562652232886953632e-04	4.341045092721877025e-03	8.466507709064911014e-01	1.101671753167676737e+00	1.000089703373831629e+00	-9.780489611025516491e-03	3.310136379801422227e-05	2.598952542259102999e-05
3.334441835497669260e+00	1.713751867815581978e-06	-1.562639886444955795e-04	4.290702154501054716e-03	8.466574137570975767e-01	1.101668134844359326e+00	1.000089726527679801e+00	-9.780568648278777782e-03	3.311394543020135044e-05	2.630306949659795877e-05
3.354468513188345824e+00	1.713751697156912448e-06	-1.562627932345556254e-04	4.241299626993473224e-03	8.466638464595668268e-01	1.101673000364163713e+00	1.000089749232911274e+00	-9.780645187487372119e-03	3.312718247531291205e-05	2.661872210701809647e-05
3.374495190879022832e+00	1.713751536234284194e-06	-1.562616505770265095e-04	4.192813515429543759e-03	8.466699864366045158e-01	1.101686250432677650e+00	1.000089771027267815e+00	-9.780718388713735556e-03	3.314106238006559732e-05	2.693648782567888391e-05
3.394521868569699397e+00	1.713751382674504234e-06	-1.562605489347500569e-04	4.145222699316723942e-03	8.466759206579143049e-01	1.101707786572311720e+00	1.000089792421923640e+00	-9.780788970052956693e-03	3.315558975301897293e-05	2.725637127915865365e-05
3.414548546260375961e+00	1.713751237932039735e-06	-1.562594987785367385e-04	4.098504520033645696e-03	8.466815684177499968e-01	1.101737515298353065e+00	1.000089812942534406e+00	-9.780856241337634871e-03	3.317075195859870291e-05	2.757837714505636801e-05
3.434575223951052525e+00	1.713751099659355612e-06	-1.562584798493996834e-04	4.052639213304016184e-03	8.466870570386882955e-01	1.101775343725051926e+00	1.000089833109282234e+00	-9.780921577387920174e-03	3.318655447873569583e-05	2.790251015572296187e-05
3.454601901641729533e+00	1.713750969401864324e-06	-1.562575154643608161e-04	4.007605341901220031e-03	8.466922448559814907e-01	1.101821183830684614e+00	1.000089852435756876e+00	-9.780983474371337388e-03	3.320298441389754374e-05	2.822877509444963676e-05
3.474628579332406098e+00	1.713750844805572585e-06	-1.562565860383717639e-04	3.963384432482145066e-03	8.466972514577463249e-01	1.101874947974254226e+00	1.000089871451395052e+00	-9.781043008322705054e-03	3.322004834327495719e-05	2.855717679937958781e-05
3.494655257023082662e+00	1.713750727477462831e-06	-1.562557026835899993e-04	3.919956180625544517e-03	8.467020020011482018e-01	1.101936553278693776e+00	1.000089889657727271e+00	-9.781099858292412533e-03	3.323773306982057233e-05	2.888772015931711850e-05
3.514681934713759670e+00	1.713750615104090513e-06	-1.562548512881796903e-04	3.877303292558352023e-03	8.467065891660228161e-01	1.102005917036853688e+00	1.000089907593664007e+00	-9.781154391082118316e-03	3.325604606122760777e-05	2.922041011840309310e-05
3.534708612404436234e+00	1.713750509348264528e-06	-1.562540488349824295e-04	3.835406524820239322e-03	8.467108992653598065e-01	1.102082961201017453e+00	1.000089924748652548e+00	-9.781205971224164741e-03	3.327497386589909018e-05	2.955525167098748031e-05
3.554735290095112799e+00	1.713750407867615633e-06	-1.562532759280921930e-04	3.794249698470775548e-03	8.467150674898775708e-01	1.102167607731877386e+00	1.000089941671264304e+00	-9.781255806594885485e-03	3.329452496156423290e-05	2.989224986729314076e-05
3.574761967785789363e+00	1.713750312437874499e-06	-1.562525493620971889e-04	3.753814544204566676e-03	8.467189725517878518e-01	1.102259783117867764e+00	1.000089957838969479e+00	-9.781302447166037237e-03	3.331468550887191631e-05	3.023140980782952270e-05
3.594788645476466371e+00	1.713750220692152609e-06	-1.562518514425954570e-04	3.714085924524909103e-03	8.467227348794943431e-01	1.102359413708530855e+00	1.000089973810093680e+00	-9.781347443023922367e-03	3.333546499387751423e-05	3.057273664899600520e-05
3.614815323167142935e+00	1.713750134459381291e-06	-1.562512012557495792e-04	3.675046478516167617e-03	8.467262162457872554e-01	1.102466430292489585e+00	1.000089989050158223e+00	-9.781389310687874442e-03	3.335684918345496248e-05	3.091623559759088848e-05
3.634842000857819500e+00	1.713750051375211643e-06	-1.562505740668826567e-04	3.636682047784276124e-03	8.467296027169425310e-01	1.102580763348610216e+00	1.000090004127363041e+00	-9.781429801591787210e-03	3.337884862156138014e-05	3.126191191694225902e-05
3.654868678548496508e+00	1.713749973337080902e-06	-1.562499943620046159e-04	3.598976100685527882e-03	8.467327078638329230e-01	1.102702347729825894e+00	1.000090018495316313e+00	-9.781467256837820395e-03	3.340144850672129901e-05	3.160977092065706602e-05
3.674895356239173072e+00	1.713749897960879734e-06	-1.562494394537738951e-04	3.561915408208438539e-03	8.467357106484900697e-01	1.102831117808717565e+00	1.000090032732333212e+00	-9.781503121336231413e-03	3.342466056077187699e-05	3.195981797935406769e-05
3.694922033929849636e+00	1.713749827204357933e-06	-1.562489272397413133e-04	3.525484212251038529e-03	8.467384519893085271e-01	1.102967012278651016e+00	1.000090046280008194e+00	-9.781536295548821924e-03	3.344846940422995207e-05	3.231205851400221525e-05
3.714948711620526201e+00	1.713749758675472431e-06	-1.562484385136595464e-04	3.489670143429514197e-03	8.467410979766510915e-01	1.103109969199645324e+00	1.000090059726906011e+00	-9.781567974395211779e-03	3.347288783350344627e-05	3.266649800324177558e-05
3.734975389311203209e+00	1.713749694384264178e-06	-1.562479946773984000e-04	3.454458169089141654e-03	8.467434690755633042e-01	1.103259930895344576e+00	1.000090072502631822e+00	-9.781596827281385798e-03	3.349789991127421687e-05	3.302314197610710524e-05
3.755002067001879773e+00	1.713749631916512030e-06	-1.562475726207634790e-04	3.419836735431817758e-03	8.467457603090164930e-01	1.103416838910105113e+00	1.000090085206179369e+00	-9.781624312755081430e-03	3.352351960562954369e-05	3.338199601986056002e-05
3.775028744692556337e+00	1.713749573348147630e-06	-1.562471938870604968e-04	3.385791475893877665e-03	8.467477825551457116e-01	1.103580639006905839e+00	1.000090097255102783e+00	-9.781649012415389796e-03	3.354973029870908643e-05	3.374306577247632437e-05
3.795055422383233346e+00	1.713749516238820987e-06	-1.562468352708461629e-04	3.352311603724776948e-03	8.467497133818697730e-01	1.103751276032888473e+00	1.000090109258975124e+00	-9.781672469666239864e-03	3.357654714975810310e-05	3.410635693070404991e-05
3.815082100073909910e+00	1.713749462720839289e-06	-1.562465199687491230e-04	3.319383371121346297e-03	8.467514069612012140e-01	1.103928699012672210e+00	1.000090120623237322e+00	-9.781693195861244916e-03	3.360395281286887706e-05	3.447187524223290612e-05
3.835108777764586474e+00	1.713749410331480289e-06	-1.562462240626705115e-04	3.286996717817061795e-03	8.467529939959617113e-01	1.104112855919217484e+00	1.000090131968236484e+00	-9.781712685321086037e-03	3.363196370350842325e-05	3.483962651427185476e-05
3.855135455455263482e+00	1.713749361255705497e-06	-1.562459723789129634e-04	3.255138469782728212e-03	8.467543418353915552e-01	1.104303698872890260e+00	1.000090142687276806e+00	-9.781729455654879571e-03	3.366056168983891362e-05	3.520961660513805024e-05
3.875162133145940047e+00	1.713749313026302755e-06	-1.562457364543155054e-04	3.223799254870131793e-03	8.467556073648911941e-01	1.104501178802990813e+00	1.000090153411608229e+00	-9.781744400653082094e-03	3.368976450200749192e-05	3.558185143366092467e-05
3.895188810836616611e+00	1.713749267730502698e-06	-1.562455473007216215e-04	3.192966423710657045e-03	8.467566267857897788e-01	1.104705250828599716e+00	1.000090163522440845e+00	-9.781760876097314941e-03	3.371955308708540847e-05	3.595633696838012575e-05
3.915215488527293175e+00	1.713749231876190964e-06	-1.562453661004039858e-04	3.162631251244342554e-03	8.467576057965231495e-01	1.104915865507385409e+00	1.000090173663701121e+00	-9.781465377929539698e-03	3.374994649090667855e-05	3.633307932685959452e-05
3.935242166217970183e+00	1.713749113497271829e-06	-1.562452204827108977e-04	3.132781768388495040e-03	8.467583714125558325e-01	1.105133014078379272e+00	1.000090183213610207e+00	-9.784171767680897511e-03	3.378092675446148034e-05	3.671208368849388935e-05
3.955268843908646748e+00	1.713749198004590871e-06	-1.562450900514070922e-04	3.103410265752014601e-03	8.467591098529433369e-01	1.105356584001721210e+00	1.000090193077723066e+00	-9.784499201534803056e-03	3.381251980971719594e-05	3.709336012211557809e-05
3.975295521599323312e+00	1.713749642404355399e-06	-1.562449899355414890e-04	3.074504563694533364e-03	8.467597747873166769e-01	1.105586377979985269e+00	1.000090202769774228e+00	-9.762614372228351628e-03	3.384469652762211555e-05	3.747691296284827689e-05
3.995322199289999876e+00	1.714584732784533302e-06	-1.562868983789129560e-04	3.045531353289996409e-03	8.467602886610061663e-01	1.105725138389047624e+00	1.000000000000000000e+00	-1.000000000000000021e-02	3.387174561589884471e-05	3.787100112148618141e-05
