# Time=0.00120002400048 and Columns are r	p	Paether	ur	alpha	a	b	K	Sr_tilde	tau_tilde
1.001333884533834630e-02	1.199616893412648946e-02	-1.852328925905053283e-02	1.844665278904695493e-05	6.444171145530053213e-01	1.000049913446167560e+00	1.000002590518583645e+00	-1.009045492928622133e-02	2.083788345502229344e-10	1.503606999505225899e-06
3.004001653601504063e-02	1.196763505895442024e-02	-1.850233812624569804e-02	5.533557873031601422e-05	6.445953512613045167e-01	1.000428336871454160e+00	1.000002591622096260e+00	-1.009009652046974174e-02	5.619046745480920146e-09	1.350538368472378034e-05
5.006669422669172975e-02	1.191075123435267683e-02	-1.846047609288701749e-02	9.221140751679132361e-05	6.449516063374187702e-01	1.001184323018018629e+00	1.000002593825144004e+00	-1.008936438827009140e-02	2.594770009146444287e-08	3.736485592074568004e-05
7.009337191736843276e-02	1.182588617547124764e-02	-1.839778559627263527e-02	1.290658729757138915e-04	6.454854312114579606e-01	1.002316143268424220e+00	1.000002597121424364e+00	-1.008826441192316528e-02	7.092799098904273417e-08	7.279551579869559478e-05
9.012004960804512188e-02	1.171358796224302584e-02	-1.831439043543477141e-02	1.658915458873313651e-04	6.461961512595122414e-01	1.003821186778606656e+00	1.000002601501866817e+00	-1.008680513707239934e-02	1.499790412237163690e-07	1.193717259964344847e-04
1.101467272987218110e-01	1.157457935212962037e-02	-1.821045673070131876e-02	2.026820466635281121e-04	6.470828598691938938e-01	1.005695939318280940e+00	1.000002606954071949e+00	-1.008498934525165099e-02	2.720854642142095566e-07	1.765336371975971075e-04
1.301734049893985001e-01	1.140975105273925143e-02	-1.808619380605610422e-02	2.394323325164648909e-04	6.481444121391386481e-01	1.007935955639277292e+00	1.000002613462630530e+00	-1.008282339634295269e-02	4.456830707585813436e-07	2.435936905897295908e-04
1.502000826800751754e-01	1.122015342128514052e-02	-1.794185523181516043e-02	2.761389813204794571e-04	6.493794169239124336e-01	1.010535825876661908e+00	1.000002621009193682e+00	-1.008031487643146554e-02	6.785517272984258696e-07	3.197446577797109692e-04
1.702267603707518784e-01	1.100698668696178245e-02	-1.777773996061970604e-02	3.128004026795995311e-04	6.507862282172284241e-01	1.013489136641859245e+00	1.000002629572555035e+00	-1.007747303945612065e-02	9.777165182246153147e-07	4.040691569431415441e-04
1.902534380614285814e-01	1.077158979720994544e-02	-1.759419354229204216e-02	3.494170948524768171e-04	6.523629352103039736e-01	1.016788427618353197e+00	1.000002639128729998e+00	-1.007430893958064302e-02	1.349358562730320045e-06	4.955505695289937193e-04
2.102801157521052566e-01	1.051542800249121064e-02	-1.739160933091498523e-02	3.859918022582111688e-04	6.541073521797929891e-01	1.020425144638736015e+00	1.000002649651063447e+00	-1.007083557263315464e-02	1.798736108920320080e-06	5.930852662553399643e-04
2.303067934427819596e-01	1.024007930845539580e-02	-1.717042970024249687e-02	4.225297456043289757e-04	6.560170060386875113e-01	1.024389590398367078e+00	1.000002661110319657e+00	-1.006706798170311362e-02	2.330117235840447569e-06	6.954960344278152910e-04
2.503334711334586626e-01	9.947219937557838856e-03	-1.693114706228714822e-02	4.590387311918601434e-04	6.580891267933178801e-01	1.028670874147763037e+00	1.000002673474784665e+00	-1.006302338425234602e-02	2.946724105574305888e-06	8.015465807940690742e-04
2.703601488241353379e-01	9.638608954661280481e-03	-1.667430485482130145e-02	4.955293646967332943e-04	6.603206331180778710e-01	1.033256861897376755e+00	1.000002686710415478e+00	-1.005872119433271969e-02	3.650690290343748180e-06	9.099569653507180505e-04
2.903868265148120131e-01	9.316072222111485349e-03	-1.640049812977445107e-02	5.320151275679327199e-04	6.627081242276846584e-01	1.038134128863537731e+00	1.000002700780908915e+00	-1.005418309508940115e-02	4.443030290555585892e-06	1.019419801924494615e-03
3.104135042054887439e-01	8.981485859585119219e-03	-1.611037402904452395e-02	5.685125940092809662e-04	6.652478658594388472e-01	1.043287916073113442e+00	1.000002715647892559e+00	-1.004943295735950468e-02	5.323623233587569864e-06	1.128617041315984866e-03
3.304401818961654191e-01	8.636759391945334624e-03	-1.580463171036326428e-02	6.050414982583458877e-04	6.679357842868990369e-01	1.048702093224341159e+00	1.000002731270969170e+00	-1.004449681723751896e-02	6.291208884690123952e-06	1.236237132733996593e-03
3.504668595868420944e-01	8.283818774658280315e-03	-1.548402208180472625e-02	6.416249827725877377e-04	6.707674536284840006e-01	1.054359130056645499e+00	1.000002747607965148e+00	-1.003940265165726743e-02	7.343398713139719523e-06	1.340992339790903799e-03
3.704935372775188251e-01	7.924589490369825587e-03	-1.514934682187546455e-02	6.782896881966113487e-04	6.737380942143680329e-01	1.060240078609316905e+00	1.000002764614935424e+00	-1.003418024968828932e-02	8.476698966178708219e-06	1.441635969148588560e-03
3.905202149681955004e-01	7.560979912164132212e-03	-1.480145715790722252e-02	7.150660673311122440e-04	6.768425632124220881e-01	1.066324568827270669e+00	1.000002782246461219e+00	-1.002886083205432530e-02	9.686549492995803157e-06	1.536979253909351393e-03
4.105468926588721756e-01	7.194865128267651649e-03	-1.444125183373808942e-02	7.519885360967162652e-04	6.800753576862127447e-01	1.072590819996869005e+00	1.000002800455640051e+00	-1.002347678988507740e-02	1.096737385853610754e-05	1.625907620951907301e-03
4.305735703495489064e-01	6.828071419585780844e-03	-1.406967476621540439e-02	7.890958942305717179e-04	6.834306111272452355e-01	1.079015670442768915e+00	1.000002819194416803e+00	-1.001806115922252403e-02	1.231264566380646749e-05	1.707396062739870071e-03
4.506002480402255816e-01	6.462361575048591877e-03	-1.368771187983648142e-02	8.264315809100769615e-04	6.869021017094100179e-01	1.085574627784899215e+00	1.000002838413564632e+00	-1.001264722280831646e-02	1.371496490811406331e-05	1.780523330727029315e-03
4.706269257309022569e-01	6.099421220321529086e-03	-1.329638756289223435e-02	8.640442488146661461e-04	6.904832571401374741e-01	1.092241941819170226e+00	1.000002858063054889e+00	-1.000726787042788626e-02	1.516615058847505299e-05	1.844484670511286435e-03
4.906536034215789877e-01	5.740846322779298919e-03	-1.289676038110899522e-02	9.019881730959835621e-04	6.941671684254648866e-01	1.098990701749804177e+00	1.000002878092025149e+00	-1.000195508058544097e-02	1.665734133156683515e-05	1.898602829304891354e-03
5.106802811122557184e-01	5.388132019804099671e-03	-1.248991837671681315e-02	9.403240314087304118e-04	6.979466042449262719e-01	1.105792959045453605e+00	1.000002898449203981e+00	-9.996739205276229320e-03	1.817911158926325418e-05	1.942337085010160946e-03
5.307069588029323937e-01	5.042662898469618855e-03	-1.207697376107697007e-02	9.791195209796451412e-04	7.018140309734007820e-01	1.112619876630162485e+00	1.000002919082831010e+00	-9.991648381496241391e-03	1.972159281556963312e-05	1.975290073758590587e-03
5.507336364936090689e-01	4.705704832672996316e-03	-1.165905722900192031e-02	1.018450404154549842e-03	7.057616362981662395e-01	1.119441904443112312e+00	1.000002939941168068e+00	-9.986707783509516864e-03	2.127460853008403987e-05	1.997212229498606263e-03
5.707603141842857442e-01	4.378398459094610777e-03	-1.123731183166463456e-02	1.058401396966347427e-03	7.097813560421454282e-01	1.126228980638795951e+00	1.000002960972365296e+00	-9.981939037573491630e-03	2.282781005925794648e-05	2.008003694867395352e-03
5.907869918749625304e-01	4.061754346317907396e-03	-1.081288658361945210e-02	1.099067549511860507e-03	7.138649060613400099e-01	1.132950756853779550e+00	1.000002982125037354e+00	-9.977359497539837335e-03	2.437082327911716323e-05	2.007713616519368922e-03
6.108136695656392057e-01	3.756649882670613609e-03	-1.038692983150873300e-02	1.140555482430080821e-03	7.180038148454485070e-01	1.139576845086769596e+00	1.000003003348080233e+00	-9.972981733626828243e-03	2.589339046393929935e-05	1.996536799024348132e-03
6.308403472563158809e-01	3.463827878343446638e-03	-9.960582501151185597e-03	1.182985187202114600e-03	7.221894630362138967e-01	1.146077082840092132e+00	1.000003024591299639e+00	-9.968812905855313142e-03	2.738551907645998967e-05	1.974807757639333080e-03
6.508670249469925562e-01	3.183896847029833721e-03	-9.534971369111687120e-03	1.226491706963572662e-03	7.264131188956102214e-01	1.152421812317636629e+00	1.000003045805168966e+00	-9.964854379382021010e-03	2.883761909234689816e-05	1.942992279346076158e-03
6.708937026376692314e-01	2.917332902333362454e-03	-9.111202365936026809e-03	1.271227467709629697e-03	7.306659831732783550e-01	1.158582168688867098e+00	1.000003066941503871e+00	-9.961101253458752233e-03	3.024064241093914364e-05	1.901676670814183862e-03
6.909203803283459067e-01	2.664483175609195630e-03	-8.690354166333302127e-03	1.317364532227162637e-03	7.349392256172629923e-01	1.164530371782667606e+00	1.000003087953149183e+00	-9.957542166891470911e-03	3.158620383632159979e-05	1.851554938322212077e-03
7.109470580190225819e-01	2.425570635386824908e-03	-8.273471984943698773e-03	1.365097612939125682e-03	7.392240320436219703e-01	1.170240015085534768e+00	1.000003108794683904e+00	-9.954159017719007435e-03	3.286669917025939462e-05	1.793414205000664783e-03
7.309737357096993682e-01	2.200700165174804268e-03	-7.861561915576581114e-03	1.414647078163599504e-03	7.435116377358148565e-01	1.175686345653442322e+00	1.000003129422006198e+00	-9.950926977296711134e-03	3.407539843108218911e-05	1.728118721968765646e-03
7.510004134003760434e-01	1.989865736773778655e-03	-7.455585615261895067e-03	1.466262859391506603e-03	7.477933734206353433e-01	1.180846528502391690e+00	1.000003149793090351e+00	-9.947814416357792996e-03	3.520653199460384107e-05	1.656592869276129511e-03
7.710270910910527187e-01	1.792958501154244717e-03	-7.056455725836217191e-03	1.520228464274903015e-03	7.520606944848030606e-01	1.185699889268765572e+00	1.000003169867430985e+00	-9.944783169697775371e-03	3.625534692495715691e-05	1.579803567829974080e-03
7.910537687817293939e-01	1.609775608675560179e-03	-6.665031795411105117e-03	1.576866080183276370e-03	7.563052195307865544e-01	1.190228129392416845e+00	1.000003189606832876e+00	-9.941788624871628413e-03	3.721815367866236071e-05	1.498742533205996022e-03
8.110804464724060692e-01	1.440029565523312646e-03	-6.282117025323736420e-03	1.636541957344153642e-03	7.605187533395768584e-01	1.194415508795706682e+00	1.000003208974752367e+00	-9.938780251730268064e-03	3.809234048702490736e-05	1.414408795829465940e-03
8.311071241630827444e-01	1.283357933485691684e-03	-5.908455601870520393e-03	1.699673135118898127e-03	7.646933169601454194e-01	1.198248991940485508e+00	1.000003227937057204e+00	-9.935701877287577560e-03	3.887637776355909350e-05	1.327791889803461856e-03
8.511338018537595307e-01	1.139333185736784212e-03	-5.544730908468756270e-03	1.766734702220633044e-03	7.688211596072586085e-01	1.201718354239806219e+00	1.000003246461271589e+00	-9.932492462416045789e-03	3.956979054873482584e-05	1.239856075980219846e-03
8.711604795444362059e-01	1.007472541482086741e-03	-5.191564291352984348e-03	1.838268734873238757e-03	7.728947802452988958e-01	1.204816246982608474e+00	1.000003264517348889e+00	-9.929086620675812991e-03	4.017312301738256575e-05	1.151525915844519177e-03
8.911871572351128812e-01	8.872476169065372179e-04	-4.849514699203404458e-03	1.914894116918562390e-03	7.769069265049614037e-01	1.207538220182376554e+00	1.000003282076763034e+00	-9.925415700028019858e-03	4.068787410736859135e-05	1.063673454305836229e-03
9.112138349257895564e-01	7.780937478582101389e-04	-4.519078758665500371e-03	1.997318463751388516e-03	7.808506076384374994e-01	1.209882703970674100e+00	1.000003299113346511e+00	-9.921408663537268149e-03	4.111642926720862959e-05	9.771072048902432888e-04
9.312405126164662317e-01	6.794188605895660734e-04	-4.200691632807513308e-03	2.086351365058832733e-03	7.847190812967396178e-01	1.211850950313220210e+00	1.000003315602225884e+00	-9.916993646401946541e-03	4.146196848575632203e-05	8.925630637303027994e-04
9.512671903071429069e-01	5.906117895188420144e-04	-3.894728135850214837e-03	2.182920222855866225e-03	7.885058576924917073e-01	1.213446937818810634e+00	1.000003331520728622e+00	-9.912099417758784767e-03	4.172837569257501557e-05	8.106972127090525003e-04
9.712938679978196932e-01	5.110499647671265045e-04	-3.601504442378973461e-03	2.288087874712024881e-03	7.922046785362705235e-01	1.214677243251730543e+00	1.000003346847212926e+00	-9.906657739180826927e-03	4.192013070198752079e-05	7.320810105066147700e-04
9.913205456884963684e-01	4.401064160566475259e-04	-3.321279831505387879e-03	2.403073253422197218e-03	7.958095138644980526e-01	1.215550883953058436e+00	1.000003361562064486e+00	-9.900605768216686267e-03	4.204220791832394407e-05	6.571978159322579456e-04
1.011347223379172933e+00	3.771560628901277491e-04	-3.054258758592132920e-03	2.529274131276873679e-03	7.993145390455465016e-01	1.216079135769776220e+00	1.000003375646453252e+00	-9.893889668984705635e-03	4.209996390280078222e-05	5.864416430805959816e-04
1.031373901069849497e+00	3.215812828055539686e-04	-2.800592703409264615e-03	2.668292966435144211e-03	8.027141290142227881e-01	1.216275331213685140e+00	1.000003389083464533e+00	-9.886468422373582976e-03	4.209903625547983775e-05	5.201175139362899632e-04
1.051400578760526283e+00	2.727767695169037217e-04	-2.560382031912742350e-03	2.821964458781974806e-03	8.060028422845205709e-01	1.216154642504180705e+00	1.000003401856837781e+00	-9.878319153927233795e-03	4.204523684674610839e-05	4.584433517514983187e-04
1.071427256451203069e+00	2.301537101109059260e-04	-2.333677372807975610e-03	2.992385124239370277e-03	8.091754184784731851e-01	1.215733853843871337e+00	1.000003413952303521e+00	-9.869442662269902952e-03	4.194445942191704418e-05	4.015532475320544468e-04
1.091453934141879634e+00	1.931433248696994779e-04	-2.120480684017549741e-03	3.181942389681842887e-03	8.122267812670782572e-01	1.215031126843843623e+00	1.000003425356349673e+00	-9.859870569943980645e-03	4.180258569918679290e-05	3.495019312076567204e-04
1.111480611832556420e+00	1.611998240228898255e-04	-1.920745613430966140e-03	3.393341835733280562e-03	8.151520507904981283e-01	1.214065762429593853e+00	1.000003436057818718e+00	-9.849672239794866543e-03	4.162540715909382992e-05	3.022702864559768227e-04
1.131507289523232984e+00	1.338028425096976992e-04	-1.734377313193234205e-03	3.629627689116114719e-03	8.179465788935796899e-01	1.212857961951532504e+00	1.000003446046781930e+00	-9.838962737418384744e-03	4.141854801912278649e-05	2.597717608870842455e-04
1.151533967213909770e+00	1.104594159999307046e-04	-1.561231468433778692e-03	3.894191783733044580e-03	8.206059867769491811e-01	1.211428589584783833e+00	1.000003455316441636e+00	-9.827909178672029553e-03	4.118740371453782386e-05	2.218595377126335658e-04
1.171560644904586557e+00	9.070555876876801045e-05	-1.401112746179077658e-03	4.190761603899993692e-03	8.231262470302049827e-01	1.209798937577689193e+00	1.000003463862097153e+00	-9.816736397226988667e-03	4.093708209574765792e-05	1.883343470163169840e-04
1.191587322595263121e+00	7.410749619037428418e-05	-1.253772671135896643e-03	4.523356857449266182e-03	8.255037544371377489e-01	1.207990495490348870e+00	1.000003471683366563e+00	-9.805728270396284890e-03	4.067235898679893893e-05	1.589527999523515037e-04
1.211614000285939907e+00	6.026259195991856977e-05	-1.118907251458483090e-03	4.896198533076904710e-03	8.277354649068084935e-01	1.206024724398733872e+00	1.000003478783185740e+00	-9.795225477696969940e-03	4.039763736683198067e-05	1.334361238360504511e-04
1.231640677976616471e+00	4.879999335291003773e-05	-9.961546844564511151e-04	5.313552889928681126e-03	8.298189980087417039e-01	1.203922837096539356e+00	1.000003485170161577e+00	-9.785615403245351285e-03	4.011691944772589571e-05	1.114791576675512504e-04
1.251667355667293258e+00	3.938099870084160210e-05	-8.850936189102237344e-04	5.779488899898719070e-03	8.317528199237669284e-01	1.201705585710491464e+00	1.000003490857425570e+00	-9.777315810244248395e-03	3.983378312876791869e-05	9.275943623449214382e-05
1.271694033357969822e+00	3.169913234122759244e-05	-7.852425706383352102e-04	6.297530350998685814e-03	8.335363597968888927e-01	1.199393058754443686e+00	1.000003495864866920e+00	-9.770749056148178568e-03	3.955136994878803572e-05	7.694615013828229116e-05
1.291720711048646608e+00	2.547989720485702731e-05	-6.960610291429900932e-04	6.870188867819732904e-03	8.351702066288066995e-01	1.197004490489457895e+00	1.000003500217479413e+00	-9.766311209407466803e-03	3.927237798884241455e-05	6.370872664370845473e-05
1.311747388739323394e+00	2.048016767034300330e-05	-6.169528926664953400e-04	7.498381088172524113e-03	8.366561822544095195e-01	1.194558086310401723e+00	1.000003503947180405e+00	-9.764335591211365309e-03	3.899906479166673239e-05	5.272474351554092264e-05
1.331774066429999959e+00	1.648718870323029098e-05	-5.472724837759859740e-04	8.180758608805413848e-03	8.379975002467995315e-01	1.192070868634013792e+00	1.000003507090412302e+00	-9.765059230983112390e-03	3.873325535923212871e-05	4.368687810340356968e-05
1.351800744120676745e+00	1.331716307377169650e-05	-4.863334356594970647e-04	8.913018774242357709e-03	8.391987403033147608e-01	1.189558548118967662e+00	1.000003509689334269e+00	-9.768593684983367664e-03	3.847635854960846958e-05	3.630861823496657622e-05
1.371827421811353309e+00	1.081343552767650436e-05	-4.334200623791860797e-04	9.687307812643037100e-03	8.402658946882757274e-01	1.187035424879129941e+00	1.000003511788775779e+00	-9.774909654067930054e-03	3.822938878815635534e-05	3.032852557357026551e-05
1.391854099502030095e+00	8.844316879127830079e-06	-3.878008287667491778e-04	1.049186734119116234e-02	8.412062004446881902e-01	1.184514323469917807e+00	1.000003513437008884e+00	-9.783834225836025161e-03	3.799299573445816887e-05	2.551294236613031927e-05
1.411880777192706660e+00	7.300625517099136052e-06	-3.487428497077200138e-04	1.131108757706171704e-02	8.420280446148208364e-01	1.182006563896871976e+00	1.000003514682373362e+00	-9.795065482356569986e-03	3.776750087907642777e-05	2.165715533615100873e-05
1.431907454883383446e+00	6.093051323640084035e-06	-3.155265336995255465e-04	1.212609811986988494e-02	8.427406783444126859e-01	1.179521968834351009e+00	1.000003515574095392e+00	-9.808197132210217870e-03	3.755294278044071359e-05	1.858515483929924205e-05
1.451934132574060232e+00	5.149461525320389870e-06	-2.874591102033507853e-04	1.291593633121730991e-02	8.433539753875026745e-01	1.177068904973651353e+00	1.000003516158972872e+00	-9.822752359958775159e-03	3.734912937874871279e-05	1.614823066021093119e-05
1.471960810264736796e+00	4.412266699987561318e-06	-2.638862303780023337e-04	1.365919769102650651e-02	8.438780871068736200e-01	1.174654354292649527e+00	1.000003516482479426e+00	-9.838218552797164951e-03	3.715569497406557946e-05	1.422271042059555257e-05
1.491987487955413583e+00	3.835949148399354827e-06	-2.442008504996000273e-04	1.433592989053257202e-02	8.443231694319291991e-01	1.172284009382782211e+00	1.000003516585724839e+00	-9.854082885000422024e-03	3.697215664615851238e-05	1.270716502635884386e-05
1.512014165646090147e+00	3.384829441476231297e-06	-2.278492243474727755e-04	1.492943878618445235e-02	8.446990462580730163e-01	1.169962386036139446e+00	1.000003516506889234e+00	-9.869862887495844256e-03	3.679796443004904641e-05	1.151938168381373008e-05
1.532040843336766933e+00	3.031116135423845396e-06	-2.143339008232769032e-04	1.542767396273143216e-02	8.450150383306993529e-01	1.167692946108412011e+00	1.000003516278575422e+00	-9.885135033218989814e-03	3.663254112426034070e-05	1.059335105054565627e-05
1.552067521027443719e+00	2.753254128614076870e-06	-2.032142199763165230e-04	1.582396140253598468e-02	8.452796852570706454e-01	1.165478224205958480e+00	1.000003515929717590e+00	-9.899553665926812129e-03	3.647530984830535763e-05	9.876446754736383323e-06
1.572094198718120284e+00	2.534563020420040623e-06	-1.941046015088518796e-04	1.611701465671578487e-02	8.455007481189905638e-01	1.163319952727747353e+00	1.000003515483494310e+00	-9.912865430671345679e-03	3.632571151683324667e-05	9.326907054290279863e-06
1.592120876408797070e+00	2.362140098491089572e-06	-1.866714078551366424e-04	1.631031998432116298e-02	8.456850368718826783e-01	1.161219181076076801e+00	1.000003514959769024e+00	-9.924909505160539255e-03	3.618321422217385646e-05	8.911669585217257012e-06
1.612147554099473634e+00	2.225993243851565527e-06	-1.806286932963585882e-04	1.641110363558841850e-02	8.458385232706578938e-01	1.159176386117672708e+00	1.000003514373500213e+00	-9.935613110524623565e-03	3.604731893799224319e-05	8.604565663073138985e-06
1.632174231790150420e+00	2.118365899217018294e-06	-1.757335167082754160e-04	1.642912304927189940e-02	8.459663287807287491e-01	1.157191572179145922e+00	1.000003513737439453e+00	-9.944976048741522440e-03	3.591756185115490413e-05	8.384851038155872297e-06
1.652200909480826985e+00	2.033217471968778927e-06	-1.717810120571938129e-04	1.637549392051346198e-02	8.460727804088925552e-01	1.155264359793905626e+00	1.000003513060709226e+00	-9.953054249692261032e-03	3.579351634892849297e-05	8.236033432961022136e-06
1.672227587171503771e+00	1.965826417857325556e-06	-1.685995984183466306e-04	1.626169445089488061e-02	8.461615569900552414e-01	1.153394063173796891e+00	1.000003512351419932e+00	-9.959941350411586833e-03	3.567479268882787808e-05	8.144950564151973567e-06
1.692254264862180557e+00	1.912488279052286337e-06	-1.660464267997280622e-04	1.609881530150893136e-02	8.462356986183441343e-01	1.151579756853570169e+00	1.000003511615130902e+00	-9.965753133672311873e-03	3.556103782982616588e-05	8.101052503145718894e-06
1.712280942552857121e+00	1.870286187570989872e-06	-1.640032280940892113e-04	1.589706081029132467e-02	8.462977756476377511e-01	1.149820332292446512e+00	1.000003510857259359e+00	-9.970614286193654752e-03	3.545193303736203592e-05	8.095846404010552166e-06
1.732307620243533908e+00	1.836916133214457428e-06	-1.623725593124609936e-04	1.566547109428749820e-02	8.463498714461455963e-01	1.148114545381991203e+00	1.000003510081331370e+00	-9.974649462355746066e-03	3.534719210069658875e-05	8.122467715970731563e-06
1.752334297934210472e+00	1.810553415040832464e-06	-1.610745122780595276e-04	1.541181476053948146e-02	8.463937459952398656e-01	1.146461055872774359e+00	1.000003509291245596e+00	-9.977976615737422367e-03	3.524655771085538375e-05	8.175348554338905555e-06
1.772360975624887258e+00	1.789750008024929369e-06	-1.600438192138014897e-04	1.514260228838192751e-02	8.464308187751874435e-01	1.144858459749308111e+00	1.000003508489348381e+00	-9.980704155014315584e-03	3.514979913217322074e-05	8.249960059150703950e-06
1.792387653315563822e+00	1.773355195762420317e-06	-1.592273959206707179e-04	1.486317382295918726e-02	8.464622768139277165e-01	1.143305315505786179e+00	1.000003507678639547e+00	-9.982928144999989734e-03	3.505670835311775732e-05	8.342610890381556873e-06
1.812414331006240609e+00	1.760453781516922895e-06	-1.585822046877116253e-04	1.457782787470299386e-02	8.464890784319537564e-01	1.141800165244248877e+00	1.000003506860706270e+00	-9.984733181907855942e-03	3.496709811065247487e-05	8.450288354481084337e-06
1.832441008696917395e+00	1.750317683822075418e-06	-1.580734903196789583e-04	1.428996451286676864e-02	8.465120384542829113e-01	1.140341551373786677e+00	1.000003506037981493e+00	-9.986191568817684092e-03	3.488079834468909494e-05	8.570532064051731471e-06
1.852467686387593959e+00	1.742367789547096652e-06	-1.576732697437518234e-04	1.400222858048241585e-02	8.465317489136784390e-01	1.138928029667467534e+00	1.000003505211507271e+00	-9.987364691104621758e-03	3.479765493952238710e-05	8.701332625305788313e-06
1.872494364078270745e+00	1.736143749968257313e-06	-1.573590705938438764e-04	1.371664171584040942e-02	8.465488276554620217e-01	1.137558179259035018e+00	1.000003504383318420e+00	-9.988304966401833490e-03	3.471752666956657370e-05	8.841049776790908406e-06
1.892521041768947310e+00	1.731279962690281027e-06	-1.571129221966672792e-04	1.343472024099330760e-02	8.465636275876020633e-01	1.136230610171062860e+00	1.000003503554046436e+00	-9.989055131059982467e-03	3.464028451251501543e-05	8.988345818105489442e-06
1.912547719459624096e+00	1.727486422821243822e-06	-1.569204685757529688e-04	1.315757562114688514e-02	8.465765839061554221e-01	1.134943968780114609e+00	1.000003502725435256e+00	-9.989651541913120714e-03	3.456580921217040805e-05	9.142131194958725646e-06
1.932574397150300882e+00	1.724533417878120279e-06	-1.567702922648878876e-04	1.288599939288579202e-02	8.465879325267600120e-01	1.133696941671805014e+00	1.000003501897785085e+00	-9.990123522926570160e-03	3.449399095032532671e-05	9.301519853049302957e-06
1.952601074840977446e+00	1.722239286261045389e-06	-1.566533246653093998e-04	1.262053242135589143e-02	8.465979627010786768e-01	1.132488258143016457e+00	1.000003501072642020e+00	-9.990495434796365856e-03	3.442472739545680279e-05	9.465792514576703038e-06
1.972627752531654233e+00	1.720460615341755608e-06	-1.565623843186393681e-04	1.236152171595482872e-02	8.466068438623701731e-01	1.131316691698693644e+00	1.000003500250023825e+00	-9.990787149483463039e-03	3.435792369136504389e-05	9.634366429545643075e-06
1.992654430222330797e+00	1.719084399571770991e-06	-1.564918001780556817e-04	1.210916536387691804e-02	8.466147752799385584e-01	1.130181060690630623e+00	1.000003499431342036e+00	-9.991014731839121740e-03	3.429349077439098042e-05	9.806770448467677613e-06
2.012681107913007583e+00	1.718021764949851598e-06	-1.564371002630199120e-04	1.186354883124165344e-02	8.466218702486557612e-01	1.129080228359424565e+00	1.000003498616383713e+00	-9.991191346308258073e-03	3.423134567519677099e-05	9.982624487139200899e-06
2.032707785603684147e+00	1.717202957704997887e-06	-1.563947720998493270e-04	1.162467289777675480e-02	8.466282713362986989e-01	1.128013102353168318e+00	1.000003497806449149e+00	-9.991327445246082559e-03	3.417140996022755120e-05	1.016162262485577110e-05
2.052734463294360712e+00	1.716573342230249043e-06	-1.563620554140710689e-04	1.139247613761595196e-02	8.466340606034766791e-01	1.126978633921249751e+00	1.000003497001146435e+00	-9.991431728482798660e-03	3.411361030192399161e-05	1.034351921313345118e-05
2.072761140985037720e+00	1.716090215779079672e-06	-1.563367966615376305e-04	1.116685168202858833e-02	8.466393339721933753e-01	1.125975816802722296e+00	1.000003496201707476e+00	-9.991510780078097925e-03	3.405787695415808398e-05	1.052811747841128799e-05
2.092787818675714284e+00	1.715720271945247996e-06	-1.563173051850911752e-04	1.094766084091994621e-02	8.466441596290673610e-01	1.125003685965479727e+00	1.000003495407584042e+00	-9.991570417839124377e-03	3.400414458059179711e-05	1.071526019054449600e-05
2.112814496366390848e+00	1.715437590633314577e-06	-1.563022745637111040e-04	1.073474278761468899e-02	8.466485962051210068e-01	1.124061316179735925e+00	1.000003494619960520e+00	-9.991614619454873905e-03	3.395235066443886825e-05	1.090482203926198410e-05
2.132841174057067857e+00	1.715222042312648568e-06	-1.562906765721888539e-04	1.052792270129487839e-02	8.466527035228623710e-01	1.123147820553500598e+00	1.000003493838152568e+00	-9.991647312049508831e-03	3.390243662435415961e-05	1.109670342138278733e-05
2.152867851747744421e+00	1.715058030309678747e-06	-1.562817285588812780e-04	1.032701707134138329e-02	8.466565068798729277e-01	1.122262348985145763e+00	1.000003493063334581e+00	-9.991670685352598696e-03	3.385434606228128696e-05	1.129082538970193117e-05
2.172894529438420985e+00	1.714933494943856900e-06	-1.562748064520411888e-04	1.013183855078452801e-02	8.466600730571444133e-01	1.121404086646781595e+00	1.000003492294688323e+00	-9.991687598233383802e-03	3.380802620928075015e-05	1.148712555748436897e-05
2.192921207129097994e+00	1.714839133907108812e-06	-1.562694491218348601e-04	9.942198582734063442e-03	8.466633960535310255e-01	1.120572252434929972e+00	1.000003491533388189e+00	-9.991698994352163354e-03	3.376342590364239974e-05	1.168555478570174411e-05
2.212947884819774558e+00	1.714767785743165751e-06	-1.562652777225159598e-04	9.757910352650112085e-03	8.466665499478741586e-01	1.119766097489889534e+00	1.000003490778514248e+00	-9.991707070924848305e-03	3.372049745641916548e-05	1.188607451116029757e-05
2.232974562510451122e+00	1.714713951558129880e-06	-1.562620267085545057e-04	9.578789777338453035e-03	8.466695021336279048e-01	1.118984903710120493e+00	1.000003490031244224e+00	-9.991711924799305186e-03	3.367919423747239318e-05	1.208865459640736612e-05
2.253001240201127686e+00	1.714673416185468655e-06	-1.562594635645908300e-04	9.404657412416209117e-03	8.466723384399937880e-01	1.118227982355432859e+00	1.000003489290571590e+00	-9.991715417335631302e-03	3.363947305343389596e-05	1.229327160490112067e-05
2.273027917891804695e+00	1.714642958184073643e-06	-1.562574391514909202e-04	9.235338426300537459e-03	8.466750135445770820e-01	1.117494672660927835e+00	1.000003488557676956e+00	-9.991717178134061975e-03	3.360129121988512664e-05	1.249990742004262162e-05
2.293054595582481259e+00	1.714620118457364534e-06	-1.562558145200816726e-04	9.070663986298592787e-03	8.466775871557759015e-01	1.116784340545162957e+00	1.000003487831480964e+00	-9.991718460626792045e-03	3.356460955384421390e-05	1.270854814329466265e-05
2.313081273273157823e+00	1.714603026819136585e-06	-1.562545039726343074e-04	8.910470599602343666e-03	8.466800360559219030e-01	1.116096377337291390e+00	1.000003487113172218e+00	-9.991718974575158549e-03	3.352938887993676714e-05	1.291918321628084225e-05
2.333107950963834831e+00	1.714590261301818588e-06	-1.562534240757795887e-04	8.754601248615956691e-03	8.466824039439362348e-01	1.115430198599287159e+00	1.000003486401613406e+00	-9.991719591773879500e-03	3.349559357389027254e-05	1.313180472405435070e-05
2.353134628654511395e+00	1.714580746106240905e-06	-1.562525286205953569e-04	8.602904360516038657e-03	8.466846674858176103e-01	1.114785242969078549e+00	1.000003485698002237e+00	-9.991719931234741697e-03	3.346318759053981001e-05	1.334640684253042121e-05
2.373161306345187960e+00	1.714573666148870107e-06	-1.562517670876828078e-04	8.455234843300780609e-03	8.466868603684511996e-01	1.114160971093490105e+00	1.000003485001144776e+00	-9.991720620322323831e-03	3.343213850813150608e-05	1.356298540225776883e-05
2.393187984035864524e+00	1.714568408351352260e-06	-1.562511146094967438e-04	8.311452825113883891e-03	8.466889669913777450e-01	1.113556864584552164e+00	1.000003484312248947e+00	-9.991721327237938419e-03	3.340241308618224758e-05	1.378153754390342970e-05
2.413214661726541532e+00	1.714564509493577500e-06	-1.562505401884473348e-04	8.171424677199430261e-03	8.466910135902514511e-01	1.112972425057446424e+00	1.000003483630088175e+00	-9.991722512832644162e-03	3.337398178512297438e-05	1.400206144767062538e-05
2.433241339417218096e+00	1.714561623542989286e-06	-1.562500325287737317e-04	8.035021612499844076e-03	8.466929814421498834e-01	1.112407173191437781e+00	1.000003482955864609e+00	-9.991723799532864492e-03	3.334681388602705039e-05	1.422455612034651123e-05
2.453268017107894661e+00	1.714559489392163094e-06	-1.562495725814152386e-04	7.902120741359899142e-03	8.466948889965763003e-01	1.111860647866071306e+00	1.000003482288329915e+00	-9.991725506631235140e-03	3.332088247047944172e-05	1.444902122891750565e-05
2.473294694798571669e+00	1.714557913703609486e-06	-1.562491524610660576e-04	7.772603574397688592e-03	8.466967392433591977e-01	1.111332405316246774e+00	1.000003481628683133e+00	-9.991727509790188089e-03	3.329615909403873213e-05	1.467545696990954864e-05
2.493321372489248233e+00	1.714556750416449769e-06	-1.562487650474247698e-04	7.646357128230443084e-03	8.466985187619838760e-01	1.110822018357884966e+00	1.000003480975653725e+00	-9.991729724615634398e-03	3.327261919223673204e-05	1.490386396784994588e-05
2.513348050179924797e+00	1.714555892664063609e-06	-1.562484013969037784e-04	7.523272386003480167e-03	8.467002586488916460e-01	1.110329075629284290e+00	1.000003480330445171e+00	-9.991732364322377519e-03	3.325023641892867286e-05	1.513424319556291520e-05
2.533374727870601362e+00	1.714555259289521873e-06	-1.562480620918223239e-04	7.403245425902120133e-03	8.467019218531768310e-01	1.109853180895185920e+00	1.000003479691764063e+00	-9.991735057484683533e-03	3.322898831229158495e-05	1.536659591254521220e-05
2.553401405561278370e+00	1.714554791925184732e-06	-1.562477387948217166e-04	7.286175892100017759e-03	8.467035493573513705e-01	1.109393952366481528e+00	1.000003479060817213e+00	-9.991738130609223098e-03	3.320885046444296742e-05	1.560092361653514452e-05
2.573428083251954934e+00	1.714554445696363244e-06	-1.562474345321579331e-04	7.171968122108949607e-03	8.467051009910103732e-01	1.108951022075353121e+00	1.000003478436293891e+00	-9.991741176862996635e-03	3.318980231637756387e-05	1.583722800621844293e-05
2.593454760942631498e+00	1.714554189183826914e-06	-1.562471411032081753e-04	7.060529649501842350e-03	8.467066240067849803e-01	1.108524035262029583e+00	1.000003477819409570e+00	-9.991744599589335099e-03	3.317182122762429272e-05	1.607551095177386973e-05
2.613481438633308507e+00	1.714553997618897279e-06	-1.562468645828374737e-04	6.951772325734532389e-03	8.467080675346106977e-01	1.108112649815822248e+00	1.000003477208832647e+00	-9.991747865609326013e-03	3.315488836494211633e-05	1.631577447233065992e-05
2.633508116323985071e+00	1.714553854399301246e-06	-1.562465958626661961e-04	6.845610866235421303e-03	8.467094871430658198e-01	1.107716535720668860e+00	1.000003476605785702e+00	-9.991751486003248167e-03	3.313898271981217621e-05	1.655802071792037011e-05
2.653534794014661635e+00	1.714553745811762168e-06	-1.562463413701715455e-04	6.741963952813088100e-03	8.467108346110668871e-01	1.107335374554033969e+00	1.000003476008920034e+00	-9.991754945487247783e-03	3.312408701851588406e-05	1.680225195578806033e-05
2.673561471705338199e+00	1.714553663320912630e-06	-1.562460933186025685e-04	6.640752834238785457e-03	8.467121582286080139e-01	1.106968858985443172e+00	1.000003475419465104e+00	-9.991758700538536792e-03	3.311018174427459798e-05	1.704847055918947020e-05
2.693588149396015208e+00	1.714553599237280388e-06	-1.562458586237748959e-04	6.541902407990876807e-03	8.467134108512404111e-01	1.106616692327101470e+00	1.000003474836060446e+00	-9.991762228157298129e-03	3.309725105837713635e-05	1.729667899897190103e-05
2.713614827086691772e+00	1.714553549365876537e-06	-1.562456303165497471e-04	6.445339870944944219e-03	8.467146359963466651e-01	1.106278588079175007e+00	1.000003474259947067e+00	-9.991765946980892682e-03	3.308527681772389375e-05	1.754687983646906969e-05
2.733641504777368336e+00	1.714553509277520267e-06	-1.562454146592296474e-04	6.350995780463641535e-03	8.467157924524540968e-01	1.105954269525800671e+00	1.000003473689737854e+00	-9.991769395401084441e-03	3.307424450402018874e-05	1.779907571820380522e-05
2.753668182468045345e+00	1.714553477087765501e-06	-1.562452032840638231e-04	6.258802750821527289e-03	8.467169303449486595e-01	1.105643469322715289e+00	1.000003473126696463e+00	-9.991773088334399491e-03	3.306413722726864537e-05	1.805326937123152584e-05
2.773694860158721909e+00	1.714553450134422837e-06	-1.562450045771205894e-04	6.168696494109070921e-03	8.467179989341772073e-01	1.105345929133127347e+00	1.000003472569417129e+00	-9.991776439622282110e-03	3.305494166313275645e-05	1.830946359970861377e-05
2.793721537849398473e+00	1.714553427732005027e-06	-1.562448098087713272e-04	6.080614570432767672e-03	8.467190491576327416e-01	1.105061399253258969e+00	1.000003472019176387e+00	-9.991779994525431738e-03	3.304664209882460577e-05	1.856766128170220446e-05
2.813748215540075037e+00	1.714553408175163699e-06	-1.562446271103667993e-04	5.994497394069959496e-03	8.467200330609823133e-01	1.104789638284049857e+00	1.000003471474547601e+00	-9.991783188692007073e-03	3.303922630123281884e-05	1.882786536687588937e-05
2.833774893230752046e+00	1.714553391390400109e-06	-1.562444471117912929e-04	5.910287041519237880e-03	8.467210045018960241e-01	1.104530412791105976e+00	1.000003470936825067e+00	-9.991786613628815192e-03	3.303267964258425470e-05	1.909007887422354703e-05
2.853801570921428610e+00	1.714553376199294916e-06	-1.562442799660494113e-04	5.827928220964587354e-03	8.467219055110408732e-01	1.104283497006613990e+00	1.000003470404568828e+00	-9.991789580733854287e-03	3.302699088339565160e-05	1.935430489039424395e-05
2.873828248612105174e+00	1.714553362817529602e-06	-1.562441139055047829e-04	5.747367143190114033e-03	8.467228026137725294e-01	1.104048672519994945e+00	1.000003469879084950e+00	-9.991792835758418409e-03	3.302214642462743120e-05	1.962054656801043371e-05
2.893854926302782182e+00	1.714553350376288497e-06	-1.562439603540080428e-04	5.668552438395806949e-03	8.467236306599825735e-01	1.103825728009611540e+00	1.000003469358914598e+00	-9.991795618736502502e-03	3.301813590940534042e-05	1.988880712443196993e-05
2.913881603993458747e+00	1.714553339211145090e-06	-1.562438079112525482e-04	5.591434106080089318e-03	8.467244542581278122e-01	1.103614458957923095e+00	1.000003468845387156e+00	-9.991798647545124812e-03	3.301494671273275686e-05	2.015908984041312870e-05
2.933908281684135311e+00	1.714553328637915719e-06	-1.562436676457000658e-04	5.515964368263852509e-03	8.467252110634257978e-01	1.103414667411212413e+00	1.000003468337015811e+00	-9.991801190025725865e-03	3.301256928864754913e-05	2.043139805917314243e-05
2.953934959374811875e+00	1.714553319030764481e-06	-1.562435278399296982e-04	5.442096698065645652e-03	8.467259666957623887e-01	1.103226161717062226e+00	1.000003467835158810e+00	-9.991803988905442399e-03	3.301099192060093164e-05	2.070573518529108951e-05
2.973961637065488883e+00	1.714553309827608149e-06	-1.562433993458239075e-04	5.369786609125593371e-03	8.467266599951723816e-01	1.103048756307412059e+00	1.000003467338307361e+00	-9.991806325557175614e-03	3.301020579679399828e-05	2.098210468395883153e-05
2.993988314756165448e+00	1.714553301399542021e-06	-1.562432713864834912e-04	5.298990763693252684e-03	8.467273516918562004e-01	1.102882271457809926e+00	1.000003466847838807e+00	-9.991808884380814701e-03	3.301020005185326773e-05	2.126051008008231140e-05
3.014014992446842012e+00	1.714553293269393473e-06	-1.562431527427768699e-04	5.229667697916284136e-03	8.467279920094269441e-01	1.102726533090996996e+00	1.000003466362220372e+00	-9.991811083345144770e-03	3.301096655255739615e-05	2.154095495764828436e-05
3.034041670137519020e+00	1.714553285792002397e-06	-1.562430356328041903e-04	5.161777002174084035e-03	8.467286251743788572e-01	1.102581372555814454e+00	1.000003465882861819e+00	-9.991813414179288519e-03	3.301249521142639889e-05	2.182344295899351830e-05
3.054068347828195584e+00	1.714553278543171302e-06	-1.562429286820074743e-04	5.095279996296876029e-03	8.467292023269094026e-01	1.102446626448477796e+00	1.000003465408199066e+00	-9.991815308077418856e-03	3.301477855469908272e-05	2.210797778425009221e-05
3.074095025518872148e+00	1.714553271853059022e-06	-1.562428196932721741e-04	5.030138964868447263e-03	8.467297916877217778e-01	1.102322136409809916e+00	1.000003464939669851e+00	-9.991817539835011822e-03	3.301780722315350662e-05	2.239456319075111784e-05
3.094121703209549157e+00	1.714553265360109330e-06	-1.562427218759185918e-04	4.966317779631838729e-03	8.467303197500066769e-01	1.102207748962655165e+00	1.000003464475685000e+00	-9.991819249337266853e-03	3.302157428850323480e-05	2.268320299254705346e-05
3.114148380900225721e+00	1.714553259346662025e-06	-1.562426214819798240e-04	4.903781217153423133e-03	8.467308625561853486e-01	1.102103315325329014e+00	1.000003464017714450e+00	-9.991821310895716846e-03	3.302607114018433847e-05	2.297390105993206668e-05
3.134175058590902285e+00	1.714553253511299162e-06	-1.562425324609212059e-04	4.842495496467950564e-03	8.467313429501530653e-01	1.102008691263594686e+00	1.000003463564134831e+00	-9.991822819454192900e-03	3.303129132673551777e-05	2.326666131898968263e-05
3.154201736281578849e+00	1.714553248085321722e-06	-1.562424389173477110e-04	4.782427694864043594e-03	8.467318489121576919e-01	1.101923736918543950e+00	1.000003463116447833e+00	-9.991824785463886485e-03	3.303722696010099068e-05	2.356148775125492959e-05
3.174228413972255858e+00	1.714553242833729942e-06	-1.562423583039658829e-04	4.723546190636606669e-03	8.467322841326665461e-01	1.101848316672282113e+00	1.000003462673007881e+00	-9.991826083812950163e-03	3.304387198722580186e-05	2.385838439329228625e-05
3.194255091662932422e+00	1.714553237922045285e-06	-1.562422721043521653e-04	4.665820194032953977e-03	8.467327502073183076e-01	1.101782298988658093e+00	1.000003462235339535e+00	-9.991827891900516984e-03	3.305121926375515499e-05	2.415735533644266272e-05
3.214281769353608986e+00	1.714553233187515875e-06	-1.562421986579821400e-04	4.609220069794620414e-03	8.467331468127261562e-01	1.101725556290672259e+00	1.000003461801773241e+00	-9.991829029349462779e-03	3.305926304986002781e-05	2.445840472642312334e-05
3.234308447044285995e+00	1.714553228730522739e-06	-1.562421183920974081e-04	4.553717003114863063e-03	8.467335805142389704e-01	1.101677964814012034e+00	1.000003461373867308e+00	-9.991830738143471849e-03	3.306799693201353845e-05	2.476153676321886957e-05
3.254335124734962559e+00	1.714553224460131596e-06	-1.562420505878093450e-04	4.499283190157440764e-03	8.467339468145652637e-01	1.101639404493889751e+00	1.000003460949916212e+00	-9.991831783068309478e-03	3.307741541961615507e-05	2.506675570062899322e-05
3.274361802425639123e+00	1.714553220409595478e-06	-1.562419763448306910e-04	4.445891648023756609e-03	8.467343480629140329e-01	1.101609758831842756e+00	1.000003460531510235e+00	-9.991833366747401857e-03	3.308751282821472534e-05	2.537406584633955503e-05
3.294388480116315687e+00	1.714553216556108447e-06	-1.562419133169304635e-04	4.393516265990434627e-03	8.467346886684968821e-01	1.101588914789601636e+00	1.000003460116925869e+00	-9.991834352443093592e-03	3.309828387952443456e-05	2.568347156139734008e-05
3.314415157806992696e+00	1.714553212872135366e-06	-1.562418437582055268e-04	4.342131757145671622e-03	8.467350644999672715e-01	1.101576762666996556e+00	1.000003459707780262e+00	-9.991835868522935121e-03	3.310972357988620489e-05	2.599497726040862926e-05
3.334441835497669260e+00	1.714553209396558013e-06	-1.562417852452273456e-04	4.291713578471678496e-03	8.467353807764210760e-01	1.101573196006209399e+00	1.000003459302309494e+00	-9.991836788401096611e-03	3.312182683583787850e-05	2.630858741104561289e-05
3.354468513188345824e+00	1.714553206043630819e-06	-1.562417198778756774e-04	4.242238017901167266e-03	8.467357339163142926e-01	1.101578111475673749e+00	1.000003458902179565e+00	-9.991838251268368373e-03	3.313458933365664842e-05	2.662430653427715974e-05
3.374495190879022832e+00	1.714553202911485304e-06	-1.562416660512402542e-04	4.193681983109099655e-03	8.467360249633562042e-01	1.101591408785048243e+00	1.000003458505586806e+00	-9.991839072317697593e-03	3.314800612184044278e-05	2.694213920392347762e-05
3.394521868569699397e+00	1.714553199854712381e-06	-1.562416064933859190e-04	4.146023227862906911e-03	8.467363467659916321e-01	1.101612990576329221e+00	1.000003458114233634e+00	-9.991840359540904090e-03	3.316207357334452499e-05	2.726209004695727083e-05
3.414548546260375961e+00	1.714553197028251951e-06	-1.562415543998391034e-04	4.099240003723449155e-03	8.467366285530857350e-01	1.101642762345449000e+00	1.000003457726286404e+00	-9.991841259110607540e-03	3.317678684133437955e-05	2.758416374302603396e-05
3.434575223951052525e+00	1.714553194247066279e-06	-1.562414976135120522e-04	4.053311417863134265e-03	8.467369353080281824e-01	1.101680632341679456e+00	1.000003457343482616e+00	-9.991842544472301357e-03	3.319214289253071058e-05	2.790836502486358786e-05
3.454601901641729533e+00	1.714553191702941623e-06	-1.562414487550521311e-04	4.008216978173178950e-03	8.467371997837547237e-01	1.101726511497240546e+00	1.000003456963947324e+00	-9.991843407497078000e-03	3.320813703217050713e-05	2.823469867783383726e-05
3.474628579332406098e+00	1.714553189172911385e-06	-1.562413959335164657e-04	3.963937051793655145e-03	8.467374848763323802e-01	1.101780313330646965e+00	1.000003456589473760e+00	-9.991844603316070439e-03	3.322476681241213684e-05	2.856316954035808192e-05
3.494655257023082662e+00	1.714553186884773427e-06	-1.562413486177596843e-04	3.920452312587972485e-03	8.467377413680678977e-01	1.101841953885005720e+00	1.000003456218134135e+00	-9.991845524364009745e-03	3.324202765682703525e-05	2.889378250350476470e-05
3.514681934713759670e+00	1.714553184588731593e-06	-1.562412985376026220e-04	3.877744295437859749e-03	8.467380114588928253e-01	1.101911351635314285e+00	1.000003455851772971e+00	-9.991846695495614633e-03	3.325991764166034580e-05	2.922654251142821770e-05
3.534708612404436234e+00	1.714553182535924375e-06	-1.562412535159580877e-04	3.835794764658748655e-03	8.467382557890277273e-01	1.101988427436050078e+00	1.000003455488407633e+00	-9.991847609643811010e-03	3.327843233977262729e-05	2.956145456105544638e-05
3.554735290095112799e+00	1.714553180455743806e-06	-1.562412048991237610e-04	3.794586340883308959e-03	8.467385177787878359e-01	1.102073104429612593e+00	1.000003455129949481e+00	-9.991848824876296831e-03	3.329757031744224872e-05	2.989852370247721828e-05
3.574761967785789363e+00	1.714553178623649657e-06	-1.562411613635102245e-04	3.754101801683870903e-03	8.467387537581495538e-01	1.102165308002144961e+00	1.000003454774353706e+00	-9.991849779539742349e-03	3.331732726100193463e-05	3.023775503870419540e-05
3.594788645476466371e+00	1.714553176745241653e-06	-1.562411142218630576e-04	3.714324782697216252e-03	8.467390081507066846e-01	1.102264965695776144e+00	1.000003454423594729e+00	-9.991851024394314204e-03	3.333770223561787740e-05	3.057915372607744028e-05
3.614815323167142935e+00	1.714553175120214026e-06	-1.562410709934496144e-04	3.675239004491847716e-03	8.467392424836250875e-01	1.102372007170930868e+00	1.000003454075566012e+00	-9.991852078090203426e-03	3.335869101440383424e-05	3.092272497408349855e-05
3.634842000857819500e+00	1.714553173434219932e-06	-1.562410261661298881e-04	3.636829048865671335e-03	8.467394843885531763e-01	1.102486364121298301e+00	1.000003453732312586e+00	-9.991853294822583206e-03	3.338029313840109452e-05	3.126847404574773051e-05
3.654868678548496508e+00	1.714553172001052256e-06	-1.562409820986593225e-04	3.599079520614547386e-03	8.467397234903779601e-01	1.102607970241086033e+00	1.000003453391657526e+00	-9.991854512938568023e-03	3.340250449676658361e-05	3.161640625748165210e-05
3.674895356239173072e+00	1.714553170502499565e-06	-1.562409380340904071e-04	3.561975875789177501e-03	8.467399611421173589e-01	1.102736761145562738e+00	1.000003453055712255e+00	-9.991855787942083983e-03	3.342532500724373261e-05	3.196652697954956195e-05
3.694922033929849636e+00	1.714553169252100846e-06	-1.562408932072300303e-04	3.525503553048393249e-03	8.467402043230021214e-01	1.102872674341159431e+00	1.000003452722239228e+00	-9.991857157536556538e-03	3.344875073986192121e-05	3.231884163589324622e-05
3.714948711620526201e+00	1.714553167936074438e-06	-1.562408500264729375e-04	3.489648820171036264e-03	8.467404376133705890e-01	1.103015649149547084e+00	1.000003452393424475e+00	-9.991858472940694583e-03	3.347278192879648586e-05	3.267335570461918516e-05
3.734975389311203209e+00	1.714553166858954096e-06	-1.562408040160946231e-04	3.454397900622072255e-03	8.467406869132158009e-01	1.103165626682588440e+00	1.000003452066957399e+00	-9.991860013717237393e-03	3.349741486609161595e-05	3.303007471786644314e-05
3.755002067001879773e+00	1.714553165721531361e-06	-1.562407618495546152e-04	3.419737814157244610e-03	8.467409147433493377e-01	1.103322549769831351e+00	1.000003451745092420e+00	-9.991861357782150579e-03	3.352265002453254746e-05	3.338900426234266421e-05
3.775028744692556337e+00	1.714553164808714871e-06	-1.562407157655303774e-04	3.385655526568422113e-03	8.467411647574931699e-01	1.103486362937205367e+00	1.000003451425454326e+00	-9.991862991032007119e-03	3.354848398757581760e-05	3.375014997919184698e-05
3.795055422383233346e+00	1.714553163844524350e-06	-1.562406693747815775e-04	3.352138753155050211e-03	8.467414155400265763e-01	1.103657012336511700e+00	1.000003451110367703e+00	-9.991864688312366780e-03	3.357491737910818540e-05	3.411351756450669106e-05
3.815082100073909910e+00	1.714553163103030860e-06	-1.562406192017685080e-04	3.319175148903064521e-03	8.467416876766798994e-01	1.103834445729357183e+00	1.000003450797390947e+00	-9.991866664099253309e-03	3.360194700364970522e-05	3.447911276931035540e-05
3.835108777764586474e+00	1.714553162313549779e-06	-1.562405846987020613e-04	3.286753093188723995e-03	8.467418737729542899e-01	1.104018612416681977e+00	1.000003450488922141e+00	-9.991867679380230655e-03	3.362957375807778447e-05	3.484694139998898040e-05
3.855135455455263482e+00	1.714553161690362440e-06	-1.562405592958406877e-04	3.254860923057142485e-03	8.467420120897654057e-01	1.104209463228778665e+00	1.000003450182444631e+00	-9.991868147048488941e-03	3.365779503591238890e-05	3.521700931837570001e-05
3.875162133145940047e+00	1.714553160996034287e-06	-1.562405156025597336e-04	3.223487619772117015e-03	8.467422479757645837e-01	1.104406950457267778e+00	1.000003449880428663e+00	-9.991869810379550368e-03	3.368661179964455780e-05	3.558932244220612865e-05
3.895188810836616611e+00	1.714553160567628739e-06	-1.562403341239464822e-04	3.192622025991266425e-03	8.467432320184171690e-01	1.104611027845844529e+00	1.000003449580290749e+00	-9.991880379889236247e-03	3.371602061074743670e-05	3.596388674511880843e-05
3.915215488527293175e+00	1.714553160447327614e-06	-1.562402161474133171e-04	3.162253493375219004e-03	8.467438714623799489e-01	1.104821650526069288e+00	1.000003449284591506e+00	-9.991886388383297915e-03	3.374602038874799359e-05	3.634070825721738150e-05
3.935242166217970183e+00	1.714553160163150813e-06	-1.562407790921975298e-04	3.132372037798947153e-03	8.467408204751989409e-01	1.105038775012767482e+00	1.000003448990729460e+00	-9.991853127718067218e-03	3.377661430002595742e-05	3.671979306517133960e-05
3.955268843908646748e+00	1.714553157140989350e-06	-1.562413883726089449e-04	3.102968861715022040e-03	8.467375178007557901e-01	1.105262359525421401e+00	1.000003448701623165e+00	-9.992194821386477313e-03	3.380781575244330706e-05	3.710114730510196367e-05
3.975295521599323312e+00	1.714553156165084151e-06	-1.562398521912201443e-04	3.074032737034975999e-03	8.467458429435673617e-01	1.105492362017298724e+00	1.000003448417138951e+00	-9.991877542369300216e-03	3.383960923170790068e-05	3.748477720122378400e-05
3.995322199289999876e+00	1.714584732784533302e-06	-1.562387747647193980e-04	3.045531353289996409e-03	8.467602886665892559e-01	1.105725138389047624e+00	1.000000000000000000e+00	-1.000000000000000021e-02	3.387174561589884471e-05	3.787100112148618141e-05
