# Time=0.0223004460089 and Columns are r	p	Paether	ur	alpha	a	b	K	Sr_tilde	tau_tilde
1.001333884533834630e-02	1.199099548819739652e-02	-1.855296330107097241e-02	2.329620089492716046e-05	6.398833970921510295e-01	1.000101315620701703e+00	1.000053995471096080e+00	-1.268144466985198469e-02	2.631261939501031862e-10	1.503190340132846072e-06
3.004001653601504063e-02	1.196249061078250887e-02	-1.853196123421577829e-02	6.987099169958794793e-05	6.400622234819831613e-01	1.000479724649027125e+00	1.000054010476291833e+00	-1.267569874829495812e-02	7.094118858949963894e-09	1.350166011451249706e-05
5.006669422669172975e-02	1.190564253000487953e-02	-1.848998310652643501e-02	1.163492146136495178e-04	6.404197393145695250e-01	1.001235664268391945e+00	1.000054034305621231e+00	-1.265778734249978048e-02	3.273567694032665696e-08	3.735458847151496128e-05
7.009337191736843276e-02	1.182082963075686659e-02	-1.842711859025762330e-02	1.626457989669679693e-04	6.409554644467261308e-01	1.002367413152696951e+00	1.000054066632652949e+00	-1.262924673209713314e-02	8.937028407510339065e-08	7.277560586315598423e-05
9.012004960804512188e-02	1.170859977120354209e-02	-1.834349265495506531e-02	2.087038924653582587e-04	6.416687279320535398e-01	1.003872365832049640e+00	1.000054109272554337e+00	-1.259214937157685649e-02	1.886607013390347823e-07	1.193392771625347617e-04
1.101467272987218110e-01	1.156967518907582419e-02	-1.823927272560816118e-02	2.544595614805897897e-04	6.425586328178084505e-01	1.005747004711473602e+00	1.000054162052640638e+00	-1.254589459952032589e-02	3.415498179134399687e-07	1.764860150630925958e-04
1.301734049893985001e-01	1.140494574692881881e-02	-1.811466973449267839e-02	2.998531974601550965e-04	6.436240412907098252e-01	1.007986885326747961e+00	1.000054224692455307e+00	-1.249076942097260973e-02	5.580820014583307299e-07	2.435285749675872302e-04
1.502000826800751754e-01	1.121546081540413485e-02	-1.796993898975652801e-02	3.448296338231053300e-04	6.448635770745517748e-01	1.010586598184616047e+00	1.000054296839504087e+00	-1.242697590860861179e-02	8.472404764097094010e-07	3.196600872112660262e-04
1.702267603707518784e-01	1.100241950918906010e-02	-1.780538159375913074e-02	3.893387412468342899e-04	6.462756049255800050e-01	1.013539730437530650e+00	1.000054378093545138e+00	-1.235476861720523171e-02	1.216805416874160762e-06	4.039635641063943762e-04
1.902534380614285814e-01	1.076715955899676391e-02	-1.762134534893687599e-02	4.333363511316720099e-04	6.478582323906927343e-01	1.016838822452525548e+00	1.000054468017351095e+00	-1.227444539042099256e-02	1.673236401593672622e-06	4.954228069659565416e-04
2.102801157521052566e-01	1.051114491662602686e-02	-1.741822624040092332e-02	4.767845842167561972e-04	6.496092879957524602e-01	1.020475320920156026e+00	1.000054566141857171e+00	-1.218635109194770791e-02	2.221578852839375753e-06	5.929346219104201197e-04
2.303067934427819596e-01	1.023595223050735060e-02	-1.719646934756857010e-02	5.196527914878990972e-04	6.515263200333824001e-01	1.024439529586147701e+00	1.000054671976685627e+00	-1.209087950130354090e-02	2.865399565353429294e-06	6.953222370121369756e-04
2.503334711334586626e-01	9.943256327619281673e-03	-1.695657012484850026e-02	5.619176798217788340e-04	6.536065756622410072e-01	1.028720558974470123e+00	1.000054785014277359e+00	-1.198847469524332195e-02	3.606746796283852650e-06	8.013497950331798349e-04
2.703601488241353379e-01	9.634814861949732301e-03	-1.669907508986454708e-02	6.035642529439035715e-04	6.558469973276190856e-01	1.033306276606487772e+00	1.000054904741767503e+00	-1.187963193238040019e-02	4.446142382327348045e-06	9.097377777664914910e-04
2.903868265148120131e-01	9.312452288843548615e-03	-1.642458265167932169e-02	6.445857224774847755e-04	6.582442040881555378e-01	1.038183259475672582e+00	1.000055030643687948e+00	-1.176489753945610291e-02	5.382595628480354667e-06	1.019179197691282230e-03
3.104135042054887439e-01	8.978043345744951553e-03	-1.613374331642851781e-02	6.849844490966815278e-04	6.607944870936097725e-01	1.043336750657183343e+00	1.000055162214688709e+00	-1.164486787324544616e-02	6.413650589365335806e-06	1.128356373377195762e-03
3.304401818961654191e-01	8.633496216840197759e-03	-1.582725982874147452e-02	7.247716315506260625e-04	6.634937939160159281e-01	1.048750622190620874e+00	1.000055298960046413e+00	-1.152018708161736855e-02	7.535448907463293512e-06	1.235958084063403049e-03
3.504668595868420944e-01	8.280735575999115597e-03	-1.550588664031107844e-02	7.639682537622303734e-04	6.663377250499353810e-01	1.054407346439412363e+00	1.000055440408644580e+00	-1.139154356475677830e-02	8.742826196767262894e-06	1.340696880356773320e-03
3.704935372775188251e-01	7.921685696477085564e-03	-1.517042913989583540e-02	8.026045515574189342e-04	6.693215228150783958e-01	1.060287978359336414e+00	1.000055586110455863e+00	-1.125966513097779141e-02	1.002941459572849467e-05	1.441326308634343495e-03
3.905202149681955004e-01	7.558253827330684883e-03	-1.482174218210629418e-02	8.407209785929217446e-04	6.724400703077556551e-01	1.066372151072154439e+00	1.000055735649209465e+00	-1.112531258282428021e-02	1.138777835121228888e-05	1.536657791923454197e-03
4.105468926588721756e-01	7.192314026857539629e-03	-1.446072823487219543e-02	8.783674609383124903e-04	6.756878863283088954e-01	1.072638087294260689e+00	1.000055888636165680e+00	-1.098927206041535806e-02	1.280954356375189641e-05	1.625576895767118571e-03
4.305735703495489064e-01	6.825691648420800610e-03	-1.408833482731180684e-02	9.156044056335264263e-04	6.790591283189285621e-01	1.079062628974162275e+00	1.000056044722081872e+00	-1.085234566865811087e-02	1.428556047877535624e-05	1.707058700268493812e-03
4.506002480402255816e-01	6.460148659913033699e-03	-1.370555151040187686e-02	9.525017683046983112e-04	6.825475949850245971e-01	1.085621287521435052e+00	1.000056203586524584e+00	-1.071534115670282235e-02	1.580604612755662610e-05	1.780181994595632236e-03
4.706269257309022569e-01	6.097369975884450559e-03	-1.331340616657959372e-02	9.891401440890385584e-04	6.861467346676830559e-01	1.092288316596935926e+00	1.000056364949032828e+00	-1.057905988023204180e-02	1.736075983115868522e-05	1.844142014737982106e-03
4.906536034215789877e-01	5.738950962259762797e-03	-1.291296079216214775e-02	1.025609694889227999e-03	6.898496562983885694e-01	1.099036809295112382e+00	1.000056528553540991e+00	-1.044428435112924186e-02	1.893914444992799771e-05	1.898261454146939068e-03
5.106802811122557184e-01	5.386386263641023894e-03	-1.250530670448924547e-02	1.062011384912687519e-03	6.936491446703212382e-01	1.105838820877799389e+00	1.000056694178703243e+00	-1.031176424094758758e-02	2.053050234948855350e-05	1.941999497150130550e-03
5.307069588029323937e-01	5.041060079004262319e-03	-1.209155926126820324e-02	1.098455842221019840e-03	6.975376799646725301e-01	1.112665517895903733e+00	1.000056861617325099e+00	-1.018220272408169695e-02	2.212412277310918084e-05	1.974958651042454938e-03
5.507336364936090689e-01	4.704237994245560016e-03	-1.167285212061296672e-02	1.135064829372718154e-03	7.015074604436072336e-01	1.119487353598250801e+00	1.000057030686159587e+00	-1.005624159428216910e-02	2.370944784183180474e-05	1.996889190987942431e-03
5.707603141842857442e-01	4.377060451363616947e-03	-1.125033111810621461e-02	1.171970148075725986e-03	7.055504302657605864e-01	1.126274269050968391e+00	1.000057201200443169e+00	-9.934447663843371662e-03	2.527617681996177564e-05	2.007691076072470621e-03
5.907869918749625304e-01	4.060537910465128984e-03	-1.082514784213173785e-02	1.209315467776541113e-03	7.096583094459004704e-01	1.132995918232891919e+00	1.000057372983870430e+00	-9.817298304429096859e-03	2.681441509775994473e-05	2.007413250164038349e-03
6.108136695656392057e-01	3.755547729139344093e-03	-1.039845298978627278e-02	1.247255419723065613e-03	7.138226288118498797e-01	1.139621914835741823e+00	1.000057545838547446e+00	-9.705169345978585660e-03	2.831475011489802224e-05	1.996250300930237954e-03
6.308403472563158809e-01	3.462832756084880358e-03	-9.971389619739741070e-03	1.285957940342132401e-03	7.180347656609247231e-01	1.146122097226178083e+00	1.000057719556203484e+00	-9.598322418687443500e-03	2.976837987351321348e-05	1.974536517720943633e-03
6.508670249469925562e-01	3.183001603701820711e-03	-9.545086376222764249e-03	1.325603739892645266e-03	7.222859841833549899e-01	1.152466807581099761e+00	1.000057893884101157e+00	-9.496895748459044731e-03	3.116715909828491563e-05	1.942737457135828910e-03
6.708937026376692314e-01	2.916530535721419126e-03	-9.120650836657414468e-03	1.366389350734654616e-03	7.265674745149187652e-01	1.158627179978886534e+00	1.000058068538614231e+00	-9.400894532183177651e-03	3.250370672558744521e-05	1.901439195239180936e-03
6.909203803283459067e-01	2.663766876387019516e-03	-8.699163027446535704e-03	1.408527194673082471e-03	7.308703965746635722e-01	1.164575432065528604e+00	1.000058243167914140e+00	-9.310185774966849709e-03	3.377142363892775636e-05	1.851335511109232588e-03
7.109470580190225819e-01	2.424933821710205297e-03	-8.281669315006066553e-03	1.452249559840748921e-03	7.351859181356115158e-01	1.170285153901649666e+00	1.000058417369160457e+00	-9.224492537522506475e-03	3.496458011325006610e-05	1.793213307265694974e-03
7.309737357096993682e-01	2.200136509723909020e-03	-7.869176624813433926e-03	1.497809533034172693e-03	7.395052595763403902e-01	1.175731587897750341e+00	1.000058590648579493e+00	-9.143393529523612118e-03	3.607830771988633143e-05	1.727936623437631393e-03
7.510004134003760434e-01	1.989369186850634304e-03	-7.462647260953332931e-03	1.545486168142554779e-03	7.438197286025612920e-01	1.180891893087056221e+00	1.000058762443682969e+00	-9.066321646558780922e-03	3.710866774487061860e-05	1.656429639618890899e-03
7.710270910910527187e-01	1.792523292752415702e-03	-7.062994209102376429e-03	1.595586601538492378e-03	7.481207608689545152e-01	1.185745387873174073e+00	1.000058932081173468e+00	-8.992568542629579553e-03	3.805261972320705147e-05	1.579659089704713460e-03
7.910537687817293939e-01	1.609396275124464143e-03	-6.671077178334742890e-03	1.648452731402677476e-03	7.523999496651082586e-01	1.190273765136640627e+00	1.000059098805417657e+00	-8.921287504163936261e-03	3.890807092192673884e-05	1.498616516485151880e-03
8.110804464724060692e-01	1.439700941741420444e-03	-6.287699259145195646e-03	1.704464908126528122e-03	7.566490779136231248e-01	1.194461275073738449e+00	1.000059261734636440e+00	-8.851502978198639085e-03	3.967382315361095890e-05	1.414300792786758612e-03
8.311071241630827444e-01	1.283075156344119349e-03	-5.913604368370590364e-03	1.764050530079774642e-03	7.608601407624190349e-01	1.198294871223408276e+00	1.000059419896539570e+00	-8.782117770908533932e-03	4.034960240383376188e-05	1.327701310759018920e-03
8.511338018537595307e-01	1.139091691537856988e-03	-5.549475374416874135e-03	1.827689810181092750e-03	7.650253668518737227e-01	1.201764317118577896e+00	1.000059572183283008e+00	-8.711927742309919648e-03	4.093598501853298063e-05	1.239782205355972064e-03
8.711604795444362059e-01	1.007268060896997263e-03	-5.195932984073745563e-03	1.895926818875410874e-03	7.691372320915026428e-01	1.204862251234487092e+00	1.000059717395372916e+00	-8.639633875365423238e-03	4.143440631258723026e-05	1.151467928162188152e-03
8.911871572351128812e-01	8.870761682536484156e-04	-4.853535296566971469e-03	1.969377976437820810e-03	7.731884679911394942e-01	1.207584210170115968e+00	1.000059854195790798e+00	-8.563863258975332182e-03	4.184706759245509865e-05	1.063630430219409664e-03
9.112138349257895564e-01	7.779516288944131417e-04	-4.522778004656231865e-03	2.048746233084911342e-03	7.771720668059193260e-01	1.209928610136875804e+00	1.000059981163760492e+00	-8.483187967020465112e-03	4.217692355047312830e-05	9.770781468182512808e-04
9.312405126164662317e-01	6.793026395330141205e-04	-4.204095162323130339e-03	2.134833100116582602e-03	7.810812782863579828e-01	1.211896689128674653e+00	1.000060096749224803e+00	-8.396155291412866692e-03	4.242757294901356287e-05	8.925469112763942175e-04
9.512671903071429069e-01	5.905182953254487204e-04	-3.897860431343167734e-03	2.228556799497934462e-03	7.849096055659863236e-01	1.213492411935995774e+00	1.000060199338796751e+00	-8.301317600185530513e-03	4.260322652693844780e-05	8.106928574682606848e-04
9.712938679978196932e-01	5.109762772148223947e-04	-3.604388695059195999e-03	2.330968738144241579e-03	7.886507944861425035e-01	1.214722342285271317e+00	1.000060287212962251e+00	-8.197277361509224675e-03	4.270858607287833671e-05	7.320873105025123458e-04
9.913205456884963684e-01	4.400498555504017109e-04	-3.323937938861210896e-03	2.443276439238495270e-03	7.922988213522877965e-01	1.215595485640009965e+00	1.000060358628038326e+00	-8.082734909863064504e-03	4.274879676825002874e-05	6.572136093186743168e-04
1.011347223379172933e+00	3.771141803978654366e-04	-3.056711214235501017e-03	2.566865150558861157e-03	7.958478822189715141e-01	1.216123108006107012e+00	1.000060411780179237e+00	-7.956556351501161556e-03	4.272932103175090308e-05	5.864657613795167153e-04
1.031373901069849497e+00	3.215518497704727367e-04	-2.802858637147824170e-03	2.703325833397182340e-03	7.992923748429234809e-01	1.216318534726330780e+00	1.000060444909037116e+00	-7.817848044623794748e-03	4.265588092401344748e-05	5.201487944876879944e-04
1.051400578760526283e+00	2.727577680373420490e-04	-2.562479128795306337e-03	2.854481551931140407e-03	8.026268966576467490e-01	1.216196934725208623e+00	1.000060456274286302e+00	-7.666055808890312115e-03	4.253433395498041231e-05	4.584806496492900259e-04
1.071427256451203069e+00	2.301433231962298246e-04	-2.335621939997590581e-03	3.022418978073848281e-03	8.058462302675332145e-01	1.215775093729082323e+00	1.000060444287905970e+00	-7.501072723478738845e-03	4.237061194766681137e-05	4.015954467649335670e-04
1.091453934141879634e+00	1.931399269627717273e-04	-2.122287595791515127e-03	3.209516245845735194e-03	8.089453597105009663e-01	1.215071181222683316e+00	1.000060407509481442e+00	-7.323371666132942603e-03	4.217060576383846834e-05	3.495479552558392934e-04
1.111480611832556420e+00	1.612019715766760224e-04	-1.922428405163958704e-03	3.418471836795561845e-03	8.119194687497585106e-01	1.214104513526019336e+00	1.000060344812657043e+00	-7.134140763049095016e-03	4.194010693148187281e-05	3.023191080940764992e-04
1.131507289523232984e+00	1.338092647200303260e-04	-1.735948153745739842e-03	3.652323720301012266e-03	8.147639870512081162e-01	1.212895316550717473e+00	1.000060255401734377e+00	-6.935431262638969314e-03	4.168470733282816947e-05	2.598224113887388233e-04
1.151533967213909770e+00	1.104690054701702717e-04	-1.562701245627886627e-03	3.914459615741963834e-03	8.174746271368105166e-01	1.211464489201232064e+00	1.000060139010820137e+00	-6.730285914375943798e-03	4.140974932657445914e-05	2.219111152120638579e-04
1.171560644904586557e+00	9.071736213726752608e-05	-1.402491082067274701e-03	4.208603568154811389e-03	8.200474543440494646e-01	1.209833369759057975e+00	1.000059995932550239e+00	-6.522845373436543179e-03	4.112024529581509246e-05	1.883860241321806510e-04
1.191587322595263121e+00	7.412070450359311950e-05	-1.255068031457776513e-03	4.538773519263863965e-03	8.224789597615950187e-01	1.208023505082020721e+00	1.000059827231739584e+00	-6.318388583688927355e-03	4.082084142301353871e-05	1.590038304049620332e-04
1.211614000285939907e+00	6.027653079015670421e-05	-1.120126953111541014e-03	4.909188913215332441e-03	8.247662011728852383e-01	1.206056424333654675e+00	1.000059634755757543e+00	-6.123294149022086817e-03	4.051576096529418286e-05	1.334858480531807127e-04
1.231640677976616471e+00	4.881411249475750466e-05	-9.973049606718557229e-04	5.324115617270523682e-03	8.269069364911469933e-01	1.203953416880510607e+00	1.000059421319037467e+00	-5.944874498878180251e-03	4.020878577368847882e-05	1.115270070788856866e-04
1.251667355667293258e+00	3.939486147853809862e-05	-8.861797775542161774e-04	5.787622332260758916e-03	8.288996731729613154e-01	1.201735316665931030e+00	1.000059190639062123e+00	-5.791074999456768437e-03	3.990322562238169952e-05	9.280493616322724854e-05
1.271694033357969822e+00	3.171240447198803814e-05	-7.862690177646933926e-04	6.303234180757887398e-03	8.307439293480807230e-01	1.199422293905897163e+00	1.000058947427596268e+00	-5.670016445459372459e-03	3.960191997898934008e-05	7.698892100068868000e-05
1.291720711048646608e+00	2.549233534776347004e-05	-6.970313088706847540e-04	6.873465790901056929e-03	8.324403967542863825e-01	1.197033658373898746e+00	1.000058697187374834e+00	-5.589411023933214644e-03	3.930723245942515764e-05	6.374848335829724885e-05
1.311747388739323394e+00	2.049160774961452037e-05	-6.178698580318368275e-04	7.499241201446604430e-03	8.339909267427427775e-01	1.194587677360248623e+00	1.000058446156921965e+00	-5.555884107044013059e-03	3.902107111744572480e-05	5.276129293312480404e-05
1.331774066429999959e+00	1.649753424076297141e-05	-5.481384900876629324e-04	8.179225464052111011e-03	8.353985771708476449e-01	1.192101414847759777e+00	1.000058200939336617e+00	-5.574294100242714774e-03	3.874490371075623265e-05	4.372011446423708115e-05
1.351800744120676745e+00	1.332637372545281903e-05	-4.871502751618733175e-04	8.909139175681068598e-03	8.366679752513782597e-01	1.189590596515520238e+00	1.000057968309639778e+00	-5.647134593064991916e-03	3.847979112569077772e-05	3.633851665757610019e-05
1.371827421811353309e+00	1.082151609924685390e-05	-4.341891947286665408e-04	9.681163282012057378e-03	8.378049965417277978e-01	1.187069507462145124e+00	1.000057754729327453e+00	-5.774119556263824365e-03	3.822641586325814609e-05	3.035513376743536424e-05
1.391854099502030095e+00	8.851307025070855822e-06	-3.885235818292048175e-04	1.048358747000542601e-02	8.388165516352800166e-01	1.184550925871206806e+00	1.000057566112832141e+00	-5.952019747087935152e-03	3.798512429898765033e-05	2.553637080151071286e-05
1.411880777192706660e+00	7.306590348734617051e-06	-3.494205048330970096e-04	1.130086087743030314e-02	8.397107344578637056e-01	1.182046096477135766e+00	1.000057407356035544e+00	-6.174800995931716691e-03	3.775596581462249864e-05	2.167756625574560400e-05
1.431907454883383446e+00	6.098073062208131255e-06	-3.161604062736520448e-04	1.211417822820983446e-02	8.404965391061096636e-01	1.179564742591163951e+00	1.000057282203751674e+00	-6.434047357572574011e-03	3.753874347733614534e-05	1.860275053654759000e-05
1.451934132574060232e+00	5.153632327521428548e-06	-2.880507242297026117e-04	1.290263867590226224e-02	8.411833952261138503e-01	1.177115115477622265e+00	1.000057192926971261e+00	-6.719638513431883814e-03	3.733306387513721128e-05	1.616324154968456901e-05
1.471960810264736796e+00	4.415682696917125603e-06	-2.644373831833942107e-04	1.364488627062435122e-02	8.417809243142877484e-01	1.174704074733252224e+00	1.000057140401445999e+00	-7.020604345309317332e-03	3.713839440709308784e-05	1.423538343972786205e-05
1.491987487955413583e+00	3.838705723344786340e-06	-2.447135875664590557e-04	1.432099376114989719e-02	8.422989191120794361e-01	1.172337194123564741e+00	1.000057124006180631e+00	-7.326061492814439462e-03	3.695411432452854161e-05	1.271775293511727983e-05
1.512014165646090147e+00	3.387017692424458953e-06	-2.283258451171116612e-04	1.491426359818101219e-02	8.427467508307378008e-01	1.170018883317699210e+00	1.000057141937556349e+00	-7.626092213739388281e-03	3.677956282482791627e-05	1.152813376032179403e-05
1.532040843336766933e+00	3.032820446161993197e-06	-2.147769044836998699e-04	1.541261316604546419e-02	8.431333440853581163e-01	1.167752518599657119e+00	1.000057191297412551e+00	-7.912448791928919020e-03	3.661407344333831698e-05	1.060050557573553121e-05
1.552067521027443719e+00	2.754550704646412524e-06	-2.036262179150525849e-04	1.580931392604232461e-02	8.434668948179935288e-01	1.165540573503158761e+00	1.000057268554743972e+00	-8.178972099745128455e-03	3.645699943080802193e-05	9.882225486738655432e-06
1.572094198718120284e+00	2.535519234396470086e-06	-1.944882295761486582e-04	1.610301147021736545e-02	8.437549273790934112e-01	1.163384745049740321e+00	1.000057369689222764e+00	-8.421697499846085219e-03	3.630772654315079975e-05	9.331511692457097090e-06
1.592120876408797070e+00	2.362814452354483682e-06	-1.870292345892304886e-04	1.629712141696866914e-02	8.440040846903825722e-01	1.161286070231551504e+00	1.000057490645956504e+00	-8.638677429433180843e-03	3.616568080311940195e-05	8.915280024758738620e-06
1.612147554099473634e+00	2.226435776529319095e-06	-1.809631653649935849e-04	1.639880454465686421e-02	8.442202290438141077e-01	1.159245032495462846e+00	1.000057627391456538e+00	-8.829622526208313546e-03	3.603033033009404705e-05	8.607339713999290624e-06
1.632174231790150420e+00	2.118618868685295577e-06	-1.760469002879804922e-04	1.641776396695530243e-02	8.444084215259803905e-01	1.157261656067478439e+00	1.000057776258898246e+00	-8.995463656050819989e-03	3.590118680223995049e-05	8.386925222018591869e-06
1.652200909480826985e+00	2.033316188818225292e-06	-1.720753633041814928e-04	1.636507378226864998e-02	8.445730367313311060e-01	1.155335590092873677e+00	1.000057933866994819e+00	-9.137930564879031409e-03	3.577780432674661774e-05	8.237524487000782557e-06
1.672227587171503771e+00	1.965800122932617692e-06	-1.688767502536538405e-04	1.625218363706180252e-02	8.447177836838991594e-01	1.153466181434001925e+00	1.000058097356074871e+00	-9.259197293793845415e-03	3.565977897979343567e-05	8.145957338006566681e-06
1.692254264862180557e+00	1.912361006790255378e-06	-1.663079938735322527e-04	1.609016626035529585e-02	8.448458075160782954e-01	1.151652538624902355e+00	1.000058264203830483e+00	-9.361617437821557683e-03	3.554674624597723847e-05	8.101658011281591992e-06
1.712280942552857121e+00	1.870077565741289707e-06	-1.642506155721270525e-04	1.588921685853314850e-02	8.449597457875454021e-01	1.149893585863000389e+00	1.000058432402618047e+00	-9.447542478570115573e-03	3.543837909741884350e-05	8.096119870061583269e-06
1.732307620243533908e+00	1.836642105845155366e-06	-1.626069828132865457e-04	1.565837216256342479e-02	8.450618175879750504e-01	1.148188109708758065e+00	1.000058600223294514e+00	-9.519209004039968711e-03	3.533438427063628431e-05	8.122466507702555703e-06
1.752334297934210472e+00	1.810226872459410249e-06	-1.612970122148995537e-04	1.540540167033064081e-02	8.451538767588342438e-01	1.146534797334345157e+00	1.000058766377670771e+00	-9.578674880989087800e-03	3.523449952933695037e-05	8.175119953095395120e-06
1.772360975624887258e+00	1.789381332483937465e-06	-1.602552917193048434e-04	1.513681877063483353e-02	8.452374670522396771e-01	1.144932269150368054e+00	1.000058929763421034e+00	-9.627789758642636003e-03	3.513848960579880990e-05	8.249542839264643196e-06
1.792387653315563822e+00	1.772952720116298071e-06	-1.594286060647902379e-04	1.485796804086133432e-02	8.453138495054566270e-01	1.143379104584672179e+00	1.000059089634854681e+00	-9.668187100229177350e-03	3.504614355824656495e-05	8.342036703921293779e-06
1.812414331006240609e+00	1.760024177056331521e-06	-1.587738122277419794e-04	1.457315250023931072e-02	8.453841061841862459e-01	1.141873863869911743e+00	1.000059245343112080e+00	-9.701290324223808825e-03	3.495727108204581241e-05	8.449582928508450448e-06
1.832441008696917395e+00	1.749866278161365954e-06	-1.582560674267890165e-04	1.428577703267454660e-02	8.454490723477147140e-01	1.140415104486383724e+00	1.000059396523789168e+00	-9.728325107462354460e-03	3.487170041275979238e-05	8.569716224613082306e-06
1.852467686387593959e+00	1.741898831729670281e-06	-1.578473029605779250e-04	1.399849063751904335e-02	8.455095201244615666e-01	1.139001395046038034e+00	1.000059542836555293e+00	-9.750338342569808345e-03	3.478927532582020923e-05	8.700423164845483214e-06
1.872494364078270745e+00	1.735660623490487930e-06	-1.575250032520386331e-04	1.371331901568089741e-02	8.455659842045739616e-01	1.137631325065573407e+00	1.000059684171195951e+00	-9.768215194781427330e-03	3.470985361244178125e-05	8.840060183577383771e-06
1.892521041768947310e+00	1.730785361518030484e-06	-1.572711279319349625e-04	1.343178179357107892e-02	8.456190260538367642e-01	1.136303513332427295e+00	1.000059820386417053e+00	-9.782700748227325660e-03	3.463330481744147536e-05	8.987286884968901271e-06
1.912547719459624096e+00	1.726982490789336824e-06	-1.570712994173892665e-04	1.315499355617378782e-02	8.456689751119518261e-01	1.135016613101093030e+00	1.000059951533425862e+00	-9.794415865321665776e-03	3.455950911580813145e-05	9.141011524676974251e-06
1.932574397150300882e+00	1.724021862983811013e-06	-1.569140499519812134e-04	1.288374833008394844e-02	8.457162528084638531e-01	1.133769316753810097e+00	1.000060077592299645e+00	-9.803877464022697774e-03	3.448835573744918142e-05	9.300346275154406446e-06
1.952601074840977446e+00	1.721721470196268889e-06	-1.567902988555868382e-04	1.261858930746081672e-02	8.457610488444539110e-01	1.132560357963362296e+00	1.000060198711347770e+00	-9.811510949993561964e-03	3.441974204136460328e-05	9.464570427907059168e-06
1.972627752531654233e+00	1.719937626474896167e-06	-1.566928308121542045e-04	1.235986535637772880e-02	8.458036854805435212e-01	1.131388513949464825e+00	1.000060314939234418e+00	-9.817667432955302226e-03	3.435357255576499411e-05	9.633100081931934359e-06
1.992654430222330797e+00	1.718557109582947661e-06	-1.566159694451901710e-04	1.210777631009154684e-02	8.458442635801330933e-01	1.130252605712770864e+00	1.000060426478586395e+00	-9.822632656850202246e-03	3.428975808722454252e-05	9.805463164771123727e-06
2.012681107913007583e+00	1.717490874830780294e-06	-1.565552178296962375e-04	1.186240904815587770e-02	8.458830354081721126e-01	1.129151498798902420e+00	1.000060533412166608e+00	-9.826641022735947348e-03	3.422821529932650161e-05	9.981278853768609443e-06
2.032707785603684147e+00	1.716669033195504116e-06	-1.565070589887274338e-04	1.162376568684726254e-02	8.459200656314187494e-01	1.128084102345852546e+00	1.000060635969470146e+00	-9.829881547582255963e-03	3.416886574242976034e-05	1.016024063924833934e-05
2.052734463294360712e+00	1.716036842532709594e-06	-1.564687169518843288e-04	1.139178590390887459e-02	8.459555467396001616e-01	1.127049368975095112e+00	1.000060734245650673e+00	-9.832508073841448801e-03	3.411163589018658191e-05	1.034210240371802303e-05
2.072761140985037720e+00	1.715551515499275017e-06	-1.564380340487123990e-04	1.116636388949610904e-02	8.459895102905463649e-01	1.126046293161641954e+00	1.000060828480119124e+00	-9.834643838951655226e-03	3.405645607222097126e-05	1.052666700133720253e-05
2.092787818675714284e+00	1.715179678916147534e-06	-1.564133123473646016e-04	1.094736184321611766e-02	8.460221026682702705e-01	1.125073910647457875e+00	1.000060918767297302e+00	-9.836388502507002751e-03	3.400326087234472857e-05	1.071377690661466269e-05
2.112814496366390848e+00	1.714895359378043599e-06	-1.563932352026778958e-04	1.073461981283460424e-02	8.460533598152429891e-01	1.124131296455086693e+00	1.000061005346502885e+00	-9.837821438515442773e-03	3.395198794198698113e-05	1.090330657586596847e-05
2.132841174057067857e+00	1.714678385159966106e-06	-1.563767768263462320e-04	1.052796370306374046e-02	8.460833768401593291e-01	1.123217564096337329e+00	1.000061088303902723e+00	-9.839006279153102510e-03	3.390257866318637333e-05	1.109515622120392614e-05
2.152867851747744421e+00	1.714513125477458839e-06	-1.563631364760731932e-04	1.032721076241653602e-02	8.461122034650667700e-01	1.122331863422826981e+00	1.000061167873287360e+00	-9.839993899142996173e-03	3.385497692637266803e-05	1.128924674999805672e-05
2.172894529438420985e+00	1.714387493672044939e-06	-1.563517024229378702e-04	1.013217423001758037e-02	8.461398948647538276e-01	1.121473379788077596e+00	1.000061244128549243e+00	-9.840824142064630645e-03	3.380912989043665756e-05	1.148551566058009902e-05
2.192921207129097994e+00	1.714292165052172040e-06	-1.563419877807973419e-04	9.942666245233046721e-03	8.461665130179870653e-01	1.120641331863415635e+00	1.000061317295247720e+00	-9.841529515615090457e-03	3.376498684949743483e-05	1.168391372371470859e-05
2.212947884819774558e+00	1.714219960663164773e-06	-1.563336329787878560e-04	9.758500450904563500e-03	8.461920865860540486e-01	1.119834970844397093e+00	1.000061387433237359e+00	-9.842134668007745252e-03	3.372249993082505648e-05	1.188440230481835324e-05
2.232974562510451122e+00	1.714165366386394594e-06	-1.563263416116662081e-04	9.579493432462024213e-03	8.462166811495718255e-01	1.119053578301800078e+00	1.000061454758870427e+00	-9.842660218473688397e-03	3.368162316790968821e-05	1.208695121058857810e-05
2.253001240201127686e+00	1.714124155535693160e-06	-1.563199061183014364e-04	9.405466081288990643e-03	8.462403076552984516e-01	1.118296465486771307e+00	1.000061519317482883e+00	-9.843121090147580188e-03	3.364231301353599001e-05	1.229153696007462466e-05
2.273027917891804695e+00	1.714093095811584905e-06	-1.563141432342612382e-04	9.236244233225394951e-03	8.462630382394508155e-01	1.117562971252108017e+00	1.000061581316236126e+00	-9.843530555695098952e-03	3.360452769879278999e-05	1.249814140201600795e-05
2.293054595582481259e+00	1.714069720445083506e-06	-1.563089371129494089e-04	9.071659273505587248e-03	8.462848691749029761e-01	1.116852461480840386e+00	1.000061640786159556e+00	-9.843897375844495173e-03	3.356822746596383107e-05	1.270675061004242388e-05
2.313081273273157823e+00	1.714052151112106075e-06	-1.563041713471050292e-04	8.911548381623579998e-03	8.463058769861334651e-01	1.116164327093924546e+00	1.000061697925781479e+00	-9.844230242086249305e-03	3.353337430001970219e-05	1.291735400410420517e-05
2.333107950963834831e+00	1.714038960673827945e-06	-1.562997842290458949e-04	8.755754655112354262e-03	8.463260499754556854e-01	1.115497983615276967e+00	1.000061752752490873e+00	-9.844534149581720545e-03	3.349993178264556738e-05	1.312994365155973918e-05
2.353134628654511395e+00	1.714029066915338534e-06	-1.562957008690832902e-04	8.604127204028538464e-03	8.463454549436555396e-01	1.114852869264898683e+00	1.000061805457022279e+00	-9.844814678619263557e-03	3.346786527712741782e-05	1.334451371459291150e-05
2.373161306345187960e+00	1.714021651267590094e-06	-1.562918866985398404e-04	8.456520957150671577e-03	8.463641009091176226e-01	1.114228444660687378e+00	1.000061856043890085e+00	-9.845074816042628102e-03	3.343714133715044399e-05	1.356106001221256531e-05
2.393187984035864524e+00	1.714016095373776648e-06	-1.562882967970735497e-04	8.312796730948533372e-03	8.463820163723714263e-01	1.113624190999842778e+00	1.000061904696952997e+00	-9.845318103025217302e-03	3.340772834699195143e-05	1.377957967618445893e-05
2.413214661726541532e+00	1.714011933658729481e-06	-1.562849093032673360e-04	8.172820844687490871e-03	8.463992402709126228e-01	1.113039609882208847e+00	1.000061951408779404e+00	-9.845546393118246448e-03	3.337959555947143589e-05	1.400007087889792145e-05
2.433241339417218096e+00	1.714008815621416745e-06	-1.562816971671630059e-04	8.036465196490148385e-03	8.464157746793897763e-01	1.112474221580832312e+00	1.000061996357237692e+00	-9.845761764379902872e-03	3.335271405364562044e-05	1.422253262124275144e-05
2.453268017107894661e+00	1.714006478588425757e-06	-1.562786454943310382e-04	7.903606782685245261e-03	8.464316789160952759e-01	1.111927564978577365e+00	1.000062039523841761e+00	-9.845965572705422941e-03	3.332705553408406003e-05	1.444696456463344058e-05
2.473294694798571669e+00	1.714004725347456842e-06	-1.562757392604272782e-04	7.774127790852417876e-03	8.464469291786917982e-01	1.111399195912225801e+00	1.000062081081360743e+00	-9.846159016169130432e-03	3.330259349691587934e-05	1.467336690150368400e-05
2.493321372489248233e+00	1.714003408815142471e-06	-1.562729652894639454e-04	7.647915081162126420e-03	8.464616089563941070e-01	1.110888687222153948e+00	1.000062121001012549e+00	-9.846343126805772936e-03	3.327930188871900400e-05	1.490174025222556222e-05
2.513348050179924797e+00	1.714002418750357588e-06	-1.562703167109781284e-04	7.524860288453773423e-03	8.464756721825915653e-01	1.110395627158480503e+00	1.000062159451342580e+00	-9.846518528652360019e-03	3.325715636452574863e-05	1.513208558666469169e-05
2.533374727870601362e+00	1.714001673327046888e-06	-1.562677839258646791e-04	7.404859312974433443e-03	8.464892022393268878e-01	1.109919619530924884e+00	1.000062196394014613e+00	-9.846686001346865655e-03	3.323613293298358204e-05	1.536440416101216336e-05
2.553401405561278370e+00	1.714001111225034554e-06	-1.562653589975792181e-04	7.287812419452901515e-03	8.465021712423103084e-01	1.109460282170974255e+00	1.000062231994101047e+00	-9.846846087766892089e-03	3.321620921013593173e-05	1.559869747078867637e-05
2.573428083251954934e+00	1.714000687179882772e-06	-1.562630404318236517e-04	7.173623744813048542e-03	8.465146295247596431e-01	1.109017247174090670e+00	1.000062266204389871e+00	-9.846999026265687918e-03	3.319736304802855072e-05	1.583496721188694151e-05
2.593454760942631498e+00	1.714000367128705786e-06	-1.562608164147719124e-04	7.062201425898416082e-03	8.465265765580559654e-01	1.108590159411918963e+00	1.000062299187135295e+00	-9.847145572527485347e-03	3.317957390272556961e-05	1.607321525278593939e-05
2.613481438633308507e+00	1.714000126154650696e-06	-1.562586920308038304e-04	6.953457085530729762e-03	8.465380337186821924e-01	1.108178676855757550e+00	1.000062330886846373e+00	-9.847285501723247042e-03	3.316282125545583085e-05	1.631344361016428624e-05
2.633508116323985071e+00	1.713999945248362482e-06	-1.562566498305552136e-04	6.847306032972539681e-03	8.465490340873256248e-01	1.107782469127425173e+00	1.000062361463617489e+00	-9.847419977487645998e-03	3.314708629478139241e-05	1.655565443266616646e-05
2.653534794014661635e+00	1.713999810772690739e-06	-1.562547000601392105e-04	6.743666685759506195e-03	8.465595753004073742e-01	1.107401217903828838e+00	1.000062390854188799e+00	-9.847548306522220171e-03	3.313234991463849088e-05	1.679984998532734099e-05
2.673561471705338199e+00	1.713999711955829809e-06	-1.562528256045119554e-04	6.642460888526481762e-03	8.465696891119981471e-01	1.107034615498806218e+00	1.000062419217020437e+00	-9.847671680809955835e-03	3.311859494484242539e-05	1.704603264025744610e-05
2.693588149396015208e+00	1.713999641374829116e-06	-1.562510335182315307e-04	6.543613237874906612e-03	8.465793944828645667e-01	1.106682365344105579e+00	1.000062446481544409e+00	-9.847789691112914315e-03	3.310580354760061936e-05	1.729420486626838665e-05
2.713614827086691772e+00	1.713999592765314621e-06	-1.562493127958926905e-04	6.447051522536825958e-03	8.465886889545664040e-01	1.106344180584644121e+00	1.000062472805170577e+00	-9.847902912027759262e-03	3.309396004231599322e-05	1.754436922372384721e-05
2.733641504777368336e+00	1.713999562097645662e-06	-1.562476675818729301e-04	6.352705974340387175e-03	8.465976103001893183e-01	1.106019784642113146e+00	1.000062498110348086e+00	-9.848011220626147824e-03	3.308304778912391701e-05	1.779652835721998213e-05
2.753668182468045345e+00	1.713999545561856184e-06	-1.562460878701725584e-04	6.260509793395183792e-03	8.466061494651416774e-01	1.105708909820690478e+00	1.000062522553867517e+00	-9.848115253458826143e-03	3.307305246232390700e-05	1.805068499295936943e-05
2.773694860158721909e+00	1.713999541000246643e-06	-1.562445802760131840e-04	6.170398347830441214e-03	8.466143330983380011e-01	1.105411297937157977e+00	1.000062546051633250e+00	-9.848214537863959200e-03	3.306395851435694794e-05	1.830684193330956615e-05
2.793721537849398473e+00	1.713999545923941804e-06	-1.562431324043717291e-04	6.082309779311454064e-03	8.466221633605989227e-01	1.105126698937040741e+00	1.000062568760166082e+00	-9.848309965426267978e-03	3.305575290432411948e-05	1.856500205554999084e-05
2.813748215540075037e+00	1.713999559227894437e-06	-1.562417539305919719e-04	5.996184136613522467e-03	8.466296530698488310e-01	1.104854871592412913e+00	1.000062590589118283e+00	-9.848400830138064402e-03	3.304842104800419402e-05	1.882516830767441791e-05
2.833774893230752046e+00	1.713999579133994342e-06	-1.562404251259625449e-04	5.911964079967272842e-03	8.466368423728899417e-01	1.104595582114436647e+00	1.000062611695184511e+00	-9.848488310873796184e-03	3.304195112926897005e-05	1.908734370794478439e-05
2.853801570921428610e+00	1.713999605165916779e-06	-1.562391668328460062e-04	5.829593918465865096e-03	8.466436847664577936e-01	1.104348604929455746e+00	1.000062631981939010e+00	-9.848571405500808687e-03	3.303632935194080058e-05	1.935153134143323894e-05
2.873828248612105174e+00	1.713999635876904274e-06	-1.562379475798580735e-04	5.749020467274521679e-03	8.466502834043936332e-01	1.104113721264670334e+00	1.000062651606649089e+00	-9.848651889175146640e-03	3.303154517065809100e-05	1.961773436000382217e-05
2.893854926302782182e+00	1.713999671250232796e-06	-1.562367989135822076e-04	5.670191906822635852e-03	8.466565344217550360e-01	1.103890720007533632e+00	1.000062670467050552e+00	-9.848727683223942528e-03	3.302758535464619759e-05	1.988595597961947451e-05
2.913881603993458747e+00	1.713999709936125910e-06	-1.562356821732815786e-04	5.593058880638735256e-03	8.466625801220508674e-01	1.103679396280645708e+00	1.000062688721220949e+00	-9.848801410044736790e-03	3.302444068908257113e-05	2.015619948027489358e-05
2.933908281684135311e+00	1.713999752262914761e-06	-1.562346321686521652e-04	5.517573095835153624e-03	8.466682982610527208e-01	1.103479552353504145e+00	1.000062706261285461e+00	-9.848870832904430342e-03	3.302209833266047864e-05	2.042846820383669164e-05
2.953934959374811875e+00	1.713999796888470775e-06	-1.562336103151521828e-04	5.443688717262962912e-03	8.466738319453359640e-01	1.103290996208797781e+00	1.000062723246473162e+00	-9.848938343360450973e-03	3.302055039373300304e-05	2.070276555416736736e-05
2.973961637065488883e+00	1.713999844408179975e-06	-1.562326507330735368e-04	5.371360680001066243e-03	8.466790610704926223e-01	1.103113542516600099e+00	1.000062739563401637e+00	-9.849001841225356324e-03	3.301978432810522023e-05	2.097909499516218497e-05
2.993988314756165448e+00	1.713999893434098619e-06	-1.562317208137158737e-04	5.300546387289144061e-03	8.466840983851612323e-01	1.102947011185505755e+00	1.000062755372724599e+00	-9.849063362224810825e-03	3.301979353430701370e-05	2.125746005103098553e-05
3.014014992446842012e+00	1.713999944762488290e-06	-1.562308446206326436e-04	5.231203742319996512e-03	8.466888762246621569e-01	1.102791228389029099e+00	1.000062770555702141e+00	-9.849121401527030986e-03	3.302056574369098850e-05	2.153786430451820139e-05
3.034041670137519020e+00	1.713999996980589722e-06	-1.562299978162198387e-04	5.163293110572540930e-03	8.466934646512879192e-01	1.102646025105008309e+00	1.000062785274640209e+00	-9.849177482836391287e-03	3.302209549307859684e-05	2.182031139726351942e-05
3.054068347828195584e+00	1.714000051023349411e-06	-1.562291980120735055e-04	5.096775133180937202e-03	8.466978289666325930e-01	1.102511238193316423e+00	1.000062799405591951e+00	-9.849230525660097532e-03	3.302437080293364025e-05	2.210480502819560502e-05
3.074095025518872148e+00	1.714000105462686327e-06	-1.562284292607309198e-04	5.031612894427044992e-03	8.467019954445085261e-01	1.102386708921986314e+00	1.000062813112689852e+00	-9.849281531090336300e-03	3.302738724805299488e-05	2.239134895398934067e-05
3.094121703209549157e+00	1.714000161326700896e-06	-1.562276981999470430e-04	4.967769566187787110e-03	8.467059870993934867e-01	1.102272284088354981e+00	1.000062826266922000e+00	-9.849330038387693956e-03	3.303113316574197918e-05	2.267994698753879150e-05
3.114148380900225721e+00	1.714000217205459133e-06	-1.562269991871973417e-04	4.905210719539720467e-03	8.467097766719267060e-01	1.102167814533830725e+00	1.000062839034452589e+00	-9.849376470201457595e-03	3.303560500129419143e-05	2.297060299844715293e-05
3.134175058590902285e+00	1.714000274164391476e-06	-1.562263342122129496e-04	4.843901875397877733e-03	8.467134100867884650e-01	1.102073156311278446e+00	1.000062851281264820e+00	-9.849420695558880681e-03	3.304079148151037928e-05	2.326332091169107792e-05
3.154201736281578849e+00	1.714000330827195172e-06	-1.562256984555613888e-04	4.783810891434673793e-03	8.467168575269709008e-01	1.101988169181101540e+00	1.000062863175748884e+00	-9.849462974616318006e-03	3.304668983476524691e-05	2.355810470815610007e-05
3.174228413972255858e+00	1.714000388288994883e-06	-1.562250949763279253e-04	4.724905455137575795e-03	8.467201575056263474e-01	1.101912717821435406e+00	1.000062874578995675e+00	-9.849503163753383153e-03	3.305328913429538722e-05	2.385495842326601572e-05
3.194255091662932422e+00	1.714000445194080919e-06	-1.562245165590106272e-04	4.667155538011373388e-03	8.467232948752863031e-01	1.101846670312559340e+00	1.000062885661766154e+00	-9.849541676893313821e-03	3.306058737352712780e-05	2.415388614773981968e-05
3.214281769353608986e+00	1.714000502671805061e-06	-1.562239701238288020e-04	4.610530822536523972e-03	8.467262848913154061e-01	1.101789899385476001e+00	1.000062896280299762e+00	-9.849578131584612456e-03	3.306857389452289633e-05	2.445489202620299476e-05
3.234308447044285995e+00	1.714000559371549982e-06	-1.562234431642799972e-04	4.555003241985155181e-03	8.467291441349709125e-01	1.101742280886335745e+00	1.000062906607896762e+00	-9.849613282642069589e-03	3.307724747897997851e-05	2.475798025798677540e-05
3.254335124734962559e+00	1.714000616471428396e-06	-1.562229512573131774e-04	4.500544311988144072e-03	8.467318377876403845e-01	1.101703695068302125e+00	1.000062916496063048e+00	-9.849646149870267334e-03	3.308659762467596447e-05	2.506315509582280894e-05
3.274361802425639123e+00	1.714000672590205276e-06	-1.562224728191445372e-04	4.447127798997594153e-03	8.467344346306204805e-01	1.101674025038994253e+00	1.000062926120689921e+00	-9.849678127143431799e-03	3.309662400185815637e-05	2.537042084672594687e-05
3.294388480116315687e+00	1.714000728985498392e-06	-1.562220277158227969e-04	4.394726894347060660e-03	8.467368738828645602e-01	1.101653158090035056e+00	1.000062935328647873e+00	-9.849707931368576960e-03	3.310731608385459929e-05	2.567978187074200494e-05
3.314415157806992696e+00	1.714000784231199874e-06	-1.562215946257821330e-04	4.343317073152253537e-03	8.467392254879071434e-01	1.101640984120169753e+00	1.000062944298574674e+00	-9.849736921300865020e-03	3.311867447642829836e-05	2.599124258176207009e-05
3.334441835497669260e+00	1.714000839657022912e-06	-1.562211914939806733e-04	4.292873075867439936e-03	8.467414362768153069e-01	1.101637397013403685e+00	1.000062952872664557e+00	-9.849763963247113244e-03	3.313068858320869796e-05	2.630480744650245595e-05
3.354468513188345824e+00	1.714000893797536980e-06	-1.562208009735591987e-04	4.243371961938734518e-03	8.467435576400447195e-01	1.101642293030161923e+00	1.000062961232507597e+00	-9.849790164092275119e-03	3.314335991520913130e-05	2.662048098517480417e-05
3.374495190879022832e+00	1.714000948038948765e-06	-1.562204342635119963e-04	4.194789911204784352e-03	8.467455696037630153e-01	1.101655572232506319e+00	1.000062969215652853e+00	-9.849814815542820914e-03	3.315667781028748328e-05	2.693826777067344778e-05
3.394521868569699397e+00	1.714001000898815297e-06	-1.562200828938994728e-04	4.147105444189852323e-03	8.467474795005673904e-01	1.101677136850185867e+00	1.000062977006695775e+00	-9.849838449449397487e-03	3.317064458330578074e-05	2.725817242923514821e-05
3.414548546260375961e+00	1.714001053787617745e-06	-1.562197513901047074e-04	4.100296090466484800e-03	8.467492994720394739e-01	1.101706892739080290e+00	1.000062984438610636e+00	-9.849860737360667529e-03	3.318524959746532407e-05	2.758019963956157255e-05
3.434575223951052525e+00	1.714001105224044351e-06	-1.562194348514917594e-04	4.054341717444913742e-03	8.467510208227589930e-01	1.101744747731267626e+00	1.000062991699100401e+00	-9.849882095674122179e-03	3.320049586497538326e-05	2.790435413361849623e-05
3.454601901641729533e+00	1.714001156629056622e-06	-1.562191360195940557e-04	4.009221112811355188e-03	8.467526627090092850e-01	1.101790613129839391e+00	1.000062998616584320e+00	-9.849902304485678647e-03	3.321637278895760306e-05	2.823064069585959560e-05
3.474628579332406098e+00	1.714001206536135383e-06	-1.562188512905516018e-04	3.964915394395618874e-03	8.467542118392813455e-01	1.101844402027577052e+00	1.000063005381981895e+00	-9.849921448512499039e-03	3.323288404377673064e-05	2.855906416396927547e-05
3.494655257023082662e+00	1.714001256360803132e-06	-1.562185832812980856e-04	3.921404520607575141e-03	8.467556854313472714e-01	1.101906030850982265e+00	1.000063011819166681e+00	-9.849939729425976481e-03	3.325001906084279718e-05	2.888962942801421316e-05
3.514681934713759670e+00	1.714001304653798991e-06	-1.562183266427024026e-04	3.878670773539829274e-03	8.467570827755545038e-01	1.101975417642551358e+00	1.000063018122358427e+00	-9.849956971605827033e-03	3.326778216453291532e-05	2.922234143154516542e-05
3.534708612404436234e+00	1.714001352839171690e-06	-1.562180862754258099e-04	3.836695196071047628e-03	8.467584053201739902e-01	1.102052483642721681e+00	1.000063024110914078e+00	-9.849973293495840193e-03	3.328616275314682192e-05	2.955720517027783656e-05
3.554735290095112799e+00	1.714001399454447485e-06	-1.562178562190927767e-04	3.795461160474148700e-03	8.467596590552556313e-01	1.102137151570049323e+00	1.000063029982411589e+00	-9.849989061810983382e-03	3.330516583456704662e-05	2.989422569387968431e-05
3.574761967785789363e+00	1.714001445954594349e-06	-1.562176399276899656e-04	3.754950716853023944e-03	8.467608497087120156e-01	1.102229347192929643e+00	1.000063035551759238e+00	-9.850003663470788262e-03	3.332478073348027459e-05	3.023340810413506347e-05
3.594788645476466371e+00	1.714001490870830683e-06	-1.562174339539051980e-04	3.715148252071224719e-03	8.467619732369700003e-01	1.102328997626352391e+00	1.000063041019927601e+00	-9.850017757098868815e-03	3.334501310988633197e-05	3.057475755687655256e-05
3.614815323167142935e+00	1.714001535655915823e-06	-1.562172411985698504e-04	3.676036758890817956e-03	8.467630351441842729e-01	1.102436032923586273e+00	1.000063046197404493e+00	-9.850030872299382970e-03	3.336585223404052322e-05	3.091827926031599392e-05
3.634842000857819500e+00	1.714001578852332649e-06	-1.562170574599544906e-04	3.637601571000612967e-03	8.467640382820007527e-01	1.102550384344109125e+00	1.000063051288594185e+00	-9.850043473872601915e-03	3.338730440675747506e-05	3.126397847708415587e-05
3.654868678548496508e+00	1.714001621911710556e-06	-1.562168849443415031e-04	3.599826557172494754e-03	8.467649892516398991e-01	1.102671985986208414e+00	1.000063056099584680e+00	-9.850055298400616638e-03	3.340935879852171436e-05	3.161186052226383746e-05
3.674895356239173072e+00	1.714001663388375002e-06	-1.562167222078734302e-04	3.562697935104609717e-03	8.467658787667864395e-01	1.102800773020840452e+00	1.000063060838322082e+00	-9.850066459562776058e-03	3.343202233698206436e-05	3.196193076573535359e-05
3.694922033929849636e+00	1.714001704725232001e-06	-1.562165678202819604e-04	3.526200395246360982e-03	8.467667304726405053e-01	1.102936683368731519e+00	1.000063065306477261e+00	-9.850077074400890448e-03	3.345528411555954041e-05	3.231419463004022298e-05
3.714948711620526201e+00	1.714001744493800087e-06	-1.562164221323044636e-04	3.490320975170898340e-03	8.467675276213936231e-01	1.103079655902165390e+00	1.000063069715590336e+00	-9.850087108805137201e-03	3.347915161857884626e-05	3.266865759299091736e-05
3.734975389311203209e+00	1.714001784125688819e-06	-1.562162868043126497e-04	3.455045136073241988e-03	8.467682750430305383e-01	1.103229632155663609e+00	1.000063073862918817e+00	-9.850096462636605266e-03	3.350361387738049564e-05	3.302532518525930449e-05
3.755002067001879773e+00	1.714001822199161018e-06	-1.562161573213135656e-04	3.420360689128361473e-03	8.467689846271335696e-01	1.103386554501117667e+00	1.000063077963667446e+00	-9.850105441071866155e-03	3.352867899064203310e-05	3.338420299325012269e-05
3.775028744692556337e+00	1.714001860151664842e-06	-1.562160384529996378e-04	3.386253805658304486e-03	8.467696416252329383e-01	1.103550367894728490e+00	1.000063081810676602e+00	-9.850113671308353275e-03	3.355433581230448867e-05	3.374529665657863194e-05
3.795055422383233346e+00	1.714001896557258017e-06	-1.562159235482994625e-04	3.352713027530407428e-03	8.467702722611754051e-01	1.103721018027873590e+00	1.000063085622871162e+00	-9.850121657630160274e-03	3.358059311125640459e-05	3.410861187116893842e-05
3.815082100073909910e+00	1.714001932857173880e-06	-1.562158231156454073e-04	3.319725186580363072e-03	8.467708284299085841e-01	1.103898453099186661e+00	1.000063089188678811e+00	-9.850128708355113810e-03	3.360743951461646578e-05	3.447415438636278645e-05
3.835108777764586474e+00	1.714001967608870004e-06	-1.562157390157905602e-04	3.287279524655742618e-03	8.467712923618686549e-01	1.104082621942070297e+00	1.000063092730786307e+00	-9.850134699007154215e-03	3.363488461039828962e-05	3.484193000847772033e-05
3.855135455455263482e+00	1.714002002243829953e-06	-1.562156453239398957e-04	3.255363500306425895e-03	8.467718105518614591e-01	1.104273475833738916e+00	1.000063096033227961e+00	-9.850141299583543494e-03	3.366291687974290968e-05	3.521194459758749171e-05
3.875162133145940047e+00	1.714002035430507558e-06	-1.562155054613172187e-04	3.223966923107035240e-03	8.467725771725057582e-01	1.104470966585268332e+00	1.000063099322511029e+00	-9.850150400493454597e-03	3.369154580270966874e-05	3.558420407141005607e-05
3.895188810836616611e+00	1.714002068611472773e-06	-1.562154070851554284e-04	3.193077777777842893e-03	8.467731197144550137e-01	1.104675048419308858e+00	1.000063102378276891e+00	-9.850159051808958857e-03	3.372075903817996125e-05	3.595871440129915528e-05
3.915215488527293175e+00	1.714002103183640900e-06	-1.562155076426567733e-04	3.162686709789212271e-03	8.467725842226899724e-01	1.104885674901893378e+00	1.000063105431521215e+00	-9.850003376894258394e-03	3.375056915758792205e-05	3.633548164645883117e-05
3.935242166217970183e+00	1.714002108369085758e-06	-1.562158512682810933e-04	3.132782706368743200e-03	8.467707226322479519e-01	1.105102814261516020e+00	1.000063108260722311e+00	-9.851293182944134350e-03	3.378096853925079303e-05	3.671451158731577172e-05
3.955268843908646748e+00	1.714002234072126840e-06	-1.562152449850350466e-04	3.103356988894081028e-03	8.467740435963533319e-01	1.105326386307407205e+00	1.000063111186808129e+00	-9.851120669608113417e-03	3.381197127451471290e-05	3.709581238654435044e-05
3.975295521599323312e+00	1.714002373511550991e-06	-1.562130709116198548e-04	3.074396884954488669e-03	8.467858671942180004e-01	1.105556340159402851e+00	1.000063114046606749e+00	-9.840965256332103242e-03	3.384354439830044762e-05	3.747938753275334255e-05
3.995322199289999876e+00	1.714584732784533302e-06	-1.562470816965427973e-04	3.045531353289996409e-03	8.467602886665462902e-01	1.105725138389047624e+00	1.000000000000000000e+00	-1.000000000000000021e-02	3.387174561589884471e-05	3.787100112148618141e-05
