# Time=0.0437008740175 and Columns are r	p	Paether	ur	alpha	a	b	K	Sr_tilde	tau_tilde
1.001333884533834630e-02	1.198457531507770429e-02	-1.854921050827888773e-02	2.810775140616875921e-05	6.386297223226000686e-01	1.000165116527709452e+00	1.000117797905915928e+00	-1.530400486274051397e-02	3.174199540360398330e-10	1.502673072966988663e-06
3.004001653601504063e-02	1.195610839963760254e-02	-1.852822722190727162e-02	8.432722075470950966e-05	6.388080813529741775e-01	1.000543490526160761e+00	1.000117832092191739e+00	-1.530010961038507332e-02	8.560498136131341981e-09	1.349703948895020219e-05
5.006669422669172975e-02	1.189931151200299131e-02	-1.848627055763509344e-02	1.403813326241092421e-04	6.391647487805317551e-01	1.001299238004742076e+00	1.000117852068968416e+00	-1.526647533676823987e-02	3.949093027513631597e-08	3.734186165032555996e-05
7.009337191736843276e-02	1.181457427446089455e-02	-1.842343783953545935e-02	1.960750082907529944e-04	6.396992054141443784e-01	1.002430687784551910e+00	1.000117856229596258e+00	-1.520929112018580900e-02	1.077217207430128214e-07	7.275097013083375917e-05
9.012004960804512188e-02	1.170244291844931873e-02	-1.833985328385552213e-02	2.513204157715840715e-04	6.404107857890218858e-01	1.003935269830030785e+00	1.000117859884638083e+00	-1.513650007213599227e-02	2.271486822309354623e-07	1.192992171947766333e-04
1.101467272987218110e-01	1.156363925277785649e-02	-1.823568461810631119e-02	3.059932184407181599e-04	6.412985905632559991e-01	1.005809442604803428e+00	1.000117863042867983e+00	-1.504542477124563675e-02	4.106573818223926280e-07	1.764273900034621389e-04
1.301734049893985001e-01	1.139905167101666963e-02	-1.811114229048657598e-02	3.599796564719035473e-04	6.423614913400286230e-01	1.008048765980902539e+00	1.000117865348885804e+00	-1.493695181218827883e-02	6.698861692927296614e-07	2.434486886847111781e-04
1.502000826800751754e-01	1.120972794458928445e-02	-1.796648142629464137e-02	4.131721361896185636e-04	6.435981081639718937e-01	1.010647830919785717e+00	1.000117866105743936e+00	-1.481140658609957778e-02	1.015005055641710721e-06	3.195567479365934928e-04
1.702267603707518784e-01	1.099686537210398628e-02	-1.780200233979645913e-02	4.654716559301842077e-04	6.450068255951967311e-01	1.013600226040061170e+00	1.000117864535254864e+00	-1.466930794273168907e-02	1.454532152394433134e-06	4.038351288587481739e-04
1.902534380614285814e-01	1.076179971292763431e-02	-1.761805271707090476e-02	5.167888374896359221e-04	6.465857428798039708e-01	1.016898493474347021e+00	1.000117859815623733e+00	-1.451123906386277487e-02	1.995186672362698144e-06	4.952682106421558332e-04
2.102801157521052566e-01	1.050599282414919032e-02	-1.741502761079250991e-02	5.670448849603439926e-04	6.483327085090458963e-01	1.020534082211513205e+00	1.000117851096867128e+00	-1.433787947069264761e-02	2.641782081061718170e-06	5.927533902013545257e-04
2.303067934427819596e-01	1.023101917720812756e-02	-1.719337182310107931e-02	6.161727270260126434e-04	6.502452679787328327e-01	1.024497298852305782e+00	1.000117837545889898e+00	-1.415000374984630611e-02	3.397162693868560226e-06	6.951144834132214935e-04
2.503334711334586626e-01	9.938551375708726612e-03	-1.695357979488239589e-02	6.641177589771520527e-04	6.523206870965749804e-01	1.028777257453796334e+00	1.000117818350348076e+00	-1.394848590607134474e-02	4.262182455615936973e-06	8.011162023059423352e-04
2.703601488241353379e-01	9.630344843700939725e-03	-1.669619768427350534e-02	7.108388249817367737e-04	6.545559126008121398e-01	1.033361829774839258e+00	1.000117792771615832e+00	-1.373429988311077564e-02	5.235728510970926750e-06	9.094795651766190850e-04
2.903868265148120131e-01	9.308221834150375712e-03	-1.642182283737364870e-02	7.563087505473698293e-04	6.569475777861230048e-01	1.038237597875124374e+00	1.000117760138962142e+00	-1.350852039299859329e-02	6.314784637739220207e-06	1.018898075252960833e-03
3.104135042054887439e-01	8.974054945880842807e-03	-1.613110530496539990e-02	8.005151262166441397e-04	6.594919848221948433e-01	1.043389810715398269e+00	1.000117719909339620e+00	-1.327231991827718116e-02	7.494536327080843522e-06	1.128054485332478929e-03
3.304401818961654191e-01	8.629750317618816932e-03	-1.582474681399999306e-02	8.434606061505862994e-04	6.621850943056033501e-01	1.048802347157145043e+00	1.000117671648050877e+00	-1.302696511959424396e-02	8.768508855848511471e-06	1.235637943426050539e-03
3.504668595868420944e-01	8.277230700742967129e-03	-1.550350122270292841e-02	8.851634655836997491e-04	6.650225148116950535e-01	1.054457687256975307e+00	1.000117615094075818e+00	-1.277380933686516132e-02	1.012873976505191999e-05	1.340361297327850908e-03
3.704935372775188251e-01	7.918418591270881199e-03	-1.516817302321834225e-02	9.256576398214170706e-04	6.679995125390042476e-01	1.060336894630713456e+00	1.000117550123124754e+00	-1.251428342598171276e-02	1.156597345987529024e-05	1.440978314969536874e-03
3.905202149681955004e-01	7.555219627642263854e-03	-1.481961640217998276e-02	9.649930435381818845e-04	6.711109743389864768e-01	1.066419611886532337e+00	1.000117476817035111e+00	-1.224988313598164048e-02	1.306987987398950743e-05	1.536300564240001285e-03
4.105468926588721756e-01	7.189506437770703390e-03	-1.445873298590812442e-02	1.003235332116179934e-03	6.743514535270012100e-01	1.072684072114089116e+00	1.000117395405534237e+00	-1.198215404372082217e-02	1.462928143312970334e-05	1.625213679743603553e-03
4.305735703495489064e-01	6.823103136710677134e-03	-1.408646968780582175e-02	1.040465987396129235e-03	6.777151007639873326e-01	1.079107128287362549e+00	1.000117306338837109e+00	-1.171267341020198159e-02	1.623239215440767434e-05	1.706692738499657582e-03
4.506002480402255816e-01	6.457770650511710300e-03	-1.370381526355373726e-02	1.076781812355247269e-03	6.811957661265466424e-01	1.085664303509227935e+00	1.000117210204668927e+00	-1.144302972906675528e-02	1.786705001231402639e-05	1.779816459588291072e-03
4.706269257309022569e-01	6.095193050635445108e-03	-1.331179713113778834e-02	1.112294809446136854e-03	6.847868656925044650e-01	1.092329863458963546e+00	1.000117107804082917e+00	-1.117479946169677198e-02	1.952094966830702903e-05	1.843779949235532008e-03
4.906536034215789877e-01	5.736965054329439505e-03	-1.291147654253976471e-02	1.147131460294229617e-03	6.884815824662694483e-01	1.099076913542632816e+00	1.000117000041101267e+00	-1.090952237834762369e-02	2.118185443322955842e-05	1.897905719557322008e-03
5.106802811122557184e-01	5.384580845653842013e-03	-1.250394451387686241e-02	1.181432459191215706e-03	6.922726638460711124e-01	1.105877521170934630e+00	1.000116888002622106e+00	-1.064867449661735695e-02	2.283779883503589918e-05	1.941652731456867823e-03
5.307069588029323937e-01	5.039424339531663882e-03	-1.209031579013602857e-02	1.215351880341499716e-03	6.961526683603013188e-01	1.112702864809810510e+00	1.000116772819438671e+00	-1.039364092618459690e-02	2.447725961686767629e-05	1.974623236163396568e-03
5.507336364936090689e-01	4.702761001304036487e-03	-1.167172380508742918e-02	1.249056882029491887e-03	7.001137502755289121e-01	1.119523408827034938e+00	1.000116655752167238e+00	-1.014568734715455729e-02	2.608931127672186017e-05	1.996567230074354840e-03
5.707603141842857442e-01	4.375731299112112574e-03	-1.124931392488147906e-02	1.282726915244702818e-03	7.041479424994057101e-01	1.126309104523540716e+00	1.000116538023504198e+00	-9.905932550918894811e-03	2.766374399894043070e-05	2.007384379967056594e-03
5.907869918749625304e-01	4.059345848626120558e-03	-1.082423769786713084e-02	1.316553579508797757e-03	7.082469146665337778e-01	1.133029614580908451e+00	1.000116420913919058e+00	-9.675321078089011567e-03	2.919116498313135602e-05	2.007123332710043957e-03
6.108136695656392057e-01	3.754482273011966291e-03	-1.039764551915066740e-02	1.350740085548144103e-03	7.124022833672203348e-01	1.139654559793250588e+00	1.000116305565847297e+00	-9.454598364788829173e-03	3.066306141413188512e-05	1.995978381816803249e-03
6.308403472563158809e-01	3.461883777641280597e-03	-9.970680557328236507e-03	1.385501494637476948e-03	7.166053782703596386e-01	1.146153783328548892e+00	1.000116193094160666e+00	-9.244287292222794911e-03	3.207185036629038247e-05	1.974283531978184448e-03
6.508670249469925562e-01	3.182159403219622998e-03	-9.544471227380361619e-03	1.421064701080501256e-03	7.208475451188743888e-01	1.152497629863200812e+00	1.000116084364400804e+00	-9.044668624753750968e-03	3.341089437296646127e-05	1.942504069742254785e-03
6.708937026376692314e-01	2.915785895320007533e-03	-9.120125350535862249e-03	1.457669333026839157e-03	7.251199287303283780e-01	1.158657232960985661e+00	1.000115980123748249e+00	-8.855763836061418884e-03	3.467451076770638947e-05	1.901225819672086809e-03
6.909203803283459067e-01	2.663111096225509889e-03	-8.698722824241972296e-03	1.495568566030345929e-03	7.294137912626948994e-01	1.164604806858533737e+00	1.000115880755813702e+00	-8.677323037048923632e-03	3.585795387365755025e-05	1.851142330409741949e-03
7.109470580190225819e-01	2.424358740835474285e-03	-8.281310384323670171e-03	1.535030994304286203e-03	7.337202228818396899e-01	1.170313934630051955e+00	1.000115786438503518e+00	-8.508815895644370603e-03	3.695739867303144880e-05	1.793040296457620690e-03
7.309737357096993682e-01	2.199634513213444189e-03	-7.868894903399262925e-03	1.576342612275135214e-03	7.380305516492540185e-01	1.175759848411248587e+00	1.000115696878014049e+00	-8.349428398726583753e-03	3.796990529730070145e-05	1.727783572249274755e-03
7.510004134003760434e-01	1.988933201513986074e-03	-7.462439032062288986e-03	1.619809987150258937e-03	7.423360204340768709e-01	1.180919693054628405e+00	1.000115611499796886e+00	-8.198062857462178402e-03	3.889339113110854164e-05	1.656296174571790644e-03
7.710270910910527187e-01	1.792146773452906643e-03	-7.062855893750697410e-03	1.665763765034483038e-03	7.466281574194574278e-01	1.185772769374344504e+00	1.000115529163709827e+00	-8.053343535395267316e-03	3.972659026757077532e-05	1.579544695041468390e-03
7.910537687817293939e-01	1.609073183900286419e-03	-6.671005409312505581e-03	1.714563516617321733e-03	7.508985076662749725e-01	1.190300748723825519e+00	1.000115448393981143e+00	-7.913626399216389107e-03	4.046902378429844598e-05	1.498520553322389573e-03
8.110804464724060692e-01	1.439425721779232555e-03	-6.287690892059064063e-03	1.766603139809385260e-03	7.551389417344909205e-01	1.194487856568315687e+00	1.000115367076909845e+00	-7.777013319418860440e-03	4.112096038590679325e-05	1.414222516492589501e-03
8.311071241630827444e-01	1.282842702611049169e-03	-5.913656359912439903e-03	1.822317811688558111e-03	7.593413976949875410e-01	1.198321018087302514e+00	1.000115282734710176e+00	-7.641371490749064750e-03	4.168338836739675487e-05	1.327639886241812825e-03
8.511338018537595307e-01	1.138897319801815715e-03	-5.549585034381389337e-03	1.882191731414695158e-03	7.634981921620238587e-01	1.201789965821774997e+00	1.000115192206963100e+00	-7.504356662172416079e-03	4.215797731934694788e-05	1.239736720678971107e-03
8.711604795444362059e-01	1.007107476404583242e-03	-5.196097577062833497e-03	1.946767703023990223e-03	7.676017438199418397e-01	1.204887304323987385e+00	1.000115091973262427e+00	-7.363443499096149723e-03	4.254704957840377158e-05	1.151437406370169015e-03
8.911871572351128812e-01	8.869454353085836533e-04	-4.853752505936509073e-03	2.016657768117846496e-03	7.716448740075030344e-01	1.207608534637925501e+00	1.000114977819635209e+00	-7.215959973074372036e-03	4.285353819374035139e-05	1.063613840033466327e-03
9.112138349257895564e-01	7.778471420377557110e-04	-4.523045189581110202e-03	2.092556084276143112e-03	7.756205495334296263e-01	1.209952035666155723e+00	1.000114845216477422e+00	-7.059132597185943138e-03	4.308095280262648442e-05	9.770744121580213389e-04
9.312405126164662317e-01	6.792210970604180059e-04	-4.204410273290079374e-03	2.175253134797575268e-03	7.795220586870184043e-01	1.211919008025089228e+00	1.000114688973402499e+00	-6.890137250421273299e-03	4.323332773385539193e-05	8.925549203338846698e-04
9.512671903071429069e-01	5.904566753520458251e-04	-3.898220893875352627e-03	2.265652721713920775e-03	7.833429035421485276e-01	1.213513379220267252e+00	1.000114503681545530e+00	-6.706167860309196135e-03	4.331517795500632956e-05	8.107114712625694249e-04
9.712938679978196932e-01	5.109318165936830311e-04	-3.604792564485447427e-03	2.364790504999191197e-03	7.870768698793066953e-01	1.214741678007237979e+00	1.000114283364672341e+00	-6.504514718535740758e-03	4.333143263161436673e-05	7.321153715777724367e-04
9.913205456884963684e-01	4.400200314997512177e-04	-3.324382600974345667e-03	2.473855903533057898e-03	7.907179347599215813e-01	1.215612877816031556e+00	1.000114022000483160e+00	-6.282669560948223042e-03	4.328737928725652381e-05	6.572499504291264005e-04
1.011347223379172933e+00	3.770966948357851504e-04	-3.057194668369422365e-03	2.594215526190703398e-03	7.942603436817019524e-01	1.216138218529676518e+00	1.000113713181793207e+00	-6.038447619610778222e-03	4.318858221281662065e-05	5.865092146874701989e-04
1.031373901069849497e+00	3.215446159977863047e-04	-2.803378145371084994e-03	2.727440233058415261e-03	7.976985036863454281e-01	1.216331006589321140e+00	1.000113350737940054e+00	-5.770145731561832775e-03	4.304081631499159029e-05	5.201982010224365802e-04
1.051400578760526283e+00	2.727588995753112209e-04	-2.563032536260425199e-03	2.875333003546498480e-03	8.010270790000095786e-01	1.216206403175921880e+00	1.000112928425997083e+00	-5.476724947178978134e-03	4.284997392208822248e-05	4.585348693846583645e-04
1.071427256451203069e+00	2.301511243134836870e-04	-2.336206294033510607e-03	3.039959590668813837e-03	8.042407692117152784e-01	1.215781199570457494e+00	1.000112440677797920e+00	-5.158033909594632489e-03	4.262199281171484902e-05	4.016533689773834487e-04
1.091453934141879634e+00	1.931528845871117138e-04	-2.122900509443553362e-03	3.223677439322704830e-03	8.073347336277055808e-01	1.215073589009346033e+00	1.000111882342381575e+00	-4.815055858853545083e-03	4.236275812475364722e-05	3.496085093393356321e-04
1.111480611832556420e+00	1.612187480850119060e-04	-1.923066637284422901e-03	3.429163794691357688e-03	8.103040994061658786e-01	1.214102932480441988e+00	1.000111249578415018e+00	-4.450185372269444169e-03	4.207803135981640178e-05	3.023812744133114682e-04
1.131507289523232984e+00	1.338286912420172728e-04	-1.736609106095967367e-03	3.659435472239420690e-03	8.131443826967774680e-01	1.212889526711458332e+00	1.000110539654300856e+00	-4.067503789745384631e-03	4.177335602738026059e-05	2.598852321560262920e-04
1.151533967213909770e+00	1.104900752008410318e-04	-1.563381305975009841e-03	3.917858482278235334e-03	8.158513447781596817e-01	1.211454369718151902e+00	1.000109751977944494e+00	-3.673040310058800061e-03	4.145399576456192944e-05	2.219737048865834937e-04
1.171560644904586557e+00	9.073922328933936999e-05	-1.403187405982988948e-03	4.208134882814842589e-03	8.184210901094459700e-01	1.209818930951363836e+00	1.000108887916359768e+00	-3.274962895484110226e-03	4.112485299015261316e-05	1.884475791422776528e-04
1.191587322595263121e+00	7.414265246317663601e-05	-1.255777256290305406e-03	4.534260109245165891e-03	8.208499216640245955e-01	1.208004919553765655e+00	1.000107951890498281e+00	-2.883661855413833554e-03	4.079042504525249468e-05	1.590636376317205677e-04
1.211614000285939907e+00	6.029799920304436330e-05	-1.120845427209372783e-03	4.900430870547530654e-03	8.231355312113676215e-01	1.206034057222093336e+00	1.000106951094009045e+00	-2.511656512568930574e-03	4.045474510465053495e-05	1.335432917571790633e-04
1.231640677976616471e+00	4.883466303951775360e-05	-9.980280144968834907e-04	5.310890586911128607e-03	8.252761240861653524e-01	1.203927848552013069e+00	1.000105896484995149e+00	-2.173262132653653277e-03	4.012136202490562264e-05	1.115815737458739185e-04
1.251667355667293258e+00	3.941417229157403242e-05	-8.869074819186465201e-04	5.769687112578132486e-03	8.272669833646822957e-01	1.201707356606962263e+00	1.000104802187275599e+00	-1.883966696745325436e-03	3.979331244113366471e-05	9.285621699353442161e-05
1.271694033357969822e+00	3.173025730459742442e-05	-7.869965700592172634e-04	6.280328842893491935e-03	8.291107893912117444e-01	1.199392978223815076e+00	1.000103686134795833e+00	-1.659546451770476088e-03	3.947313005478975898e-05	7.703661173536976992e-05
1.291720711048646608e+00	2.550860177375843541e-05	-6.977501001714338843e-04	6.845319974264636731e-03	8.308141124250040255e-01	1.197004230435964711e+00	1.000102568909449374e+00	-1.514877056926635691e-03	3.916284075310065929e-05	6.379238141518593576e-05
1.311747388739323394e+00	2.050623481471239933e-05	-6.185822485187870458e-04	7.465586231432823176e-03	8.323661756334859163e-01	1.194559546194248201e+00	1.000101473841557009e+00	-1.462553779460558931e-03	3.886400191582257524e-05	5.280129191705550167e-05
1.331774066429999959e+00	1.651053011235970917e-05	-5.488451236752308173e-04	8.139812199801668008e-03	8.337711413864014043e-01	1.192076095187677209e+00	1.000100425185785014e+00	-1.511597976690268966e-03	3.857772820285102627e-05	4.375619636754886176e-05
1.351800744120676745e+00	1.333779389923097700e-05	-4.878404718474902975e-04	8.863760959575410492e-03	8.350503174162567932e-01	1.189569630532527178e+00	1.000099447728694413e+00	-1.666295349707886059e-03	3.830473095785671343e-05	3.637074214977841234e-05
1.371827421811353309e+00	1.083145065694572088e-05	-4.348627390610654915e-04	9.629684130968440420e-03	8.361964921100549786e-01	1.187054378241596542e+00	1.000098564529431799e+00	-1.925323070453452586e-03	3.804535769454364783e-05	3.038363110104988176e-05
1.391854099502030095e+00	8.859869296379347178e-06	-3.891808076283139817e-04	1.042597536448525326e-02	8.372121344386114217e-01	1.184542967536348357e+00	1.000097796431504094e+00	-2.281556156093030984e-03	3.779965170155720282e-05	2.556132384830517884e-05
1.411880777192706660e+00	7.313907256603059119e-06	-3.500585672865479656e-04	1.123721663410184521e-02	8.381152762473739193e-01	1.182046414272231338e+00	1.000097159886274900e+00	-2.722438254175316413e-03	3.756738488503884641e-05	2.169920217634286366e-05
1.431907454883383446e+00	6.104277185003457460e-06	-3.167773377384074107e-04	1.204475846627211903e-02	8.389121052337086271e-01	1.179574147869265621e+00	1.000096666936763024e+00	-3.230877451159328267e-03	3.734811814918281554e-05	1.862132752327641047e-05
1.451934132574060232e+00	5.158855662286555647e-06	-2.886466714367002260e-04	1.282786409498730580e-02	8.396103409499208192e-01	1.177134086793788059e+00	1.000096323649739771e+00	-3.786684060865306081e-03	3.714124780825770811e-05	1.617903704209649392e-05
1.471960810264736796e+00	4.420051976262197042e-06	-2.650116858476593193e-04	1.356533384474984706e-02	8.402203623963721002e-01	1.174732745186184424e+00	1.000096130984798437e+00	-4.368364223596318992e-03	3.694606647540090984e-05	1.424868318118063351e-05
1.491987487955413583e+00	3.842339156021113768e-06	-2.452667575019799851e-04	1.423736806631296231e-02	8.407522954074715393e-01	1.172375370005231732e+00	1.000096084076107283e+00	-4.954935790597035476e-03	3.676180406021778321e-05	1.272884122673111421e-05
1.512014165646090147e+00	3.390022890102103012e-06	-2.288582484013933910e-04	1.482735686798346796e-02	8.412152869092772711e-01	1.170066086383572790e+00	1.000096174021960715e+00	-5.527648837241988002e-03	3.658768177436101362e-05	1.153728523797114125e-05
1.532040843336766933e+00	3.035293397031166211e-06	-2.152896721644394424e-04	1.532325408698010510e-02	8.416177484410322096e-01	1.167808049457629949e+00	1.000096387823532496e+00	-6.071240868143448072e-03	3.642293346130993529e-05	1.060797876012566490e-05
1.552067521027443719e+00	2.756575525290215985e-06	-2.041203838659693022e-04	1.571832148299637938e-02	8.419685006260111404e-01	1.165603581836702096e+00	1.000096710692709445e+00	-6.574655515132009527e-03	3.626683847398744042e-05	9.888258229006316151e-06
1.572094198718120284e+00	2.537168568518915195e-06	-1.949652037507193546e-04	1.601115167805137671e-02	8.422742816970644197e-01	1.163454301538854541e+00	1.000097126090778943e+00	-7.031098282710334692e-03	3.611871998813367658e-05	9.336318470189107049e-06
1.592120876408797070e+00	2.364150246808561025e-06	-1.874903732166891706e-04	1.620508102427021049e-02	8.425421979823011220e-01	1.161361227044358513e+00	1.000097617955108653e+00	-7.437600119461248993e-03	3.597796163558263072e-05	8.919050886668257122e-06
1.612147554099473634e+00	2.227510342663836968e-06	-1.814098466660260772e-04	1.630717205924850019e-02	8.427772251973195683e-01	1.159324872639581061e+00	1.000098170314295487e+00	-7.794246546371523879e-03	3.584399438494466128e-05	8.610240553920228657e-06
1.632174231790150420e+00	2.119476009712691721e-06	-1.764804032552091907e-04	1.632702744717751120e-02	8.429853276104861681e-01	1.157345324999648817e+00	1.000098769089494022e+00	-8.103296590689128970e-03	3.571630745236380156e-05	8.389099017720279549e-06
1.652200909480826985e+00	2.033992368928593093e-06	-1.724968804353716454e-04	1.627562162833431567e-02	8.431693631841120640e-01	1.155422316371729652e+00	1.000099401149554756e+00	-8.368374000275811964e-03	3.559443317750564357e-05	8.239093151137899355e-06
1.672227587171503771e+00	1.966325534002039872e-06	-1.692874209422185350e-04	1.616431636020233820e-02	8.433350381984022759e-01	1.153555283660862241e+00	1.000100055736083515e+00	-8.593799231920251289e-03	3.547795665607287376e-05	8.147023886353973082e-06
1.692254264862180557e+00	1.912760570144000299e-06	-1.667087049724410772e-04	1.600410560108527988e-02	8.434830132959383331e-01	1.151743427543731713e+00	1.000100723119776269e+00	-8.784133100433317437e-03	3.536650033943482073e-05	8.102308826317073184e-06
1.712280942552857121e+00	1.870371783176850257e-06	-1.646423239876242182e-04	1.580512076456958015e-02	8.436183751031168798e-01	1.149985758577017458e+00	1.000101395857902364e+00	-8.943832491930784820e-03	3.525973195881402388e-05	8.096426909183556477e-06
1.732307620243533908e+00	1.836847821912180446e-06	-1.629903024822374283e-04	1.557634471144569814e-02	8.437404485107308227e-01	1.148281144114730479e+00	1.000102067248527682e+00	-9.077107672486385212e-03	3.515735041085023407e-05	8.122489365896266752e-06
1.752334297934210472e+00	1.810357901242770153e-06	-1.616726657017813714e-04	1.532550555464221899e-02	8.438545355371619427e-01	1.146628342222554053e+00	1.000102732582023091e+00	-9.187777213002410251e-03	3.505909067878643765e-05	8.174907731223390175e-06
1.772360975624887258e+00	1.789449003012829117e-06	-1.606237214883648578e-04	1.505908324136817113e-02	8.439579638751313340e-01	1.145026037055490775e+00	1.000103387508601172e+00	-9.279276833207471264e-03	3.496471288040896628e-05	8.249135801730926002e-06
1.792387653315563822e+00	1.772966319418708200e-06	-1.597903803812485396e-04	1.478239758912763130e-02	8.440569196146020525e-01	1.143472861762683923e+00	1.000104029360906477e+00	-9.354609946291258735e-03	3.487400442390912027e-05	8.341467724064564144e-06
1.812414331006240609e+00	1.759991327151256654e-06	-1.591291674018097948e-04	1.449973248364740466e-02	8.441465339322666850e-01	1.141967424001935738e+00	1.000104655479928883e+00	-9.416415941104504250e-03	3.478677257430964328e-05	8.448878735422378226e-06
1.832441008696917395e+00	1.749793243506612641e-06	-1.586054984428247785e-04	1.421447877483390451e-02	8.442342828588952353e-01	1.140508319905416679e+00	1.000105264634141733e+00	-9.466935833143388587e-03	3.470284385359413237e-05	8.568898465386572355e-06
1.852467686387593959e+00	1.741790770460019539e-06	-1.581909376554947537e-04	1.392927582219956675e-02	8.443135061206766823e-01	1.139094151996991711e+00	1.000105855314300296e+00	-9.508119050998367627e-03	3.462206184835488963e-05	8.699509304804921189e-06
1.872494364078270745e+00	1.735521801085532686e-06	-1.578632024739627291e-04	1.364614160852449347e-02	8.443933739510108838e-01	1.137723536464809060e+00	1.000106427252539287e+00	-9.541585194162980829e-03	3.454428176255606303e-05	8.839064260445254887e-06
1.892521041768947310e+00	1.730619311836372889e-06	-1.576039663769284328e-04	1.336659200808496505e-02	8.444647723755985824e-01	1.136395115602293115e+00	1.000106979683259789e+00	-9.568727318618363425e-03	3.446937476950809537e-05	8.986220140226660339e-06
1.912547719459624096e+00	1.726792164990653188e-06	-1.573990709729716287e-04	1.309173749039749084e-02	8.445378826842476760e-01	1.135107560333986410e+00	1.000107512957933764e+00	-9.590682724434756654e-03	3.439721753547229764e-05	9.139882925204570466e-06
1.932574397150300882e+00	1.723809727957740515e-06	-1.572368068313406133e-04	1.282237193175555026e-02	8.446030749263363502e-01	1.133859578910548338e+00	1.000108026765705205e+00	-9.608423956283758394e-03	3.432770258077971293e-05	9.299162946107374022e-06
1.952601074840977446e+00	1.721489614354308768e-06	-1.571082308306503441e-04	1.255903628012962694e-02	8.446715125148288594e-01	1.132649916189184536e+00	1.000108521837656417e+00	-9.622734823012081204e-03	3.426072269783790120e-05	9.463338005934548601e-06
1.972627752531654233e+00	1.719687815872342057e-06	-1.570059959261884883e-04	1.230208129842353011e-02	8.447313738052837362e-01	1.131477359859938137e+00	1.000108998120370796e+00	-9.634276532349383970e-03	3.419618688541194032e-05	9.631823006497856814e-06
1.992654430222330797e+00	1.718290864214130379e-06	-1.569245202361558482e-04	1.205170558610216616e-02	8.447954529208816510e-01	1.130340737574176302e+00	1.000109456563978760e+00	-9.643577983243986629e-03	3.413400068843369401e-05	9.804144913068821900e-06
2.012681107913007583e+00	1.717209497276419975e-06	-1.568592006412404896e-04	1.180799905970734802e-02	8.448508753682981709e-01	1.129238921650457694e+00	1.000109897242345891e+00	-9.651082993344960170e-03	3.407408619787706896e-05	9.979922133768477074e-06
2.032707785603684147e+00	1.716373665575112147e-06	-1.568066139722070623e-04	1.157096301911544542e-02	8.449115612564277455e-01	1.128170824809597406e+00	1.000110321220752274e+00	-9.657141019235681786e-03	3.401635898386903980e-05	1.015884754347732872e-05
2.052734463294360712e+00	1.715728476978733550e-06	-1.567638714097945593e-04	1.134054084020391824e-02	8.449631436183766553e-01	1.127135403980504602e+00	1.000110728617785050e+00	-9.662047050974748724e-03	3.396075190105355882e-05	1.034067453552476952e-05
2.072761140985037720e+00	1.715231039062228491e-06	-1.567289275705478172e-04	1.111662593013587955e-02	8.450208453630694283e-01	1.126131655187423863e+00	1.000111120549084465e+00	-9.666026639394913189e-03	3.390718841453703675e-05	1.052520557405485781e-05
2.092787818675714284e+00	1.714847871696234387e-06	-1.566999360453462397e-04	1.089908460950459249e-02	8.450691671082871670e-01	1.125158616894231134e+00	1.000111497127358584e+00	-9.669275849558282843e-03	3.385561055993979214e-05	1.071228282535045032e-05
2.112814496366390848e+00	1.714552932602027826e-06	-1.566757458233939836e-04	1.068775589955783638e-02	8.451238091616081194e-01	1.124215364354108848e+00	1.000111859480134813e+00	-9.671934825573626909e-03	3.380594791625082926e-05	1.090178050053558185e-05
2.132841174057067857e+00	1.714325970172441527e-06	-1.566551497635711567e-04	1.048247021208529792e-02	8.451692279372341465e-01	1.123301012808762378e+00	1.000112207684792143e+00	-9.674134276098018612e-03	3.375815077176435409e-05	1.109359861899931575e-05
2.152867851747744421e+00	1.714151308820044797e-06	-1.566374752764212173e-04	1.028304333628165222e-02	8.452214195048726175e-01	1.122414711511835250e+00	1.000112542859225906e+00	-9.675962734364487380e-03	3.371215338151703305e-05	1.128765793488831185e-05
2.172894529438420985e+00	1.714016799550020924e-06	-1.566220417349416531e-04	1.008929326420455845e-02	8.452641732065325764e-01	1.121555646948331209e+00	1.000112865029579412e+00	-9.677499742987091119e-03	3.366791312722670567e-05	1.148389582682667130e-05
2.192921207129097994e+00	1.713913088043555974e-06	-1.566084188088844660e-04	9.901030424438831204e-03	8.453136402262985127e-01	1.120723036690139729e+00	1.000113175293308121e+00	-9.678803047652747779e-03	3.362536876171138363e-05	1.168226297031840231e-05
2.212947884819774558e+00	1.713832944925602321e-06	-1.565962040852270738e-04	9.718073285029407010e-03	8.453536597356686721e-01	1.119916132723289603e+00	1.000113473617901594e+00	-9.679922014214239687e-03	3.358448357662190408e-05	1.188272065666607551e-05
2.232974562510451122e+00	1.713770836564528071e-06	-1.565850612823438837e-04	9.540236463461079092e-03	8.454011560795102742e-01	1.119134215220408013e+00	1.000113761076110164e+00	-9.680898148908184675e-03	3.354520016409795474e-05	1.208523863342512562e-05
2.253001240201127686e+00	1.713722494543650379e-06	-1.565748924973239928e-04	9.367345551029785181e-03	8.454386535737701269e-01	1.118376596049219573e+00	1.000114037574375336e+00	-9.681752850191596010e-03	3.350748647804682067e-05	1.228979337381486692e-05
2.273027917891804695e+00	1.713684672825675736e-06	-1.565653650528848150e-04	9.199224462063846156e-03	8.454841414677198852e-01	1.117642612498279675e+00	1.000114304160348633e+00	-9.682520146221149787e-03	3.347128944495206108e-05	1.249636668989028000e-05
2.293054595582481259e+00	1.713654869850064137e-06	-1.565565156584031810e-04	9.035708942945586131e-03	8.455195798788972539e-01	1.116931630998515335e+00	1.000114560679891129e+00	-9.683207564876238765e-03	3.343658039553977799e-05	1.270494462672405985e-05
2.313081273273157823e+00	1.713631197051570093e-06	-1.565481287078700245e-04	8.876634390767759730e-03	8.455627820459592492e-01	1.116243040816012888e+00	1.000114808157354540e+00	-9.683836937693859545e-03	3.340331050072973369e-05	1.291551658143107980e-05
2.333107950963834831e+00	1.713612197424379050e-06	-1.565401831689814088e-04	8.721848024700357138e-03	8.455961838776945294e-01	1.115576258024544076e+00	1.000115046380064099e+00	-9.684415727592288539e-03	3.337145432919043543e-05	1.312807460339572365e-05
2.353134628654511395e+00	1.713596781613514078e-06	-1.565325759387906621e-04	8.571197087689531868e-03	8.456374137614293129e-01	1.114930719135045045e+00	1.000115276352053995e+00	-9.684955455850473988e-03	3.334096611087337893e-05	1.334261284039083619e-05
2.373161306345187960e+00	1.713584104501816974e-06	-1.565253443925474896e-04	8.424540542455258990e-03	8.456685716587515333e-01	1.114305885354401005e+00	1.000115497804711762e+00	-9.685457628749040426e-03	3.331182380118052428e-05	1.355912709989344576e-05
2.393187984035864524e+00	1.713573542648822733e-06	-1.565182933221990710e-04	8.281737320081356338e-03	8.457082495950107859e-01	1.113701236158105123e+00	1.000115711725136247e+00	-9.685937856817027417e-03	3.328398456820531154e-05	1.377761450442815410e-05
2.413214661726541532e+00	1.713564607413880450e-06	-1.565115528862516937e-04	8.142657436414289449e-03	8.457376650676169394e-01	1.113116273782666976e+00	1.000115917791890574e+00	-9.686389975346577919e-03	3.325742846318980385e-05	1.399807321863479604e-05
2.433241339417218096e+00	1.713556944157961141e-06	-1.565049778622631591e-04	8.007171065146043501e-03	8.457755394978508923e-01	1.112550516779849952e+00	1.000116116978548408e+00	-9.686825278839909098e-03	3.323211594940211449e-05	1.422050223749876943e-05
2.453268017107894661e+00	1.713550269785567483e-06	-1.564986869496938027e-04	7.875158656254453715e-03	8.458033773045354753e-01	1.112003504736344128e+00	1.000116308913855390e+00	-9.687237673376720287e-03	3.320802922804081607e-05	1.444490121687332203e-05
2.473294694798571669e+00	1.713544383688317761e-06	-1.564925212777129625e-04	7.746500804317022620e-03	8.458395832505856138e-01	1.111474791767230963e+00	1.000116494561210212e+00	-9.687638288200519157e-03	3.318513169648724714e-05	1.467127034534217922e-05
2.493321372489248233e+00	1.713539120839199389e-06	-1.564866160225770303e-04	7.621087522287267602e-03	8.458656408585865094e-01	1.110963951489632562e+00	1.000116673502279729e+00	-9.688019526068205461e-03	3.316340718537356789e-05	1.489961023904519261e-05
2.513348050179924797e+00	1.713534368024617882e-06	-1.564807959418389877e-04	7.498809014324188914e-03	8.459003671902904919e-01	1.110470570432387838e+00	1.000116846693560824e+00	-9.688392986371524920e-03	3.314282191828969693e-05	1.512992186527904631e-05
2.533374727870601362e+00	1.713530027823954857e-06	-1.564751893855688544e-04	7.379563981213331514e-03	8.459249853690171683e-01	1.109994253257760910e+00	1.000117013672163546e+00	-9.688751174417841935e-03	3.312336086001801581e-05	1.536220647676165906e-05
2.553401405561278370e+00	1.713526036206463631e-06	-1.564697157941882539e-04	7.263251424355030364e-03	8.459578599726095272e-01	1.109534616075884328e+00	1.000117175390585533e+00	-9.689099604176625025e-03	3.310499290244193999e-05	1.559646556733206298e-05
2.573428083251954934e+00	1.713522333849217021e-06	-1.564644031981596588e-04	7.149778125026916634e-03	8.459812621510616193e-01	1.109091291907082333e+00	1.000117331343712168e+00	-9.689436809325177244e-03	3.308770471198165089e-05	1.583270082983720100e-05
2.593454760942631498e+00	1.713518884757449137e-06	-1.564592055686414151e-04	7.039050914400905509e-03	8.460125430147037440e-01	1.108663923901432646e+00	1.000117482482690834e+00	-9.689765819648744199e-03	3.307146680876175276e-05	1.607091413166971704e-05
2.613481438633308507e+00	1.713515651096086472e-06	-1.564542069282817368e-04	6.930983984002204307e-03	8.460343779753529692e-01	1.108252171024575405e+00	1.000117628262212177e+00	-9.690081610036793344e-03	3.305626766162799964e-05	1.631110748669050786e-05
2.633508116323985071e+00	1.713512612282335981e-06	-1.564492810320385074e-04	6.825491404345422966e-03	8.460643745240982172e-01	1.107855701176347907e+00	1.000117769634493614e+00	-9.690392468230850723e-03	3.304207980947651861e-05	1.655328304292198825e-05
2.653534794014661635e+00	1.713509743215019595e-06	-1.564445340514703864e-04	6.722493934791289039e-03	8.460854009611015192e-01	1.107474197092797485e+00	1.000117906015867142e+00	-9.690691458422152210e-03	3.302889256299100203e-05	1.679744306266113297e-05
2.673561471705338199e+00	1.713507031722905112e-06	-1.564398908154576110e-04	6.621912289020291838e-03	8.461136341888932932e-01	1.107107349360761273e+00	1.000118038361744066e+00	-9.690983620282910341e-03	3.301668058451161643e-05	1.704358991779836616e-05
2.693588149396015208e+00	1.713504459942649374e-06	-1.564353984179385492e-04	6.523673286812465937e-03	8.461334671292621845e-01	1.106754862538992690e+00	1.000118166051690904e+00	-9.691266081910373045e-03	3.300543435141803931e-05	1.729172607437020454e-05
2.713614827086691772e+00	1.713502020648340941e-06	-1.564309849003410978e-04	6.427703582906584868e-03	8.461602609277797393e-01	1.106416448031580346e+00	1.000118290046396963e+00	-9.691543180130027593e-03	3.299512996909637627e-05	1.754185409289629854e-05
2.733641504777368336e+00	1.713499700316750255e-06	-1.564267391605255483e-04	6.333935506756647668e-03	8.461790394118628988e-01	1.106091830450511848e+00	1.000118409689907173e+00	-9.691809585658239801e-03	3.298575892912348107e-05	1.779397661506562620e-05
2.753668182468045345e+00	1.713497494299572895e-06	-1.564225221653506998e-04	6.242301213018680399e-03	8.462047466060371725e-01	1.105780740352405367e+00	1.000118525949938997e+00	-9.692074046454848824e-03	3.297729910423896865e-05	1.804809636758924620e-05
2.773694860158721909e+00	1.713495392134359540e-06	-1.564185151992774920e-04	6.152737921988442327e-03	8.462226699517909623e-01	1.105482920803036562e+00	1.000118638136388016e+00	-9.692325248637310292e-03	3.296974222396221164e-05	1.830421614985085226e-05
2.793721537849398473e+00	1.713493390085545181e-06	-1.564145771215883765e-04	6.065183012689443279e-03	8.462467086617813106e-01	1.105198119980911109e+00	1.000118747225501092e+00	-9.692572111111505406e-03	3.296306890614371274e-05	1.856233883982032017e-05
2.813748215540075037e+00	1.713491479912264110e-06	-1.564107050802398006e-04	5.979578116436422286e-03	8.462638283060978095e-01	1.104926097973718324e+00	1.000118852494011001e+00	-9.692814490978300668e-03	3.295727080442783542e-05	1.882246738253654989e-05
2.833774893230752046e+00	1.713489659080054202e-06	-1.564069911791313042e-04	5.895865051550367407e-03	8.462869323113165754e-01	1.104666619197793409e+00	1.000118954928304937e+00	-9.693046771900333883e-03	3.295232930373948147e-05	1.908460479710708500e-05
2.853801570921428610e+00	1.713487919815131881e-06	-1.564033908490356450e-04	5.813989936017322120e-03	8.463022203200574189e-01	1.104419459463716446e+00	1.000119053772663191e+00	-9.693272077674916151e-03	3.294823845242982947e-05	1.934875416547098738e-05
2.873828248612105174e+00	1.713486260612313035e-06	-1.563998474225257516e-04	5.733898566470010082e-03	8.463241565470877026e-01	1.104184398185433791e+00	1.000119150025128523e+00	-9.693493897112116439e-03	3.294497990770322681e-05	1.961491864071061224e-05
2.893854926302782182e+00	1.713484674696774043e-06	-1.563964993525953772e-04	5.655540877841613336e-03	8.463386087063337060e-01	1.103961225677162705e+00	1.000119242898326544e+00	-9.693703305892328523e-03	3.294254835602163892e-05	1.988310143551503295e-05
2.913881603993458747e+00	1.713483160532242777e-06	-1.563930868131301489e-04	5.578866632926179382e-03	8.463598891129912039e-01	1.103749735231531748e+00	1.000119333402947674e+00	-9.693916424727926778e-03	3.294092753042961142e-05	2.015330583122892791e-05
2.933908281684135311e+00	1.713481713003220030e-06	-1.563899161392176529e-04	5.503828872268064741e-03	8.463731951939875708e-01	1.103549730610924762e+00	1.000119420720718910e+00	-9.694114562522665804e-03	3.294011040866387351e-05	2.042553516634002043e-05
2.953934959374811875e+00	1.713480329705008488e-06	-1.563867017849221430e-04	5.430381351820821358e-03	8.463936043882870353e-01	1.103361017927260601e+00	1.000119505876254644e+00	-9.694315362448498521e-03	3.294008479067245525e-05	2.069979284623383201e-05
2.973961637065488883e+00	1.713479007114359148e-06	-1.563837032064088577e-04	5.358479883404946610e-03	8.464062827784608611e-01	1.103183413410447233e+00	1.000119588020768058e+00	-9.694502750601668301e-03	3.294084152206425787e-05	2.097608233139865031e-05
2.993988314756165448e+00	1.713477742115312448e-06	-1.563807092786393110e-04	5.288081846485330646e-03	8.464250998402128578e-01	1.103016735062619436e+00	1.000119668193939271e+00	-9.694689762180005999e-03	3.294237206023344967e-05	2.125440714765501390e-05
3.014014992446842012e+00	1.713476532397604870e-06	-1.563778349343775196e-04	5.219145672707848314e-03	8.464374575535131839e-01	1.102860810680263537e+00	1.000119745516828695e+00	-9.694869243569773781e-03	3.294466562131972824e-05	2.153477087430600258e-05
3.034041670137519020e+00	1.713475374703387822e-06	-1.563750530223234766e-04	5.151631846651481828e-03	8.464552852587959864e-01	1.102715469297385953e+00	1.000119821045237778e+00	-9.695042764480911804e-03	3.294771576617238761e-05	2.181717715470501349e-05
3.054068347828195584e+00	1.713474267083153354e-06	-1.563723588429411740e-04	5.085501528630349648e-03	8.464666254860766514e-01	1.102580549458239245e+00	1.000119893870446530e+00	-9.695210944801944258e-03	3.295151212516209859e-05	2.210162968431126170e-05
3.074095025518872148e+00	1.713473206621432908e-06	-1.563696823080045633e-04	5.020717837881711124e-03	8.464836285936846449e-01	1.102455890448626574e+00	1.000119965065247030e+00	-9.695378143338134053e-03	3.295604886437994370e-05	2.238813222150255893e-05
3.094121703209549157e+00	1.713472191886125646e-06	-1.563671492479846059e-04	4.957244350008781913e-03	8.464944102484663890e-01	1.102341340807216241e+00	1.000120033691440868e+00	-9.695536185837570417e-03	3.296131533297355762e-05	2.267668857571002519e-05
3.114148380900225721e+00	1.713471219703604095e-06	-1.563646130412958235e-04	4.895046879408959835e-03	8.465105180326732981e-01	1.102236749359160939e+00	1.000120100839687165e+00	-9.695694308461302868e-03	3.296730802474451630e-05	2.296730261836590496e-05
3.134175058590902285e+00	1.713470289377480543e-06	-1.563622479254040071e-04	4.834091083811954334e-03	8.465201881683671603e-01	1.102141973958241206e+00	1.000120165542533357e+00	-9.695841995636495306e-03	3.297401504112790237e-05	2.325997827089542163e-05
3.154201736281578849e+00	1.713469397302325368e-06	-1.563598937583241704e-04	4.774345374357772363e-03	8.465353387441622024e-01	1.102056872305547275e+00	1.000120228909322950e+00	-9.695988880642370661e-03	3.298143587881997087e-05	2.355471951612568787e-05
3.174228413972255858e+00	1.713468543562318398e-06	-1.563576434537999882e-04	4.715777264015248021e-03	8.465444414666413175e-01	1.101981310937475200e+00	1.000120289943551510e+00	-9.696129153494896860e-03	3.298955696359073169e-05	2.385153038580756189e-05
3.194255091662932422e+00	1.713467724419578411e-06	-1.563554581486945223e-04	4.658357431958055385e-03	8.465586026859669433e-01	1.101915155837293270e+00	1.000120349773963024e+00	-9.696265494421700548e-03	3.299837978940540112e-05	2.415041497273231138e-05
3.214281769353608986e+00	1.713466940226593510e-06	-1.563533713171352140e-04	4.602055318617286929e-03	8.465672955207130812e-01	1.101858281651011850e+00	1.000120407375083120e+00	-9.696395880466546907e-03	3.300789062685765478e-05	2.445137741777906018e-05
3.234308447044285995e+00	1.713466187341857669e-06	-1.563512920785499526e-04	4.546843594543218542e-03	8.465807470716696370e-01	1.101810562083055389e+00	1.000120463895821432e+00	-9.696525527737937661e-03	3.301809217163079597e-05	2.475442192234978078e-05
3.254335124734962559e+00	1.713465466582736295e-06	-1.563493279103783109e-04	4.492693362359474751e-03	8.465888154303988777e-01	1.101771879363121487e+00	1.000120518281880866e+00	-9.696647916157020985e-03	3.302896963825411859e-05	2.505955273554440917e-05
3.274361802425639123e+00	1.713464774076775171e-06	-1.563473948805774952e-04	4.439579299149344106e-03	8.466014190763390124e-01	1.101742114415261264e+00	1.000120571702883820e+00	-9.696768628962550152e-03	3.304052807002270920e-05	2.536677416640591560e-05
3.294388480116315687e+00	1.713464111036030163e-06	-1.563455550896262905e-04	4.387474053412158091e-03	8.466088517072314357e-01	1.101721156560954373e+00	1.000120623075868798e+00	-9.696883544227975077e-03	3.305275169650786978e-05	2.567609057126941694e-05
3.314415157806992696e+00	1.713463473525801992e-06	-1.563437945099525157e-04	4.336354095224420092e-03	8.466208790992409972e-01	1.101708893474773188e+00	1.000120673591807785e+00	-9.696993358783935826e-03	3.306564735957014063e-05	2.598750636624932945e-05
3.334441835497669260e+00	1.713462862889189298e-06	-1.563421124670077002e-04	4.286193620808140779e-03	8.466273995290020116e-01	1.101705221120577782e+00	1.000120722139021145e+00	-9.697098274276394481e-03	3.307919919039607667e-05	2.630102601410637376e-05
3.354468513188345824e+00	1.713462275372285631e-06	-1.563404341275633359e-04	4.236970631027001111e-03	8.466387550266100126e-01	1.101710033496810626e+00	1.000120769930418652e+00	-9.697203044482289105e-03	3.309341478549075434e-05	2.661665403742117663e-05
3.374495190879022832e+00	1.713461712660052550e-06	-1.563388686296696638e-04	4.188660627884148620e-03	8.466447265282893708e-01	1.101723232799764363e+00	1.000120815825681131e+00	-9.697300899571313984e-03	3.310827712659010383e-05	2.693439500506440370e-05
3.394521868569699397e+00	1.713461170764030654e-06	-1.563373145211495669e-04	4.141243263404786011e-03	8.466550886509207619e-01	1.101744718951900071e+00	1.000120861060165511e+00	-9.697398008757482021e-03	3.312379634125145331e-05	2.725425354574692851e-05
3.414548546260375961e+00	1.713460651758992632e-06	-1.563358693924177983e-04	4.094695200102245296e-03	8.466607491201438851e-01	1.101774399998723286e+00	1.000120904464929295e+00	-9.697488235956657626e-03	3.313995387170386869e-05	2.757623433405003314e-05
3.434575223951052525e+00	1.713460151471197398e-06	-1.563344119880330149e-04	4.048997608565968812e-03	8.466704055929132888e-01	1.101812181425090298e+00	1.000120947298287044e+00	-9.697579212988111097e-03	3.315676219782872253e-05	2.790034210456343507e-05
3.454601901641729533e+00	1.713459672387913369e-06	-1.563331360749838095e-04	4.004128185995291245e-03	8.466753475530514050e-01	1.101857976770839631e+00	1.000120988362628083e+00	-9.697659059970742748e-03	3.317420087889631921e-05	2.822658163731643570e-05
3.474628579332406098e+00	1.713459209871897104e-06	-1.563318031127883809e-04	3.960069715379972363e-03	8.466842742649157705e-01	1.101911696736872948e+00	1.000121028939726209e+00	-9.697742330843443434e-03	3.319228636077674902e-05	2.855495777296746061e-05
3.494655257023082662e+00	1.713458767187298486e-06	-1.563305905972027510e-04	3.916800587161064356e-03	8.466890980809426148e-01	1.101973260046217318e+00	1.000121067803266817e+00	-9.697818254782967703e-03	3.321099411427352790e-05	2.888547539678866554e-05
3.514681934713759670e+00	1.713458339294827342e-06	-1.563293951837466209e-04	3.874305085841761413e-03	8.466968899663774861e-01	1.102042582300185147e+00	1.000121106258954118e+00	-9.697892990409111985e-03	3.323034444107531043e-05	2.921813945568236076e-05
3.534708612404436234e+00	1.713457929772213624e-06	-1.563283173287320692e-04	3.832562490598699547e-03	8.467013609574732813e-01	1.102119587088144836e+00	1.000121143051673211e+00	-9.697960567055543407e-03	3.325031087452057904e-05	2.955295494029605604e-05
3.554735290095112799e+00	1.713457533385652397e-06	-1.563271781422147070e-04	3.791558351151535361e-03	8.467085942704092316e-01	1.102204194653901626e+00	1.000121179511481273e+00	-9.698031982194751932e-03	3.327091636652797224e-05	2.988992690371309647e-05
3.574761967785789363e+00	1.713457154343768313e-06	-1.563261617118338182e-04	3.751272588609351304e-03	8.467126384960418362e-01	1.102296333148500507e+00	1.000121214354535049e+00	-9.698095549909632046e-03	3.329213088650575462e-05	3.022906044267951550e-05
3.594788645476466371e+00	1.713456786929086650e-06	-1.563251171120872991e-04	3.711692130524233725e-03	8.467191814294431351e-01	1.102395927172873380e+00	1.000121248935524676e+00	-9.698161133378149085e-03	3.331398171175883915e-05	3.057036071635195045e-05
3.614815323167142935e+00	1.713456435751054615e-06	-1.563242506486789527e-04	3.672797555436472638e-03	8.467224653535160295e-01	1.102502909229597927e+00	1.000121281941824591e+00	-9.698215506580719694e-03	3.333643584393317658e-05	3.091383292797903040e-05
3.634842000857819500e+00	1.713456094635374406e-06	-1.563232973632282393e-04	3.634577137269916301e-03	8.467287358321300417e-01	1.102617208001533067e+00	1.000121314753174451e+00	-9.698275383256222890e-03	3.335952538488216900e-05	3.125948234354410040e-05
3.654868678548496508e+00	1.713455768936296290e-06	-1.563225317610270830e-04	3.597011803176919289e-03	8.467317400681028117e-01	1.102738760101358961e+00	1.000121346028030267e+00	-9.698323557339740345e-03	3.338321199645707325e-05	3.160731427308266636e-05
3.674895356239173072e+00	1.713455451832385479e-06	-1.563216856817925234e-04	3.560091244954383203e-03	8.467372566747685125e-01	1.102867498066606222e+00	1.000121377171735659e+00	-9.698376736387176802e-03	3.340753398281871720e-05	3.195733408995765640e-05
3.694922033929849636e+00	1.713455149394444421e-06	-1.563210153731910384e-04	3.523796676482433918e-03	8.467396460791417612e-01	1.103003362389669340e+00	1.000121406813530234e+00	-9.698419072670123181e-03	3.343244739920437546e-05	3.230954721136638732e-05
3.714948711620526201e+00	1.713454854201113269e-06	-1.563203053059564272e-04	3.488119128467675328e-03	8.467444176545750878e-01	1.103146289259115731e+00	1.000121436384768137e+00	-9.698463864933492065e-03	3.345799677054169750e-05	3.266395911879535323e-05
3.734975389311203209e+00	1.713454572901167824e-06	-1.563197053381688720e-04	3.453040129690158888e-03	8.467468834105847941e-01	1.103296222836077423e+00	1.000121464485367762e+00	-9.698501813402399252e-03	3.348413309436815453e-05	3.302057533741849363e-05
3.755002067001879773e+00	1.713454297778251864e-06	-1.563191044898386078e-04	3.418551796415109784e-03	8.467506326777899384e-01	1.103453102764383242e+00	1.000121492573088355e+00	-9.698539904161052397e-03	3.351090539621635607e-05	3.337940145755595325e-05
3.775028744692556337e+00	1.713454035778305124e-06	-1.563185378250533898e-04	3.384636103998066563e-03	8.467532414926555173e-01	1.103616876678971792e+00	1.000121519218422517e+00	-9.698575773443058809e-03	3.353826115960354212e-05	3.374044311319415322e-05
3.795055422383233346e+00	1.713453779175480587e-06	-1.563180375185193411e-04	3.351286006336161392e-03	8.467563309209805711e-01	1.103787487488539165e+00	1.000121545905845455e+00	-9.698607651430752805e-03	3.356625207609058190e-05	3.410370600406153639e-05
3.815082100073909910e+00	1.713453534804485624e-06	-1.563175356755193781e-04	3.318484153703361254e-03	8.467584221521204935e-01	1.103964886133460777e+00	1.000121571176257884e+00	-9.698639549659618386e-03	3.359482470541211958e-05	3.446919587395844234e-05
3.835108777764586474e+00	1.713453295205537278e-06	-1.563171104366934284e-04	3.286224103530607180e-03	8.467609120191733618e-01	1.104149018607590405e+00	1.000121596541259095e+00	-9.698666800531545451e-03	3.362403157428156205e-05	3.483691853298466143e-05
3.855135455455263482e+00	1.713453066979086640e-06	-1.563167063186927008e-04	3.254489224412040766e-03	8.467626134551161643e-01	1.104339838989261580e+00	1.000121620511995824e+00	-9.698692897607007896e-03	3.365381916744134922e-05	3.520687983556509612e-05
3.875162133145940047e+00	1.713452842942549696e-06	-1.563163976111258129e-04	3.223273670298175061e-03	8.467648485488133980e-01	1.104537296173608185e+00	1.000121644627578243e+00	-9.698711044195944264e-03	3.368424119683281558e-05	3.557908570381645920e-05
3.895188810836616611e+00	1.713452629071074523e-06	-1.563160530023717911e-04	3.192561467910758326e-03	8.467667468916083573e-01	1.104741347373054738e+00	1.000121667369506584e+00	-9.698741176875594339e-03	3.371524389224943925e-05	3.595354209980808309e-05
3.915215488527293175e+00	1.713452441197890978e-06	-1.563158475041792454e-04	3.162347147734380966e-03	8.467679532474657877e-01	1.104951936279811253e+00	1.000121690308657829e+00	-9.698192044751660287e-03	3.374688023231743985e-05	3.633025527503673811e-05
3.935242166217970183e+00	1.713452048880507370e-06	-1.563157104299676178e-04	3.132616136440139528e-03	8.467686741676550000e-01	1.105169106463807394e+00	1.000121711919189860e+00	-9.703154929365668049e-03	3.377910450439041454e-05	3.670922904382943201e-05
3.955268843908646748e+00	1.713451912680172361e-06	-1.563157591402767330e-04	3.103364607145601538e-03	8.467682948205765836e-01	1.105392707179249534e+00	1.000121734423006892e+00	-9.711678463125178462e-03	3.381198523035989329e-05	3.709047615584421068e-05
3.975295521599323312e+00	1.713453187947872750e-06	-1.563159419420599380e-04	3.074576648156079027e-03	8.467676647186497263e-01	1.105622102070459745e+00	1.000121756596149325e+00	-9.663438085129179636e-03	3.384545046493048567e-05	3.747400780886574412e-05
3.995322199289999876e+00	1.714584732784533302e-06	-1.563742332470209584e-04	3.045531353289996409e-03	8.467602883468580144e-01	1.105725138389047624e+00	1.000000000000000000e+00	-1.000000000000000021e-02	3.387174561589884471e-05	3.787100112148618141e-05
