# Time=0.0130002600052 and Columns are r	p	Paether	ur	alpha	a	b	K	Sr_tilde	tau_tilde
1.001333884533834630e-02	1.199341609644804206e-02	-1.855362195689820928e-02	2.119022535354014186e-05	6.416007119436600847e-01	1.000077267472410769e+00	1.000029945806025777e+00	-1.153559598967483779e-02	2.393543140429216799e-10	1.503385323644995994e-06
3.004001653601504063e-02	1.196489719988377137e-02	-1.853261341229309883e-02	6.355481964165041761e-05	6.417800546101417591e-01	1.000455688256508102e+00	1.000029955516762437e+00	-1.153136731302666779e-02	6.453221099814465160e-09	1.350340222077604160e-05
5.006669422669172975e-02	1.190803153531738538e-02	-1.849062919357724252e-02	1.058577271580480759e-04	6.421385641846568682e-01	1.001211665728550582e+00	1.000029973728478572e+00	-1.152082081294325544e-02	2.978563013146114529e-08	3.735939042406684118e-05
7.009337191736843276e-02	1.182319292160514956e-02	-1.842775588725954761e-02	1.480515851642261660e-04	6.426757760422899812e-01	1.002343472688755899e+00	1.000030000328937518e+00	-1.150447130612298856e-02	8.135598446258517903e-08	7.278491228207518635e-05
9.012004960804512188e-02	1.171092941239743924e-02	-1.834411842157918776e-02	1.900990974614377076e-04	6.433910181069484313e-01	1.003848499363636071e+00	1.000030035596066735e+00	-1.148302410382960430e-02	1.718528905529232242e-07	1.193544335050318486e-04
1.101467272987218110e-01	1.157196349148198120e-02	-1.823988425147717030e-02	2.319618336383787432e-04	6.442833903354014957e-01	1.005723230922467071e+00	1.000030079403152694e+00	-1.145631604882428253e-02	3.113704410977500637e-07	1.765082382701460703e-04
1.301734049893985001e-01	1.140718546220309895e-02	-1.811526436598398515e-02	2.736041745033765838e-04	6.453517512057143080e-01	1.007963222327653563e+00	1.000030131579842996e+00	-1.142448198538857825e-02	5.092572621758933955e-07	2.435589282769128853e-04
1.502000826800751754e-01	1.121764520360695946e-02	-1.797051418648229135e-02	3.149937375540724067e-04	6.465947205276534326e-01	1.010563063865651312e+00	1.000030191921587042e+00	-1.138764163091405407e-02	7.739782753357363206e-07	3.196994588290811234e-04
1.702267603707518784e-01	1.100454240437252935e-02	-1.780593494653238615e-02	3.561017667304127192e-04	6.480106562676497539e-01	1.013516342348975696e+00	1.000030260194550769e+00	-1.134594104728111133e-02	1.112991585582151605e-06	4.040126505747678115e-04
1.902534380614285814e-01	1.076921542064242232e-02	-1.762187453792932873e-02	3.969037667978466723e-04	6.495976625044076469e-01	1.016815597710742924e+00	1.000030336139504872e+00	-1.129955204491230568e-02	1.532643304482801063e-06	4.954821014704246162e-04
2.102801157521052566e-01	1.051312887073830096e-02	-1.741872917541953739e-02	4.373797568520997113e-04	6.513535565687773587e-01	1.020452276090695998e+00	1.000030419473627141e+00	-1.124867341488450939e-02	2.038080336927816859e-06	5.930044077917955058e-04
2.303067934427819596e-01	1.023786009800738833e-02	-1.719694398938919136e-02	4.775149007024427064e-04	6.532758841334717070e-01	1.024416680553472014e+00	1.000030509894690889e+00	-1.119353241471998835e-02	2.633184591885251235e-06	6.954025864235883125e-04
2.503334711334586626e-01	9.945084642273021094e-03	-1.695701475012401788e-02	5.172996191125622508e-04	6.553618771434549517e-01	1.028697920790541120e+00	1.000030607082537104e+00	-1.113438522855763647e-02	3.320526001503752088e-06	8.014405727126150143e-04
2.703601488241353379e-01	9.636560875870779294e-03	-1.669948799123975938e-02	5.567302233343912003e-04	6.576084755425398720e-01	1.033283863327809415e+00	1.000030710703951664e+00	-1.107151791315501461e-02	4.101339346859476940e-06	9.098386495174050825e-04
2.903868265148120131e-01	9.314113968063062604e-03	-1.642496250046280790e-02	5.958088790300138972e-04	6.600122796045845286e-01	1.038161083980538191e+00	1.000030820413563726e+00	-1.100524585997689556e-02	4.975518454789174956e-06	1.019289643297499300e-03
3.104135042054887439e-01	8.979619354438797205e-03	-1.613408878810702884e-02	6.345442580388022547e-04	6.625695770647159755e-01	1.043314824457335366e+00	1.000030935859210546e+00	-1.093591372640308375e-02	5.941635691140127180e-06	1.128475703250984667e-03
3.304401818961654191e-01	8.634985892963563739e-03	-1.582757001292449395e-02	6.729513543671387975e-04	6.652762938291379990e-01	1.048728955227740567e+00	1.000031056682012087e+00	-1.086389358256706177e-02	6.996975059301401786e-06	1.236085459184493645e-03
3.504668595868420944e-01	8.282138897449704482e-03	-1.550616061479032082e-02	7.110521750978874645e-04	6.681280255813862867e-01	1.054385946885921577e+00	1.000031182522056028e+00	-1.078958345052088465e-02	8.137591517347810637e-06	1.340831334599664826e-03
3.704935372775188251e-01	7.923003240665811575e-03	-1.517066641765410680e-02	7.488754170485973456e-04	6.711199904810383199e-01	1.060266852412373062e+00	1.000031313017332835e+00	-1.071340387329891911e-02	9.358377921999341226e-06	1.441466772970779586e-03
3.905202149681955004e-01	7.559486723721952836e-03	-1.482194225483815520e-02	7.864572246077565021e-04	6.742470648342477890e-01	1.066351302765942810e+00	1.000031447809587970e+00	-1.063579482465840109e-02	1.065315894612627638e-05	1.536803119507686296e-03
4.105468926588721756e-01	7.193463905333151963e-03	-1.446089102816042020e-02	8.238407446635288107e-04	6.775037408728031840e-01	1.072617518317361629e+00	1.000031586541897832e+00	-1.055721061537329315e-02	1.201478467936853021e-05	1.625725887421848636e-03
4.305735703495489064e-01	6.826760583348845217e-03	-1.408846022603142505e-02	8.610769872002499393e-04	6.808841677428141281e-01	1.079042338523038103e+00	1.000031728864584801e+00	-1.047811509542685530e-02	1.343525220718903816e-05	1.707210129405319380e-03
4.506002480402255816e-01	6.461139112591642031e-03	-1.370563981530725957e-02	8.982242877051065761e-04	6.843821154018072672e-01	1.085601272173275067e+00	1.000031874431153822e+00	-1.039897499928984885e-02	1.490581733102561931e-05	1.780334631208471945e-03
4.706269257309022569e-01	6.098284735430977224e-03	-1.331345763251656766e-02	9.353493173427459726e-04	6.879910212282238646e-01	1.092268570239435910e+00	1.000032022904335571e+00	-1.032025358296292765e-02	1.641713590483734683e-05	1.844294647632324950e-03
4.906536034215789877e-01	5.739793087290048432e-03	-1.291297604458608445e-02	9.725264972489793295e-04	6.917039645115838908e-01	1.099017323090697884e+00	1.000032173950166303e+00	-1.024240277716609131e-02	1.795938462335140619e-05	1.898412911226562668e-03
5.106802811122557184e-01	5.387159024868946183e-03	-1.250528632179893039e-02	1.009839218582171683e-03	6.955137158940067899e-01	1.105819583306094644e+00	1.000032327244149366e+00	-1.016585561267467804e-02	1.952241396351975762e-05	1.942148663128269838e-03
5.307069588029323937e-01	5.041766904666540941e-03	-1.209150413363381353e-02	1.047379273394413203e-03	6.994127253503233943e-01	1.112646514844326306e+00	1.000032482463521166e+00	-1.009101775889595723e-02	2.109586926424154775e-05	1.975104482607630170e-03
5.507336364936090689e-01	4.704882418436038931e-03	-1.167276308829962722e-02	1.085248362189151312e-03	7.033931737482104207e-01	1.119468568549808474e+00	1.000032639293599424e+00	-1.001825933468020527e-02	2.266934748073081687e-05	1.997030729032911196e-03
5.707603141842857442e-01	4.377646066670321835e-03	-1.125020926333999798e-02	1.123557630299860770e-03	7.074469755505040647e-01	1.126255683329003832e+00	1.000032797418159758e+00	-9.947906594855055254e-03	2.423251065487480162e-05	2.007827455209347869e-03
5.907869918749625304e-01	4.061068324870471813e-03	-1.082499419745857651e-02	1.162429561829790787e-03	7.115658298997278308e-01	1.132977511356795253e+00	1.000032956526272665e+00	-9.880233854503152682e-03	2.577523944353322098e-05	2.007543705372262857e-03
6.108136695656392057e-01	3.756026528044340441e-03	-1.039826876667046020e-02	1.201997738640117391e-03	7.157412384317407561e-01	1.139603664934127458e+00	1.000033116300867997e+00	-9.815456188257177389e-03	2.728773228924315456e-05	1.996374171700491043e-03
6.308403472563158809e-01	3.463263469261472841e-03	-9.971175963434233958e-03	1.242409244188994420e-03	7.199645552361033651e-01	1.146103981566674257e+00	1.000033276426312012e+00	-9.753722274765832742e-03	2.876064954980804363e-05	1.974653249741491635e-03
6.508670249469925562e-01	3.183387677531919219e-03	-9.544844563891265524e-03	1.283824793470568146e-03	7.242270154141229321e-01	1.152448803147360978e+00	1.000033436575251011e+00	-9.695108885745668675e-03	3.018519291275481136e-05	1.942846601947052993e-03
6.708937026376692314e-01	2.916875310378880346e-03	-9.120382060403662769e-03	1.326421800463452186e-03	7.285197845852308118e-01	1.158609264159950802e+00	1.000033596417352344e+00	-9.639615395769624354e-03	3.155323473577489966e-05	1.901540408042026340e-03
6.909203803283459067e-01	2.664073567902043842e-03	-8.698868575752348800e-03	1.370395063109938012e-03	7.328339929577468714e-01	1.164557583370437133e+00	1.000033755604553098e+00	-9.587160711405189051e-03	3.285737330710622272e-05	1.851428547132749928e-03
7.109470580190225819e-01	2.425205508469170136e-03	-8.281350368442420493e-03	1.415960684378940633e-03	7.371607837327123214e-01	1.170267352772099478e+00	1.000033913781280814e+00	-9.537579939065008935e-03	3.409104258514112501e-05	1.793298016952449021e-03
7.309737357096993682e-01	2.200376123038637853e-03	-7.868834446182451994e-03	1.463357542587395352e-03	7.414913463963883622e-01	1.175713817513164283e+00	1.000034070568283973e+00	-9.490624137888580350e-03	3.524853983389156963e-05	1.728012946761524771e-03
7.510004134003760434e-01	1.989579505117087914e-03	-7.462282976479325987e-03	1.512852305504459698e-03	7.458169653402745292e-01	1.180874140245232073e+00	1.000034225574732538e+00	-9.445959436295333495e-03	3.632511150116433523e-05	1.656497599812951091e-03
7.710270910910527187e-01	1.792706938655191798e-03	-7.062609030800642493e-03	1.564741977201572400e-03	7.501290439225047901e-01	1.185727643821849364e+00	1.000034378380638911e+00	-9.403169673025712702e-03	3.731695069807325734e-05	1.579718786579890335e-03
7.910537687817293939e-01	1.609555715445162242e-03	-6.670672156078883211e-03	1.619360317682188742e-03	7.544191532824328084e-01	1.190256026452767957e+00	1.000034528551238866e+00	-9.361758036393722643e-03	3.822125583559671805e-05	1.498668119603634380e-03
8.110804464724060692e-01	1.439838489169512547e-03	-6.287275540329333515e-03	1.677081844682690517e-03	7.586790426742771043e-01	1.194443544446174066e+00	1.000034675618092450e+00	-9.321152541119349932e-03	3.903619673245178483e-05	1.414344534527726656e-03
8.311071241630827444e-01	1.283192972943646495e-03	-5.913162920336495834e-03	1.738330075917409465e-03	7.629006870710703936e-01	1.198277158251729979e+00	1.000034819095983352e+00	-9.280710195951698618e-03	3.976094410395846895e-05	1.327737479516005086e-03
8.511338018537595307e-01	1.139191793303401604e-03	-5.549017294397459374e-03	1.803583488597613853e-03	7.670762773930943634e-01	1.201746638962565505e+00	1.000034958462801882e+00	-9.239725404585698992e-03	4.039560503309049097e-05	1.239811138779880117e-03
8.711604795444362059e-01	1.007352323177758630e-03	-5.195459157475082815e-03	1.873386143724860894e-03	7.711982733218883945e-01	1.204844633243145058e+00	1.000035093179410639e+00	-9.197437063617164635e-03	4.094122357147489107e-05	1.151490006670370225e-03
8.911871572351128812e-01	8.871463315704417908e-04	-4.853046777951597855e-03	1.948356263905642177e-03	7.752593644301776221e-01	1.207566686299544667e+00	1.000035222668381740e+00	-9.153040436332495616e-03	4.139968873061701331e-05	1.063646070596898459e-03
9.112138349257895564e-01	7.780093050556624503e-04	-4.522275620171276392e-03	2.029199973899380605e-03	7.792525306704497501e-01	1.209911223299305449e+00	1.000035346337390552e+00	-9.105698354255196969e-03	4.177370916173302065e-05	9.770877961242344263e-04
9.312405126164662317e-01	6.793493176872910690e-04	-4.203579948069785695e-03	2.116723326491942031e-03	7.831709728498428280e-01	1.211879491249597374e+00	1.000035463557286342e+00	-9.054558297731354205e-03	4.206669938784722389e-05	8.925510408338605981e-04
9.512671903071429069e-01	5.905553479618873714e-04	-3.897333178350289185e-03	2.211850041328472342e-03	7.870081849872820889e-01	1.213475463868717963e+00	1.000035573689851853e+00	-8.998770155776228408e-03	4.228273402050668857e-05	8.106919571498823500e-04
9.712938679978196932e-01	5.110049658573254496e-04	-3.603850443192786312e-03	2.315637900472518763e-03	7.907578576571427931e-01	1.214705713318656954e+00	1.000035676066109991e+00	-8.937511715272196053e-03	4.242642004757657241e-05	7.320818830766137727e-04
9.913205456884963684e-01	4.400713362290405899e-04	-3.323389472296400717e-03	2.429301349041491052e-03	7.944139592748301615e-01	1.215579252747239325e+00	1.000035770019841008e+00	-8.870017054579570903e-03	4.250283783707431000e-05	6.572041650684855643e-04
1.011347223379172933e+00	3.771295087334075873e-04	-3.056153602503913769e-03	2.554232965183480912e-03	7.979706235940782211e-01	1.216107354521507089e+00	1.000035854867649343e+00	-8.795615180548809961e-03	4.251740832208693695e-05	5.864528127686316960e-04
1.031373901069849497e+00	3.215619857947308322e-04	-2.802292692934289873e-03	2.692031246604196376e-03	8.014222377807395103e-01	1.216303348593496425e+00	1.000035929950342961e+00	-8.713774220722095634e-03	4.247582863077224317e-05	5.201328510804337484e-04
1.051400578760526283e+00	2.727635806552472768e-04	-2.561905965993446430e-03	2.844526810863669611e-03	8.047633297155180054e-01	1.216182405958053048e+00	1.000035994616879087e+00	-8.624158243016282269e-03	4.238394275915067768e-05	4.584622130831714172e-04
1.071427256451203069e+00	2.301455944275333592e-04	-2.335042426851745637e-03	3.013813866510857160e-03	8.079886656015197177e-01	1.215761311239702991e+00	1.000036048276178091e+00	-8.526691084710227853e-03	4.224767901517635838e-05	4.015750059744128487e-04
1.091453934141879634e+00	1.931393559243443274e-04	-2.121702907176440788e-03	3.202277834872817048e-03	8.110931537186674145e-01	1.215058228645986116e+00	1.000036090387309562e+00	-8.421632763388614551e-03	4.207293146701167623e-05	3.495259817815857153e-04
1.111480611832556420e+00	1.611991783453030705e-04	-1.921839489709625337e-03	3.412624396776202992e-03	8.140719499652435687e-01	1.214092464262091386e+00	1.000036120523902117e+00	-8.309659739836884954e-03	4.186550491629940381e-05	3.022960516680828647e-04
1.131507289523232984e+00	1.338047940815402775e-04	-1.735356250676545458e-03	3.647898353602377526e-03	8.169204049574079196e-01	1.212884227731339415e+00	1.000036138371698691e+00	-8.191950821913044495e-03	4.163101253819937586e-05	2.597986956795561662e-04
1.151533967213909770e+00	1.104633306893305764e-04	-1.562107413060307825e-03	3.911494241954711210e-03	8.196341723811454427e-01	1.211454394988636940e+00	1.000036143805427713e+00	-8.070263769808357079e-03	4.137483243534832098e-05	2.218871339192032398e-04
1.171560644904586557e+00	9.071088878604296297e-05	-1.401896630464883123e-03	4.207142551922936693e-03	8.222092441223385340e-01	1.209824273911012327e+00	1.000036136890860350e+00	-7.946998322861610967e-03	4.110202512531404770e-05	1.883621373750664785e-04
1.191587322595263121e+00	7.411377446399746295e-05	-1.254474100721392378e-03	4.538867759997611100e-03	8.246420296715356590e-01	1.208015373542315363e+00	1.000036117968210458e+00	-7.825222383557801573e-03	4.081730441822336197e-05	1.589803616003674053e-04
1.211614000285939907e+00	6.026942647482973680e-05	-1.119534906427403559e-03	4.910895383879912424e-03	8.269295123608902953e-01	1.206049178160941482e+00	1.000036087648588978e+00	-7.708652388517736077e-03	4.052497714871054508e-05	1.334630812858934412e-04
1.231640677976616471e+00	4.880706135604498912e-05	-9.967160682818382213e-04	5.327497275353232885e-03	8.290692926876443991e-01	1.203946926706524589e+00	1.000036046889186014e+00	-7.601560706553286625e-03	4.022893025830893049e-05	1.115051851551249667e-04
1.251667355667293258e+00	3.938804081468573384e-05	-8.855954171733890212e-04	5.792747024612202034e-03	8.310598571834797443e-01	1.201729399329068748e+00	1.000035996964936613e+00	-7.508606123155525842e-03	3.993259399428807880e-05	9.278425938308401981e-05
1.271694033357969822e+00	3.170594652261559131e-05	-7.856904562036747929e-04	6.310173424079103949e-03	8.329005534883805462e-01	1.199416712637252802e+00	1.000035939513361782e+00	-7.434572411354204574e-03	3.963894608079263516e-05	7.696954680079789242e-05
1.291720711048646608e+00	2.548633261819377720e-05	-6.964599854888913052e-04	6.882291744065196192e-03	8.345919515742389327e-01	1.197028127032735423e+00	1.000035876458770456e+00	-7.384034738896059179e-03	3.935049775074619970e-05	6.373052684074248780e-05
1.311747388739323394e+00	2.048611846727995498e-05	-6.173070712410792154e-04	7.510022695344354023e-03	8.361357059701202132e-01	1.194581869581251787e+00	1.000035810007745996e+00	-7.360969901224259475e-03	3.906931377558586489e-05	5.274482834798254111e-05
1.331774066429999959e+00	1.649258782202375371e-05	-5.475855032112126718e-04	8.192021243489727364e-03	8.375349446575550694e-01	1.192094977638514797e+00	1.000035742514896908e+00	-7.368363935645527371e-03	3.879701795979488045e-05	4.370517759319066450e-05
1.351800744120676745e+00	1.332197610434257848e-05	-4.866082890645182803e-04	8.923989694565330824e-03	8.387939623039489812e-01	1.189583167929326502e+00	1.000035676430325760e+00	-7.407860027484408465e-03	3.853482544556506394e-05	3.632510805852282509e-05
1.371827421811353309e+00	1.081765478688796908e-05	-4.336594020463402062e-04	9.698079918105773772e-03	8.399185566465249275e-01	1.187060736538003258e+00	1.000035614123455430e+00	-7.479509592652928106e-03	3.828356297799350734e-05	3.034322274760537519e-05
1.391854099502030095e+00	8.847955767993220653e-06	-3.880069020136700129e-04	1.050254163438470167e-02	8.409155784598986161e-01	1.184540493348042123e+00	1.000035557813438780e+00	-7.581659442654938887e-03	3.804371085533254574e-05	2.552589998892831953e-05
1.411880777192706660e+00	7.303713302445199907e-06	-3.489177658701271036e-04	1.132177326856683049e-02	8.417931345754615657e-01	1.182033733779360052e+00	1.000035509392872779e+00	-7.711004884812902235e-03	3.781543641682337748e-05	2.166845658105245938e-05
1.431907454883383446e+00	6.095628403946377564e-06	-3.156722279139353602e-04	1.213691225640879494e-02	8.425599454010225253e-01	1.179550247486360393e+00	1.000035470388396019e+00	-7.862804144324919350e-03	3.759864700454001329e-05	1.859490644100073142e-05
1.451934132574060232e+00	5.151575290265665833e-06	-2.875775319182911124e-04	1.292699860049865632e-02	8.432256274746715574e-01	1.177098362316337798e+00	1.000035441829801419e+00	-8.031242610131569468e-03	3.739303682568690155e-05	1.615655620129102725e-05
1.471960810264736796e+00	4.413968005284310302e-06	-2.639793157685690222e-04	1.367062326798614003e-02	8.437997511357530067e-01	1.174685018565207795e+00	1.000035424279274610e+00	-8.209906808040940904e-03	3.719814797934020586e-05	1.422974374378081812e-05
1.491987487955413583e+00	3.837289463958073126e-06	-2.442706181174603098e-04	1.434781807359277947e-02	8.442923148348712159e-01	1.172315867873482187e+00	1.000035417773317503e+00	-8.392322926444784406e-03	3.701342024242091939e-05	1.271304411441137152e-05
1.512014165646090147e+00	3.385858642087021368e-06	-2.278977258925357944e-04	1.494186282206645677e-02	8.447126033525342859e-01	1.169995388969356398e+00	1.000035421933122892e+00	-8.572481446861835580e-03	3.683824347965111571e-05	1.152424330853894049e-05
1.532040843336766933e+00	3.031880930734426058e-06	-2.143632326666699412e-04	1.544067160867167512e-02	8.450699534617552855e-01	1.167727013373406342e+00	1.000035435973565257e+00	-8.745279639176367983e-03	3.667199101253528051e-05	1.059732642773009877e-05
1.552067521027443719e+00	2.753797045105378922e-06	-2.032264545841234451e-04	1.583753162922403590e-02	8.453725802377816123e-01	1.165513253597417087e+00	1.000035458869748650e+00	-8.906804350010075547e-03	3.651404896795438251e-05	9.879658327665464407e-06
1.572094198718120284e+00	2.534921877895174617e-06	-1.941017701858180258e-04	1.613111822629273787e-02	8.456283292307499311e-01	1.163355828818164239e+00	1.000035489390814769e+00	-9.054437077463591346e-03	3.636382805814428762e-05	9.329466410414527034e-06
1.592120876408797070e+00	2.362347857885193564e-06	-1.866554273797493824e-04	1.632488640912482802e-02	8.458439909645019128e-01	1.161255783280406240e+00	1.000035526271251030e+00	-9.186781991459185351e-03	3.622077487016482693e-05	8.913676394918030842e-06
1.612147554099473634e+00	2.226078149758356639e-06	-1.806013524985066083e-04	1.642603958888732424e-02	8.460256689916360040e-01	1.159213595519331230e+00	1.000035568219258542e+00	-9.303477862333110401e-03	3.608437252130709117e-05	8.606107456043476941e-06
1.632174231790150420e+00	2.118351798764827312e-06	-1.756964416512427649e-04	1.644432334247604433e-02	8.461786914305849949e-01	1.157229276395630890e+00	1.000035614054634925e+00	-9.404945871894894449e-03	3.595414526304835010e-05	8.386003598066522129e-06
1.652200909480826985e+00	2.033124253889610600e-06	-1.717356575557561641e-04	1.639085005055233510e-02	8.463074817950457795e-01	1.155302456269053701e+00	1.000035662670718084e+00	-9.492139701499193935e-03	3.582965599943166104e-05	8.236861600240530577e-06
1.672227587171503771e+00	1.965670487098730443e-06	-1.685472432124243323e-04	1.627710282091595489e-02	8.464160886473599543e-01	1.153432460750927202e+00	1.000035713135276394e+00	-9.566324413856611489e-03	3.571050858137277096e-05	8.145509267846002142e-06
1.692254264862180557e+00	1.912283045331238695e-06	-1.659881806605327547e-04	1.611418150454532738e-02	8.465076444873254058e-01	1.151618376399435428e+00	1.000035764614809919e+00	-9.628908231134363643e-03	3.559634363767436255e-05	8.101387887274582515e-06
1.712280942552857121e+00	1.870042517961170061e-06	-1.639400487524125133e-04	1.591230328744970557e-02	8.465850593387025391e-01	1.149859106303005474e+00	1.000035816454507565e+00	-9.681320358900211837e-03	3.548683912325589139e-05	8.095996954817358666e-06
1.732307620243533908e+00	1.836642773741210753e-06	-1.623052551678802458e-04	1.568052139817977669e-02	8.466505692683491402e-01	1.148153417304858204e+00	1.000035868081968093e+00	-9.724935620759548455e-03	3.538170481093552488e-05	8.122465332133588716e-06
1.752334297934210472e+00	1.810257353609696266e-06	-1.610037735613139393e-04	1.542661808566098830e-02	8.467062072156470443e-01	1.146499978943322784e+00	1.000035919081574409e+00	-9.761025470616089064e-03	3.528068179178580320e-05	8.175219527585866739e-06
1.772360975624887258e+00	1.789436796818176479e-06	-1.599702240318963615e-04	1.515711564895453299e-02	8.467534872758514242e-01	1.144897395934052708e+00	1.000035969089775767e+00	-9.790738160478424171e-03	3.518353661366397056e-05	8.249725950792275955e-06
1.792387653315563822e+00	1.773029216294717388e-06	-1.591514305809875126e-04	1.487736532960240096e-02	8.467938879169205624e-01	1.143344234227974265e+00	1.000036017872409033e+00	-9.815088204536073432e-03	3.509006066344883072e-05	8.342289300575566816e-06
1.812414331006240609e+00	1.760118474889490670e-06	-1.585042840489200584e-04	1.459167434334601027e-02	8.468283464956255502e-01	1.141839042383279823e+00	1.000036065217078773e+00	-9.834959927356879544e-03	3.500006468144565517e-05	8.449893587792775310e-06
1.832441008696917395e+00	1.749975733048270221e-06	-1.579939600016283660e-04	1.430345065373359384e-02	8.468579778782840961e-01	1.140380368144098711e+00	1.000036111016914253e+00	-9.851114185749227856e-03	3.491337866245799331e-05	8.570075698963064656e-06
1.852467686387593959e+00	1.742021277291968026e-06	-1.575924213008896198e-04	1.401534474645845831e-02	8.468833195657932134e-01	1.138966771827804481e+00	1.000036155161711626e+00	-9.864199136236638868e-03	3.482984688238067127e-05	8.700823996798190483e-06
1.872494364078270745e+00	1.735794278709810395e-06	-1.572771558924502264e-04	1.372938343688628708e-02	8.469052503071561322e-01	1.137596836210769791e+00	1.000036197628872081e+00	-9.874762433209284887e-03	3.474932857570948275e-05	8.840496382198760624e-06
1.892521041768947310e+00	1.730928759738182279e-06	-1.570301573389146894e-04	1.344708635829429573e-02	8.469240020473159936e-01	1.136269174396606907e+00	1.000036238373334330e+00	-9.883262523797207294e-03	3.467169337513617729e-05	8.987753655884196378e-06
1.912547719459624096e+00	1.727134416840150658e-06	-1.568370376580086045e-04	1.316956821342469414e-02	8.469403159983451834e-01	1.134982435147899649e+00	1.000036277425473630e+00	-9.890082147025693396e-03	3.459682277436376203e-05	9.141505045870527990e-06
1.932574397150300882e+00	1.724181307714846045e-06	-1.566863602188137182e-04	1.289762225185760343e-02	8.469542081579376491e-01	1.133735307073429510e+00	1.000036314779207958e+00	-9.895537318773973620e-03	3.452460573232991235e-05	9.300863512124315591e-06
1.952601074840977446e+00	1.721887587949945284e-06	-1.565690344569814149e-04	1.263179132434600997e-02	8.469663107160436688e-01	1.132526520966919081e+00	1.000036350496362747e+00	-9.899888881037176291e-03	3.445494091140893235e-05	9.465108981637707905e-06
1.972627752531654233e+00	1.720109706955019809e-06	-1.564778691564500991e-04	1.237242314143406456e-02	8.469765206604854546e-01	1.131354851620854030e+00	1.000036384592201566e+00	-9.903350286641833533e-03	3.438773229418246095e-05	9.633658064841656941e-06
1.992654430222330797e+00	1.718734548914694911e-06	-1.564071717636444946e-04	1.211971701652556077e-02	8.469853955325145067e-01	1.130219118274989443e+00	1.000036417145797385e+00	-9.906096318819335167e-03	3.432289202046458139e-05	9.806039099418886870e-06
2.012681107913007583e+00	1.717673158984959261e-06	-1.563524744730156559e-04	1.187375849290378191e-02	8.469927215683504818e-01	1.129118184964121863e+00	1.000036448182380466e+00	-9.908268101321286020e-03	3.426033594364698585e-05	9.981871591017925819e-06
2.032707785603684147e+00	1.716855717764609876e-06	-1.563102353290099944e-04	1.163454915682510422e-02	8.469990647620804225e-01	1.128050959819017596e+00	1.000036477789258305e+00	-9.909981608773751893e-03	3.419998706789600175e-05	1.016084929178941306e-05
2.052734463294360712e+00	1.716227543881530313e-06	-1.562777154209708049e-04	1.140202726589232586e-02	8.470040973771640891e-01	1.127016394558567836e+00	1.000036505994529978e+00	-9.911327942495795976e-03	3.414177076882496907e-05	1.034272629284927099e-05
2.072761140985037720e+00	1.715745895918347066e-06	-1.562527216054118251e-04	1.117608656704550431e-02	8.470083973627219320e-01	1.126013483143713412e+00	1.000036532888263885e+00	-9.912383625899048173e-03	3.408561904566728977e-05	1.052730561391133537e-05
2.092787818675714284e+00	1.715377443030276068e-06	-1.562335961831734467e-04	1.095658778847608157e-02	8.470115840168759291e-01	1.125041260805521581e+00	1.000036558497205963e+00	-9.913206482641387721e-03	3.403146503773856900e-05	1.071442986090106324e-05
2.112814496366390848e+00	1.715096242441462162e-06	-1.562189875882892380e-04	1.074337066715174392e-02	8.470141926570537994e-01	1.124098802370782968e+00	1.000036582910997174e+00	-9.913846393189949813e-03	3.397924834227865446e-05	1.090397359394279971e-05
2.132841174057067857e+00	1.714882153016206958e-06	-1.562079035657152812e-04	1.053625961020690678e-02	8.470158518989534535e-01	1.123185221084374463e+00	1.000036606152681973e+00	-9.914339661863733402e-03	3.392890854581726533e-05	1.109583710736052407e-05
2.152867851747744421e+00	1.714719564717307626e-06	-1.561995205661765500e-04	1.033507169221147340e-02	8.470170407221778719e-01	1.122299666797499818e+00	1.000036628309818321e+00	-9.914718328069312483e-03	3.388039175767537295e-05	1.128994137317259498e-05
2.172894529438420985e+00	1.714596413847755545e-06	-1.561932446111074656e-04	1.013961866106823269e-02	8.470174222887962845e-01	1.121441324746377255e+00	1.000036649400466660e+00	-9.915005151258598701e-03	3.383364305509315578e-05	1.148622394087759924e-05
2.192921207129097994e+00	1.714503390088845149e-06	-1.561885814149538366e-04	9.949712592846420706e-03	8.470173985949144280e-01	1.120609413720073499e+00	1.000036669509342335e+00	-9.915220283482120353e-03	3.378861415135999210e-05	1.168463562130507104e-05
2.212947884819774558e+00	1.714433332361626790e-06	-1.561851746901526256e-04	9.765165676004269185e-03	8.470167022196219975e-01	1.119803184879925473e+00	1.000036688649055927e+00	-9.915378189787979468e-03	3.374525489483104132e-05	1.188513781164176974e-05
2.232974562510451122e+00	1.714380736777234520e-06	-1.561827321703727412e-04	9.585794513852347737e-03	8.470156659581894454e-01	1.119021919984243052e+00	1.000036706901220374e+00	-9.915491186247734484e-03	3.370352186065739519e-05	1.208770034334796578e-05
2.253001240201127686e+00	1.714341391027563670e-06	-1.561810404296345761e-04	9.411418599327482995e-03	8.470140581467139329e-01	1.118264930293385140e+00	1.000036724272932664e+00	-9.915568419062784078e-03	3.366336909636845847e-05	1.229229975522008128e-05
2.273027917891804695e+00	1.714312070304135009e-06	-1.561799259211140291e-04	9.241863845270538794e-03	8.470121620524703188e-01	1.117531554884795497e+00	1.000036740842768612e+00	-9.915617542960762990e-03	3.362475744250484425e-05	1.249891791131952386e-05
2.293054595582481259e+00	1.714290319745127657e-06	-1.561792609310334770e-04	9.076960299755441192e-03	8.470097935722676885e-01	1.116821159669621588e+00	1.000036756612431521e+00	-9.915644327904865954e-03	3.358764464373462864e-05	1.270754089763632620e-05
2.313081273273157823e+00	1.714274266658917809e-06	-1.561789490049643827e-04	8.916545262758314785e-03	8.470071520287246747e-01	1.116133135810998045e+00	1.000036771657741852e+00	-9.915653120801674186e-03	3.355199532580624221e-05	1.291815814364417505e-05
2.333107950963834831e+00	1.714262493950609873e-06	-1.561789072604121776e-04	8.760460571891615089e-03	8.470041225411042429e-01	1.115466898865334899e+00	1.000036785975271680e+00	-9.915647992283114706e-03	3.351777055908901381e-05	1.313076172456847620e-05
2.353134628654511395e+00	1.714253923782228234e-06	-1.561790842854732101e-04	8.608555476507597642e-03	8.470008698856537066e-01	1.114821887301250314e+00	1.000036799638399421e+00	-9.915631157258106981e-03	3.348493830548029704e-05	1.334534580854718253e-05
2.373161306345187960e+00	1.714247746193228138e-06	-1.561794218869117141e-04	8.460683723816156410e-03	8.469973115013013087e-01	1.114197561764302291e+00	1.000036812638866346e+00	-9.915605759019936391e-03	3.345346262169504793e-05	1.356190621972827757e-05
2.393187984035864524e+00	1.714243346316019248e-06	-1.561799046598368122e-04	8.316706279342524905e-03	8.469935412772156003e-01	1.113593403699387974e+00	1.000036825047950106e+00	-9.915572308266052542e-03	3.342331442565435831e-05	1.378044009368236792e-05
2.413214661726541532e+00	1.714240266002639767e-06	-1.561804825864775191e-04	8.176488367827963386e-03	8.469895128417026520e-01	1.113008914724981979e+00	1.000036836852931321e+00	-9.915533669120953769e-03	3.339446054747207890e-05	1.400094560627828221e-05
2.433241339417218096e+00	1.714238157610630354e-06	-1.561811572922632268e-04	8.039902031347018543e-03	8.469853314985018589e-01	1.112443615358850835e+00	1.000036848123280864e+00	-9.915489385814504897e-03	3.336687448614532016e-05	1.422342176086581951e-05
2.453268017107894661e+00	1.714236764937240888e-06	-1.561818888310981875e-04	7.906823252768278854e-03	8.469809299059690710e-01	1.111897044489982722e+00	1.000036858842166865e+00	-9.915441962918073934e-03	3.334052560055484899e-05	1.444786822135862867e-05
2.473294694798571669e+00	1.714235893140412765e-06	-1.561826868155736148e-04	7.777134359841077725e-03	8.469764252364030410e-01	1.111368758194669404e+00	1.000036869077563839e+00	-9.915390591679968529e-03	3.331538970436964041e-05	1.467428518183407395e-05
2.493321372489248233e+00	1.714235400819955335e-06	-1.561835166692968427e-04	7.650721269385707402e-03	8.469717378688489395e-01	1.110858329306986692e+00	1.000036878808779450e+00	-9.915337416121109554e-03	3.329143845497045434e-05	1.490267326454658873e-05
2.513348050179924797e+00	1.714235179703774753e-06	-1.561843985818085572e-04	7.527475756650396470e-03	8.469669379985931279e-01	1.110365346310920653e+00	1.000036888102646460e+00	-9.915281064267179867e-03	3.326864974517348397e-05	1.513303344049887526e-05
2.533374727870601362e+00	1.714235152965236044e-06	-1.561852917529705609e-04	7.407292850116050688e-03	8.469620336893384227e-01	1.109889412996203362e+00	1.000036896934890951e+00	-9.915224175095393305e-03	3.324699738133740461e-05	1.536536696739991773e-05
2.553401405561278370e+00	1.714235260990796713e-06	-1.561862305888087337e-04	7.290072932363601127e-03	8.469570246816624515e-01	1.109430147423137836e+00	1.000036905371412876e+00	-9.915164423006940855e-03	3.322646104240625499e-05	1.559967534155887756e-05
2.573428083251954934e+00	1.714235462829133797e-06	-1.561871655206373581e-04	7.175719367501198417e-03	8.469519626221745368e-01	1.108987181655922694e+00	1.000036913384617643e+00	-9.915105014254974383e-03	3.320701661193815939e-05	1.583596026019093978e-05
2.593454760942631498e+00	1.714235726024585803e-06	-1.561881392829832346e-04	7.064140350432720171e-03	8.469468066302812126e-01	1.108560160788642390e+00	1.000036921039736404e+00	-9.915043145156806834e-03	3.318864526363349483e-05	1.607422359231398771e-05
2.613481438633308507e+00	1.714236029294016119e-06	-1.561891003288329066e-04	6.955246851464535161e-03	8.469416262527138528e-01	1.108148742749122784e+00	1.000036928306035744e+00	-9.914982144283941701e-03	3.317132487298574979e-05	1.631446735579667820e-05
2.633508116323985071e+00	1.714236355224064450e-06	-1.561900934892604485e-04	6.848954158966872631e-03	8.469363846515395311e-01	1.107752597378208526e+00	1.000036935248307390e+00	-9.914919156750469711e-03	3.315503789884631660e-05	1.655669369968175176e-05
2.653534794014661635e+00	1.714236693148234204e-06	-1.561910714983679588e-04	6.745180173437404988e-03	8.469311185782171236e-01	1.107371406298099714e+00	1.000036941832904480e+00	-9.914857107602922243e-03	3.313976410188487586e-05	1.680090489009814327e-05
2.673561471705338199e+00	1.714237033917717860e-06	-1.561920731979251904e-04	6.643846634152046106e-03	8.469258340859283640e-01	1.107004862037662019e+00	1.000036948124318759e+00	-9.914793596392131730e-03	3.312548709134531815e-05	1.704710329943532498e-05
2.693588149396015208e+00	1.714237372513250375e-06	-1.561930581313207480e-04	6.544877742968102131e-03	8.469205316935171091e-01	1.106652667960818404e+00	1.000036954086155561e+00	-9.914731217802497804e-03	3.311218834581103142e-05	1.729529139754091635e-05
2.713614827086691772e+00	1.714237704285693849e-06	-1.561940634379959747e-04	6.448201115246706902e-03	8.469152149680369002e-01	1.106314537428793265e+00	1.000036959782822255e+00	-9.914667464373956227e-03	3.309985253551418538e-05	1.754547174497184746e-05
2.733641504777368336e+00	1.714238027134146109e-06	-1.561950448326136190e-04	6.353746693568393215e-03	8.469099347778306086e-01	1.105990193782588893e+00	1.000036965175289394e+00	-9.914605269527082890e-03	3.308846274142274770e-05	1.779764698731692749e-05
2.753668182468045345e+00	1.714238338893693010e-06	-1.561960447057582943e-04	6.261447430616704467e-03	8.469046438648456521e-01	1.105679369541012980e+00	1.000036970328040287e+00	-9.914541938353055653e-03	3.307800451125471623e-05	1.805181985093409048e-05
2.773694860158721909e+00	1.714238638868730132e-06	-1.561970204279732597e-04	6.171238519882100808e-03	8.468993831961496577e-01	1.105381806430220770e+00	1.000036975199565470e+00	-9.914480101152534086e-03	3.306846250431336724e-05	1.830799313911462694e-05
2.793721537849398473e+00	1.714238926267502532e-06	-1.561980080946359618e-04	6.083057776775420249e-03	8.468941489668856404e-01	1.105097254610228674e+00	1.000036979854505015e+00	-9.914417563068258707e-03	3.305982303171684487e-05	1.856616972927827149e-05
2.813748215540075037e+00	1.714239201041875658e-06	-1.561989693089466092e-04	5.996845180978188812e-03	8.468889652816870006e-01	1.104825472750793347e+00	1.000036984249022209e+00	-9.914356666478803606e-03	3.305207219030041718e-05	1.882635257028102390e-05
2.833774893230752046e+00	1.714239463160605851e-06	-1.561999405086662406e-04	5.912542988709356372e-03	8.468838114084071833e-01	1.104566227280125323e+00	1.000036988448050224e+00	-9.914295026106351508e-03	3.304519697757595989e-05	1.908854468048656341e-05
2.853801570921428610e+00	1.714239712802291493e-06	-1.562008840989872452e-04	5.830095561218457539e-03	8.468787184993121775e-01	1.104319292508658013e+00	1.000036992405473057e+00	-9.914235321088604030e-03	3.303918487566866798e-05	1.935274914584668915e-05
2.873828248612105174e+00	1.714239950379915777e-06	-1.562018318485433805e-04	5.749449208754743752e-03	8.468736914834213980e-01	1.104084449883786956e+00	1.000036996186680405e+00	-9.914175330174858705e-03	3.303402346324605131e-05	1.961896911830528985e-05
2.893854926302782182e+00	1.714240176105270399e-06	-1.562027558259340460e-04	5.670552299464537080e-03	8.468686983869653240e-01	1.103861488169073812e+00	1.000036999743348254e+00	-9.914116716126977757e-03	3.302970150672172211e-05	1.988720781459825398e-05
2.913881603993458747e+00	1.714240390622761507e-06	-1.562036823407934004e-04	5.593354867914085253e-03	8.468637815173589711e-01	1.103650202705838801e+00	1.000037003141388769e+00	-9.914058005227297660e-03	3.302620717882032202e-05	2.015746851484500986e-05
2.933908281684135311e+00	1.714240594097145905e-06	-1.562045820443285708e-04	5.517808947463686414e-03	8.468589042744728568e-01	1.103450395630323211e+00	1.000037006330358746e+00	-9.914001006223012100e-03	3.302353041920001600e-05	2.042975456167240553e-05
2.953934959374811875e+00	1.714240787332884238e-06	-1.562054777757925612e-04	5.443867975743909085e-03	8.468541498895522102e-01	1.103261875147864446e+00	1.000037009376826047e+00	-9.913944227564867179e-03	3.302165987169353612e-05	2.070406935903332146e-05
2.973961637065488883e+00	1.714240970409352390e-06	-1.562063481716251723e-04	5.371487345991004386e-03	8.468494289268407860e-01	1.103084455784981266e+00	1.000037012228271571e+00	-9.913889054343111989e-03	3.302058656292312998e-05	2.098041637155385886e-05
2.993988314756165448e+00	1.714241144209371295e-06	-1.562072122796730916e-04	5.300623630594138505e-03	8.468448438364351016e-01	1.102917957675055405e+00	1.000037014951974834e+00	-9.913834281606744708e-03	3.302029962578022687e-05	2.125879912354655305e-05
3.014014992446842012e+00	1.714241308716970995e-06	-1.562080546301354231e-04	5.231235306881801099e-03	8.468402727115839079e-01	1.102762206839262848e+00	1.000037017493406566e+00	-9.913780879463004667e-03	3.302079109979148862e-05	2.153922119844033049e-05
3.034041670137519020e+00	1.714241464849489230e-06	-1.562088845240755042e-04	5.163281834105561997e-03	8.468358618014754091e-01	1.102617034483259317e+00	1.000037019920649861e+00	-9.913728243815880803e-03	3.302205059911272590e-05	2.182168623799856180e-05
3.054068347828195584e+00	1.714241612530877689e-06	-1.562096926504036212e-04	5.096724508707205226e-03	8.468314782171575406e-01	1.102482277306412906e+00	1.000037022177217017e+00	-9.913676998823013620e-03	3.302407101175325484e-05	2.210619794181027621e-05
3.074095025518872148e+00	1.714241752678594601e-06	-1.562104859886023853e-04	5.031525454318732174e-03	8.468272571175254892e-01	1.102357776805263034e+00	1.000037024332029123e+00	-9.913626697275603611e-03	3.302684244119486628e-05	2.239276006665553395e-05
3.094121703209549157e+00	1.714241885159157529e-06	-1.562112600820968222e-04	4.967648561388389623e-03	8.468230560366292181e-01	1.102243379611039131e+00	1.000037026326697331e+00	-9.913577564980964596e-03	3.303035856564247628e-05	2.268137642607242306e-05
3.114148380900225721e+00	1.714242010868112807e-06	-1.562120180564398623e-04	4.905058415523841364e-03	8.468190242070110507e-01	1.102138936795939994e+00	1.000037028231078873e+00	-9.913529484522820220e-03	3.303460998811884959e-05	2.297205088980745690e-05
3.134175058590902285e+00	1.714242129630077181e-06	-1.562127586399859023e-04	4.843721291915991864e-03	8.468150001168176511e-01	1.102044304237656647e+00	1.000037029984880199e+00	-9.913482510160314537e-03	3.303959109260352694e-05	2.326478738342470918e-05
3.154201736281578849e+00	1.714242242309263968e-06	-1.562134777592489004e-04	4.783604049880724012e-03	8.468111804079733185e-01	1.101959341931537661e+00	1.000037031658947750e+00	-9.913436862146313838e-03	3.304529296586579981e-05	2.355958988796820014e-05
3.174228413972255858e+00	1.714242348719926677e-06	-1.562141814469041924e-04	4.724675151151072790e-03	8.468073558782023280e-01	1.101883914374029327e+00	1.000037033191156333e+00	-9.913392202814718182e-03	3.305171056250142216e-05	2.385646243944584681e-05
3.194255091662932422e+00	1.714242449667252923e-06	-1.562148639235305659e-04	4.666903568157541003e-03	8.468037229100066066e-01	1.101817889881644197e+00	1.000037034653375345e+00	-9.913348864664002502e-03	3.305883551352708545e-05	2.415540912872861189e-05
3.214281769353608986e+00	1.714242544960818900e-06	-1.562155291466850134e-04	4.610259778780852538e-03	8.468000940060900206e-01	1.101761140996938115e+00	1.000037035981652167e+00	-9.913306636892967386e-03	3.306666328656183583e-05	2.445643410099746916e-05
3.234308447044285995e+00	1.714242635360866535e-06	-1.562161726410064811e-04	4.554714703889089882e-03	8.467966797090753506e-01	1.101713543805987960e+00	1.000037037248935334e+00	-9.913265772239757481e-03	3.307518598937164039e-05	2.475954155577653941e-05
3.254335124734962559e+00	1.714242720669322679e-06	-1.562167984005988718e-04	4.500240687235600862e-03	8.467932756808507211e-01	1.101674978367062074e+00	1.000037038389497646e+00	-9.913226018472333714e-03	3.308439958361873327e-05	2.506473574631084308e-05
3.274361802425639123e+00	1.714242801600810607e-06	-1.562174047155078774e-04	4.446810453406573396e-03	8.467900479299182992e-01	1.101645328029943638e+00	1.000037039477376322e+00	-9.913187507486407452e-03	3.309429663025688893e-05	2.537202097983408129e-05
3.294388480116315687e+00	1.714242877941795430e-06	-1.562179933713650362e-04	4.394398078360849808e-03	8.467868292371395489e-01	1.101624479885864982e+00	1.000037040445107106e+00	-9.913150105606206852e-03	3.310487359609511499e-05	2.568140161689437724e-05
3.314415157806992696e+00	1.714242950375001587e-06	-1.562185583170841484e-04	4.342977951614322533e-03	8.467838240487191026e-01	1.101612324077263283e+00	1.000037041367881185e+00	-9.913114199953380890e-03	3.311612342590645081e-05	2.599288207157453192e-05
3.334441835497669260e+00	1.714243018687922062e-06	-1.562191107133484313e-04	4.292525745463431595e-03	8.467808170227256737e-01	1.101608754283213143e+00	1.000037042176443514e+00	-9.913079089169217137e-03	3.312804299924162387e-05	2.630646681112372740e-05
3.354468513188345824e+00	1.714243083500234090e-06	-1.562196361833610399e-04	4.243017411302333307e-03	8.467780144213181703e-01	1.101613667009714082e+00	1.000037042947237609e+00	-9.913045681920907432e-03	3.314062576074290319e-05	2.662216035592784679e-05
3.374495190879022832e+00	1.714243144630389712e-06	-1.562201517754941555e-04	4.194430085202221006e-03	8.467752036048787900e-01	1.101626962109889085e+00	1.000037043609221854e+00	-9.913012901819897096e-03	3.315386885141395103e-05	2.693996727944925016e-05
3.394521868569699397e+00	1.714243202618599647e-06	-1.562206390386762967e-04	4.146741179894594675e-03	8.467726241280645327e-01	1.101648542058898173e+00	1.000037044240122075e+00	-9.912981917793470960e-03	3.316776628332334390e-05	2.725989220802661398e-05
3.414548546260375961e+00	1.714243257328841840e-06	-1.562211170577405698e-04	4.099929180170476181e-03	8.467700225787562207e-01	1.101678312501169987e+00	1.000037044767110084e+00	-9.912951471852749288e-03	3.318231536168796445e-05	2.758193982097795731e-05
3.434575223951052525e+00	1.714243309221286844e-06	-1.562215630885710309e-04	4.053972861028216912e-03	8.467676456240995631e-01	1.101716181515707715e+00	1.000037045269253744e+00	-9.912923110398378507e-03	3.319751067870918700e-05	2.790611485038378112e-05
3.454601901641729533e+00	1.714243358216956248e-06	-1.562220032284500554e-04	4.008851949837641607e-03	8.467652535364891264e-01	1.101762060188409720e+00	1.000037045671913649e+00	-9.912895142485934202e-03	3.321334960276906554e-05	2.823242208130345129e-05
3.474628579332406098e+00	1.714243404674456485e-06	-1.562224139913886110e-04	3.964546505623329879e-03	8.467630597986647301e-01	1.101815861865073742e+00	1.000037046055556766e+00	-9.912868891190855514e-03	3.322982742505856699e-05	2.856086635151383138e-05
3.494655257023082662e+00	1.714243448575573807e-06	-1.562228139305650327e-04	3.921037405788448463e-03	8.467608960024701759e-01	1.101877502744558202e+00	1.000037046343756675e+00	-9.912843563710964367e-03	3.324694152198036807e-05	2.889145255172660074e-05
3.514681934713759670e+00	1.714243490206769038e-06	-1.562231877089609083e-04	3.878305892091914956e-03	8.467588942153542186e-01	1.101946901129180922e+00	1.000037046618366121e+00	-9.912819610998180667e-03	3.326468775467316378e-05	2.922418562552528274e-05
3.534708612404436234e+00	1.714243529583711440e-06	-1.562235485434895874e-04	3.836333924411287465e-03	8.467569295904489035e-01	1.102023978027958595e+00	1.000037046801182994e+00	-9.912796621207867892e-03	3.328306360036493056e-05	2.955907056933989812e-05
3.554735290095112799e+00	1.714243566940259188e-06	-1.562238820831167929e-04	3.795103838223194605e-03	8.467551509063075965e-01	1.102108656414793497e+00	1.000037046975486454e+00	-9.912775497765200991e-03	3.330206540086134938e-05	2.989611243287199600e-05
3.574761967785789363e+00	1.714243602322330784e-06	-1.562242053734636243e-04	3.754598601802240903e-03	8.467533839610146273e-01	1.102200861831879264e+00	1.000037047061314910e+00	-9.912754774217260798e-03	3.332169072245893328e-05	3.023531631856584101e-05
3.594788645476466371e+00	1.714243635899322654e-06	-1.562245052668654027e-04	3.714801580898102404e-03	8.467517900286195554e-01	1.102300521647137987e+00	1.000037047143393254e+00	-9.912735700722945589e-03	3.334193646398294264e-05	3.057668738231196563e-05
3.614815323167142935e+00	1.714243667744550157e-06	-1.562247910523086188e-04	3.675696683663351623e-03	8.467502202657133381e-01	1.102407565682301360e+00	1.000037047140006852e+00	-9.912717415532547316e-03	3.336280027071292101e-05	3.092023083304018446e-05
3.634842000857819500e+00	1.714243697990747803e-06	-1.562250542136591586e-04	3.637268222743236107e-03	8.467488178084195960e-01	1.102521925455082874e+00	1.000037047137323665e+00	-9.912700641578267927e-03	3.338427945063975006e-05	3.126595193337084052e-05
3.654868678548496508e+00	1.714243726723338866e-06	-1.562253086092537551e-04	3.599500991218942264e-03	8.467474311974901857e-01	1.102643534825784366e+00	1.000037047051876682e+00	-9.912684401980490292e-03	3.340637179027930697e-05	3.161385599916678924e-05
3.674895356239173072e+00	1.714243754026893867e-06	-1.562255377560662283e-04	3.562380196503650565e-03	8.467462156537932660e-01	1.102772329227555304e+00	1.000037046971349985e+00	-9.912669743934147612e-03	3.342907509197006469e-05	3.196394840021170921e-05
3.694922033929849636e+00	1.714243780025136580e-06	-1.562257562018274097e-04	3.525891439314876325e-03	8.467450214475609194e-01	1.102908246339208365e+00	1.000037046810473118e+00	-9.912655776028992186e-03	3.345238709976718229e-05	3.231623455994691885e-05
3.714948711620526201e+00	1.714243804755652821e-06	-1.562259467738824539e-04	3.490020764704752140e-03	8.467440096150393725e-01	1.103051225297351667e+00	1.000037046658499573e+00	-9.912643567835412867e-03	3.347630610707227585e-05	3.267071995601130915e-05
3.734975389311203209e+00	1.714243828377549894e-06	-1.562261363578401174e-04	3.454754527060013673e-03	8.467429827360379857e-01	1.103201207389520322e+00	1.000037046428359888e+00	-9.912631438995764960e-03	3.350082979767326320e-05	3.302741012000338157e-05
3.755002067001879773e+00	1.714243850849459981e-06	-1.562262902114632370e-04	3.420079581059120872e-03	8.467421670698334069e-01	1.103358135256234052e+00	1.000037046210866309e+00	-9.912621583787336113e-03	3.352595719655154875e-05	3.338631063815434788e-05
3.775028744692556337e+00	1.714243872415950080e-06	-1.562264468682897725e-04	3.385982948201893793e-03	8.467413107176018361e-01	1.103521953602397243e+00	1.000037045917156808e+00	-9.912611511523939517e-03	3.355168555547002911e-05	3.374742715102403175e-05
3.795055422383233346e+00	1.714243892926684338e-06	-1.562265684550499095e-04	3.352452266802028076e-03	8.467406665077625849e-01	1.103692608391163343e+00	1.000037045639640798e+00	-9.912603686646519890e-03	3.357801486555326946e-05	3.411076535435565379e-05
3.815082100073909910e+00	1.714243912718176663e-06	-1.562266899996930477e-04	3.319475171785528193e-03	8.467399951883177733e-01	1.103870047563560775e+00	1.000037045287651694e+00	-9.912595879293873563e-03	3.360494184217646647e-05	3.447633099844689262e-05
3.835108777764586474e+00	1.714243931547171474e-06	-1.562267710536369050e-04	3.287040031977763940e-03	8.467395741463087377e-01	1.104054220231569294e+00	1.000037044955205845e+00	-9.912590624162614591e-03	3.363246738378140253e-05	3.484412988945123917e-05
3.855135455455263482e+00	1.714243949839641216e-06	-1.562268697615944841e-04	3.255135050991704061e-03	8.467390288843683610e-01	1.104245077406481146e+00	1.000037044549867415e+00	-9.912584266355748547e-03	3.366058761279357376e-05	3.521416788835291065e-05
3.875162133145940047e+00	1.714243967192467876e-06	-1.562269637133454313e-04	3.223749341903104498e-03	8.467385321775907636e-01	1.104442571186760258e+00	1.000037044167237488e+00	-9.912578053688511984e-03	3.368930493232733588e-05	3.558645091272370531e-05
3.895188810836616611e+00	1.714243984095424325e-06	-1.562269750687647488e-04	3.192871642585282631e-03	8.467384565776777672e-01	1.104646655508173092e+00	1.000037043713112084e+00	-9.912577894684089508e-03	3.371861490777903076e-05	3.596098493523546349e-05
3.915215488527293175e+00	1.714244001032634576e-06	-1.562267923488788962e-04	3.162491441554951804e-03	8.467394618814108043e-01	1.104857285087641250e+00	1.000037043284995653e+00	-9.912538407171735816e-03	3.374851799355423488e-05	3.633777599162479974e-05
3.935242166217970183e+00	1.714244012406698235e-06	-1.562266939191549436e-04	3.132597872742906141e-03	8.467399901295875608e-01	1.105074418866488939e+00	1.000037042788340935e+00	-9.912991281211001870e-03	3.377900798018616959e-05	3.671683010722624904e-05
3.955268843908646748e+00	1.714244049323052278e-06	-1.562274465278417951e-04	3.103181878048976838e-03	8.467359086854996386e-01	1.105298008535750443e+00	1.000037042346018090e+00	-9.911868089658623301e-03	3.381009544336327185e-05	3.709815392772125304e-05
3.975295521599323312e+00	1.714244081961893537e-06	-1.562286411119968334e-04	3.074234607965003335e-03	8.467294509353101573e-01	1.105528006553075038e+00	1.000037041925953218e+00	-9.909274349969111884e-03	3.384179023907608387e-05	3.748175281330881110e-05
3.995322199289999876e+00	1.714584732784533302e-06	-1.562400868258956841e-04	3.045531353289996409e-03	8.467602886738009316e-01	1.105725138389047624e+00	1.000000000000000000e+00	-1.000000000000000021e-02	3.387174561589884471e-05	3.787100112148618141e-05
