# Time=0.0162003240065 and Columns are r	p	Paether	ur	alpha	a	b	K	Sr_tilde	tau_tilde
1.001333884533834630e-02	1.199260828513876165e-02	-1.855354917429422393e-02	2.191627904990860911e-05	6.408822823439346283e-01	1.000085292683668525e+00	1.000037971525411962e+00	-1.193037029988031419e-02	2.475503787988401503e-10	1.503320256681506688e-06
3.004001653601504063e-02	1.196409400995587444e-02	-1.853254267192358529e-02	6.573162012443050945e-05	6.410614203875367734e-01	1.000463710131715089e+00	1.000037983082751047e+00	-1.192546064373965764e-02	6.674112872703372640e-09	1.350282081691573392e-05
5.006669422669172975e-02	1.190723407292938393e-02	-1.849056022151090301e-02	1.094729171420731682e-04	6.414194992163196885e-01	1.001219677669038521e+00	1.000038003853393809e+00	-1.191234171402876831e-02	3.080222724088792126e-08	3.735778754818817106e-05
7.009337191736843276e-02	1.182240382109544900e-02	-1.842768940342906156e-02	1.530805419925548318e-04	6.419561243134407347e-01	1.002351469435219800e+00	1.000038033669280235e+00	-1.189181467770855649e-02	8.411776048634904893e-08	7.278180495876662790e-05
9.012004960804512188e-02	1.171015126445895324e-02	-1.834405522578367448e-02	1.965100481209055357e-04	6.426705230834161009e-01	1.003856476645972773e+00	1.000038073149448925e+00	-1.186497135885763651e-02	1.776449642111264581e-07	1.193493711042789514e-04
1.101467272987218110e-01	1.157119880267916401e-02	-1.823982510124267167e-02	2.397142664772807278e-04	6.435619119719609982e-01	1.005731183849912336e+00	1.000038122144978114e+00	-1.183152985871622175e-02	3.217704721367052086e-07	1.765008120590679734e-04
1.301734049893985001e-01	1.140643659995639603e-02	-1.811521001817018028e-02	2.826492942070153551e-04	6.446290197581376891e-01	1.007971146151490638e+00	1.000038180445485425e+00	-1.179167163507604740e-02	5.260826734241446196e-07	2.435487797060749665e-04
1.502000826800751754e-01	1.121691437341274314e-02	-1.797046536504478750e-02	3.252749168588694420e-04	6.458706135768127465e-01	1.010570953905186142e+00	1.000038247795534074e+00	-1.174554566873010908e-02	7.992251652154209408e-07	3.196862865651882066e-04
1.702267603707518784e-01	1.100383162890685752e-02	-1.780589232039106462e-02	3.675549998357991398e-04	6.472849016639919961e-01	1.013524194022092262e+00	1.000038323903968074e+00	-1.169333523490029281e-02	1.148767055702504079e-06	4.039962160404165126e-04
1.902534380614285814e-01	1.076852652320682210e-02	-1.762183879619826088e-02	4.094582923129108784e-04	6.488701634878891733e-01	1.016823406561373488e+00	1.000038408449525518e+00	-1.163525556838333752e-02	1.581093687331361684e-06	4.954622328041178962e-04
2.102801157521052566e-01	1.051246346198512344e-02	-1.741870085902978010e-02	4.509586274971848566e-04	6.506240155092460897e-01	1.020460037821512289e+00	1.000038501083862164e+00	-1.157155583897191350e-02	2.101317006147044249e-06	5.929810021424973543e-04
2.303067934427819596e-01	1.023721956665059503e-02	-1.719692372939966851e-02	4.920357490459830504e-04	6.525442276120212437e-01	1.024424391063112783e+00	1.000038601437271746e+00	-1.150252061263320504e-02	2.713210551422981964e-06	6.953756105941771371e-04
2.503334711334586626e-01	9.944470149090518102e-03	-1.695700295885825895e-02	5.326753295630139553e-04	6.546277916052887225e-01	1.028705576215772188e+00	1.000038709121316316e+00	-1.142847089028611006e-02	3.419164481983034703e-06	8.014100621574176807e-04
2.703601488241353379e-01	9.635973351604602138e-03	-1.669948522903756324e-02	5.728698169561416724e-04	6.568719294329476988e-01	1.033291460089900804e+00	1.000038823735301952e+00	-1.134976470830803726e-02	4.220168227501350222e-06	9.098047058177957625e-04
2.903868265148120131e-01	9.313554114444443435e-03	-1.642496904534260227e-02	6.126182655951489505e-04	6.592729424995975585e-01	1.038168618835824120e+00	1.000038944868266944e+00	-1.126679713325657965e-02	5.115810777333452123e-06	1.019252430197371438e-03
3.104135042054887439e-01	8.979087648774209882e-03	-1.613410509525039713e-02	6.519272089129093863e-04	6.618274280974698609e-01	1.043322294550691254e+00	1.000039072105861404e+00	-1.117999942147127751e-02	6.104310593331732764e-06	1.128435441468818431e-03
3.304401818961654191e-01	8.634482595430960361e-03	-1.582759623620614772e-02	6.908103046772425633e-04	6.645310410618937569e-01	1.048736358148451231e+00	1.000039205031339362e+00	-1.108983749789223261e-02	7.182557948541262507e-06	1.236042420136766653e-03
3.504668595868420944e-01	8.281664061376486571e-03	-1.550619708911833879e-02	7.292892464555486131e-04	6.673796334866203273e-01	1.054393280724145621e+00	1.000039343232525413e+00	-1.099680930298926884e-02	8.346188194637294011e-06	1.340785833317044862e-03
3.704935372775188251e-01	7.922556724901512817e-03	-1.517071318722454723e-02	7.673932307019381335e-04	6.703681917201063101e-01	1.060274115815072582e+00	1.000039486301361746e+00	-1.090144134453516385e-02	9.589659610100118955e-06	1.441419160364947874e-03
3.905202149681955004e-01	7.559068207239529741e-03	-1.482199952462253181e-02	8.051599284056948315e-04	6.734918007400193529e-01	1.066358494990004457e+00	1.000039633840677400e+00	-1.080428401114291899e-02	1.090636323062365608e-05	1.536753774300644729e-03
4.105468926588721756e-01	7.193072903183439504e-03	-1.446095871658816326e-02	8.426347894248404757e-04	6.767448167637483136e-01	1.072624639278222602e+00	1.000039785461978914e+00	-1.070590603736920610e-02	1.228872713245832310e-05	1.625675207887658296e-03
4.305735703495489064e-01	6.826396464002023635e-03	-1.408853843083256348e-02	8.798721058715463063e-04	6.801214809412694517e-01	1.079049388836095469e+00	1.000039940791796145e+00	-1.060688766906217433e-02	1.372835401659906213e-05	1.707158525231165054e-03
4.506002480402255816e-01	6.460801115850366150e-03	-1.370572835150080972e-02	9.169341827380413871e-04	6.836155193589030787e-01	1.085608253186018723e+00	1.000040099467325527e+00	-1.050781322715607473e-02	1.521614138373490249e-05	1.780282515589839921e-03
4.706269257309022569e-01	6.097971990888164696e-03	-1.331355646802967647e-02	9.538925351166417741e-04	6.872204279681449757e-01	1.092275484051265844e+00	1.000040261142350451e+00	-1.040926231417909319e-02	1.674243704319392206e-05	1.844242429872693925e-03
4.906536034215789877e-01	5.739504632617952254e-03	-1.291308491600971775e-02	9.908269719517939951e-04	6.909292588890425524e-01	1.099024172558409562e+00	1.000040425480495765e+00	-1.031180082056222524e-02	1.829716432318121273e-05	1.898360989902105360e-03
5.106802811122557184e-01	5.386893823890581863e-03	-1.250540509497244032e-02	1.027826988187223369e-03	6.947347902716135559e-01	1.105826372031866844e+00	1.000040592160669206e+00	-1.021597072851834417e-02	1.986998578784227826e-05	1.942097420028012639e-03
5.307069588029323937e-01	5.041523864632239081e-03	-1.209163246976133373e-02	1.064990828815488063e-03	6.986295043782437819e-01	1.112653247144634205e+00	1.000040760867964451e+00	-1.012228026078633956e-02	2.145042340471860014e-05	1.975054277447153752e-03
5.507336364936090689e-01	4.704660406465502147e-03	-1.167290076226449105e-02	1.102427158185600694e-03	7.026055601866840750e-01	1.119475249402462902e+00	1.000040931298721958e+00	-1.003119298662959527e-02	2.302802177493456788e-05	1.996981895079620768e-03
5.707603141842857442e-01	4.377443924939504287e-03	-1.125035589843608255e-02	1.140254200870022706e-03	7.066549413338660823e-01	1.126262318297712728e+00	1.000041103149088118e+00	-9.943118063052799882e-03	2.459245491744659924e-05	2.007780295758911961e-03
5.907869918749625304e-01	4.060884884536662513e-03	-1.082514949161954114e-02	1.178601794996085063e-03	7.107692643368818119e-01	1.132984106490986020e+00	1.000041276120081202e+00	-9.858399623837435163e-03	2.613368195524474176e-05	2.007498491141214425e-03
6.108136695656392057e-01	3.755860621651128332e-03	-1.039843231042079062e-02	1.217610736063238185e-03	7.149401566716244716e-01	1.139610226645209057e+00	1.000041449903964041e+00	-9.777308125289731894e-03	2.764203432382014716e-05	1.996331139030990773e-03
6.308403472563158809e-01	3.463113941659593485e-03	-9.971347433314658656e-03	1.257435350979744289e-03	7.191588677353463188e-01	1.146110516479102337e+00	1.000041624189779599e+00	-9.700030989814081503e-03	2.910835868978749693e-05	1.974612599619870405e-03
6.508670249469925562e-01	3.183253395211235303e-03	-9.545023518416791836e-03	1.298243205544776218e-03	7.234167674721125874e-01	1.152455317928021472e+00	1.000041798647771873e+00	-9.626666176653428733e-03	3.052408054244155959e-05	1.942808499710935253e-03
6.708937026376692314e-01	2.916755169288288291e-03	-9.120568161581287317e-03	1.340218362877637018e-03	7.277049135001548708e-01	1.158615765324824798e+00	1.000041972935953316e+00	-9.557214858264082707e-03	3.188133052451806927e-05	1.901504983730595505e-03
6.909203803283459067e-01	2.663966499781039721e-03	-8.699061383670962308e-03	1.383561656911910451e-03	7.320145332991229159e-01	1.164564077074657478e+00	1.000042146682977862e+00	-9.491578063989420180e-03	3.317298213273343720e-05	1.851395896358096725e-03
7.109470580190225819e-01	2.425110485797507542e-03	-8.281549549873689145e-03	1.428494833047053636e-03	7.363366954460492941e-01	1.170273844582737199e+00	1.000042319496234677e+00	-9.429552063650918636e-03	3.439275850232876826e-05	1.793268202218275100e-03
7.309737357096993682e-01	2.200292162722395847e-03	-7.869039549817689189e-03	1.475261632817660967e-03	7.406627041321923732e-01	1.175720312173444082e+00	1.000042490943487072e+00	-9.370828558483644197e-03	3.553524295343412910e-05	1.727985999131112071e-03
7.510004134003760434e-01	1.989505671027292678e-03	-7.462493704894036101e-03	1.524133061199545430e-03	7.449837046461931234e-01	1.180880641429316480e+00	1.000042660563195795e+00	-9.314993010808167440e-03	3.659596364629673555e-05	1.656473520840367033e-03
7.710270910910527187e-01	1.792642343194416786e-03	-7.062824927477454745e-03	1.575409589007077107e-03	7.492913463815468189e-01	1.185734153891461640e+00	1.000042827845040172e+00	-9.261528651074529134e-03	3.757137637602044804e-05	1.579697550443703120e-03
7.910537687817293939e-01	1.609499520249050566e-03	-6.670892952761241744e-03	1.629427852730915526e-03	7.535769006531083392e-01	1.190262546213739281e+00	1.000042992243054707e+00	-9.209817731320898287e-03	3.845892462805142116e-05	1.498649675355282667e-03
8.110804464724060692e-01	1.439789905138530446e-03	-6.287500805270307587e-03	1.686564367797452205e-03	7.578325373974296175e-01	1.194450072918901151e+00	1.000043153155289355e+00	-9.159149263116915518e-03	3.925699469799211709e-05	1.414328808435410482e-03
8.311071241630827444e-01	1.283151259687913921e-03	-5.913392404186269477e-03	1.747244065656292479e-03	7.620497580641900637e-01	1.198283692452002169e+00	1.000043309940131353e+00	-9.108723341085535677e-03	3.996494931825104232e-05	1.327724377418852209e-03
8.511338018537595307e-01	1.139156258187759693e-03	-5.549250567637825995e-03	1.811946025461467179e-03	7.662213298446063359e-01	1.201753173709719347e+00	1.000043461895332886e+00	-9.057662618287385878e-03	4.058305613600467264e-05	1.239800548470674363e-03
8.711604795444362059e-01	1.007322320016920247e-03	-5.195696011846486113e-03	1.881214393960524986e-03	7.703390774729929058e-01	1.204851160990522141e+00	1.000043608278136542e+00	-9.005020110459519000e-03	4.111249454848414365e-05	1.151481800224542001e-03
8.911871572351128812e-01	8.871212591357113082e-04	-4.853286802197871556e-03	1.955666799600257969e-03	7.743964201892372667e-01	1.207573197008180665e+00	1.000043748283874212e+00	-8.949795286246045936e-03	4.155526029433209305e-05	1.063640106694257190e-03
9.112138349257895564e-01	7.779886054099893582e-04	-4.522518612297053014e-03	2.036008364387306094e-03	7.783855717650958184e-01	1.209917704349221967e+00	1.000043881070695972e+00	-8.890946802470071561e-03	4.191414714686615602e-05	9.770839222826490245e-04
9.312405126164662317e-01	6.793324744763874811e-04	-4.203825515236792910e-03	2.123043631843485324e-03	7.823005103393165793e-01	1.211885927415592645e+00	1.000044005738474961e+00	-8.827415159177466261e-03	4.219263248841747372e-05	8.925490956188878843e-04
9.512671903071429069e-01	5.905418846513254844e-04	-3.897581110786063705e-03	2.217694533614201092e-03	7.861340633765225849e-01	1.213481837356334747e+00	1.000044121359373372e+00	-8.758143635417652006e-03	4.239483802128825546e-05	8.106917722805053817e-04
9.712938679978196932e-01	5.109944440099454220e-04	-3.604100374181468634e-03	2.321016746174910019e-03	7.898804994236930943e-01	1.214712003895531467e+00	1.000044226958418658e+00	-8.682111334949182274e-03	4.252540300208162684e-05	7.320832854989231314e-04
9.913205456884963684e-01	4.400633537944660320e-04	-3.323641167553137606e-03	2.434222462468137345e-03	7.935334897731426418e-01	1.215585437969507465e+00	1.000044321551956550e+00	-8.598367582604732676e-03	4.258943022371790624e-05	6.572069789196688730e-04
1.011347223379172933e+00	3.771236984153514727e-04	-3.056406712798527894e-03	2.558701868592160901e-03	7.970871988632391991e-01	1.216113410100761572e+00	1.000044404132188092e+00	-8.506081047508750811e-03	4.259235466206240844e-05	5.864568613038569685e-04
1.031373901069849497e+00	3.215580134582870565e-04	-2.802546949566907253e-03	2.696051041040722560e-03	8.005361527727898885e-01	1.216309248908955754e+00	1.000044473716662496e+00	-8.404594162954028350e-03	4.253988211277078837e-05	5.201379584891591872e-04
1.051400578760526283e+00	2.727611438168831524e-04	-2.562161046887652914e-03	2.848098181280969698e-03	8.038748008689934332e-01	1.216188124768766254e+00	1.000044529339937371e+00	-8.293494394570390463e-03	4.243786103447866147e-05	4.584682062631084427e-04
1.071427256451203069e+00	2.301444207862466372e-04	-2.335298004455225659e-03	3.016935141961203312e-03	8.070979486800874403e-01	1.215766822602175612e+00	1.000044570117913256e+00	-8.172693745417611288e-03	4.229222110004496435e-05	4.015817161954609313e-04
1.091453934141879634e+00	1.931392019584313104e-04	-2.121958685411412266e-03	3.204945081955784883e-03	8.102005387193240704e-01	1.215063508091844158e+00	1.000044595250161317e+00	-8.042523403987353325e-03	4.210885499399203211e-05	3.495332462988662466e-04
1.111480611832556420e+00	1.611998279317837588e-04	-1.922095072433152325e-03	3.414831537868397073e-03	8.131776943201749486e-01	1.214097490225863663e+00	1.000044604102207302e+00	-7.903834668604033456e-03	4.189356328251547318e-05	3.023037152216488557e-04
1.131507289523232984e+00	1.338060571484270625e-04	-1.735611366170268337e-03	3.649637276036135202e-03	8.160249004565512942e-01	1.212888983257659703e+00	1.000044596220131865e+00	-7.758103882814542523e-03	4.165195129952708569e-05	2.598066119256851577e-04
1.151533967213909770e+00	1.104650418569212564e-04	-1.562361582917386627e-03	3.912754948821463297e-03	8.187376585405657936e-01	1.211458869659760351e+00	1.000044571430318996e+00	-7.607529951121958997e-03	4.138938543358978192e-05	2.218951667331801620e-04
1.171560644904586557e+00	9.071290599812485190e-05	-1.402149596311090887e-03	4.207913216533829687e-03	8.213124288794351191e-01	1.209828465955410381e+00	1.000044529861686016e+00	-7.455108539925451791e-03	4.111090875952681535e-05	1.883701620512577622e-04
1.191587322595263121e+00	7.411597756636145522e-05	-1.254725334074731575e-03	4.539134923721541322e-03	8.237451457579187952e-01	1.208019291969782527e+00	1.000044472053530420e+00	-7.304667806840550899e-03	4.082121269718735137e-05	1.589882658887173373e-04
1.211614000285939907e+00	6.027171574158797252e-05	-1.119784143954172554e-03	4.910643945096200211e-03	8.260334037191563450e-01	1.206052844773169319e+00	1.000044398969560211e+00	-7.160837337843391909e-03	4.052457403689518694e-05	1.334707662702074775e-04
1.231640677976616471e+00	4.880935592915434072e-05	-9.969627269181475290e-04	5.326710837988620460e-03	8.281738712875869046e-01	1.203950377710236497e+00	1.000044312090814014e+00	-7.028936183845286602e-03	4.022484467707847846e-05	1.115125659124586847e-04
1.251667355667293258e+00	3.939027706946792150e-05	-8.858392315923389751e-04	5.791407962927343049e-03	8.301662142197744343e-01	1.201732686301434150e+00	1.000044213391915848e+00	-6.914752517379111479e-03	3.992541176516038146e-05	9.279126541580047581e-05
1.271694033357969822e+00	3.170807634214579604e-05	-7.859308103912409889e-04	6.308263693594094203e-03	8.320087832161401353e-01	1.199419902522022019e+00	1.000044105384952031e+00	-6.824221882375988354e-03	3.962920674628369727e-05	7.697612218947928145e-05
1.291720711048646608e+00	2.548832161319569757e-05	-6.966966204900138741e-04	6.879793397724400655e-03	8.337033700406780712e-01	1.197031300953603106e+00	1.000043991023178425e+00	-6.763000274396656353e-03	3.933868810878147050e-05	6.373663011088733725e-05
1.311747388739323394e+00	2.048794414536918472e-05	-6.175393669625715062e-04	7.506919704656164066e-03	8.352507089330678536e-01	1.194585120299717751e+00	1.000043873667068040e+00	-6.735984470419371407e-03	3.905586824550778249e-05	5.275043202180988868e-05
1.331774066429999959e+00	1.649423776735716232e-05	-5.478132031935392188e-04	8.188300982975522946e-03	8.366545039681106966e-01	1.192098405707844311e+00	1.000043756899275271e+00	-6.746812245303091676e-03	3.878231510306798957e-05	4.371026743793035568e-05
1.351800744120676745e+00	1.332344618247047451e-05	-4.868308346158431790e-04	8.919646241575811263e-03	8.379189140108569411e-01	1.189586876723721209e+00	1.000043644416120037e+00	-6.797434306889771176e-03	3.851919244633079806e-05	3.632968203655899527e-05
1.371827421811353309e+00	1.081894744684175957e-05	-4.338765595588914953e-04	9.693116589448155102e-03	8.390498951697517027e-01	1.187064826581848198e+00	1.000043539780536506e+00	-6.887799742351687939e-03	3.826727525977704651e-05	3.034728970683342250e-05
1.391854099502030095e+00	8.849078449200377261e-06	-3.882182192860394836e-04	1.049697523082352910e-02	8.400542309427296850e-01	1.184545056442591227e+00	1.000043446288224835e+00	-7.015733644429595316e-03	3.802699962992897462e-05	2.552947813230214172e-05
1.411880777192706660e+00	7.304677012179477560e-06	-3.491230735989215650e-04	1.131563628055457307e-02	8.409403541273042793e-01	1.182038847543521287e+00	1.000043366724549632e+00	-7.177009009866560513e-03	3.779849023368007970e-05	2.167157177737816015e-05
1.431907454883383446e+00	6.096446453257604356e-06	-3.158712376245524254e-04	1.213025575945067894e-02	8.417165660153744788e-01	1.179555970849416324e+00	1.000043303279123386e+00	-7.365637851593853126e-03	3.758162049358634670e-05	1.859759044044262689e-05
1.451934132574060232e+00	5.152262239662180417e-06	-2.877701853528238734e-04	1.291989131149705317e-02	8.423927624044122986e-01	1.177104732468126302e+00	1.000043257377408734e+00	-7.574335187843376886e-03	3.737605259590102578e-05	1.615884483324310744e-05
1.471960810264736796e+00	4.414538787436153388e-06	-2.641655054118769168e-04	1.366315038562749065e-02	8.429781760844174965e-01	1.174692049672413807e+00	1.000043229702789249e+00	-7.795126668378915026e-03	3.718130486945205965e-05	1.423167517477886160e-05
1.491987487955413583e+00	3.837758719969928733e-06	-2.444504203428332460e-04	1.434007567175513316e-02	8.434830370962981272e-01	1.172323551717429968e+00	1.000043220143727041e+00	-8.020018227560075236e-03	3.699679449338650857e-05	1.271465724784059806e-05
1.512014165646090147e+00	3.386240221124629437e-06	-2.280712121537290383e-04	1.493395299043673644e-02	8.439158439903747810e-01	1.170003697364011996e+00	1.000043227940192514e+00	-8.241646337741818928e-03	3.682189577364384457e-05	1.152557639796155525e-05
1.532040843336766933e+00	3.032187575905570852e-06	-2.145305688381356332e-04	1.543269467915853871e-02	8.442889363767838162e-01	1.167735901997306147e+00	1.000043251734513694e+00	-8.453811500911430701e-03	3.665596664437704478e-05	1.059841596043532699e-05
1.552067521027443719e+00	2.754040201918488062e-06	-2.033878504834467122e-04	1.582958147214016259e-02	8.446052786112463462e-01	1.165522666631730653e+00	1.000043289800297996e+00	-8.651806931178786589e-03	3.649838357028817727e-05	9.880538207462274047e-06
1.572094198718120284e+00	2.535111636826554178e-06	-1.942574378206500215e-04	1.612327663192610408e-02	8.448770514012816646e-01	1.163365703740258050e+00	1.000043340129255443e+00	-8.832533385799933717e-03	3.634854712127518357e-05	9.330167438606926938e-06
1.592120876408797070e+00	2.362492965105787675e-06	-1.868056452484594652e-04	1.631722166194710111e-02	8.451066054097442493e-01	1.161266055211735981e+00	1.000043400661910997e+00	-8.994382829191469378e-03	3.620589815491449907e-05	8.914226019586159262e-06
1.612147554099473634e+00	2.226186092662421180e-06	-1.807463348536204927e-04	1.641860471125696982e-02	8.453067131194176298e-01	1.159224200752398959e+00	1.000043469333263380e+00	-9.137007072830303361e-03	3.606991330517803648e-05	8.606529740183577011e-06
1.632174231790150420e+00	2.118428912241850110e-06	-1.758364761374316349e-04	1.643715769400483709e-02	8.454747060622126442e-01	1.157240154932245968e+00	1.000043544247863903e+00	-9.260985818548065490e-03	3.594011349303815348e-05	8.386319348813449739e-06
1.652200909480826985e+00	2.033175855017584878e-06	-1.718709299005417607e-04	1.638398017498627138e-02	8.456230060392747605e-01	1.155313553416099648e+00	1.000043623654335301e+00	-9.367536738236153723e-03	3.581605758148191112e-05	8.237088603224684526e-06
1.672227587171503771e+00	1.965701003342898437e-06	-1.686780183336003579e-04	1.627054509742698746e-02	8.457457500919689508e-01	1.153443727924303053e+00	1.000043706061517934e+00	-9.458227464699932655e-03	3.569734738357238169e-05	8.145662579664320836e-06
1.692254264862180557e+00	1.912296144486107423e-06	-1.661146035646145496e-04	1.610794382841060010e-02	8.458570915120282585e-01	1.151629771338806396e+00	1.000043790157354673e+00	-9.534795654811209151e-03	3.558362111784456338e-05	8.101480150299500318e-06
1.712280942552857121e+00	1.870041223136995533e-06	-1.640623516855711295e-04	1.590638726647675139e-02	8.459506194007581081e-01	1.149870592887205278e+00	1.000043874891633155e+00	-9.598982012940369957e-03	3.547455527301041241e-05	8.096038709968275327e-06
1.732307620243533908e+00	1.836629567722068608e-06	-1.624235550743317674e-04	1.567492397558187256e-02	8.460349309376896665e-01	1.148164965126630799e+00	1.000043959366127000e+00	-9.652465536539877461e-03	3.536985838295415293e-05	8.122465314376476407e-06
1.752334297934210472e+00	1.810234270482374526e-06	-1.611182569368773711e-04	1.542133275631276008e-02	8.461071275199092412e-01	1.146511562752951185e+00	1.000044042907508812e+00	-9.696785682468268830e-03	3.526927024483116259e-05	8.175184935828575439e-06
1.772360975624887258e+00	1.789405498106428215e-06	-1.600809796324593798e-04	1.515213382107835800e-02	8.461719433495292764e-01	1.144908995037839938e+00	1.000044124947098378e+00	-9.733340152962909747e-03	3.517255697885224194e-05	8.249662688652857571e-06
1.792387653315563822e+00	1.772991059864637547e-06	-1.592586240597394169e-04	1.487267666070705638e-02	8.462307811531019075e-01	1.143355831884962148e+00	1.000044205096747740e+00	-9.763354154706024163e-03	3.507950865977048013e-05	8.342202187280040032e-06
1.812414331006240609e+00	1.760074566697161641e-06	-1.586079841737913804e-04	1.458726797782662100e-02	8.462804628782828464e-01	1.141850625236232375e+00	1.000044283026482628e+00	-9.787905497133384328e-03	3.498993630601451176e-05	8.449786540564434655e-06
1.832441008696917395e+00	1.749926978094461534e-06	-1.580943048448697058e-04	1.429931482828149247e-02	8.463270980567338952e-01	1.140391925696329301e+00	1.000044358548318524e+00	-9.807913167063633461e-03	3.490366839623384906e-05	8.569951888830433715e-06
1.852467686387593959e+00	1.741968412293781080e-06	-1.576894724359152592e-04	1.401146807634394593e-02	8.463672072690779924e-01	1.138978295976199817e+00	1.000044431494334418e+00	-9.824168789549605693e-03	3.482055007628510169e-05	8.700685980727794366e-06
1.872494364078270745e+00	1.735737909739258317e-06	-1.573710275434603593e-04	1.372575399688715815e-02	8.464067521031610752e-01	1.137608320837045106e+00	1.000044501809347341e+00	-9.837335017353008790e-03	3.474043882267550612e-05	8.840346214015135649e-06
1.892521041768947310e+00	1.730869381070762209e-06	-1.571209024203924407e-04	1.344369307847649575e-02	8.464380175629473424e-01	1.136280615011678652e+00	1.000044569429485497e+00	-9.847973590394369994e-03	3.466320560928489776e-05	8.987592979036577615e-06
1.912547719459624096e+00	1.727072439141593865e-06	-1.569247504530642105e-04	1.316639959454026475e-02	8.464725432660867854e-01	1.134993828591191134e+00	1.000044634383302711e+00	-9.856548433310600640e-03	3.458872990147343770e-05	9.141335170240279039e-06
1.932574397150300882e+00	1.724117067190566436e-06	-1.567710992949264415e-04	1.289466790579312308e-02	8.464995183552084246e-01	1.133746651254822435e+00	1.000044696669944777e+00	-9.863447277413905229e-03	3.451690240490079716e-05	9.300685477592369416e-06
1.952601074840977446e+00	1.721821367949884854e-06	-1.566508801789237636e-04	1.262904045100554477e-02	8.465283564405318151e-01	1.132537814654708264e+00	1.000044756367783672e+00	-9.868987578227865834e-03	3.444761955205820651e-05	9.464923610108703648e-06
1.972627752531654233e+00	1.720041740782595816e-06	-1.565568853857758137e-04	1.236986616678162343e-02	8.465503617133152137e-01	1.131366094261431643e+00	1.000044813511229425e+00	-9.873431301240341920e-03	3.438078737244739931e-05	9.633466002953621336e-06
1.992654430222330797e+00	1.718665036836915314e-06	-1.564834223091611781e-04	1.211734393388736591e-02	8.465762190047158020e-01	1.130230309847410242e+00	1.000044868206036774e+00	-9.876992539070247878e-03	3.431631562406643483e-05	9.805840853137145707e-06
2.012681107913007583e+00	1.717602267121446041e-06	-1.564260293946640942e-04	1.187156054247127251e-02	8.465956270416178375e-01	1.129129325859734134e+00	1.000044920503843304e+00	-9.879843856871371732e-03	3.425412238191161260e-05	9.981667553865693939e-06
2.032707785603684147e+00	1.716783591718594484e-06	-1.563811502258823040e-04	1.163251713704053711e-02	8.466177747788166119e-01	1.128062050743021016e+00	1.000044970523485954e+00	-9.882128349027576378e-03	3.419412821567707376e-05	1.016063976748861404e-05
2.052734463294360712e+00	1.716154305442323699e-06	-1.563460584106424764e-04	1.140015319115616176e-02	8.466344814712261080e-01	1.127027436451955023e+00	1.000045018322534673e+00	-9.883957310849547997e-03	3.413626080839619431e-05	1.034251151372225845e-05
2.072761140985037720e+00	1.715671654256012771e-06	-1.563185461016613586e-04	1.117436199767973468e-02	8.466535004706859935e-01	1.126024477119208278e+00	1.000045064024154273e+00	-9.885425398274694242e-03	3.408044969197363959e-05	1.052708575549738163e-05
2.092787818675714284e+00	1.715302290152767219e-06	-1.562969713995580098e-04	1.095500546196643069e-02	8.466681962230776515e-01	1.125052208097412798e+00	1.000045107685089807e+00	-9.886603053529199187e-03	3.402663039357844564e-05	1.071420505378944345e-05
2.112814496366390848e+00	1.715020262699677919e-06	-1.562799607096013892e-04	1.074192285549701621e-02	8.466855220877541610e-01	1.124109704293451140e+00	1.000045149427679192e+00	-9.887552705914938456e-03	3.397474002271925450e-05	1.090374393311140804e-05
2.132841174057067857e+00	1.714805417974589054e-06	-1.562665499650231049e-04	1.053493970666587003e-02	8.467000589375286435e-01	1.123196079003398351e+00	1.000045189304024529e+00	-9.888317582518981602e-03	3.392472058261048981e-05	1.109560265969312169e-05
2.152867851747744421e+00	1.714642141309946234e-06	-1.562558716137622860e-04	1.033387263558183285e-02	8.467134067573743872e-01	1.122310482102581553e+00	1.000045227432920125e+00	-9.888939661884466742e-03	3.387651574483898563e-05	1.128970218336740019e-05
2.172894529438420985e+00	1.714518359305924854e-06	-1.562473815720797970e-04	1.013853441051549772e-02	8.467264148543832691e-01	1.121452098834678113e+00	1.000045263859768330e+00	-9.889444042055524700e-03	3.383007287650704765e-05	1.148598003615676697e-05
2.192921207129097994e+00	1.714424758702426076e-06	-1.562405325470461021e-04	9.948736712029273774e-03	8.467365846218847247e-01	1.120620147979687342e+00	1.000045298698503560e+00	-9.889858753389702689e-03	3.378534145799331876e-05	1.168438701514410096e-05
2.212947884819774558e+00	1.714354170922017208e-06	-1.562350212449142861e-04	9.764292633094301746e-03	8.467470119212140434e-01	1.119813880682264617e+00	1.000045331986999964e+00	-9.890198334541614247e-03	3.374227342785435631e-05	1.188488450666724325e-05
2.232974562510451122e+00	1.714301090096954754e-06	-1.562305033511100197e-04	9.585018449725679276e-03	8.467559488235819609e-01	1.119032578671411926e+00	1.000045363833889756e+00	-9.890481243285464269e-03	3.370082337423893317e-05	1.208744233368734079e-05
2.253001240201127686e+00	1.714261298019206521e-06	-1.562268119294626869e-04	9.410734445756649066e-03	8.467653131191962279e-01	1.118275553178464499e+00	1.000045394269317933e+00	-9.890715782647887047e-03	3.366094721405408585e-05	1.229203702825905006e-05
2.273027917891804695e+00	1.714231568480387313e-06	-1.562237281438831453e-04	9.241266264822309631e-03	8.467729349654217197e-01	1.117542143241533559e+00	1.000045423396694000e+00	-9.890914255319361789e-03	3.362260402263426859e-05	1.249865044918774783e-05
2.293054595582481259e+00	1.714209441880550126e-06	-1.562211633530977118e-04	9.076444646599861679e-03	8.467812581749232237e-01	1.116831714736556291e+00	1.000045451238575245e+00	-9.891081223279659870e-03	3.358575321370709459e-05	1.270726867823572881e-05
2.313081273273157823e+00	1.714193044480761505e-06	-1.562189922712817571e-04	8.916106671214948237e-03	8.467860581298430889e-01	1.116143658783147252e+00	1.000045477893516610e+00	-9.891223964768778090e-03	3.355035784721024027e-05	1.291788114161538268e-05
2.333107950963834831e+00	1.714180955245792958e-06	-1.562171465673792715e-04	8.760094801454931454e-03	8.467943649011427931e-01	1.115477390900214694e+00	1.000045503376882472e+00	-9.891346393046290472e-03	3.351638055796661824e-05	1.313047991185136423e-05
2.353134628654511395e+00	1.714172095651724864e-06	-1.562155654891382844e-04	8.608258069116003428e-03	8.467980032231368082e-01	1.114832349512642651e+00	1.000045527782820409e+00	-9.891451989323406940e-03	3.348378777255502472e-05	1.334505915505248607e-05
2.373161306345187960e+00	1.714165652293596396e-06	-1.562141998770543122e-04	8.460450821087355661e-03	8.468061346536175371e-01	1.114207995228624126e+00	1.000045551119953968e+00	-9.891543770957703097e-03	3.345254514362734676e-05	1.356161469359218925e-05
2.393187984035864524e+00	1.714161009900051227e-06	-1.562130157702264774e-04	8.316533798946708356e-03	8.468085072340745256e-01	1.113603809450198545e+00	1.000045573478523186e+00	-9.891623848583060152e-03	3.342262204862106098e-05	1.378014366174456767e-05
2.413214661726541532e+00	1.714157707335034180e-06	-1.562119895345835175e-04	8.176372784400804186e-03	8.468159373012792424e-01	1.113019293760915795e+00	1.000045594860948350e+00	-9.891693665703655408e-03	3.339398686719612693e-05	1.400064423417592577e-05
2.433241339417218096e+00	1.714155396639510530e-06	-1.562110896337557796e-04	8.039839626902229794e-03	8.468175592038549304e-01	1.112453968637376223e+00	1.000045615354032913e+00	-9.891755135296761980e-03	3.336661169923583196e-05	1.422311541340547058e-05
2.453268017107894661e+00	1.714153819094428626e-06	-1.562103141480070839e-04	7.906810796810961189e-03	8.468231317542584957e-01	1.111907372935877047e+00	1.000045634954501939e+00	-9.891808491724184138e-03	3.334046728561821564e-05	1.444755686246449674e-05
2.473294694798571669e+00	1.714152779506909570e-06	-1.562096316551441866e-04	7.777168485050806913e-03	8.468237235295226206e-01	1.111379062694491937e+00	1.000045653746190366e+00	-9.891855689343229813e-03	3.331552828942747826e-05	1.467396877489651751e-05
2.493321372489248233e+00	1.714152134430221632e-06	-1.562090448239736426e-04	7.650799010274259536e-03	8.468291426567094993e-01	1.110868610716785998e+00	1.000045671720537932e+00	-9.891896597362807506e-03	3.329176749531844863e-05	1.490235177226601896e-05
2.513348050179924797e+00	1.714151775190746010e-06	-1.562085289476375545e-04	7.527594064669613713e-03	8.468294549825433615e-01	1.110375605451872749e+00	1.000045688958907553e+00	-9.891932790791481758e-03	3.326916189654704749e-05	1.513270682523651919e-05
2.533374727870601362e+00	1.714151623348296551e-06	-1.562081013042142231e-04	7.407448988746733430e-03	8.468340905554454512e-01	1.109899650661554160e+00	1.000045705447862865e+00	-9.891963260075365902e-03	3.324768612740990840e-05	1.536503519093200245e-05
2.553401405561278370e+00	1.714151618691541282e-06	-1.562077231569669567e-04	7.290264179626051305e-03	8.468349234243356394e-01	1.109440364373949883e+00	1.000045721266671794e+00	-9.891990381971678056e-03	3.322731942626211209e-05	1.559933836546421897e-05
2.573428083251954934e+00	1.714151719222025675e-06	-1.562074230531018584e-04	7.175943166136847066e-03	8.468366768325255034e-01	1.108997378626919161e+00	1.000045736397413343e+00	-9.892012455228648554e-03	3.320803792107828296e-05	1.583561804549929688e-05
2.593454760942631498e+00	1.714151891569814850e-06	-1.562071567177761029e-04	7.064394295639245605e-03	8.468384028437124789e-01	1.108570338485750817e+00	1.000045750917618159e+00	-9.892032209551235994e-03	3.318982301120567823e-05	1.607387609997288275e-05
2.613481438633308507e+00	1.714152114000992060e-06	-1.562069663957060415e-04	6.955528530462112488e-03	8.468378001096471541e-01	1.108158901854852330e+00	1.000045764805181037e+00	-9.892047056136665795e-03	3.317265207228126898e-05	1.631411454622987907e-05
2.633508116323985071e+00	1.714152367782526879e-06	-1.562067969584198998e-04	6.849261483376467910e-03	8.468401014578964547e-01	1.107762738547422465e+00	1.000045778136265939e+00	-9.892060476861823728e-03	3.315650865264836787e-05	1.655633553329511330e-05
2.653534794014661635e+00	1.714152642427941779e-06	-1.562067039746229682e-04	6.745510847765921400e-03	8.468399644728815678e-01	1.107381530165263417e+00	1.000045790884880770e+00	-9.892068929369455046e-03	3.314137109270930262e-05	1.680054132679085571e-05
2.673561471705338199e+00	1.714152927025220681e-06	-1.562066185118519122e-04	6.644198878797397297e-03	8.468400850196946550e-01	1.107014969211028710e+00	1.000045803126082156e+00	-9.892076819031855872e-03	3.312722509806983236e-05	1.704673429914666015e-05
2.693588149396015208e+00	1.714153217373972726e-06	-1.562065996869938715e-04	6.545249353103391524e-03	8.468394494092258418e-01	1.106662759032027932e+00	1.000045814830216040e+00	-9.892080467851973452e-03	3.311404965366000351e-05	1.729491691970714743e-05
2.713614827086691772e+00	1.714153506640477127e-06	-1.562065980468692577e-04	6.448590592629800840e-03	8.468405836451486923e-01	1.106324612963014653e+00	1.000045826071590538e+00	-9.892082831979160870e-03	3.310183258176117762e-05	1.754509174911562125e-05
2.733641504777368336e+00	1.714153794035357834e-06	-1.562066401741683840e-04	6.354151936462869646e-03	8.468386987313445413e-01	1.106000254331313659e+00	1.000045836817053502e+00	-9.892082402690781720e-03	3.309055353355372695e-05	1.779726143245232206e-05
2.753668182468045345e+00	1.714154074945039201e-06	-1.562067047791196556e-04	6.261867181046907455e-03	8.468403589897243178e-01	1.105689415630870087e+00	1.000045847140383470e+00	-9.892080477387448292e-03	3.308020204575113038e-05	1.805142869619293165e-05
2.773694860158721909e+00	1.714154350337654263e-06	-1.562068081922034430e-04	6.171670780575880602e-03	8.468368412145432789e-01	1.105391838576454067e+00	1.000045857005174232e+00	-9.892076003842526638e-03	3.307075857623992959e-05	1.830759634313767825e-05
2.793721537849398473e+00	1.714154616770539674e-06	-1.562069269283221991e-04	6.083501511871775708e-03	8.468391535215937793e-01	1.105107273303075788e+00	1.000045866484857271e+00	-9.892070522232079832e-03	3.306221420144609346e-05	1.856576725082285500e-05
2.813748215540075037e+00	1.714154876176640078e-06	-1.562070726773996925e-04	5.997298483325864439e-03	8.468347152071130646e-01	1.104835478473153554e+00	1.000045875539937956e+00	-9.892063245932064194e-03	3.305455002085991105e-05	1.882594436764826665e-05
2.833774893230752046e+00	1.714155125714159302e-06	-1.562072405728883015e-04	5.913005016883604581e-03	8.468358494430359151e-01	1.104576220488629579e+00	1.000045884243741634e+00	-9.892054366627401132e-03	3.304775853566352476e-05	1.908813071209177248e-05
2.853801570921428610e+00	1.714155367750151245e-06	-1.562074247111827575e-04	5.830564505861802853e-03	8.468326659112911381e-01	1.104329273656283306e+00	1.000045892553760529e+00	-9.892044603531132199e-03	3.304182158665833636e-05	1.935232936965039288e-05
2.873828248612105174e+00	1.714155599812847348e-06	-1.562076318264385845e-04	5.749924397533585051e-03	8.468316686603830634e-01	1.104094419397161575e+00	1.000045900543445665e+00	-9.892033281766571609e-03	3.303673284357259662e-05	1.961854349238728218e-05
2.893854926302782182e+00	1.714155824431540507e-06	-1.562078512722685545e-04	5.671032024917079147e-03	8.468302988102347495e-01	1.103871446472878715e+00	1.000045908167403796e+00	-9.892021015471139100e-03	3.303247492141084409e-05	1.988677629663345730e-05
2.913881603993458747e+00	1.714156039355491386e-06	-1.562080902593441806e-04	5.593838603492723091e-03	8.468293673121338738e-01	1.103660150199572643e+00	1.000045915499323534e+00	-9.892007495187930127e-03	3.302904253747790582e-05	2.015703106259802697e-05
2.933908281684135311e+00	1.714156247157034439e-06	-1.562083344997167362e-04	5.518295074579949305e-03	8.468266330912377349e-01	1.103460332712999481e+00	1.000045922491050288e+00	-9.891993622531481192e-03	3.302641900326270120e-05	2.042931113250994724e-05
2.953934959374811875e+00	1.714156445733425196e-06	-1.562086081299322816e-04	5.444356102904653570e-03	8.468262330949943850e-01	1.103271802193513285e+00	1.000045929216713425e+00	-9.891977789381651773e-03	3.302459998931647056e-05	2.070361991042389497e-05
2.973961637065488883e+00	1.714156637563558305e-06	-1.562088825288753023e-04	5.371975973835855026e-03	8.468227755932199452e-01	1.103094373168556297e+00	1.000045935625456517e+00	-9.891961874257568579e-03	3.302356964669432251e-05	2.097996086058068999e-05
2.993988314756165448e+00	1.714156820718327241e-06	-1.562091727100263830e-04	5.301112484356691225e-03	8.468225290201931710e-01	1.102927865747672653e+00	1.000045941791944060e+00	-9.891944896587291994e-03	3.302332434140756466e-05	2.125833750738869414e-05
3.014014992446842012e+00	1.714156997607214207e-06	-1.562094592062122347e-04	5.231722971310974642e-03	8.468197728816947434e-01	1.102772105954184179e+00	1.000045947662738799e+00	-9.891928113806692721e-03	3.302384887340707156e-05	2.153875343391131543e-05
3.034041670137519020e+00	1.714157166401508316e-06	-1.562097618516921195e-04	5.163768126335963396e-03	8.468192139828341070e-01	1.102626924969705824e+00	1.000045953313165148e+00	-9.891910228425403878e-03	3.302514035636296911e-05	2.182121228198393247e-05
3.054068347828195584e+00	1.714157329399591542e-06	-1.562100600122872372e-04	5.097208106532838748e-03	8.468153784024187170e-01	1.102492159497633128e+00	1.000045958687274528e+00	-9.891892609244593362e-03	3.302718427401596217e-05	2.210571775086180284e-05
3.074095025518872148e+00	1.714157484861772985e-06	-1.562103750673907979e-04	5.032006263459940822e-03	8.468145838893327282e-01	1.102367651011349814e+00	1.000045963861129206e+00	-9.891873871235344964e-03	3.302997842429466688e-05	2.239227359738922237e-05
3.094121703209549157e+00	1.714157634970033445e-06	-1.562106817253594018e-04	4.968125354601079721e-03	8.468113346047807521e-01	1.102253246146517096e+00	1.000045968776360983e+00	-9.891855588708309277e-03	3.303350894887945358e-05	2.268088363479016199e-05
3.114148380900225721e+00	1.714157778086530323e-06	-1.562110035833122077e-04	4.905531168889348988e-03	8.468094770879796007e-01	1.102148795952139881e+00	1.000045973509890551e+00	-9.891836318125289337e-03	3.303777420773392186e-05	2.297155173283720676e-05
3.134175058590902285e+00	1.714157916267388663e-06	-1.562113152872432117e-04	4.844188866579178347e-03	8.468071812191309000e-01	1.102054156312589850e+00	1.000045978000948965e+00	-9.891817674068470109e-03	3.304276099100577198e-05	2.326428181682767260e-05
3.154201736281578849e+00	1.714158047974037915e-06	-1.562116390717414481e-04	4.784066480727827350e-03	8.468063264326383122e-01	1.101969187199283828e+00	1.000045982327404159e+00	-9.891798186158033690e-03	3.304846816418286908e-05	2.355907786779880010e-05
3.174228413972255858e+00	1.714158175146295761e-06	-1.562119491749377977e-04	4.725131388042533472e-03	8.468037620731605486e-01	1.101893753116727215e+00	1.000045986426170375e+00	-9.891779547099788933e-03	3.305488311488363539e-05	2.385594392152346819e-05
3.194255091662932422e+00	1.714158296337249084e-06	-1.562122763392461919e-04	4.667353690779289625e-03	8.468021511293860604e-01	1.101827722357598516e+00	1.000045990376130289e+00	-9.891759760566998239e-03	3.306200516680565273e-05	2.415488406883276805e-05
3.214281769353608986e+00	1.714158413339610930e-06	-1.562125893172936690e-04	4.610702833159835770e-03	8.467996580021160957e-01	1.101770967474196672e+00	1.000045994111907088e+00	-9.891740865292790105e-03	3.306982240578364905e-05	2.445590245472390795e-05
3.234308447044285995e+00	1.714158524825852396e-06	-1.562128991029482629e-04	4.555150810772385858e-03	8.467966388523890942e-01	1.101723364527833704e+00	1.000045997713479684e+00	-9.891722123979009712e-03	3.307833445514247930e-05	2.475900327862256653e-05
3.254335124734962559e+00	1.714158632519006844e-06	-1.562132112805291134e-04	4.500668945147221107e-03	8.467950279086146059e-01	1.101684793588254774e+00	1.000046001113240379e+00	-9.891703186288833272e-03	3.308752980259317792e-05	2.506419079364533031e-05
3.274361802425639123e+00	1.714158735066603215e-06	-1.562135065363621069e-04	4.447231052938611234e-03	8.467920635528934925e-01	1.101655137979965726e+00	1.000046004392293186e+00	-9.891685305503166922e-03	3.309740885713158693e-05	2.537146930688047162e-05
3.294388480116315687e+00	1.714158834227109436e-06	-1.562138208369362805e-04	4.394810139335605416e-03	8.467908252083594656e-01	1.101634284807002873e+00	1.000046007480866139e+00	-9.891666175840384267e-03	3.310796007873461206e-05	2.568084317878451553e-05
3.314415157806992696e+00	1.714158928522821684e-06	-1.562141029325422967e-04	4.343381764906038139e-03	8.467874937327986018e-01	1.101622124186950380e+00	1.000046010461271395e+00	-9.891649053798303240e-03	3.311918506245930009e-05	2.599231682328795973e-05
3.334441835497669260e+00	1.714159019864584668e-06	-1.562143991707203006e-04	4.292920425702765122e-03	8.467859101860271132e-01	1.101618549811629988e+00	1.000046013261510547e+00	-9.891631005620711917e-03	3.313107169855304468e-05	2.630589470753927068e-05
3.354468513188345824e+00	1.714159106614295323e-06	-1.562146750689899445e-04	4.243403326943604760e-03	8.467838608902050757e-01	1.101623458162572122e+00	1.000046015965253554e+00	-9.891614216511995794e-03	3.314362293866074898e-05	2.662158135176354091e-05
3.374495190879022832e+00	1.714159190761048321e-06	-1.562149725943765422e-04	4.194806377610064453e-03	8.467807869464721859e-01	1.101636749106589486e+00	1.000046018498284228e+00	-9.891596039862091821e-03	3.315682633523732957e-05	2.693938132934940816e-05
3.394521868569699397e+00	1.714159270533605442e-06	-1.562152379579388566e-04	4.147108305746232196e-03	8.467805842086502111e-01	1.101658325095182134e+00	1.000046020945651426e+00	-9.891579871686149647e-03	3.317068613741033231e-05	2.725929926647276946e-05
3.414548546260375961e+00	1.714159348081590404e-06	-1.562155046562468800e-04	4.100286277315338089e-03	8.467772308154870586e-01	1.101688091785530288e+00	1.000046023230949599e+00	-9.891563545066118027e-03	3.318518911396830872e-05	2.758133984236260718e-05
3.434575223951052525e+00	1.714159421527285112e-06	-1.562157577918482545e-04	4.054320427469390760e-03	8.467768362986443087e-01	1.101725957233981035e+00	1.000046025440687769e+00	-9.891548116168380478e-03	3.320034070644217202e-05	2.790550778891994277e-05
3.454601901641729533e+00	1.714159493033982491e-06	-1.562160069500331426e-04	4.009189163194776077e-03	8.467731979766501826e-01	1.101771832539808038e+00	1.000046027496253043e+00	-9.891532926067970327e-03	3.321612749349578365e-05	2.823180789114516153e-05
3.474628579332406098e+00	1.714159560696403262e-06	-1.562162559420454265e-04	3.964873891985748119e-03	8.467736746845018203e-01	1.101825631025444618e+00	1.000046029485675003e+00	-9.891517589281098588e-03	3.323255578832666018e-05	2.856024498661937429e-05
3.494655257023082662e+00	1.714159626640873927e-06	-1.562164777142217604e-04	3.921354200514911258e-03	8.467715212800686064e-01	1.101887268905046957e+00	1.000046031328170937e+00	-9.891504193003972795e-03	3.324961218109719633e-05	2.889082396600567461e-05
3.514681934713759670e+00	1.714159689054585584e-06	-1.562167136602684507e-04	3.878612610353991772e-03	8.467707925197897056e-01	1.101956664457503399e+00	1.000046033113300981e+00	-9.891489592563532801e-03	3.326730324449117521e-05	2.922354977269999855e-05
3.534708612404436234e+00	1.714159749915373294e-06	-1.562169064320636678e-04	3.836629876713606915e-03	8.467674391266265532e-01	1.102033738705635590e+00	1.000046034758127478e+00	-9.891477849320996427e-03	3.328561615854192386e-05	2.955842740306555629e-05
3.554735290095112799e+00	1.714159807583112337e-06	-1.562171188843518787e-04	3.795389499280493826e-03	8.467674994000330413e-01	1.102118414603739271e+00	1.000046036353773538e+00	-9.891464977252245258e-03	3.330455723686959440e-05	2.989546190659578772e-05
3.574761967785789363e+00	1.714159863829040086e-06	-1.562172924294271076e-04	3.754873370390538270e-03	8.467643323064900640e-01	1.102210617703928364e+00	1.000046037815212951e+00	-9.891454290143179492e-03	3.332411463781696797e-05	3.023465838571516738e-05
3.594788645476466371e+00	1.714159917179440338e-06	-1.562174944732022371e-04	3.715065896473742496e-03	8.467655048982170030e-01	1.102310275356796376e+00	1.000046039235119144e+00	-9.891441958695608092e-03	3.334429438263428154e-05	3.057602199605706858e-05
3.614815323167142935e+00	1.714159969187822130e-06	-1.562176529561586232e-04	3.675950045328081443e-03	8.467607761755048257e-01	1.102417317394775553e+00	1.000046040526403335e+00	-9.891432253888068904e-03	3.336508571039739412e-05	3.091955794656892417e-05
3.634842000857819500e+00	1.714160018597474016e-06	-1.562178281617761612e-04	3.637511028924435719e-03	8.467641240892674892e-01	1.102531675317563353e+00	1.000046041783298811e+00	-9.891421559848775913e-03	3.338649399594521925e-05	3.126527149958348918e-05
3.654868678548496508e+00	1.714160066774124606e-06	-1.562179634387575369e-04	3.599732811477793833e-03	8.467608583665137134e-01	1.102653282996793216e+00	1.000046042916662659e+00	-9.891413347156697428e-03	3.340850944891612706e-05	3.161316797099813732e-05
3.674895356239173072e+00	1.714160112620947970e-06	-1.562181181476126929e-04	3.562601380825609638e-03	8.467604693290715634e-01	1.102782075848744547e+00	1.000046044022367742e+00	-9.891403877492134511e-03	3.343113702937750855e-05	3.196325273032795642e-05
3.694922033929849636e+00	1.714160157321854976e-06	-1.562182299717422660e-04	3.526101639759659980e-03	8.467577844227808237e-01	1.102917991561296995e+00	1.000046045009191920e+00	-9.891397108663041796e-03	3.345436795921837415e-05	3.231553120099115784e-05
3.714948711620526201e+00	1.714160199953841021e-06	-1.562183566103103876e-04	3.490220279916331041e-03	8.467593789283535122e-01	1.103060969257155355e+00	1.000046045974667841e+00	-9.891389384834959470e-03	3.347820659452202123e-05	3.267000886040855208e-05
3.734975389311203209e+00	1.714160241529117466e-06	-1.562184460730198178e-04	3.454943086242574530e-03	8.467567542954692605e-01	1.103210950230771870e+00	1.000046046825534107e+00	-9.891384015572860303e-03	3.350264517944079567e-05	3.302669124011147427e-05
3.755002067001879773e+00	1.714160281265544252e-06	-1.562185425804638083e-04	3.420257420212193932e-03	8.467570940183060113e-01	1.103367877111276707e+00	1.000046047660964277e+00	-9.891378194127529305e-03	3.352768759286967829e-05	3.338558392615580036e-05
3.775028744692556337e+00	1.714160320046282397e-06	-1.562186062435915563e-04	3.386149873482994892e-03	8.467542502093979850e-01	1.103531694608446356e+00	1.000046048385691888e+00	-9.891374395625270044e-03	3.355332688820545077e-05	3.374669255899912055e-05
3.795055422383233346e+00	1.714160357193394261e-06	-1.562186706487000000e-04	3.352608449809675595e-03	8.467567926512733489e-01	1.103702348675845712e+00	1.000046049100543621e+00	-9.891370564808299112e-03	3.357956662856042917e-05	3.411002283422463397e-05
3.815082100073909910e+00	1.714160393490608935e-06	-1.562187049346471283e-04	3.319620482111949010e-03	8.467547378760508225e-01	1.103879787258426726e+00	1.000046049708273710e+00	-9.891368640886365887e-03	3.360640051082069209e-05	3.447558050200078233e-05
3.835108777764586474e+00	1.714160428337037224e-06	-1.562187426540513071e-04	3.287174589889626207e-03	8.467570666213031227e-01	1.104063959459731459e+00	1.000046050311351076e+00	-9.891366469627209043e-03	3.363383193156670110e-05	3.484337136835572281e-05
3.855135455455263482e+00	1.714160462408416603e-06	-1.562187758440979112e-04	3.255258812489817202e-03	8.467557734827629856e-01	1.104254816294519381e+00	1.000046050810602827e+00	-9.891364599164433058e-03	3.366185533514732934e-05	3.521340129412727822e-05
3.875162133145940047e+00	1.714160495124144312e-06	-1.562188087603973445e-04	3.223862387738779100e-03	8.467576145613624483e-01	1.104452309852960612e+00	1.000046051310129025e+00	-9.891362509837452535e-03	3.369047439132731169e-05	3.558567619678367161e-05
3.895188810836616611e+00	1.714160527124567310e-06	-1.562188030812403572e-04	3.192973951692789237e-03	8.467564967636413975e-01	1.104656394076673598e+00	1.000046051708828321e+00	-9.891364042587055122e-03	3.371968359720276334e-05	3.596020204870951106e-05
3.915215488527293175e+00	1.714160559091592857e-06	-1.562188249966037343e-04	3.162583262350885435e-03	8.467599268684128377e-01	1.104867023477901444e+00	1.000046052112761208e+00	-9.891283542791956193e-03	3.374948625143869569e-05	3.633698489099100018e-05
3.935242166217970183e+00	1.714160579252855720e-06	-1.562189589009624184e-04	3.132679715421804022e-03	8.467608528871131135e-01	1.105084159083375983e+00	1.000046052420402232e+00	-9.891969703293567936e-03	3.377987902468505490e-05	3.671603069237270765e-05
3.955268843908646748e+00	1.714160666661386273e-06	-1.562192175087215946e-04	3.103253883859356192e-03	8.467578885313921111e-01	1.105307738780254123e+00	1.000046052774687277e+00	-9.889064741051353455e-03	3.381086873092077394e-05	3.709734666239944358e-05
3.975295521599323312e+00	1.714160714586108724e-06	-1.562191599603033069e-04	3.074295578199965663e-03	8.467575981231606486e-01	1.105537733736105865e+00	1.000046053113251343e+00	-9.886381328762466544e-03	3.384245022702843484e-05	3.748093708947163293e-05
3.995322199289999876e+00	1.714584732784533302e-06	-1.562404259553975899e-04	3.045531353289996409e-03	8.467602885088519882e-01	1.105725138389047624e+00	1.000000000000000000e+00	-1.000000000000000021e-02	3.387174561589884471e-05	3.787100112148618141e-05
