# Time=0.0113002260045 and Columns are r	p	Paether	ur	alpha	a	b	K	Sr_tilde	tau_tilde
1.001333884533834630e-02	1.199383460130118949e-02	-1.855353267091013406e-02	2.080371627510792834e-05	6.421343523252245333e-01	1.000073109839104690e+00	1.000025787920787002e+00	-1.132564899839644430e-02	2.349909959809455464e-10	1.503419031433904251e-06
3.004001653601504063e-02	1.196531334147940377e-02	-1.853252320599552139e-02	6.239633169586351490e-05	6.423138465540384479e-01	1.000451532012705202e+00	1.000025796600510830e+00	-1.132184854436189825e-02	6.335657542108160595e-09	1.350370344402139201e-05
5.006669422669172975e-02	1.190844477249320896e-02	-1.849053832059984262e-02	1.039339731734458498e-04	6.426726535592673928e-01	1.001207513446888964e+00	1.000025813163244459e+00	-1.131268510244141934e-02	2.924464241371014475e-08	3.736022099783715148e-05
7.009337191736843276e-02	1.182360192315674158e-02	-1.842766405751430567e-02	1.453755028177782958e-04	6.432103108052188434e-01	1.002339326454401380e+00	1.000025837520243766e+00	-1.129854821619451048e-02	7.988628011450108138e-08	7.278652280941596197e-05
9.012004960804512188e-02	1.171133286221285111e-02	-1.834402534908287363e-02	1.866875881857359804e-04	6.439261460996843489e-01	1.003844360899236010e+00	1.000025869830062808e+00	-1.127997312345845396e-02	1.687705690564134212e-07	1.193570581653259383e-04
1.101467272987218110e-01	1.157236011712090527e-02	-1.823978965496274654e-02	2.278364443815320114e-04	6.448192571119563121e-01	1.005719102172099477e+00	1.000025909979917360e+00	-1.125684650331108642e-02	3.058359076162951571e-07	1.765120899730222577e-04
1.301734049893985001e-01	1.140757405993813450e-02	-1.811516794446896977e-02	2.687908432026862556e-04	6.458885038399047041e-01	1.007959105178579229e+00	1.000025957821310429e+00	-1.122928066161006308e-02	5.003032792323534554e-07	2.435641944244706784e-04
1.502000826800751754e-01	1.121802465015521270e-02	-1.797041570617411918e-02	3.095225859880894955e-04	6.471325009942738848e-01	1.010558960173248533e+00	1.000026013176664064e+00	-1.119737945456449404e-02	7.605425083888583190e-07	3.197062977091916680e-04
1.702267603707518784e-01	1.100491166731222201e-02	-1.780583411114089812e-02	3.500068162842543112e-04	6.485496095670117978e-01	1.013512253923844142e+00	1.000026075842682216e+00	-1.116126925316660370e-02	1.093952513839538435e-06	4.040211884960960781e-04
1.902534380614285814e-01	1.076957356671007053e-02	-1.762177117024126341e-02	3.902226571018080434e-04	6.501379261054274217e-01	1.016811526306678370e+00	1.000026145593357452e+00	-1.112109867582608200e-02	1.506858527125841923e-06	4.954924306850751062e-04
2.102801157521052566e-01	1.051347507251735799e-02	-1.741862298884236729e-02	4.301533862737530684e-04	6.518952726131066466e-01	1.020448223390117981e+00	1.000026222181385149e+00	-1.107703983781480571e-02	2.004425853569468616e-06	5.930165852494472412e-04
2.303067934427819596e-01	1.023819363865325835e-02	-1.719683486797797187e-02	4.697870803883039711e-04	6.538191846651585371e-01	1.024412648151369121e+00	1.000026305341475963e+00	-1.102928936762237119e-02	2.590594093017416569e-06	6.954166333517774069e-04
2.503334711334586626e-01	9.945404918632622798e-03	-1.695690243046148182e-02	5.091166495937925977e-04	6.559068999846610071e-01	1.028693910175770387e+00	1.000026394791493134e+00	-1.097806914597955659e-02	3.268028536090624113e-06	8.014564750227550502e-04
2.703601488241353379e-01	9.636867399681394233e-03	-1.669937241704117642e-02	5.481404929581450277e-04	6.581553465579073059e-01	1.033279875863255315e+00	1.000026490236369359e+00	-1.092362675039170242e-02	4.038094588495042255e-06	9.098563589774763365e-04
2.903868265148120131e-01	9.314406365627324325e-03	-1.642484345093438158e-02	5.868623920558846711e-04	6.605611305722675075e-01	1.038157120880771389e+00	1.000026591368779361e+00	-1.086623540392290740e-02	4.900847877250565557e-06	1.019309079433315971e-03
3.104135042054887439e-01	8.979897364542953689e-03	-1.613396625827979644e-02	6.252921904592872874e-04	6.631205269793398749e-01	1.043310886765902223e+00	1.000026697873475756e+00	-1.080619348993652577e-02	5.855049209254634990e-06	1.128496755871420893e-03
3.304401818961654191e-01	8.635249363472307163e-03	-1.582744383139810668e-02	6.634455523885871573e-04	6.658294669361362050e-01	1.048725043792571920e+00	1.000026809427313035e+00	-1.074382338306461605e-02	6.898191585401972770e-06	1.236107991466390719e-03
3.504668595868420944e-01	8.282387780423861381e-03	-1.550603082740351774e-02	7.013446862817288322e-04	6.686835328974471970e-01	1.054382062335617709e+00	1.000026925703906944e+00	-1.067946973949119617e-02	8.026553429651856958e-06	1.340855186595642972e-03
3.704935372775188251e-01	7.923237586453151307e-03	-1.517053290791085807e-02	7.390179821114333187e-04	6.716779472159394304e-01	1.060262995131603159e+00	1.000027046372744532e+00	-1.061349696871151556e-02	9.235258241794970006e-06	1.441491765463591423e-03
3.905202149681955004e-01	7.559706673933582789e-03	-1.482180511209789733e-02	7.765008063574613349e-04	6.748075729581234361e-01	1.066347472873572455e+00	1.000027171104060253e+00	-1.054628610712815030e-02	1.051836169979325147e-05	1.536829058058843296e-03
4.105468926588721756e-01	7.193669685148406517e-03	-1.446075019316596724e-02	8.138350397837400534e-04	6.780669052006937925e-01	1.072613715645091226e+00	1.000027299566888184e+00	-1.047823083257379620e-02	1.186893777950578192e-05	1.625752566540685081e-03
4.305735703495489064e-01	6.826952493110108149e-03	-1.408831582804210072e-02	8.510699795096318037e-04	6.814500796868862009e-01	1.079038562599051732e+00	1.000027431434068248e+00	-1.040973287754269963e-02	1.327919376439576819e-05	1.707237336687555994e-03
4.506002480402255816e-01	6.461317519102162572e-03	-1.370549185719469563e-02	8.882618091940345855e-04	6.849508676113774674e-01	1.085597522208143317e+00	1.000027566379024124e+00	-1.034119665622237720e-02	1.474057540143370032e-05	1.780362151385997665e-03
4.706269257309022569e-01	6.098450062946947185e-03	-1.331330626999253051e-02	9.254746546436979976e-04	6.885626938790505580e-01	1.092264845119612415e+00	1.000027704080987512e+00	-1.027302336887761861e-02	1.624390288424555178e-05	1.844322266399615710e-03
4.906536034215789877e-01	5.739945808570186270e-03	-1.291282134069615672e-02	9.627800312995441140e-04	6.922786363008528454e-01	1.099013621376156546e+00	1.000027844220292117e+00	-1.020560452237672874e-02	1.777948700086655795e-05	1.898440418810346799e-03
5.106802811122557184e-01	5.387299652284947317e-03	-1.250512844981253174e-02	1.000258113389593901e-03	6.960914546020550153e-01	1.105815903238222431e+00	1.000027986483833731e+00	-1.013931506464084940e-02	1.933727874302354412e-05	1.942175857493486785e-03
5.307069588029323937e-01	5.041895981672235919e-03	-1.209134320847799100e-02	1.037997220693701083e-03	6.999935947622559773e-01	1.112642854359469302e+00	1.000028130558936246e+00	-1.007450628768698404e-02	2.090698837164302608e-05	1.975131172295067732e-03
5.507336364936090689e-01	4.705000511396689733e-03	-1.167259929325973992e-02	1.076095378021107475e-03	7.039772281582032942e-01	1.119464925305617253e+00	1.000028276139059979e+00	-1.001149851211628056e-02	2.247824133238700067e-05	1.997056735556117842e-03
5.707603141842857442e-01	4.377753757273605655e-03	-1.125004276191613264e-02	1.114659924588923701e-03	7.080342621240771628e-01	1.126252054737285180e+00	1.000028422916190429e+00	-9.950574028092134746e-03	2.404069257869168291e-05	2.007852615033261373e-03
5.907869918749625304e-01	4.061166203109010248e-03	-1.082482517285031018e-02	1.153809460759176253e-03	7.121563884602057914e-01	1.132973894630951106e+00	1.000028570587007337e+00	-9.891969983451169915e-03	2.558418177422461021e-05	2.007567871436565735e-03
6.108136695656392057e-01	3.756115185912972058e-03	-1.039809740984722064e-02	1.193673688455028793e-03	7.163350991611481255e-01	1.139600057142949874e+00	1.000028718843860798e+00	-9.835872100000126947e-03	2.709883587315166004e-05	1.996397214531066971e-03
6.308403472563158809e-01	3.463343495141213858e-03	-9.971002461471308725e-03	1.234395866279990126e-03	7.205617418424006271e-01	1.146100379703598238e+00	1.000028867381580255e+00	-9.782408434405075529e-03	2.857521699504589430e-05	1.974675058144730738e-03
6.508670249469925562e-01	3.183459651330952742e-03	-9.544669121388845573e-03	1.276133019466444340e-03	7.248275406008006794e-01	1.152445204204333384e+00	1.000029015887041073e+00	-9.731644610020625391e-03	3.000440701586889059e-05	1.942867083340908858e-03
6.708937026376692314e-01	2.916939799384870701e-03	-9.120204859684108434e-03	1.319059052502467248e-03	7.291236551426543144e-01	1.158605665216574154e+00	1.000029164046968955e+00	-9.683579043992510474e-03	3.137814187178039968e-05	1.901559488443888349e-03
6.909203803283459067e-01	2.664131123354459164e-03	-8.698689826550353235e-03	1.363365503675604759e-03	7.334412040565675417e-01	1.164553981684501638e+00	1.000029311536158483e+00	-9.638140275747546226e-03	3.268887268445862867e-05	1.851446170857559302e-03
7.109470580190225819e-01	2.425256662792797408e-03	-8.281170250018995982e-03	1.409265500749612822e-03	7.377713240598305910e-01	1.170263745883884710e+00	1.000029458026453710e+00	-9.595184079959214254e-03	3.392988065069420033e-05	1.793314146057636751e-03
7.309737357096993682e-01	2.200421387701604475e-03	-7.868653155017692885e-03	1.456995282256284959e-03	7.421051938861810138e-01	1.175710203346551630e+00	1.000029603173785420e+00	-9.554493259798976443e-03	3.509531009543483278e-05	1.728027560282750352e-03
7.510004134003760434e-01	1.989619369049378493e-03	-7.462100694569596439e-03	1.506819231721562465e-03	7.464340895351266880e-01	1.180870517220189209e+00	1.000029746628573912e+00	-9.515776822770567051e-03	3.618025871678826370e-05	1.656510692835906629e-03
7.710270910910527187e-01	1.792741867162683496e-03	-7.062425928573109676e-03	1.559032453350822937e-03	7.507494055817232059e-01	1.185724010957963870e+00	1.000029888021547908e+00	-9.478672386852952936e-03	3.718077916982759606e-05	1.579730369176434324e-03
7.910537687817293939e-01	1.609586149559087860e-03	-6.670488419715974240e-03	1.613967192537561638e-03	7.550427022780402675e-01	1.190252383481202214e+00	1.000030026975888831e+00	-9.442747392265209497e-03	3.809394055358946937e-05	1.498678215680676043e-03
8.110804464724060692e-01	1.439864845354033853e-03	-6.287091316223532463e-03	1.671996847182914995e-03	7.593057223455499383e-01	1.194439891906153184e+00	1.000030163091899071e+00	-9.407504138088326057e-03	3.891779692980055252e-05	1.414353180599282845e-03
8.311071241630827444e-01	1.283215643112823722e-03	-5.912978398368122501e-03	1.733544187065925307e-03	7.635304264520035300e-01	1.198273497591982428e+00	1.000030295961002569e+00	-9.372383008690350278e-03	3.965141779498916033e-05	1.327744723446540581e-03
8.511338018537595307e-01	1.139211145070714339e-03	-5.548832580415483974e-03	1.799087310766573494e-03	7.677090043038683476e-01	1.201742972620295502e+00	1.000030425149341484e+00	-9.336770251650444719e-03	4.029482437981468776e-05	1.239817038493511809e-03
8.711604795444362059e-01	1.007368700304664541e-03	-5.195274458145439714e-03	1.869170219807444241e-03	7.718338947853679022e-01	1.204840964723831842e+00	1.000030550214005443e+00	-9.300003461953931100e-03	4.084898942308997353e-05	1.151494628871864391e-03
8.911871572351128812e-01	8.871600545459293070e-04	-4.852862168482290940e-03	1.944411396388177763e-03	7.758977917175615691e-01	1.207563020226181560e+00	1.000030670685588152e+00	-9.261382711808839596e-03	4.131574500250149626e-05	1.063649489487243334e-03
9.112138349257895564e-01	7.780206717894984142e-04	-4.522091318796337203e-03	2.025517458439492647e-03	7.798936468384025655e-01	1.209907565456694423e+00	1.000030786087060752e+00	-9.220179255749527680e-03	4.169775482157401673e-05	9.770900921538712425e-04
9.312405126164662317e-01	6.793586042607193927e-04	-4.203396000524274069e-03	2.113295207318544554e-03	7.838146728182719958e-01	1.211875848587941507e+00	1.000030895915682727e+00	-9.175651512429347165e-03	4.199840013784903624e-05	8.925522994693038626e-04
9.512671903071429069e-01	5.905628094330687364e-04	-3.897149815661845717e-03	2.208669238000607413e-03	7.876543272480820423e-01	1.213471844493089424e+00	1.000030999665162401e+00	-9.127059121447619189e-03	4.222173042639282612e-05	8.106922676932393299e-04
9.712938679978196932e-01	5.110108370768974909e-04	-3.603667689172744548e-03	2.312698399462767736e-03	7.914063184693095332e-01	1.214702126423347073e+00	1.000031096807638908e+00	-9.073686588416085899e-03	4.237233605020949002e-05	7.320813375106845341e-04
9.913205456884963684e-01	4.400758326744094078e-04	-3.323207572316654035e-03	2.426598213419561834e-03	7.950645707948308383e-01	1.215575708521426046e+00	1.000031186820190543e+00	-9.014866225185680718e-03	4.245528492302659806e-05	6.572028569627773927e-04
1.011347223379172933e+00	3.771328273267544342e-04	-3.055972569526298199e-03	2.551762474344027552e-03	7.986232385814164836e-01	1.216103863978953203e+00	1.000031269168090375e+00	-8.950013584098824582e-03	4.247599140789050463e-05	5.864508362185891352e-04
1.031373901069849497e+00	3.215643057213751223e-04	-2.802112778927856509e-03	2.689790789146231931e-03	8.020766613160053016e-01	1.216299923352358592e+00	1.000031343337298928e+00	-8.878663827670225939e-03	4.244014708179869239e-05	5.201302997106173765e-04
1.051400578760526283e+00	2.727650641545577054e-04	-2.561727185244173921e-03	2.842514993246695806e-03	8.054193874798166730e-01	1.216179057917329276e+00	1.000031408820623691e+00	-8.800523235883801407e-03	4.235359477274091812e-05	4.584591790881106972e-04
1.071427256451203069e+00	2.301463875787194730e-04	-2.334865040406225879e-03	3.012030301237332997e-03	8.086461308053615182e-01	1.215758052180190285e+00	1.000031465158211397e+00	-8.715522482198350546e-03	4.222226080397560745e-05	4.015715792232934416e-04
1.091453934141879634e+00	1.931395894048087004e-04	-2.121526939515186016e-03	3.200723245283716017e-03	8.117518177563293191e-01	1.215055069700196499e+00	1.000031511928455297e+00	-8.623885394774025506e-03	4.205204138448413362e-05	3.495222489639039686e-04
1.111480611832556420e+00	1.611989681881891099e-04	-1.921665206604282862e-03	3.411300320566589255e-03	8.147315486804076468e-01	1.214089415289619112e+00	1.000031548798185010e+00	-8.526196476909610536e-03	4.184874212996001391e-05	3.022920955027600092e-04
1.131507289523232984e+00	1.338042424147582786e-04	-1.735183694503835035e-03	3.646807274296461586e-03	8.175806851060505309e-01	1.212881296553551813e+00	1.000031575519271021e+00	-8.423478088114820864e-03	4.161798185771260463e-05	2.597945941706258271e-04
1.151533967213909770e+00	1.104625264860561816e-04	-1.561936850429164469e-03	3.910639232788681169e-03	8.202948299227293960e-01	1.211451586542298342e+00	1.000031591988449486e+00	-8.317254973329168619e-03	4.136514344523996750e-05	2.218829596790848038e-04
1.171560644904586557e+00	9.070990861227539988e-05	-1.401728134618653986e-03	4.206527458264671705e-03	8.228699646882723373e-01	1.209821589303916811e+00	1.000031598247560494e+00	-8.209611640004782149e-03	4.109529808235331421e-05	1.883579570070465523e-04
1.191587322595263121e+00	7.411268325470700131e-05	-1.254307936946061396e-03	4.538496801277428459e-03	8.253024619393395378e-01	1.208012809113063080e+00	1.000031594548586922e+00	-8.103213622065553318e-03	4.081317019837364793e-05	1.589762351623424973e-04
1.211614000285939907e+00	6.026827832472653320e-05	-1.119371177811530121e-03	4.910773379560189923e-03	8.275892695647520947e-01	1.206046724574788787e+00	1.000031581349900556e+00	-8.001293007701191715e-03	4.052308382811441065e-05	1.334590618366181529e-04
1.231640677976616471e+00	4.880590035384305998e-05	-9.965550454373297770e-04	5.327629181840262858e-03	8.297279590303926478e-01	1.203944568242919955e+00	1.000031559375419876e+00	-7.907567187943574660e-03	4.022894352588008137e-05	1.115013184070045541e-04
1.251667355667293258e+00	3.938690190249996131e-05	-8.854372248947666411e-04	5.793138129706746839e-03	8.317169583795060994e-01	1.201727113434793770e+00	1.000031529592291468e+00	-7.826094306092856376e-03	3.993420346046309819e-05	9.278058346965426765e-05
1.271694033357969822e+00	3.170485640123965783e-05	-7.855353654284283685e-04	6.310828697780735200e-03	8.335555997244116222e-01	1.199414469924222848e+00	1.000031493247339087e+00	-7.761045722840793568e-03	3.964186525010537834e-05	7.696609218175307012e-05
1.291720711048646608e+00	2.548531067064492128e-05	-6.963081424650015760e-04	6.883215817905007430e-03	8.352443678684549067e-01	1.197025891777949047e+00	1.000031451808891969e+00	-7.716418834010457979e-03	3.935446894433427466e-05	6.372731635280936766e-05
1.311747388739323394e+00	2.048517771030067955e-05	-6.171587378480253294e-04	7.511218796432851154e-03	8.367849190141477544e-01	1.194579600842037070e+00	1.000031406965886882e+00	-7.695697946961095083e-03	3.907410676634456387e-05	5.274187741595863689e-05
1.331774066429999959e+00	1.649173584827724788e-05	-5.474408285148424022e-04	8.193490702818058413e-03	8.381802731660956685e-01	1.192092630927555241e+00	1.000031360525201585e+00	-7.701514853057337892e-03	3.880243273725428625e-05	4.370249460068995610e-05
1.351800744120676745e+00	1.332121601687497244e-05	-4.864675205111120525e-04	8.925730272006951460e-03	8.394347333264988720e-01	1.189580697405277165e+00	1.000031314374093538e+00	-7.735340604614625998e-03	3.854068917026293135e-05	3.632269487698462244e-05
1.371827421811353309e+00	1.081698608470718597e-05	-4.335226666338295055e-04	9.700084819137573186e-03	8.405540002864990701e-01	1.187058097496746178e+00	1.000031270345139278e+00	-7.797268461103420631e-03	3.828973065958337263e-05	3.034107540796791827e-05
1.391854099502030095e+00	8.847375184182566904e-06	-3.878744038163204635e-04	1.050479749347294281e-02	8.415449429607060328e-01	1.184537644828760117e+00	1.000031230165125962e+00	-7.885909494435057107e-03	3.805006097869713166e-05	2.552400947649676786e-05
1.411880777192706660e+00	7.303215557009387893e-06	-3.487895846587850466e-04	1.132425938617290587e-02	8.424155726428101953e-01	1.182030640987311809e+00	1.000031195318886734e+00	-7.998434959062116628e-03	3.782187034646987813e-05	2.166680972255995329e-05
1.431907454883383446e+00	6.095206879728561590e-06	-3.155484916342673899e-04	1.213959935244925126e-02	8.431747017180291071e-01	1.179546883825613124e+00	1.000031167020305922e+00	-8.130753056433435294e-03	3.760508412868947145e-05	1.859348684956174292e-05
1.451934132574060232e+00	5.151222601370510049e-06	-2.874582576603506136e-04	1.292984965772971291e-02	8.438318133801903098e-01	1.177094710779195141e+00	1.000031146109475522e+00	-8.277821224607037273e-03	3.739941368251054152e-05	1.615534523716097927e-05
1.471960810264736796e+00	4.413676475737472714e-06	-2.638645356303966918e-04	1.367359430784940641e-02	8.443966652367630443e-01	1.174681072364501810e+00	1.000031133075066858e+00	-8.434051420899164181e-03	3.720441372692268733e-05	1.422872144773432527e-05
1.491987487955413583e+00	3.837051494094700491e-06	-2.441602697243178523e-04	1.435086123736167146e-02	8.448791133317233859e-01	1.172311630210139288e+00	1.000031128005979930e+00	-8.593779264029984682e-03	3.701953612467822052e-05	1.271219006841250250e-05
1.512014165646090147e+00	3.385666989446116204e-06	-2.277917507665639361e-04	1.494492882961310533e-02	8.452887149700942793e-01	1.169990872020429284e+00	1.000031130675196112e+00	-8.751721875894029681e-03	3.684417898618270180e-05	1.152353738385054438e-05
1.532040843336766933e+00	3.031728890913177433e-06	-2.142615052174137627e-04	1.544371368689332127e-02	8.456346576932389780e-01	1.167722236614473497e+00	1.000031140542412933e+00	-8.903371771318330588e-03	3.667772388313913519e-05	1.059674938896906638e-05
1.552067521027443719e+00	2.753678567122079327e-06	-2.031288543723958669e-04	1.584050758841249254e-02	8.459254240815033965e-01	1.165508241768178355e+00	1.000031156881358685e+00	-9.045250942062018143e-03	3.651956201090541149e-05	9.879192276728675909e-06
1.572094198718120284e+00	2.534831605304444863e-06	-1.940081289752082700e-04	1.613399310700883854e-02	8.461688316538776844e-01	1.163350609772474398e+00	1.000031178802213372e+00	-9.175013416326876711e-03	3.636910963226311708e-05	9.329095070360407730e-06
1.592120876408797070e+00	2.362281133644623712e-06	-1.865655987941075328e-04	1.632763262815450228e-02	8.463718165418269157e-01	1.161250386043290783e+00	1.000031205383880017e+00	-9.291387894586590479e-03	3.622581618393594052e-05	8.913385249717285534e-06
1.612147554099473634e+00	2.226030976213056820e-06	-1.805151625461121382e-04	1.642863770835998119e-02	8.465405677810959872e-01	1.159208048668818325e+00	1.000031235678104258e+00	-9.394020711418640465e-03	3.608916857505409579e-05	8.605883772603433951e-06
1.632174231790150420e+00	2.118320788898341259e-06	-1.756137409995985955e-04	1.644676054624471043e-02	8.466804318316077937e-01	1.157223606915989134e+00	1.000031268817270114e+00	-9.483254857186245584e-03	3.595869244085534301e-05	8.385836361444402092e-06
1.652200909480826985e+00	2.033106560202848020e-06	-1.716562830733420132e-04	1.639311989836319400e-02	8.467960448116089722e-01	1.155296688787725845e+00	1.000031303983735853e+00	-9.559912806453499737e-03	3.583395338792512587e-05	8.236741392067032139e-06
1.672227587171503771e+00	1.965663739450532958e-06	-1.684710600768175241e-04	1.627920314172432922e-02	8.468913582657079386e-01	1.153426617179083236e+00	1.000031340489704990e+00	-9.625098572973835379e-03	3.571455571882823125e-05	8.145428113075393336e-06
1.692254264862180557e+00	1.912285278441859452e-06	-1.659150459924841128e-04	1.611611412559744994e-02	8.469697361941322944e-01	1.151612475794889567e+00	1.000031377717950365e+00	-9.680050039108425639e-03	3.560014215024412220e-05	8.101339088577225175e-06
1.712280942552857121e+00	1.870052115975224120e-06	-1.638698440391648397e-04	1.591407206416457776e-02	8.470339941837241593e-01	1.149853164967211461e+00	1.000031415185544725e+00	-9.726026730715958690e-03	3.549039048787640277e-05	8.095974927507029124e-06
1.732307620243533908e+00	1.836658408610648106e-06	-1.622378618797730616e-04	1.568213234919865057e-02	8.470865152162911915e-01	1.148147448945180615e+00	1.000031452468767901e+00	-9.764243439576636083e-03	3.538501225803844367e-05	8.122465448136853179e-06
1.752334297934210472e+00	1.810277942686755765e-06	-1.609390923396154989e-04	1.542807776244409582e-02	8.471292701860669849e-01	1.146493994944223882e+00	1.000031489262338757e+00	-9.795824151500058877e-03	3.528374802268640899e-05	8.175237972556181510e-06
1.772360975624887258e+00	1.789461454688051339e-06	-1.599081530063639004e-04	1.515843167737150089e-02	8.471639112275479722e-01	1.144891405606652146e+00	1.000031525297792268e+00	-9.821785111410432506e-03	3.518636591255857243e-05	8.249759596816351462e-06
1.792387653315563822e+00	1.773057225342349503e-06	-1.590918882398121453e-04	1.487854503950550994e-02	8.471918034436469735e-01	1.143338245104417394e+00	1.000031560404780917e+00	-9.843023131862716282e-03	3.509265650160972984e-05	8.342335594305495873e-06
1.812414331006240609e+00	1.760149248979176460e-06	-1.584471789044244604e-04	1.459272561239924500e-02	8.472140657987062839e-01	1.141833060454223725e+00	1.000031594427162052e+00	-9.860320908219139327e-03	3.500243206528344796e-05	8.449950454008907865e-06
1.832441008696917395e+00	1.750008798905657705e-06	-1.579392206453248261e-04	1.430438065025194279e-02	8.472316578003328269e-01	1.140374398117523613e+00	1.000031627289140079e+00	-9.874350094817392273e-03	3.491552152669043186e-05	8.570141457790606413e-06
1.852467686387593959e+00	1.742056247321944744e-06	-1.575399689256618419e-04	1.401616098584278908e-02	8.472452985293406069e-01	1.138960817318708463e+00	1.000031658910329968e+00	-9.885683521303352192e-03	3.483177072829834754e-05	8.700897293892882224e-06
1.872494364078270745e+00	1.735830840529926923e-06	-1.572269272646157332e-04	1.373009254999787293e-02	8.472556851654845511e-01	1.137590899951670620e+00	1.000031689277348201e+00	-9.894803763554851916e-03	3.475103762511819015e-05	8.840576129730416650e-06
1.892521041768947310e+00	1.730966655712174592e-06	-1.569820795303222512e-04	1.344769527718820031e-02	8.472632683478783511e-01	1.136263258371877694e+00	1.000031718357929034e+00	-9.902115516260629260e-03	3.467319348088457131e-05	8.987838983578117148e-06
1.912547719459624096e+00	1.727173439441314603e-06	-1.567910533550260013e-04	1.317008291445711556e-02	8.472685509849002816e-01	1.134976540758972252e+00	1.000031746177744374e+00	-9.907955256310729125e-03	3.459811830764293486e-05	9.141595260077712757e-06
1.932574397150300882e+00	1.724221283689195517e-06	-1.566424033001181774e-04	1.289804904216054933e-02	8.472718222367466856e-01	1.133729435226130677e+00	1.000031772733166680e+00	-9.912601503560188390e-03	3.452570280159032685e-05	9.300958062345443002e-06
1.952601074840977446e+00	1.721928377712773040e-06	-1.565270494197824761e-04	1.263213553213864138e-02	8.472734243606726556e-01	1.132520672196584366e+00	1.000031798072900324e+00	-9.916283183551423755e-03	3.445584395447308027e-05	9.465207432720966797e-06
1.972627752531654233e+00	1.720151191913329091e-06	-1.564377928672894486e-04	1.237269047437386527e-02	8.472735580966721525e-01	1.131349026144053971e+00	1.000031822208854226e+00	-9.919188195282795800e-03	3.438844759325257195e-05	9.633760074576095693e-06
1.992654430222330797e+00	1.718776633519616178e-06	-1.563689539962014984e-04	1.211991219944315475e-02	8.472724749521497456e-01	1.130213316085566300e+00	1.000031845202224101e+00	-9.921469459108076677e-03	3.432342400792722859e-05	9.806144399978659144e-06
2.012681107913007583e+00	1.717715760113419912e-06	-1.563160518373734632e-04	1.187388669375740932e-02	8.472702838174656081e-01	1.129112405855123624e+00	1.000031867072035840e+00	-9.923251369932608104e-03	3.426069103962884726e-05	9.981979974212324780e-06
2.032707785603684147e+00	1.716898768593889534e-06	-1.562755655947267513e-04	1.163461454951063463e-02	8.472671918421027515e-01	1.128045203461071289e+00	1.000031887885296511e+00	-9.924634584615380298e-03	3.420016963214119013e-05	1.016096059687555974e-05
2.052734463294360712e+00	1.716270984461187388e-06	-1.562447315960885776e-04	1.140203454894952659e-02	8.472632580950609782e-01	1.127010660500637140e+00	1.000031907662935593e+00	-9.925700290305490558e-03	3.414178735887268438e-05	1.034284039697923266e-05
2.072761140985037720e+00	1.715789678436092567e-06	-1.562213864995166978e-04	1.117603940746939549e-02	8.472586531609890281e-01	1.126007770875620650e+00	1.000031926473742283e+00	-9.926513883395137947e-03	3.408547386987229993e-05	1.052742242418764090e-05
2.092787818675714284e+00	1.715421522897666519e-06	-1.562038429248295947e-04	1.095649047553696846e-02	8.472533954287345681e-01	1.125035569746756448e+00	1.000031944337442580e+00	-9.927127537589501560e-03	3.403116478519709103e-05	1.071454930831748680e-05
2.112814496366390848e+00	1.715140584650218005e-06	-1.561907835109852655e-04	1.074322640852261486e-02	8.472476186579483981e-01	1.124093131921464872e+00	1.000031961322276786e+00	-9.927583213581411478e-03	3.397879702219488475e-05	1.090409562822217097e-05
2.132841174057067857e+00	1.714926723359149952e-06	-1.561811854144115814e-04	1.053607234083602136e-02	8.472413301450414380e-01	1.123179570606884115e+00	1.000031977445069220e+00	-9.927914145823510741e-03	3.392831298522914194e-05	1.109596169320450679e-05
2.152867851747744421e+00	1.714764337008024783e-06	-1.561742501459529686e-04	1.033484420768040861e-02	8.472346658137541731e-01	1.122294035661123290e+00	1.000031992772318246e+00	-9.928147170440096078e-03	3.387965574290248817e-05	1.129006848691564764e-05
2.172894529438420985e+00	1.714641361157287527e-06	-1.561693680090146753e-04	1.013935456841916910e-02	8.472275774273596571e-01	1.121435712299365450e+00	1.000032007317023464e+00	-9.928302892598262624e-03	3.383277349244156237e-05	1.148635356818487846e-05
2.192921207129097994e+00	1.714548492436381838e-06	-1.561660554685736721e-04	9.949414328787689957e-03	8.472202287825977285e-01	1.120603819334534013e+00	1.000032021143390848e+00	-9.928398507594797529e-03	3.378761462341116004e-05	1.168476775503786782e-05
2.212947884819774558e+00	1.714478568094900966e-06	-1.561639521678935376e-04	9.764836542617200132e-03	8.472125401747520046e-01	1.119797607916929838e+00	1.000032034260294189e+00	-9.928446675444634745e-03	3.374413233346620065e-05	1.188527245046653575e-05
2.232974562510451122e+00	1.714426090417230891e-06	-1.561627663946849921e-04	9.585436631445298089e-03	8.472046749866654070e-01	1.119016359837223806e+00	1.000032046729476320e+00	-9.928458364165284114e-03	3.370227965209042194e-05	1.208783749036093171e-05
2.253001240201127686e+00	1.714386844880281082e-06	-1.561622913085390586e-04	9.411034986362002905e-03	8.471965220929343898e-01	1.118259386351013074e+00	1.000032058555663683e+00	-9.928440994759606467e-03	3.366201415231360913e-05	1.229243941714646680e-05
2.273027917891804695e+00	1.714357612237104665e-06	-1.561623456660535876e-04	9.241456346202645000e-03	8.471882747006295178e-01	1.117526026571574072e+00	1.000032069798192591e+00	-9.928401907761322601e-03	3.362329297349003169e-05	1.249906009760211326e-05
2.293054595582481259e+00	1.714335935120987495e-06	-1.561628144460396083e-04	9.076531672083160487e-03	8.471797926169596371e-01	1.116815646408927165e+00	1.000032080457749606e+00	-9.928345243551399413e-03	3.358607751271901486e-05	1.270768562001384077e-05
2.313081273273157823e+00	1.714319945910843195e-06	-1.561635836628624417e-04	8.916097106474963827e-03	8.471712774097126530e-01	1.116127637063682787e+00	1.000032090591508327e+00	-9.928275976768270727e-03	3.355032857376985197e-05	1.291830541553038778e-05
2.333107950963834831e+00	1.714308224903093207e-06	-1.561645958077055585e-04	8.759995394135232719e-03	8.471625649510311495e-01	1.115461414091563519e+00	1.000032100196313500e+00	-9.928196010754732417e-03	3.351601093775173748e-05	1.313091156084439056e-05
2.353134628654511395e+00	1.714299698852021767e-06	-1.561657722136877084e-04	8.608074668251364248e-03	8.471538756942269544e-01	1.114816415998751253e+00	1.000032109327430918e+00	-9.928109133724006760e-03	3.348308872155389150e-05	1.334549822513609467e-05
2.373161306345187960e+00	1.714293555218676231e-06	-1.561670903355002538e-04	8.460189557635342320e-03	8.471450261174170437e-01	1.114192103430654557e+00	1.000032117978082669e+00	-9.928015827373067731e-03	3.345152967972478620e-05	1.356206123352389540e-05
2.393187984035864524e+00	1.714289183262360072e-06	-1.561684913250703771e-04	8.316199970689100093e-03	8.471362509119663153e-01	1.113587957868337197e+00	1.000032126201904514e+00	-9.927919181545454344e-03	3.342130094220867071e-05	1.378059772223236976e-05
2.413214661726541532e+00	1.714286122439236235e-06	-1.561699760333494676e-04	8.175971953770344580e-03	8.471273403149284231e-01	1.113003480930475853e+00	1.000032133988780769e+00	-9.927818628100158402e-03	3.339237288493946640e-05	1.400110586780128965e-05
2.433241339417218096e+00	1.714284028718761370e-06	-1.561714962512393264e-04	8.039376581971695648e-03	8.471185410443297092e-01	1.112438193168030276e+00	1.000032141390947649e+00	-9.927716895081012405e-03	3.336471541513494397e-05	1.422358467398566964e-05
2.453268017107894661e+00	1.714282643743030087e-06	-1.561730646940904545e-04	7.906290586447647234e-03	8.471096369040833629e-01	1.111891633470937002e+00	1.000032148395200160e+00	-9.927612889885627581e-03	3.333830122018800529e-05	1.444803380519758664e-05
2.473294694798571669e+00	1.714281775807490381e-06	-1.561746371028220766e-04	7.776595420417694443e-03	8.471008873129376449e-01	1.111363357947201091e+00	1.000032155052645644e+00	-9.927509251217974534e-03	3.331310275154973193e-05	1.467445345578208934e-05
2.493321372489248233e+00	1.714281281629836557e-06	-1.561762390466823818e-04	7.650177666071763041e-03	8.470920510044795959e-01	1.110852939429961994e+00	1.000032161347157000e+00	-9.927404200951416013e-03	3.328909472082443137e-05	1.490284424836013751e-05
2.513348050179924797e+00	1.714281055593000392e-06	-1.561778281871722626e-04	7.526928331968782762e-03	8.470833817211570471e-01	1.110359966434189882e+00	1.000032167328992694e+00	-9.927300338281805359e-03	3.326625197904912014e-05	1.513320715413052325e-05
2.533374727870601362e+00	1.714281019315246723e-06	-1.561794312546522926e-04	7.406743009787374390e-03	8.470746639409439949e-01	1.109884042747169453e+00	1.000032172979326228e+00	-9.927195881442101369e-03	3.324455100944441341e-05	1.536554343108279005e-05
2.553401405561278370e+00	1.714281115349069732e-06	-1.561810106186677842e-04	7.289521437442105303e-03	8.470661332184762360e-01	1.109424786459671353e+00	1.000032178347715739e+00	-9.927093166521648582e-03	3.322396886132302141e-05	1.559985457568794533e-05
2.573428083251954934e+00	1.714281301563395154e-06	-1.561825971588002898e-04	7.175167420243576573e-03	8.470575662149891771e-01	1.108981829631731308e+00	1.000032183412828735e+00	-9.926990194997443659e-03	3.320448360258023188e-05	1.583614228537494152e-05
2.593454760942631498e+00	1.714281547131396749e-06	-1.561841527361921503e-04	7.063588658005569287e-03	8.470492035228349703e-01	1.108554817386621982e+00	1.000032188223753726e+00	-9.926889350266861894e-03	3.318607434907702220e-05	1.607440842930216775e-05
2.613481438633308507e+00	1.714281830008519024e-06	-1.561857079172841831e-04	6.954696420225556404e-03	8.470408349769962264e-01	1.108143407647047773e+00	1.000032192756750593e+00	-9.926788675080547644e-03	3.316872054476364398e-05	1.631465502550759938e-05
2.633508116323985071e+00	1.714282133897293689e-06	-1.561872284171134714e-04	6.848405653646634332e-03	8.470326788312181332e-01	1.107747270281625562e+00	1.000032197060633621e+00	-9.926690317811532466e-03	3.315240322259361048e-05	1.655688422316096408e-05
2.653534794014661635e+00	1.714282447767017984e-06	-1.561887446159027667e-04	6.744634416729013496e-03	8.470245314600542974e-01	1.107366086907242364e+00	1.000032201109432251e+00	-9.926592346300579933e-03	3.313710306132423649e-05	1.680109828853851273e-05
2.673561471705338199e+00	1.714282763121940861e-06	-1.561902233581670115e-04	6.643304253940575214e-03	8.470166077114699155e-01	1.106999550079557748e+00	1.000032204951787795e+00	-9.926496841310293931e-03	3.312280288800933790e-05	1.704729959415136843e-05
2.693588149396015208e+00	1.714283074926191620e-06	-1.561916936943777878e-04	6.544339395065179067e-03	8.470087119423155286e-01	1.106647363155378816e+00	1.000032208559615166e+00	-9.926401959904993660e-03	3.310948446498026946e-05	1.729549060995799677e-05
2.713614827086691772e+00	1.714283378790075587e-06	-1.561931241296037585e-04	6.447667392491590252e-03	8.470010423027732882e-01	1.106309239521804821e+00	1.000032211981563002e+00	-9.926309684659640961e-03	3.309713229240752969e-05	1.754567389663112061e-05
2.733641504777368336e+00	1.714283672913232067e-06	-1.561945445698229809e-04	6.353218091850309363e-03	8.469934124564610922e-01	1.105984902512629153e+00	1.000032215187492968e+00	-9.926218120812811685e-03	3.308572908883625988e-05	1.779785209986363255e-05
2.753668182468045345e+00	1.714283954987897350e-06	-1.561959257297077658e-04	6.260924527101998510e-03	8.469860072260807504e-01	1.105674084671665280e+00	1.000032218226207359e+00	-9.926129102952730224e-03	3.307526094864034520e-05	1.805202794612797870e-05
2.773694860158721909e+00	1.714284224947940398e-06	-1.561972912234114975e-04	6.170721659777759008e-03	8.469786676752248944e-01	1.105376527716665613e+00	1.000032221065618954e+00	-9.926041145002504826e-03	3.306571143457488955e-05	1.830820423879725263e-05
2.793721537849398473e+00	1.714284481516324998e-06	-1.561986202128780961e-04	6.082547516774622874e-03	8.469715389161447394e-01	1.105091981832368564e+00	1.000032223754747873e+00	-9.925955556831126542e-03	3.305706808989962989e-05	1.856638385540967194e-05
2.813748215540075037e+00	1.714284725515255233e-06	-1.561999314050842573e-04	5.996341739039161983e-03	8.469644872837944760e-01	1.104820205679297951e+00	1.000032226259672807e+00	-9.925871151477444476e-03	3.304931529240842794e-05	1.882656974489401344e-05
2.833774893230752046e+00	1.714284956149562619e-06	-1.562012021746076395e-04	5.912046907340598283e-03	8.469576680841147676e-01	1.104560965710321474e+00	1.000032228629748055e+00	-9.925789351457017101e-03	3.304244190658630855e-05	1.908876492573480089e-05
2.853801570921428610e+00	1.714285174716793846e-06	-1.562024556478147598e-04	5.829606929611508628e-03	8.469509204294697335e-01	1.104314036223331907e+00	1.000032230829229762e+00	-9.925708700720833888e-03	3.303643299615041613e-05	1.935297248390718442e-05
2.873828248612105174e+00	1.714285380576891009e-06	-1.562036720053365448e-04	5.748968564596255298e-03	8.469443869250780077e-01	1.104079198693503239e+00	1.000032232907939411e+00	-9.925630431649496918e-03	3.303127873850023369e-05	1.961919557153696156e-05
2.893854926302782182e+00	1.714285575268036928e-06	-1.562048668853125680e-04	5.670079624766516044e-03	8.469379495511965006e-01	1.103856241869327626e+00	1.000032234828374333e+00	-9.925553580494350658e-03	3.302696481800664833e-05	1.988743740534169776e-05
2.913881603993458747e+00	1.714285758192316976e-06	-1.562060234484473006e-04	5.592890682270146296e-03	8.469317323468118497e-01	1.103644961119817136e+00	1.000032236640863159e+00	-9.925479181890430741e-03	3.302348257723621342e-05	2.015770126562661631e-05
2.933908281684135311e+00	1.714285931000662105e-06	-1.562071603051930874e-04	5.517353127884886722e-03	8.469256082928796614e-01	1.103445158564401174e+00	1.000032238306214127e+00	-9.925406077348699826e-03	3.302081826489118712e-05	2.042999049497668456e-05
2.953934959374811875e+00	1.714286093044767487e-06	-1.562082593467099801e-04	5.443421039767403283e-03	8.469196968163926753e-01	1.103256642437262736e+00	1.000032239875357609e+00	-9.925335395044046494e-03	3.301896437898334881e-05	2.070430849755548413e-05
2.973961637065488883e+00	1.714286246039473556e-06	-1.562093362160161094e-04	5.371049083938446607e-03	8.469138941356608719e-01	1.103079227247132366e+00	1.000032241307450942e+00	-9.925266154854279002e-03	3.301790763420302428e-05	2.098065873793801642e-05
2.993988314756165448e+00	1.714286389266398543e-06	-1.562103773956889695e-04	5.300194554039194990e-03	8.469082936967775588e-01	1.102912733155924085e+00	1.000032242654075976e+00	-9.925199200369933319e-03	3.301764160271901193e-05	2.125904474064305912e-05
3.014014992446842012e+00	1.714286524455875962e-06	-1.562113961517056090e-04	5.230815129142491610e-03	8.469027970395841542e-01	1.102756986166323561e+00	1.000032243872772231e+00	-9.925133704755940284e-03	3.301815344599399028e-05	2.153947008904696841e-05
3.034041670137519020e+00	1.714286650815396165e-06	-1.562123784319047106e-04	5.162871056282762605e-03	8.468975113752020834e-01	1.102611817512586079e+00	1.000032245015858967e+00	-9.925070534277095902e-03	3.301943774218234255e-05	2.182193842511704658e-05
3.054068347828195584e+00	1.714286770082059615e-06	-1.562133398963801829e-04	5.096322780433237484e-03	8.468923214747359207e-01	1.102477063873918972e+00	1.000032246039286754e+00	-9.925008722557315116e-03	3.302148202330651774e-05	2.210645344837413670e-05
3.074095025518872148e+00	1.714286881374444462e-06	-1.562142661324953058e-04	5.031133273878106958e-03	8.468873363468019111e-01	1.102352566777156540e+00	1.000032246996130469e+00	-9.924949157412274806e-03	3.302428187146533100e-05	2.239301891583106706e-05
3.094121703209549157e+00	1.714286986435443815e-06	-1.562151684544036323e-04	4.967265522937723728e-03	8.468824661048204305e-01	1.102238172830817931e+00	1.000032247840802802e+00	-9.924891140259992778e-03	3.302782511637095386e-05	2.268163864092121885e-05
3.114148380900225721e+00	1.714287084314038938e-06	-1.562160386636449411e-04	4.904685004636305003e-03	8.468777782494618656e-01	1.102133733138345173e+00	1.000032248627210629e+00	-9.924835174045220851e-03	3.303210825698147524e-05	2.297231649363676534e-05
3.134175058590902285e+00	1.714287176731762040e-06	-1.562168847550514318e-04	4.843357056566059519e-03	8.468732183473720587e-01	1.102039103554231625e+00	1.000032249308221433e+00	-9.924780761299923509e-03	3.303711944393593195e-05	2.326505639944611632e-05
3.154201736281578849e+00	1.714287262683603658e-06	-1.562176998592901755e-04	4.783249461919900601e-03	8.468688166721523025e-01	1.101954144104577704e+00	1.000032249938619389e+00	-9.924728329218528156e-03	3.304285602505530370e-05	2.355986233961793194e-05
3.174228413972255858e+00	1.714287343868251100e-06	-1.562184903777070425e-04	4.724329727210156878e-03	8.468645579450942984e-01	1.101878719262333606e+00	1.000032250469773620e+00	-9.924677483266194228e-03	3.304930643296170948e-05	2.385673835008155169e-05
3.194255091662932422e+00	1.714287419236042712e-06	-1.562192516274118624e-04	4.666567763493386506e-03	8.468604413738812786e-01	1.101812697375265326e+00	1.000032250957374913e+00	-9.924628502488205134e-03	3.305646881683390876e-05	2.415568852192868184e-05
3.214281769353608986e+00	1.714287490456765886e-06	-1.562199865091889030e-04	4.609933082298400819e-03	8.468564872985890890e-01	1.101755950960593644e+00	1.000032251351303580e+00	-9.924581220628156397e-03	3.306433187062955654e-05	2.445671700024711913e-05
3.234308447044285995e+00	1.714287556452221582e-06	-1.562206964263294928e-04	4.554397556577016205e-03	8.468526414514221390e-01	1.101708356136829270e+00	1.000032251708184994e+00	-9.924535528494227501e-03	3.307289447619166030e-05	2.475982798479182796e-05
3.254335124734962559e+00	1.714287618843890477e-06	-1.562213779141073504e-04	4.499932561683811331e-03	8.468489842229829367e-01	1.101669792936383452e+00	1.000032251976454845e+00	-9.924491665126501314e-03	3.308214563060374661e-05	2.506502572873042689e-05
3.274361802425639123e+00	1.714287676551131748e-06	-1.562220353866453516e-04	4.446511773944956079e-03	8.468454124701653152e-01	1.101640144741125260e+00	1.000032252213689743e+00	-9.924449335083974574e-03	3.309208483229733605e-05	2.537231453950107045e-05
3.294388480116315687e+00	1.714287731140343309e-06	-1.562226673310266429e-04	4.394108299042790398e-03	8.468420259539465311e-01	1.101619298615180709e+00	1.000032252366900520e+00	-9.924408644530690118e-03	3.310270138993791253e-05	2.568169877757358214e-05
3.314415157806992696e+00	1.714287781522624282e-06	-1.562232752128772661e-04	4.342697487678811794e-03	8.468387162806426671e-01	1.101607144735018640e+00	1.000032252494664320e+00	-9.924369488743714496e-03	3.311399542508550533e-05	2.599318285726221977e-05
3.334441835497669260e+00	1.714287829224852777e-06	-1.562238551053401721e-04	4.292254041431996410e-03	8.468356128225974500e-01	1.101603576749686564e+00	1.000032252542526701e+00	-9.924332129993348670e-03	3.312595647546215209e-05	2.630677124569776376e-05
3.354468513188345824e+00	1.714287873160151478e-06	-1.562244155065825103e-04	4.242754858859784130e-03	8.468325531666692774e-01	1.101608491201639950e+00	1.000032252570133062e+00	-9.924296018794350610e-03	3.313858522712185639e-05	2.662246846353417975e-05
3.374495190879022832e+00	1.714287914793760541e-06	-1.562249475064881460e-04	4.194176135334575992e-03	8.468297106528778206e-01	1.101621787911907457e+00	1.000032252521576348e+00	-9.924261717817428954e-03	3.315187152906981386e-05	2.694027908409563950e-05
3.394521868569699397e+00	1.714287953058839428e-06	-1.562254611101660169e-04	4.146496195942442342e-03	8.468269093395657254e-01	1.101643369393310312e+00	1.000032252457591309e+00	-9.924228602533894522e-03	3.316581653496929644e-05	2.726020773399744684e-05
3.414548546260375961e+00	1.714287989358629294e-06	-1.562259455174366330e-04	4.099692625024883678e-03	8.468243204499656951e-01	1.101673141256219068e+00	1.000032252320816051e+00	-9.924197352764143470e-03	3.318041039789804245e-05	2.758225909240107901e-05
3.434575223951052525e+00	1.714288022653904781e-06	-1.562264143795902705e-04	4.053745068437362639e-03	8.468217608406146679e-01	1.101711011619747271e+00	1.000032252173107095e+00	-9.924167098419145461e-03	3.319565468783865339e-05	2.790643789170275664e-05
3.454601901641729533e+00	1.714288054276319209e-06	-1.562268532690362156e-04	4.008632408838776022e-03	8.468194156416806173e-01	1.101756891532807314e+00	1.000032251955650597e+00	-9.924138759645971877e-03	3.321153990145451470e-05	2.823274891676448017e-05
3.474628579332406098e+00	1.714288083226367558e-06	-1.562272774635956312e-04	3.964335511534699402e-03	8.468170949690940752e-01	1.101810694382616473e+00	1.000032251731460375e+00	-9.924111363640401862e-03	3.322806794123820095e-05	2.856119700568509069e-05
3.494655257023082662e+00	1.714288110763950351e-06	-1.562276729946974801e-04	3.920834470894626889e-03	8.468149838702437870e-01	1.101872336330715019e+00	1.000032251440281739e+00	-9.924085802773052051e-03	3.324522965926557437e-05	2.889178704900393702e-05
3.514681934713759670e+00	1.714288135925977150e-06	-1.562280556544926610e-04	3.878111286625978218e-03	8.468128902260168012e-01	1.101941735719975224e+00	1.000032251146270257e+00	-9.924061066015085406e-03	3.326302727666440343e-05	2.922452399058042116e-05
3.534708612404436234e+00	1.714288159902180270e-06	-1.562284085588170766e-04	3.836147183004132502e-03	8.468110075509499568e-01	1.102018813525241114e+00	1.000032250787746380e+00	-9.924038225148628517e-03	3.328145199631148165e-05	2.955941282678609824e-05
3.554735290095112799e+00	1.714288181776910953e-06	-1.562287491384776333e-04	3.794925208274616078e-03	8.468091440806989612e-01	1.102103492756395298e+00	1.000032250430057834e+00	-9.924016185511988497e-03	3.330050627894793323e-05	2.989645860745726339e-05
3.574761967785789363e+00	1.714288202666534907e-06	-1.562290632042260576e-04	3.754427644628964642e-03	8.468074710503221691e-01	1.102195698921903944e+00	1.000032250010081336e+00	-9.923995833119942517e-03	3.332018170233924328e-05	3.023566643502001745e-05
3.594788645476466371e+00	1.714288221694187955e-06	-1.562293631727044454e-04	3.714638520878351877e-03	8.468058225226414715e-01	1.102295359428837607e+00	1.000032249594372979e+00	-9.923976387112617287e-03	3.334048098809753205e-05	3.057704146555569557e-05
3.614815323167142935e+00	1.714288239922175620e-06	-1.562296369488689989e-04	3.675541096977908827e-03	8.468043713764770164e-01	1.102402404063336006e+00	1.000032249118398164e+00	-9.923958613637023224e-03	3.336139599125609702e-05	3.092058890796737657e-05
3.634842000857819500e+00	1.714288256504672189e-06	-1.562299005786973072e-04	3.637120319286072604e-03	8.468029161977743691e-01	1.102516764381485936e+00	1.000032248649900257e+00	-9.923941493040539311e-03	3.338292971102995029e-05	3.126631402501167076e-05
3.654868678548496508e+00	1.714288272442037549e-06	-1.562301346699336113e-04	3.599360368346171506e-03	8.468016771678558152e-01	1.102638374206780902e+00	1.000032248122921796e+00	-9.923926258987502899e-03	3.340507433757103416e-05	3.161422213253042715e-05
3.674895356239173072e+00	1.714288286940761070e-06	-1.562303609871949024e-04	3.562247031120503466e-03	8.468004248932364808e-01	1.102767169013857851e+00	1.000032247606460478e+00	-9.923911530482141391e-03	3.342783299217018562e-05	3.196431860049582643e-05
3.694922033929849636e+00	1.714288300925082329e-06	-1.562305609312381581e-04	3.525765361337964907e-03	8.467993704376817199e-01	1.102903086442205804e+00	1.000032247033105337e+00	-9.923898475866655550e-03	3.345119830673997518e-05	3.231660885229757223e-05
3.714948711620526201e+00	1.714288313650146387e-06	-1.562307517431454754e-04	3.489901930840785642e-03	8.467983107315492086e-01	1.103046065671120735e+00	1.000032246473136821e+00	-9.923886014929429039e-03	3.347517351751040562e-05	3.267109836576870225e-05
3.734975389311203209e+00	1.714288325979872852e-06	-1.562309154024758937e-04	3.454642601770905198e-03	8.467974488681323519e-01	1.103196047946955805e+00	1.000032245857705337e+00	-9.923875287525266153e-03	3.349975160543424790e-05	3.302779267243889823e-05
3.755002067001879773e+00	1.714288337218202870e-06	-1.562310711844065161e-04	3.419974678245366658e-03	8.467965800275965016e-01	1.103352975954646764e+00	1.000032245258349439e+00	-9.923865072109719701e-03	3.352493590165231229e-05	3.338669735874965971e-05
3.775028744692556337e+00	1.714288348165048310e-06	-1.562311993121237195e-04	3.385884784921526242e-03	8.467959120571364462e-01	1.103516794358499364e+00	1.000032244604790233e+00	-9.923856614195541645e-03	3.355071978122634344e-05	3.374781806525238749e-05
3.795055422383233346e+00	1.714288358173743351e-06	-1.562313232588148464e-04	3.352360906566333263e-03	8.467952200806564411e-01	1.103687449163560430e+00	1.000032243969866563e+00	-9.923848434908935992e-03	3.357710662264016762e-05	3.411116048778655899e-05
3.815082100073909910e+00	1.714288367969163120e-06	-1.562314240763620823e-04	3.319390393611505122e-03	8.467946940295287828e-01	1.103864888271519185e+00	1.000032243281855360e+00	-9.923841726372072819e-03	3.360409029897746164e-05	3.447673037673168299e-05
3.835108777764586474e+00	1.714288376950365480e-06	-1.562315307842778063e-04	3.286961868671665551e-03	8.467940960431208364e-01	1.104049060835067486e+00	1.000032242614888656e+00	-9.923834657503884105e-03	3.363167424283002174e-05	3.484453353825467419e-05
3.855135455455263482e+00	1.714288385770680284e-06	-1.562315770321156139e-04	3.255063363909446294e-03	8.467938666378105328e-01	1.104239917827604112e+00	1.000032241895829843e+00	-9.923831443848925640e-03	3.365985282982344827e-05	3.521457583352289867e-05
3.875162133145940047e+00	1.714288394028682525e-06	-1.562315565831076214e-04	3.223683983695102995e-03	8.467939665643465785e-01	1.104437411388463408e+00	1.000032241200098149e+00	-9.923832348419000735e-03	3.368862833932896562e-05	3.558686318003842015e-05
3.895188810836616611e+00	1.714288402324634595e-06	-1.562316329760282565e-04	3.192812377915306421e-03	8.467935563806981980e-01	1.104641495412524543e+00	1.000032240453156973e+00	-9.923827792664100672e-03	3.371799537277990927e-05	3.596140155069441882e-05
3.915215488527293175e+00	1.714288410110129671e-06	-1.562319635409107439e-04	3.162438657933732290e-03	8.467917679085645855e-01	1.104852124732510044e+00	1.000032239731946548e+00	-9.923767827544440964e-03	3.374796095628424615e-05	3.633819697932164447e-05
3.935242166217970183e+00	1.714288413486866538e-06	-1.562321803223433382e-04	3.132552319694261768e-03	8.467905939905403523e-01	1.105069257482505174e+00	1.000032238961598985e+00	-9.924092043913921787e-03	3.377852292105171629e-05	3.671725551215016914e-05
3.955268843908646748e+00	1.714288434417180896e-06	-1.562309410610771953e-04	3.103142983937963364e-03	8.467973166812897690e-01	1.105292847897693775e+00	1.000032238237599458e+00	-9.923055881242323975e-03	3.380967768869480800e-05	3.709858364358857363e-05
3.975295521599323312e+00	1.714288456550037882e-06	-1.562287257889782973e-04	3.074198364798687994e-03	8.468093298021485138e-01	1.105522849293776311e+00	1.000032237539037583e+00	-9.921585199979562550e-03	3.384139728288391465e-05	3.748218695877995085e-05
3.995322199289999876e+00	1.714584732784533302e-06	-1.562526768178495757e-04	3.045531353289996409e-03	8.467602886609396640e-01	1.105725138389047624e+00	1.000000000000000000e+00	-1.000000000000000021e-02	3.387174561589884471e-05	3.787100112148618141e-05
