# Time=0.027600552011 and Columns are r	p	Paether	ur	alpha	a	b	K	Sr_tilde	tau_tilde
1.001333884533834630e-02	1.198951616189198807e-02	-1.855220803421234535e-02	2.449169077824957642e-05	6.393404415896200010e-01	1.000116013738657328e+00	1.000068694389434798e+00	-1.333261897601558874e-02	2.766186294389119855e-10	1.503071165078354322e-06
3.004001653601504063e-02	1.196102002219092374e-02	-1.853121023695060432e-02	7.345950239266779366e-05	6.395190901227087998e-01	1.000494414036921853e+00	1.000068712697285589e+00	-1.332664488594411702e-02	7.458188211460319498e-09	1.350059550198196747e-05
5.006669422669172975e-02	1.190418323570201914e-02	-1.848923660894744719e-02	1.223122678490413853e-04	6.398762721905446593e-01	1.001250319792537535e+00	1.000068737460068302e+00	-1.330468606020300884e-02	3.441214837688483982e-08	3.735165510438982485e-05
7.009337191736843276e-02	1.181938692502815594e-02	-1.842637869049108118e-02	1.709406116351943825e-04	6.404114978130753810e-01	1.002382016390440445e+00	1.000068768146250120e+00	-1.326912652295795039e-02	9.392464731545111581e-08	7.276992431395982444e-05
9.012004960804512188e-02	1.170717872423122224e-02	-1.834276135437988217e-02	2.192782064970242564e-04	6.411240979878348734e-01	1.003886903212489301e+00	1.000068808370486062e+00	-1.322315037909646551e-02	1.982122862617992296e-07	1.193300315282109749e-04
1.101467272987218110e-01	1.156828073632373485e-02	-1.823855209255207180e-02	2.672464336715841128e-04	6.420131749229240903e-01	1.005761459459908025e+00	1.000068857964098168e+00	-1.316578010681319043e-02	3.587002020020106386e-07	1.764724719206150810e-04
1.301734049893985001e-01	1.140358252159891748e-02	-1.811396171932242241e-02	3.147721091972135554e-04	6.430775938029440475e-01	1.008001241265524150e+00	1.000068916596482671e+00	-1.309741473136206633e-02	5.858281666838719187e-07	2.435100992137201976e-04
1.502000826800751754e-01	1.121413310964525060e-02	-1.796924551748715210e-02	3.617870875045403676e-04	6.443159782739674712e-01	1.010600839281386110e+00	1.000068983830789016e+00	-1.301829812363508240e-02	8.888738717701333185e-07	3.196361554407113961e-04
1.702267603707518784e-01	1.100113122984349399e-02	-1.780470445431878504e-02	4.082291022352867215e-04	6.457266965579482321e-01	1.013553840928443028e+00	1.000069059172276953e+00	-1.292874761645057893e-02	1.275800491534631642e-06	4.039337748197648634e-04
1.902534380614285814e-01	1.076591419372146911e-02	-1.762068626329136786e-02	4.540427755836646618e-04	6.473078573268429281e-01	1.016852786912753714e+00	1.000069142085331153e+00	-1.282913247800335568e-02	1.753131933543778105e-06	4.953868874849557541e-04
2.102801157521052566e-01	1.050994550712961231e-02	-1.741758679668344023e-02	4.991800688899545061e-04	6.490572922483353047e-01	1.020489124360361766e+00	1.000069232000356134e+00	-1.271988057859530126e-02	2.325855893394291323e-06	5.928924318358522617e-04
2.303067934427819596e-01	1.023480135436235540e-02	-1.719585101579003752e-02	5.436013107571260883e-04	6.509725523817727622e-01	1.024453157557241978e+00	1.000069328330542184e+00	-1.260148035074781271e-02	2.997359799041059346e-06	6.952737682695177149e-04
2.503334711334586626e-01	9.942156087455647495e-03	-1.695597425218310986e-02	5.872754303965303227e-04	6.530508876062663948e-01	1.028733997692711455e+00	1.000069430476465904e+00	-1.247448258796570592e-02	3.769395350042828246e-06	8.012951685589036425e-04
2.703601488241353379e-01	9.633766883039605183e-03	-1.669850285858581751e-02	6.301809635545135629e-04	6.552892449270016906e-01	1.033319513085278141e+00	1.000069537845182488e+00	-1.233950151051163048e-02	4.642078746039146234e-06	9.096772371113544340e-04
2.903868265148120131e-01	9.311457723683544060e-03	-1.642403513683416902e-02	6.723060519840070616e-04	6.576842456613016807e-01	1.038196281677820743e+00	1.000069649852163067e+00	-1.219721459090564522e-02	5.613916478609451642e-06	1.019113099768893544e-03
3.104135042054887439e-01	8.977102886288669883e-03	-1.613322139130282662e-02	7.136494232724182110e-04	6.602321871013598908e-01	1.043349547647815623e+00	1.000069765942097177e+00	-1.204836134249499119e-02	6.681867522597238757e-06	1.128285176829404990e-03
3.304401818961654191e-01	8.632610112763696580e-03	-1.582676427702455618e-02	7.542201400499464652e-04	6.629290187937593171e-01	1.048763184308349361e+00	1.000069885586828855e+00	-1.189374042097421889e-02	7.841424123059470555e-06	1.235882335589737853e-03
3.504668595868420944e-01	8.279903659310361430e-03	-1.550541801115252506e-02	7.940385551506122779e-04	6.657703491063843293e-01	1.054419665458574906e+00	1.000070008307053060e+00	-1.173420541465666246e-02	9.086728019317423757e-06	1.340617199610113705e-03
3.704935372775188251e-01	7.920907410715685021e-03	-1.516998791847948454e-02	8.331358007902456763e-04	6.687514219280452643e-01	1.060300047665552858e+00	1.000070133664936245e+00	-1.157065862459573727e-02	1.041069464530561379e-05	1.441243372078611666e-03
3.905202149681955004e-01	7.557528261392490974e-03	-1.482132859508683391e-02	8.715547283402157999e-04	6.718671299703437017e-01	1.066383965815755008e+00	1.000070261285890716e+00	-1.140404339715347590e-02	1.180517082019073540e-05	1.536572316305625727e-03
4.105468926588721756e-01	7.191639951661064727e-03	-1.446034247805563951e-02	9.093491383140515612e-04	6.751119930946529735e-01	1.072649644549487080e+00	1.000070390844666868e+00	-1.123533432284875427e-02	1.326108679645620425e-05	1.625489621572848023e-03
4.305735703495489064e-01	6.825067556261053478e-03	-1.408797681747217881e-02	9.465847267669839308e-04	6.784801802902672430e-01	1.079073927859702353e+00	1.000070522086713876e+00	-1.106552601685415436e-02	1.476863979980758196e-05	1.706970375781466419e-03
4.506002480402255816e-01	6.459572804806515064e-03	-1.370522117439173897e-02	9.833380735574054430e-04	6.819654906856341681e-01	1.085632329317196776e+00	1.000070654806520798e+00	-1.089561990555101140e-02	1.631745629610546991e-05	1.780093360836520772e-03
4.706269257309022569e-01	6.096840414657217488e-03	-1.331310314160542331e-02	1.019697636922401287e-03	6.855613860070299825e-01	1.092299104803222010e+00	1.000070788868430594e+00	-1.072660982548108953e-02	1.789678479222018558e-05	1.844053791799076620e-03
4.906536034215789877e-01	5.738465594875849854e-03	-1.291268477154114760e-02	1.055762542019478582e-03	6.892609749329471347e-01	1.099047349677915175e+00	1.000070924176468701e+00	-1.055946605745265027e-02	1.949565095062397245e-05	1.898174329057459751e-03
5.106802811122557184e-01	5.385942872524500033e-03	-1.250505708915698386e-02	1.091643692582165443e-03	6.930570573466773299e-01	1.105849121436743410e+00	1.000071060694669445e+00	-1.039511861685833184e-02	2.110304440802357500e-05	1.941914113634242954e-03
5.307069588029323937e-01	5.040656366134265397e-03	-1.209133555853039547e-02	1.127462434593602073e-03	6.969421123566722498e-01	1.112675588809685978e+00	1.000071198408129636e+00	-1.023443967686319712e-02	2.270805199918494324e-05	1.974875601145197057e-03
5.507336364936090689e-01	4.703871615857351321e-03	-1.167265354668014198e-02	1.163351888207633930e-03	7.009083549532922897e-01	1.119497207074421574e+00	1.000071337343424238e+00	-1.007822588072803879e-02	2.430002682170812468e-05	1.996809008756104779e-03
5.707603141842857442e-01	4.376729049377106780e-03	-1.125015704605029053e-02	1.199455601113740043e-03	7.049477274696108742e-01	1.126283919148665991e+00	1.000071477520983576e+00	-9.927180709218230009e-03	2.586868940444188975e-05	2.007614233118736134e-03
5.907869918749625304e-01	4.060239140606656735e-03	-1.082499735880134220e-02	1.235929242688863340e-03	7.090519681603136837e-01	1.133005380575677679e+00	1.000071618976780874e+00	-9.781897441492623177e-03	2.740427214411557944e-05	2.007340153136939580e-03
6.108136695656392057e-01	3.755279285242236337e-03	-1.039832538961709026e-02	1.272939404510800565e-03	7.132126048912723615e-01	1.139631206299571708e+00	1.000071761706495366e+00	-9.642843250147760045e-03	2.889758381046665293e-05	1.996181290612898413e-03
6.308403472563158809e-01	3.462592390688573087e-03	-9.971283915695426658e-03	1.310665838076224441e-03	7.174210348092285860e-01	1.146131235509597834e+00	1.000071905690210317e+00	-9.510344522512257856e-03	3.034012765277331841e-05	1.974471869653794502e-03
6.508670249469925562e-01	3.182787144778161104e-03	-9.545001833358148988e-03	1.349300602364817856e-03	7.216685180579003323e-01	1.152475810761561803e+00	1.000072050829224679e+00	-9.384574410514575152e-03	3.172412988756927025e-05	1.942677383441061964e-03
6.708937026376692314e-01	2.916339899788865375e-03	-9.120586443031385854e-03	1.389051062653956980e-03	7.259462658939968005e-01	1.158636065951203165e+00	1.000072196975671401e+00	-9.265542038495234653e-03	3.304263390612321045e-05	1.901383847467215957e-03
6.909203803283459067e-01	2.663598078127631195e-03	-8.699118065196957683e-03	1.430139624853239873e-03	7.302454328378792381e-01	1.164584217987208126e+00	1.000072343863144475e+00	-9.153084920534798261e-03	3.428949710115981273e-05	1.851284983804661784e-03
7.109470580190225819e-01	2.424784980446324095e-03	-8.281642789667222754e-03	1.472807745778576937e-03	7.345572089331422472e-01	1.170293855528205196e+00	1.000072491143403575e+00	-9.046863111224287199e-03	3.545946569319455147e-05	1.793167642051079862e-03
7.309737357096993682e-01	2.200005853073117024e-03	-7.869167862063135982e-03	1.517316532822127022e-03	7.388728083728109963e-01	1.175740218954589578e+00	1.000072638311828577e+00	-8.946357379439388163e-03	3.654814568764189192e-05	1.727895813385818893e-03
7.510004134003760434e-01	1.989255051949953123e-03	-7.462655315606748531e-03	1.563952050477083848e-03	7.431835614139935542e-01	1.180900464545732609e+00	1.000072784753464950e+00	-8.850868794576031290e-03	3.755206258895659604e-05	1.656393633731098776e-03
7.710270910910527187e-01	1.792424125480878002e-03	-7.063018464233105850e-03	1.613027109983142552e-03	7.474808976311507758e-01	1.185753907301166032e+00	1.000072929664048926e+00	-8.759522980815184767e-03	3.846861155795384626e-05	1.579627797369226750e-03
7.910537687817293939e-01	1.609310627685463582e-03	-6.671116757409163538e-03	1.664888203843888385e-03	7.517564317989184897e-01	1.190282235970310021e+00	1.000073072107387606e+00	-8.671275150015806191e-03	3.929610428641942300e-05	1.498589811773021457e-03
8.110804464724060692e-01	1.439627469057395536e-03	-6.287753605914129726e-03	1.719918876775693682e-03	7.560019419670246377e-01	1.194469696006799309e+00	1.000073210932689305e+00	-8.584920467887346279e-03	4.003370146765571151e-05	1.414278518567637982e-03
8.311071241630827444e-01	1.283012611546125630e-03	-5.913672677591416162e-03	1.778548694667479810e-03	7.602094431821643239e-01	1.198303235540347345e+00	1.000073344844855550e+00	-8.499104475889470572e-03	4.068144659909092559e-05	1.327683282532571198e-03
8.511338018537595307e-01	1.139038920959681116e-03	-5.549557141812845422e-03	1.841258689938546529e-03	7.643711612778412157e-01	1.201772612190263212e+00	1.000073472318714352e+00	-8.412339869481708435e-03	4.124018199315536670e-05	1.239768214871864041e-03
8.711604795444362059e-01	1.007223998750543222e-03	-5.196027471532897561e-03	1.908592886081720771e-03	7.684795890712113886e-01	1.204870457984354104e+00	1.000073591684043306e+00	-8.323022944457740546e-03	4.171156757601341092e-05	1.151457746749026375e-03
8.911871572351128812e-01	8.870398313147578656e-04	-4.853642035812303669e-03	1.981166453322845758e-03	7.725274588174316781e-01	1.207592302756866021e+00	1.000073701037312635e+00	-8.229458237950041874e-03	4.209798093117918678e-05	1.063623811954624715e-03
9.112138349257895564e-01	7.779221112673476678e-04	-4.522896308073219053e-03	2.059680460057409200e-03	7.765077760701600829e-01	1.209936555642867617e+00	1.000073798343892317e+00	-8.129883343968379028e-03	4.240251906709223087e-05	9.770748314658149036e-04
9.312405126164662317e-01	6.792791077321323236e-04	-4.204224576520301446e-03	2.144933536270129341e-03	7.804137958903196726e-01	1.211904447534573492e+00	1.000073881348944704e+00	-8.022505120504886539e-03	4.262888377120344877e-05	8.925466271509149970e-04
9.512671903071429069e-01	5.904999836508279714e-04	-3.898000299499316396e-03	2.237840660507404468e-03	7.842390303328204970e-01	1.213499936156256842e+00	1.000073947700410359e+00	-7.905537998506628750e-03	4.278136580298028254e-05	8.106953241447020222e-04
9.712938679978196932e-01	5.109624835787029105e-04	-3.604538557373784292e-03	2.339449220582449397e-03	7.879772361971688621e-01	1.214729578587685932e+00	1.000073994862509030e+00	-7.777258640808353864e-03	4.286471872190766717e-05	7.320922415308907163e-04
9.913205456884963684e-01	4.400399376673407243e-04	-3.324097144470108435e-03	2.450962622557469658e-03	7.916223945130541617e-01	1.215602374214983961e+00	1.000074020265289576e+00	-7.636066282984932743e-03	4.288412730898490566e-05	6.572207148492436278e-04
1.011347223379172933e+00	3.771075524321806818e-04	-3.056879277039771959e-03	2.573761427930899414e-03	7.951687181685799244e-01	1.216129584058211588e+00	1.000074021226768473e+00	-7.480565842812938147e-03	4.284507511703759071e-05	5.864747508421314396e-04
1.031373901069849497e+00	3.215479793175608455e-04	-2.803034902066531969e-03	2.709432036084387114e-03	7.986106028861673645e-01	1.216324529847006009e+00	1.000073995137609195e+00	-7.309661136742220261e-03	4.275330120593154342e-05	5.201593792182178811e-04
1.051400578760526283e+00	2.727561734877503993e-04	-2.562663052711215347e-03	2.859792537309447259e-03	8.019426755921716943e-01	1.216202378965863140e+00	1.000073939400363265e+00	-7.122676943797347227e-03	4.261466812417289850e-05	4.584925455818527674e-04
1.071427256451203069e+00	2.301435713437877193e-04	-2.335812823771533670e-03	3.026924900964705900e-03	8.051597135974360997e-01	1.215779918113943481e+00	1.000073851659691426e+00	-6.919493073393011805e-03	4.243511250350523971e-05	4.016083770738502470e-04
1.091453934141879634e+00	1.931416308738025253e-04	-2.122484881343199813e-03	3.213202231508761018e-03	8.082567203002951617e-01	1.215075321140370868e+00	1.000073729767891884e+00	-6.700707590188849372e-03	4.222052070466165871e-05	3.495616530347334626e-04
1.111480611832556420e+00	1.612047885787660042e-04	-1.922631353024068911e-03	3.421318313999620157e-03	8.112288818493803566e-01	1.214107912673540790e+00	1.000073572068940875e+00	-6.467805121278125645e-03	4.197667956677847976e-05	3.023333189486794321e-04
1.131507289523232984e+00	1.338128945043715057e-04	-1.736155988690089294e-03	3.654306083542712205e-03	8.140717196993898508e-01	1.212897931817544572e+00	1.000073377393626783e+00	-6.223339140656511219e-03	4.170916624680445951e-05	2.598368959932842838e-04
1.151533967213909770e+00	1.104731881705708246e-04	-1.562913324151155763e-03	3.915548522305430275e-03	8.167808260640476714e-01	1.211466296004265253e+00	1.000073145394808627e+00	-5.971088832506306343e-03	4.142330545355085312e-05	2.219256516969600555e-04
1.171560644904586557e+00	9.072187636565662598e-05	-1.402706832971218134e-03	4.208764602928112206e-03	8.193522898455508630e-01	1.209834368043013475e+00	1.000072876557754009e+00	-5.716191421103924974e-03	4.112408032850395459e-05	1.884004103120584712e-04
1.191587322595263121e+00	7.412536522437788023e-05	-1.255286190323768886e-03	4.537967418784868284e-03	8.217829195027267497e-01	1.208023725199974141e+00	1.000072572558315942e+00	-5.465192731469332814e-03	4.081610121580881594e-05	1.590178857071859102e-04
1.211614000285939907e+00	6.028118701872055898e-05	-1.120346742123307614e-03	4.907371164590211034e-03	8.240696315764820534e-01	1.206055932728034241e+00	1.000072236241293266e+00	-5.225990545032197128e-03	4.050354151411244262e-05	1.334994151228030524e-04
1.231640677976616471e+00	4.881864473775942307e-05	-9.975264629982268788e-04	5.321237019581902435e-03	8.262094374586917978e-01	1.203952320417621236e+00	1.000071871934725465e+00	-5.007626360075530421e-03	4.019012663283818741e-05	1.115399529278885115e-04
1.251667355667293258e+00	3.939917894141744940e-05	-8.864014717990071832e-04	5.783629126343057744e-03	8.282021075639335317e-01	1.201733765287416267e+00	1.000071485310291886e+00	-4.819925320443438355e-03	3.987909737924756468e-05	9.281715283341133440e-05
1.271694033357969822e+00	3.171644202266921223e-05	-7.864890952817665511e-04	6.298068879718121682e-03	8.300476352633854304e-01	1.199420480290182001e+00	1.000071083555751139e+00	-4.672908604411147790e-03	3.957321526900842482e-05	7.700032564689263169e-05
1.291720711048646608e+00	2.549605030248734217e-05	-6.972505978071556190e-04	6.867068823935527054e-03	8.317441910729500565e-01	1.197031814406452899e+00	1.000070675018666311e+00	-4.576050756716241660e-03	3.927475947294512188e-05	6.375901775555185456e-05
1.311747388739323394e+00	2.049497654321728979e-05	-6.180878370014991630e-04	7.491554296436184722e-03	8.332946346725980113e-01	1.194586066517931533e+00	1.000070269156684066e+00	-4.537474500775818056e-03	3.898555320820954790e-05	5.277092238505247715e-05
1.331774066429999959e+00	1.650054911424942653e-05	-5.483524609843578885e-04	8.170194865830371356e-03	8.347053434843061392e-01	1.192100321096929427e+00	1.000069875922450668e+00	-4.563100013707987491e-03	3.870697328524146211e-05	4.372882617367920485e-05
1.351800744120676745e+00	1.332903950306126889e-05	-4.873603027475332562e-04	8.898721335616768813e-03	8.359773621069317429e-01	1.189590309832005977e+00	1.000069505508021539e+00	-4.655853172429660555e-03	3.843999290558103283e-05	3.634631761205287643e-05
1.371827421811353309e+00	1.082384716858451671e-05	-4.343958619632614726e-04	9.669332295206656963e-03	8.371152721398569252e-01	1.187070307699354510e+00	1.000069167555887484e+00	-4.815205212840584920e-03	3.818521417559856958e-05	3.036204824751569166e-05
1.391854099502030095e+00	8.853324610710939022e-06	-3.887252865574883256e-04	1.047034228440456641e-02	8.381301168731735141e-01	1.184553065993610099e+00	1.000068870848812796e+00	-5.037005475901724059e-03	3.794290808307987893e-05	2.554243760488065005e-05
1.411880777192706660e+00	7.308320132195111234e-06	-3.496164468759936422e-04	1.128623169198929299e-02	8.390291035521163510e-01	1.182049787462796431e+00	1.000068622546993025e+00	-5.313614882991518802e-03	3.771305425390050845e-05	2.168283575819225664e-05
1.431907454883383446e+00	6.099543157441656068e-06	-3.163509443624831969e-04	1.209823241662857755e-02	8.398185541668523602e-01	1.179570141075319878e+00	1.000068428043305202e+00	-5.634465185198657584e-03	3.749539736532255760e-05	1.860728169242127416e-05
1.451934132574060232e+00	5.154871640585752944e-06	-2.882355618945990129e-04	1.288548256771507305e-02	8.405097561594997435e-01	1.177122316061782747e+00	1.000068290433887341e+00	-5.986962387171539807e-03	3.728949363947649888e-05	1.616709894713690113e-05
1.471960810264736796e+00	4.416719648929133852e-06	-2.646161580593203136e-04	1.362666241233041232e-02	8.411129636852119340e-01	1.174713107218392949e+00	1.000068210706095639e+00	-6.357532939125548968e-03	3.709476724094085869e-05	1.423863451485345682e-05
1.491987487955413583e+00	3.839567308447107233e-06	-2.448864230782178447e-04	1.430187413502531819e-02	8.416368816740293912e-01	1.172348026487083139e+00	1.000068187548716736e+00	-6.732779168379899801e-03	3.691056174160800649e-05	1.272046545693796835e-05
1.512014165646090147e+00	3.387728837789588528e-06	-2.284929409690359867e-04	1.489443957854627229e-02	8.420908451390047844e-01	1.170031429288652447e+00	1.000068217902125856e+00	-7.100580041867895868e-03	3.673618772123371474e-05	1.153037368129554874e-05
1.532040843336766933e+00	3.033403639261721120e-06	-2.149384152574164463e-04	1.539228336408145735e-02	8.424842604757414311e-01	1.167766649212610419e+00	1.000068297050210830e+00	-7.450938599305214662e-03	3.657095518467969421e-05	1.060233532561271170e-05
1.552067521027443719e+00	2.755025835510608083e-06	-2.037824186085382763e-04	1.578867260151353702e-02	8.428250316721668245e-01	1.165556130225310794e+00	1.000068419389303465e+00	-7.776461463719377271e-03	3.641419876811591988e-05	9.883702746176654998e-06
1.572094198718120284e+00	2.535903606747828337e-06	-1.946394405526228699e-04	1.608223890525743369e-02	8.431206508005948397e-01	1.163401553271729005e+00	1.000068578590634694e+00	-8.072466047399775441e-03	3.626528965006478301e-05	9.332688640865753119e-06
1.592120876408797070e+00	2.363122914191329691e-06	-1.871758006760286888e-04	1.627637726191116796e-02	8.433776414973906954e-01	1.161303950873001423e+00	1.000068768350182102e+00	-8.336735979850747047e-03	3.612364261294923512e-05	8.916203011377862547e-06
1.612147554099473634e+00	2.226680926374029687e-06	-1.811054027313069162e-04	1.637822429005994160e-02	8.436019943072031735e-01	1.159263811469618988e+00	1.000068982405976525e+00	-8.569063262416607568e-03	3.598871717971541040e-05	8.608049273064077950e-06
1.632174231790150420e+00	2.118811300578642785e-06	-1.761851448122721535e-04	1.639745810622505670e-02	8.437985311695360702e-01	1.157281170565511497e+00	1.000069215118413624e+00	-8.770697405239454014e-03	3.586001841498049042e-05	8.387456338514518692e-06
1.652200909480826985e+00	2.033464747284906533e-06	-1.722098986825015615e-04	1.634512911906399815e-02	8.439717743781474102e-01	1.155355692659116640e+00	1.000069461273777716e+00	-8.943832234673687251e-03	3.573709559594218674e-05	8.237907024167237765e-06
1.672227587171503771e+00	1.965912151564120793e-06	-1.690078648991346960e-04	1.623266560185233562e-02	8.441251959100810609e-01	1.153486741547587346e+00	1.000069716502119510e+00	-9.091169867700492693e-03	3.561954086731114249e-05	8.146216550854689419e-06
1.692254264862180557e+00	1.912442575591896103e-06	-1.664359123907295523e-04	1.607112214220977886e-02	8.442621233941454140e-01	1.151673443181538969e+00	1.000069976923226633e+00	-9.215609259652987953e-03	3.550698708306829936e-05	8.101815089815453947e-06
1.712280942552857121e+00	1.870133676951552232e-06	-1.643755679689725779e-04	1.587067869841139039e-02	8.443849431531685878e-01	1.149914738248209556e+00	1.000070239481416712e+00	-9.320024878049591038e-03	3.539910470835956141e-05	8.096192473176467240e-06
1.732307620243533908e+00	1.836676870127799359e-06	-1.627291341590442187e-04	1.564036002158686323e-02	8.444960840423397785e-01	1.148209428738962368e+00	1.000070501512409171e+00	-9.407142649114087415e-03	3.529559914572213736e-05	8.122469264449551775e-06
1.752334297934210472e+00	1.810243664276484728e-06	-1.614165409367654066e-04	1.538792585179159927e-02	8.445971301732132508e-01	1.146556215465686535e+00	1.000070761061476077e+00	-9.479459787664788403e-03	3.519620636391513241e-05	8.175064918258399989e-06
1.772360975624887258e+00	1.789382917034240823e-06	-1.603723152392172327e-04	1.511988248095023392e-02	8.446898530862883003e-01	1.144953731070800895e+00	1.000071016420059022e+00	-9.539220813537268098e-03	3.510069059244886035e-05	8.249439898633570319e-06
1.792387653315563822e+00	1.772941365543398126e-06	-1.595432586710151092e-04	1.484156866101424624e-02	8.447752571564300927e-01	1.143400565355009890e+00	1.000071266461365349e+00	-9.588402207289278834e-03	3.500883941433891500e-05	8.341893928262803529e-06
1.812414331006240609e+00	1.760001741804677011e-06	-1.588861754460418462e-04	1.455728363816120863e-02	8.448546473329040518e-01	1.141895287660112279e+00	1.000071510167064970e+00	-9.628729295735202753e-03	3.492046259264069773e-05	8.449406879374183596e-06
1.832441008696917395e+00	1.749834290228279023e-06	-1.583662417332056449e-04	1.427042898058708889e-02	8.449286251005957427e-01	1.140436462940728646e+00	1.000071746992559074e+00	-9.661684379706988318e-03	3.483538699612697201e-05	8.569512215078203818e-06
1.852467686387593959e+00	1.741858546542581540e-06	-1.579553457516944882e-04	1.398365200426330938e-02	8.449981624420283000e-01	1.139022666312647925e+00	1.000071976389297568e+00	-9.688537103822437296e-03	3.475345689353348891e-05	8.700195480650346663e-06
1.872494364078270745e+00	1.735613079342458240e-06	-1.576309904255301301e-04	1.369897658749860692e-02	8.450635887243038713e-01	1.137652492452953412e+00	1.000072198201851004e+00	-9.710358744499441794e-03	3.467452870477529323e-05	8.839812268462570282e-06
1.892521041768947310e+00	1.730731416413686910e-06	-1.573751012322102401e-04	1.341792192565723942e-02	8.451256457254202603e-01	1.136324564643272250e+00	1.000072412185182280e+00	-9.728054208316476784e-03	3.459847280250869520e-05	8.987021495867395022e-06
1.912547719459624096e+00	1.726922861237314660e-06	-1.571733174681652623e-04	1.314160162226128171e-02	8.451844837856438142e-01	1.135037539560227904e+00	1.000072618432120919e+00	-9.742375867895830890e-03	3.452516792312248860e-05	9.140730859954630509e-06
1.932574397150300882e+00	1.723957146277499968e-06	-1.570141448345226554e-04	1.287080999894862736e-02	8.452406755308261577e-01	1.133790112607164779e+00	1.000072816883038840e+00	-9.753952549821882229e-03	3.445450439910996920e-05	9.300052081025091060e-06
1.952601074840977446e+00	1.721652171870990429e-06	-1.568885173813304793e-04	1.260608971335696118e-02	8.452942634889060169e-01	1.132581019627294738e+00	1.000073007781180356e+00	-9.763300518700291850e-03	3.438637804853174860e-05	9.464264085238055448e-06
1.972627752531654233e+00	1.719864172744304675e-06	-1.567891986939405386e-04	1.234779033693144193e-02	8.453457015639324057e-01	1.131409039820767903e+00	1.000073191171886755e+00	-9.770847696102062316e-03	3.432069473552438197e-05	9.632782677865030775e-06
1.992654430222330797e+00	1.718479867242823449e-06	-1.567105241254235725e-04	1.209611138370881959e-02	8.453949683216823718e-01	1.130272995487941801e+00	1.000073367383510936e+00	-9.776941383935346119e-03	3.425736359838750349e-05	9.805135550405191699e-06
2.012681107913007583e+00	1.717410157172308906e-06	-1.566479811482866054e-04	1.185114065645885388e-02	8.454424247344551890e-01	1.129171753443666271e+00	1.000073536513671035e+00	-9.781867674310886288e-03	3.419630283663084938e-05	9.980941691619980846e-06
2.032707785603684147e+00	1.716585114935691467e-06	-1.565980642358727590e-04	1.161288003971599168e-02	8.454880224016797508e-01	1.128104223535779882e+00	1.000073698933805488e+00	-9.785856443955400982e-03	3.413743219895251185e-05	1.015989444093842788e-05
2.052734463294360712e+00	1.715949961475969439e-06	-1.565579853684848175e-04	1.138127025131928892e-02	8.455320449033852936e-01	1.127069359182585551e+00	1.000073854760488157e+00	-9.789095798056422423e-03	3.408067988883765160e-05	1.034174756106412428e-05
2.072761140985037720e+00	1.715461884260716041e-06	-1.565255934035329321e-04	1.115620526522044000e-02	8.455744464569210361e-01	1.126066155180119654e+00	1.000074004382212500e+00	-9.791735916607870530e-03	3.402597429271687820e-05	1.052630381056606912e-05
2.092787818675714284e+00	1.715087483884379598e-06	-1.564991829292518993e-04	1.093754837023206382e-02	8.456154361996287561e-01	1.125093647761781446e+00	1.000074147914274514e+00	-9.793898708702390710e-03	3.397325188483125866e-05	1.071340558853386892e-05
2.112814496366390848e+00	1.714800770334464634e-06	-1.564774421465218144e-04	1.072513937966262064e-02	8.456549913352597869e-01	1.124150912021970372e+00	1.000074285746798353e+00	-9.795680961603644987e-03	3.392244823802821520e-05	1.090292729121514578e-05
2.132841174057067857e+00	1.714581552553933776e-06	-1.564593400544546072e-04	1.051880530347476354e-02	8.456932583921760171e-01	1.123237061771598766e+00	1.000074417982140362e+00	-9.797160638020980736e-03	3.387350677687080597e-05	1.109476908360364209e-05
2.152867851747744421e+00	1.714414188681813303e-06	-1.564440783046779494e-04	1.031836311949476184e-02	8.457302396124137811e-01	1.122351246778457545e+00	1.000074545003569071e+00	-9.798399848675559687e-03	3.382636917608553955e-05	1.128885183553842614e-05
2.172894529438420985e+00	1.714286577232385558e-06	-1.564310441870105843e-04	1.012362716865565677e-02	8.457660231694760222e-01	1.121492652578849114e+00	1.000074666894271491e+00	-9.799447311235146355e-03	3.378098477696662262e-05	1.148511301611194403e-05
2.192921207129097994e+00	1.714189386020049768e-06	-1.564197482689935954e-04	9.934409281032273789e-03	8.458006513215494682e-01	1.120660497666876365e+00	1.000074784026390384e+00	-9.800342910984787687e-03	3.373730053617088630e-05	1.168350337273422508e-05
2.212947884819774558e+00	1.714115424279091714e-06	-1.564098367672845443e-04	9.750524182025105055e-03	8.458341499825078325e-01	1.119854033353697043e+00	1.000074896461122353e+00	-9.801116447563608045e-03	3.369527087520199729e-05	1.188398425273911005e-05
2.232974562510451122e+00	1.714059172722617940e-06	-1.564010025239908860e-04	9.571788118036604273e-03	8.458666062556903231e-01	1.119072540979129338e+00	1.000075004557902325e+00	-9.801793756703787788e-03	3.365484740462544030e-05	1.208652544832156442e-05
2.253001240201127686e+00	1.714016394968822084e-06	-1.563930524645849819e-04	9.398023025756006843e-03	8.458979860992883459e-01	1.118315331874336849e+00	1.000075108355122699e+00	-9.802392264713613926e-03	3.361598892961472111e-05	1.229110346735609850e-05
2.273027917891804695e+00	1.713983855049559481e-06	-1.563857843169196937e-04	9.229054388637285972e-03	8.459284277943301955e-01	1.117581744632178964e+00	1.000075208199438626e+00	-9.802929240729790425e-03	3.357865122893317509e-05	1.249770014955688797e-05
2.293054595582481259e+00	1.713959078058239676e-06	-1.563791053015305989e-04	9.064714584555393431e-03	8.459578345750512485e-01	1.116871145199069604e+00	1.000075304106723850e+00	-9.803414058829064762e-03	3.354279689731029800e-05	1.270630156160179896e-05
2.313081273273157823e+00	1.713940182963717750e-06	-1.563728713405302458e-04	8.904840445183298883e-03	8.459863987038203081e-01	1.116182924222860917e+00	1.000075396411596262e+00	-9.803858901472882817e-03	3.350838550062419847e-05	1.291689711780430222e-05
2.333107950963834831e+00	1.713925735705827349e-06	-1.563670530533109600e-04	8.749275992783727557e-03	8.460139646443299855e-01	1.115516497288398634e+00	1.000075485108410822e+00	-9.804267982432746456e-03	3.347538290584133226e-05	1.312947888114785995e-05
2.353134628654511395e+00	1.713914651959559484e-06	-1.563615371108539919e-04	8.597870014076039458e-03	8.460407728163011898e-01	1.114871302334570435e+00	1.000075570520971180e+00	-9.804650363827618897e-03	3.344375216441846179e-05	1.334404101024461799e-05
2.373161306345187960e+00	1.713906107257590381e-06	-1.563563345579694545e-04	8.450478275809305065e-03	8.460666195879846807e-01	1.114246800045809449e+00	1.000075652623223288e+00	-9.805006888704018153e-03	3.341346195882384859e-05	1.356057932129097707e-05
2.393187984035864524e+00	1.713899481444133823e-06	-1.563513476271146427e-04	8.306961324228001944e-03	8.460917811676644806e-01	1.113642471337398021e+00	1.000075731729559436e+00	-9.805345084665323396e-03	3.338447858334575482e-05	1.377909094374940287e-05
2.413214661726541532e+00	1.713894303982032418e-06	-1.563466129491705562e-04	8.167186202986731480e-03	8.461160148714722551e-01	1.113057817883971179e+00	1.000075807794850391e+00	-9.805663555805864059e-03	3.335677313375253833e-05	1.399957404812566545e-05
2.433241339417218096e+00	1.713890222678969449e-06	-1.563420400971239871e-04	8.031024621194537971e-03	8.461396300208463561e-01	1.112492359677929255e+00	1.000075881125439770e+00	-9.805968765054341035e-03	3.333031494364897433e-05	1.422202763381769779e-05
2.453268017107894661e+00	1.713886970764869663e-06	-1.563376818598867404e-04	7.898354166978425669e-03	8.461623547368002374e-01	1.111945635687195066e+00	1.000075951658448759e+00	-9.806258061491287745e-03	3.330507716590720945e-05	1.444645136087988707e-05
2.473294694798571669e+00	1.713884349306990672e-06	-1.563334515709000668e-04	7.769056941160432453e-03	8.461845170111433889e-01	1.111417201470787042e+00	1.000076019693489249e+00	-9.806537372521077073e-03	3.328103200078850928e-05	1.467284542076581980e-05
2.493321372489248233e+00	1.713882207941026874e-06	-1.563294113168454383e-04	7.643020247829891527e-03	8.462058224693472797e-01	1.110906629965976888e+00	1.000076085151079486e+00	-9.806803165703311537e-03	3.325815434701398282e-05	1.490121043281079125e-05
2.513348050179924797e+00	1.713880434579483381e-06	-1.563254768304991763e-04	7.520135755626094522e-03	8.462266165796086259e-01	1.110413509146711775e+00	1.000076148325455438e+00	-9.807061052382399363e-03	3.323641911580624064e-05	1.513154736621788056e-05
2.533374727870601362e+00	1.713878944883580804e-06	-1.563217154287521661e-04	7.400299649330006370e-03	8.462465927931849263e-01	1.109937442933184970e+00	1.000076209121583348e+00	-9.807307077629530759e-03	3.321580267996441962e-05	1.536385747632911284e-05
2.553401405561278370e+00	1.713877675520600030e-06	-1.563180447836339849e-04	7.283412355051110433e-03	8.462660997931850115e-01	1.109478048881430645e+00	1.000076267829490995e+00	-9.807546528206914291e-03	3.319628252433435000e-05	1.559814225821956659e-05
2.573428083251954934e+00	1.713876579396346697e-06	-1.563145341257611792e-04	7.169378140352005747e-03	8.462848263875957233e-01	1.109034959210015270e+00	1.000076324339590483e+00	-9.807775271428845892e-03	3.317783625614466520e-05	1.583440340703323984e-05
2.593454760942631498e+00	1.713875620283174005e-06	-1.563111036578815826e-04	7.058105422303254280e-03	8.463031196233257170e-01	1.108607818516440302e+00	1.000076378938732358e+00	-9.807998348875352282e-03	3.316044380580685029e-05	1.607264279095846571e-05
2.613481438633308507e+00	1.713874772027990395e-06	-1.563078223375168540e-04	6.949505811983554097e-03	8.463206732213843786e-01	1.108196284907044138e+00	1.000076431503652996e+00	-9.808211589994840149e-03	3.314408380852546762e-05	1.631286242597664729e-05
2.633508116323985071e+00	1.713874013322537949e-06	-1.563046135399727464e-04	6.843495008590183906e-03	8.463378216962712530e-01	1.107800027730761361e+00	1.000076482318993598e+00	-9.808419871214996491e-03	3.312873852105119001e-05	1.655506446055391925e-05
2.653534794014661635e+00	1.713873329793025213e-06	-1.563015442192585726e-04	6.739991292433116649e-03	8.463542754538159185e-01	1.107418728810661390e+00	1.000076531248584422e+00	-9.808618985409699870e-03	3.311438742819838426e-05	1.679925115906316134e-05
2.673561471705338199e+00	1.713872708262104085e-06	-1.562985418566229120e-04	6.638916996886273965e-03	8.463703438243010968e-01	1.107052080187153287e+00	1.000076578575715747e+00	-9.808813586244604504e-03	3.310101499953664052e-05	1.704542489350619269e-05
2.693588149396015208e+00	1.713872141009161367e-06	-1.562956698716720552e-04	6.540196462509458540e-03	8.463857600982483964e-01	1.106699785451532358e+00	1.000076624151948979e+00	-9.808999781008496260e-03	3.308860141916440786e-05	1.729358813205949437e-05
2.713614827086691772e+00	1.713871619252245859e-06	-1.562928606499801711e-04	6.443758067855933497e-03	8.464008131180605909e-01	1.106361557472271384e+00	1.000076668260099444e+00	-9.809181663153865305e-03	3.307713325757752093e-05	1.754374343504503967e-05
2.733641504777368336e+00	1.713871139079897054e-06	-1.562901730333045996e-04	6.349531666050483268e-03	8.464152553841342019e-01	1.106037119842462113e+00	1.000076710739972174e+00	-9.809355721855561941e-03	3.306659127122259402e-05	1.779589344642192945e-05
2.753668182468045345e+00	1.713870694047081066e-06	-1.562875452441390262e-04	6.257451147563171563e-03	8.464293466277749145e-01	1.105726204589172035e+00	1.000076751874591663e+00	-9.809525807807700434e-03	3.305696402293398657e-05	1.805004089240088002e-05
2.773694860158721909e+00	1.713870282482851129e-06	-1.562850303166625769e-04	6.167451387366474844e-03	8.464428732054569693e-01	1.105428553710529949e+00	1.000076791492598538e+00	-9.809688591273452510e-03	3.304823273981279341e-05	1.830618857472409417e-05
2.793721537849398473e+00	1.713869899180937445e-06	-1.562825735877467631e-04	6.079471304481789962e-03	8.464560571583931159e-01	1.105143916873762677e+00	1.000076829877809548e+00	-9.809847571109250181e-03	3.304038786465728452e-05	1.856433937072304909e-05
2.813748215540075037e+00	1.713869543818068196e-06	-1.562802206233999350e-04	5.993450357357116114e-03	8.464687225243062718e-01	1.104872053041988211e+00	1.000076866848135237e+00	-9.809999838741768549e-03	3.303341102137417640e-05	1.882449622775569559e-05
2.833774893230752046e+00	1.713869211860824791e-06	-1.562779250580056142e-04	5.909332054041250420e-03	8.464810485688291086e-01	1.104612728144796163e+00	1.000076902688827207e+00	-9.810148194526666782e-03	3.302729440885802465e-05	1.908666216418847765e-05
2.853801570921428610e+00	1.713868903811348056e-06	-1.562757243278327021e-04	5.827060045210092840e-03	8.464929016674702655e-01	1.104365716811456899e+00	1.000076937207355465e+00	-9.810290649848977737e-03	3.302202000140608620e-05	1.935084026442108107e-05
2.873828248612105174e+00	1.713868615510977693e-06	-1.562735809078429463e-04	5.746582029549399465e-03	8.465044169173013833e-01	1.104130799984937017e+00	1.000076970691020195e+00	-9.810429316819394355e-03	3.301758162757373945e-05	1.961703368047881138e-05
2.893854926302782182e+00	1.713868348021358329e-06	-1.562715229668691186e-04	5.667845499540416325e-03	8.465155068700543906e-01	1.103907766762840303e+00	1.000077002937179049e+00	-9.810562373760390795e-03	3.301396158473257229e-05	1.988524562767011341e-05
2.913881603993458747e+00	1.713868097396736481e-06	-1.562695229655213154e-04	5.590801981374686654e-03	8.465262584964035053e-01	1.103696411981708536e+00	1.000077034235568263e+00	-9.810691697782867801e-03	3.301115519254205796e-05	2.015547938613599787e-05
2.933908281684135311e+00	1.713867865052045322e-06	-1.562675992836583152e-04	5.515402497387581621e-03	8.465366323993012143e-01	1.103496538131566007e+00	1.000077064373779967e+00	-9.810816135936126919e-03	3.300914507422156546e-05	2.042773829709850866e-05
2.953934959374811875e+00	1.713867647219375255e-06	-1.562657346988079990e-04	5.441602070666639451e-03	8.465466590607151343e-01	1.103307952904331923e+00	1.000077093644472725e+00	-9.810936692171697698e-03	3.300792789500614228e-05	2.070202576459973239e-05
2.973961637065488883e+00	1.713867445539460014e-06	-1.562639372518957682e-04	5.369354973837310065e-03	8.465563568989529220e-01	1.103130471200662432e+00	1.000077121825658111e+00	-9.811052945246527546e-03	3.300748662496848148e-05	2.097834525189327533e-05
2.993988314756165448e+00	1.713867256396245010e-06	-1.562622003316737240e-04	5.298619425080169053e-03	8.465656995623469516e-01	1.102963912633509791e+00	1.000077149213341121e+00	-9.811165266155870077e-03	3.300781912017640229e-05	2.125670028335902549e-05
3.014014992446842012e+00	1.713867081569484953e-06	-1.562605218123440647e-04	5.229352697031086974e-03	8.465747593753687461e-01	1.102808103616716995e+00	1.000077175576148614e+00	-9.811273826629258663e-03	3.300890873849835031e-05	2.153709444112213926e-05
3.034041670137519020e+00	1.713866917600084694e-06	-1.562589055553875598e-04	5.161515928093989014e-03	8.465834584769988957e-01	1.102662874827393003e+00	1.000077201213793510e+00	-9.811378344766849557e-03	3.301075436966534430e-05	2.181953136698437141e-05
3.054068347828195584e+00	1.713866766333064315e-06	-1.562573392498653739e-04	5.095069165977971631e-03	8.465919161948767258e-01	1.102528063376285949e+00	1.000077225885736221e+00	-9.811479650794393756e-03	3.301333981485606077e-05	2.210401475928899272e-05
3.074095025518872148e+00	1.713866624481862501e-06	-1.562558367513558401e-04	5.029976217998076427e-03	8.466000064000767100e-01	1.102403510225139494e+00	1.000077249895695575e+00	-9.811576856329480220e-03	3.301666483384490180e-05	2.239054837485593834e-05
3.094121703209549157e+00	1.713866493903802277e-06	-1.562543764746555800e-04	4.966199703998635563e-03	8.466078944637963621e-01	1.102289062430974020e+00	1.000077272994157385e+00	-9.811671288085325668e-03	3.302071373637639637e-05	2.267913602601391958e-05
3.114148380900225721e+00	1.713866371498461841e-06	-1.562529812198469451e-04	4.903705871801130808e-03	8.466154122111869684e-01	1.102184570523216278e+00	1.000077295489149032e+00	-9.811761565644850844e-03	3.302548699319986561e-05	2.296978158248330363e-05
3.134175058590902285e+00	1.713866259085918273e-06	-1.562516213738019322e-04	4.842459729125617868e-03	8.466227591569644995e-01	1.102089890824827778e+00	1.000077317122267440e+00	-9.811849557282398271e-03	3.303096949089248078e-05	2.326248896870965039e-05
3.154201736281578849e+00	1.713866153773900495e-06	-1.562503268312959170e-04	4.782429757113380170e-03	8.466297340529251869e-01	1.102004882778643502e+00	1.000077338206177391e+00	-9.811933325381116261e-03	3.303716226099164617e-05	2.355726216570563989e-05
3.174228413972255858e+00	1.713866057311570929e-06	-1.562490623717489749e-04	4.723583182016760987e-03	8.466365677138528723e-01	1.101929411340101250e+00	1.000077358473737243e+00	-9.812015158205579166e-03	3.304405082502802148e-05	2.385410520833141886e-05
3.194255091662932422e+00	1.713865967016445477e-06	-1.562478626710370731e-04	4.665890532813223024e-03	8.466430360422289025e-01	1.101863344268590783e+00	1.000077378242470560e+00	-9.812092818143436368e-03	3.305163665157300563e-05	2.415302218747276630e-05
3.214281769353608986e+00	1.713865884546809668e-06	-1.562466887831068523e-04	4.609321097175447801e-03	8.466493817838319780e-01	1.101806554580179398e+00	1.000077397236557086e+00	-9.812168808027299169e-03	3.305990593762785627e-05	2.445401724718195070e-05
3.234308447044285995e+00	1.713865807431455677e-06	-1.562455781330099769e-04	4.553847285059251133e-03	8.466553714175150125e-01	1.101758917793843384e+00	1.000077415778641399e+00	-9.812240745734789743e-03	3.306886048437468131e-05	2.475709458693501187e-05
3.254335124734962559e+00	1.713865737227833997e-06	-1.562444903523343292e-04	4.499440299516002661e-03	8.466612542471237957e-01	1.101720314457258709e+00	1.000077433584390718e+00	-9.812311168889926993e-03	3.307848718703897237e-05	2.506225845893053560e-05
3.274361802425639123e+00	1.713865671666481628e-06	-1.562434633246373656e-04	4.446074282836858481e-03	8.466667926477443595e-01	1.101690627345483176e+00	1.000077450981684546e+00	-9.812377733618203243e-03	3.308878810487470121e-05	2.536951317031474143e-05
3.294388480116315687e+00	1.713865612201464878e-06	-1.562424577097852065e-04	4.393722216537818137e-03	8.466722346938612143e-01	1.101669744051477773e+00	1.000077467677801479e+00	-9.812442879368030862e-03	3.309975083021963566e-05	2.567886308058200292e-05
3.314415157806992696e+00	1.713865556753309182e-06	-1.562415092137287161e-04	4.342359843607417058e-03	8.466773510388488910e-01	1.101657554137229100e+00	1.000077484006068662e+00	-9.812504376981031132e-03	3.311137763946137735e-05	2.599031260379059099e-05
3.334441835497669260e+00	1.713865506677288217e-06	-1.562405818759425385e-04	4.291961794067462345e-03	8.466823689022725530e-01	1.101653951795404263e+00	1.000077499665369851e+00	-9.812564480354762225e-03	3.312365678733752338e-05	2.630386620608130105e-05
3.354468513188345824e+00	1.713865460063371275e-06	-1.562397072214677417e-04	4.242505295709533830e-03	8.466870867219552510e-01	1.101658832943641642e+00	1.000077514994755612e+00	-9.812621228523502742e-03	3.313659076273888784e-05	2.661952840783059381e-05
3.374495190879022832e+00	1.713865418182095072e-06	-1.562388547162519615e-04	4.193966504204669696e-03	8.466917033581325969e-01	1.101672097961681418e+00	1.000077529684754163e+00	-9.812676540070706249e-03	3.315016842068769425e-05	2.693730378137556642e-05
3.394521868569699397e+00	1.713865379267022583e-06	-1.562380497687813040e-04	4.146324030405501744e-03	8.466960451347856909e-01	1.101693648729782593e+00	1.000077544080256509e+00	-9.812728806182054869e-03	3.316439249369857627e-05	2.725719695311042340e-05
3.414548546260375961e+00	1.713865344525529395e-06	-1.562372686824682166e-04	4.099555438694732837e-03	8.467002774231117135e-01	1.101723391429143328e+00	1.000077557863516375e+00	-9.812779478764202534e-03	3.317925234332160119e-05	2.757921260116801536e-05
3.434575223951052525e+00	1.713865312301135216e-06	-1.562365296608232842e-04	4.053640633188641124e-03	8.467042623931430034e-01	1.101761233537509321e+00	1.000077571385425079e+00	-9.812827521682684559e-03	3.319475100511947596e-05	2.790335545769133394e-05
3.454601901641729533e+00	1.713865283757724303e-06	-1.562358167182032777e-04	4.008558476791175725e-03	8.467081266292874053e-01	1.101807086691163784e+00	1.000077584319990498e+00	-9.812873894550013659e-03	3.321087823312800116e-05	2.822963030654576061e-05
3.474628579332406098e+00	1.713865257334146537e-06	-1.562351402287012747e-04	3.964290087228042152e-03	8.467117779869404171e-01	1.101860863620143904e+00	1.000077597024278342e+00	-9.812917798087218701e-03	3.322763744822111926e-05	2.855804198561158843e-05
3.494655257023082662e+00	1.713865234157639928e-06	-1.562344925230386517e-04	3.920815522360000978e-03	8.467152904621507714e-01	1.101922481095259032e+00	1.000077609164061521e+00	-9.812960082830630287e-03	3.324501866612647634e-05	2.888859538433217672e-05
3.514681934713759670e+00	1.713865212736663948e-06	-1.562338754132769770e-04	3.878117042894518168e-03	8.467186201163096060e-01	1.101991856788335999e+00	1.000077621102724246e+00	-9.813000122834734246e-03	3.326302579694087385e-05	2.922129544652031356e-05
3.534708612404436234e+00	1.713865194200028700e-06	-1.562332899541894087e-04	3.836175803543333263e-03	8.467217956315644667e-01	1.102068912291432445e+00	1.000077632497809121e+00	-9.813038282004409030e-03	3.328164896544042963e-05	2.955614716721034996e-05
3.554735290095112799e+00	1.713865177062597860e-06	-1.562327294114657886e-04	3.794975145311790289e-03	8.467248259451062298e-01	1.102153569948601142e+00	1.000077643719145648e+00	-9.813074971388193596e-03	3.330089269419198077e-05	2.989315559630806483e-05
3.574761967785789363e+00	1.713865162511795789e-06	-1.562322035084006333e-04	3.754497228291512299e-03	8.467276759449626766e-01	1.102245755882979461e+00	1.000077654416137607e+00	-9.813109183314568801e-03	3.332074705728419064e-05	3.023232583495343099e-05
3.594788645476466371e+00	1.713865149044874018e-06	-1.562316967974790934e-04	3.714726417083881981e-03	8.467304173232361730e-01	1.102345396833101399e+00	1.000077664965105528e+00	-9.813142331946116820e-03	3.334121732102315433e-05	3.057366303926371809e-05
3.614815323167142935e+00	1.713865137893515014e-06	-1.562312274612794960e-04	3.675645791201587707e-03	8.467329599341393287e-01	1.102452423213414523e+00	1.000077675007350120e+00	-9.813172987637553552e-03	3.336229333670603697e-05	3.091717241669985006e-05
3.634842000857819500e+00	1.713865127538997596e-06	-1.562307724076898241e-04	3.637240688013828119e-03	8.467354216327310779e-01	1.102566765899627876e+00	1.000077684925776200e+00	-9.813202798957521705e-03	3.338398125830012794e-05	3.126285923025838809e-05
3.654868678548496508e+00	1.713865119273452103e-06	-1.562303571665861425e-04	3.599495027616895181e-03	8.467376718015909853e-01	1.102688359360997516e+00	1.000077694353603164e+00	-9.813230042315214743e-03	3.340627054864561880e-05	3.161072879423643703e-05
3.674895356239173072e+00	1.713865111538889541e-06	-1.562299513844653200e-04	3.562395072570404865e-03	8.467398677591579936e-01	1.102817138375656203e+00	1.000077703680479768e+00	-9.813256644393975048e-03	3.342916838649933898e-05	3.196078647890454323e-05
3.694922033929849636e+00	1.713865105705886512e-06	-1.562295877573313284e-04	3.525925510070605610e-03	8.467418399906683213e-01	1.102953041244134402e+00	1.000077712531501684e+00	-9.813280575076119283e-03	3.345266367578911406e-05	3.231303770595513926e-05
3.714948711620526201e+00	1.713865100152310970e-06	-1.562292293034484058e-04	3.490073485082454026e-03	8.467437763142173779e-01	1.103096006439345800e+00	1.000077721303157530e+00	-9.813304146634418273e-03	3.347676476806244530e-05	3.266748795365670551e-05
3.734975389311203209e+00	1.713865096346686382e-06	-1.562289149008330269e-04	3.454824383973167934e-03	8.467454808766400332e-01	1.103245975883690999e+00	1.000077729612421251e+00	-9.813324932328865158e-03	3.350145983946679380e-05	3.302414275178667006e-05
3.755002067001879773e+00	1.713865092585618268e-06	-1.562286017992673293e-04	3.420166193859372657e-03	8.467471752327110357e-01	1.103402891541281461e+00	1.000077737862749894e+00	-9.813345621426158155e-03	3.352675855505973221e-05	3.338300768720414680e-05
3.775028744692556337e+00	1.713865090451012020e-06	-1.562283343812967222e-04	3.386084937945222934e-03	8.467486274311510908e-01	1.103566698766374810e+00	1.000077745662951267e+00	-9.813363364395344055e-03	3.355264820065818096e-05	3.374408839866113361e-05
3.795055422383233346e+00	1.713865088141752449e-06	-1.562280651826488927e-04	3.352569408264300093e-03	8.467500861920806976e-01	1.103737342833443380e+00	1.000077753423577409e+00	-9.813381227835296997e-03	3.357913989592227114e-05	3.410739058250474492e-05
3.815082100073909910e+00	1.713865087356360630e-06	-1.562278425129719249e-04	3.319606208070911748e-03	8.467512914702206572e-01	1.103914772348421502e+00	1.000077760745233801e+00	-9.813396140931950409e-03	3.360621988398848197e-05	3.447291998718700167e-05
3.835108777764586474e+00	1.713865086195590915e-06	-1.562276154209954351e-04	3.287184897728216270e-03	8.467525233874688695e-01	1.104098935720663865e+00	1.000077768045679827e+00	-9.813411305378169983e-03	3.363390085903194480e-05	3.484068241951974944e-05
3.855135455455263482e+00	1.713865086478075344e-06	-1.562274354963064636e-04	3.255292609395856601e-03	8.467535009507612953e-01	1.104289784642831673e+00	1.000077774917311979e+00	-9.813423524620508431e-03	3.366216788486143266e-05	3.521068373861198971e-05
3.875162133145940047e+00	1.713865086212713262e-06	-1.562272492410949872e-04	3.223919637658544460e-03	8.467545093276835910e-01	1.104487270491391504e+00	1.000077781785196462e+00	-9.813435545153990219e-03	3.369103534851312465e-05	3.558292986278741493e-05
3.895188810836616611e+00	1.713865087238406845e-06	-1.562271102638982930e-04	3.193053597820372583e-03	8.467552636248243392e-01	1.104691347929955603e+00	1.000077788233547205e+00	-9.813447819951437792e-03	3.372048701590006327e-05	3.595742676197351257e-05
3.915215488527293175e+00	1.713865093200481602e-06	-1.562269637714400466e-04	3.162685477497788854e-03	8.467560584112869826e-01	1.104901969124228556e+00	1.000077794695933830e+00	-9.813229328029913698e-03	3.375053898572393885e-05	3.633418052183389900e-05
3.935242166217970183e+00	1.713865046061145041e-06	-1.562268599206353276e-04	3.132803478045794333e-03	8.467566088246151201e-01	1.105119112759113342e+00	1.000077800754517243e+00	-9.815236340882318652e-03	3.378117516163331322e-05	3.671319665045303450e-05
3.955268843908646748e+00	1.713865157421486918e-06	-1.562267485022119306e-04	3.103399558745352678e-03	8.467572428743068702e-01	1.105342684496276151e+00	1.000077807012854425e+00	-9.816237455214238058e-03	3.381241766862014264e-05	3.709448420625903963e-05
3.975295521599323312e+00	1.713865436694086955e-06	-1.562266293360567427e-04	3.074462350528841224e-03	8.467579634789897947e-01	1.105572565508884608e+00	1.000077813161674989e+00	-9.799248667914208302e-03	3.384424705538033432e-05	3.747804696526523666e-05
3.995322199289999876e+00	1.714584732784533302e-06	-1.562623784899875635e-04	3.045531353289996409e-03	8.467602886654181926e-01	1.105725138389047624e+00	1.000000000000000000e+00	-1.000000000000000021e-02	3.387174561589884471e-05	3.787100112148618141e-05
