# Time=0.007500150003 and Columns are r	p	Paether	ur	alpha	a	b	K	Sr_tilde	tau_tilde
1.001333884533834630e-02	1.199474351470119354e-02	-1.855260713935950878e-02	1.993686656654634443e-05	6.434712912897342374e-01	1.000064080020261370e+00	1.000016757607564921e+00	-1.085592286136226846e-02	2.252045833651108251e-10	1.503492233547880788e-06
3.004001653601504063e-02	1.196621721344022331e-02	-1.853159637850161981e-02	5.979887446209982376e-05	6.436511491574427035e-01	1.000442504182327941e+00	1.000016763780488871e+00	-1.085324264894572260e-02	6.072053609863018982e-09	1.350435768237746186e-05
5.006669422669172975e-02	1.190934250051261904e-02	-1.848961147696970633e-02	9.962128443939212484e-05	6.440106687631451665e-01	1.001198491173168392e+00	1.000016775885978149e+00	-1.084721236342885142e-02	2.803178960170613106e-08	3.736202528984286432e-05
7.009337191736843276e-02	1.182449070027425005e-02	-1.842673732643284115e-02	1.393761327120096778e-04	6.445493925999494778e-01	1.002330312649647448e+00	1.000016793875437404e+00	-1.083800658688795909e-02	7.659125980229335577e-08	7.279002241543898401e-05
9.012004960804512188e-02	1.171220989868874962e-02	-1.834309880493311534e-02	1.790393921182477886e-04	6.452666472572317069e-01	1.003835357983178245e+00	1.000016817760347898e+00	-1.082586713221169936e-02	1.618600273181597762e-07	1.193627635450359949e-04
1.101467272987218110e-01	1.157322271680384651e-02	-1.823886338489940154e-02	2.185876100931030306e-04	6.461615276519001583e-01	1.005710112850895399e+00	1.000016847463086611e+00	-1.081075968309028190e-02	2.934272586178722668e-07	1.765204665155587112e-04
1.301734049893985001e-01	1.140841966737198530e-02	-1.811424201968153680e-02	2.579994269646450843e-04	6.472328913243144966e-01	1.007950132069517668e+00	1.000016882884946057e+00	-1.079275127518346776e-02	4.802276102390828500e-07	2.435756533905056526e-04
1.502000826800751754e-01	1.121885087573353673e-02	-1.796949024232291983e-02	2.972559525351622500e-04	6.484793487891091779e-01	1.010550005833965370e+00	1.000016923908483291e+00	-1.077190984822775158e-02	7.304173189934489025e-07	3.197211884935818242e-04
1.702267603707518784e-01	1.100571630874267598e-02	-1.780490919956871296e-02	3.363411129141196613e-04	6.498992574932938027e-01	1.013503320831134369e+00	1.000016970398800886e+00	-1.074831766928330441e-02	1.051262350214807138e-06	4.040397924161418441e-04
1.902534380614285814e-01	1.077035462643885326e-02	-1.762084697159321117e-02	3.752420539338294312e-04	6.514907079482313845e-01	1.016802616835623674e+00	1.000017022204954475e+00	-1.072207154943278021e-02	1.449040425174742067e-06	4.955149564056621995e-04
2.102801157521052566e-01	1.051423077163908190e-02	-1.741769962542239619e-02	4.139494182813156071e-04	6.532515177838420506e-01	1.020439339789216859e+00	1.000017079160722799e+00	-1.069328373426166497e-02	1.928957776283304372e-06	5.930431659252592301e-04
2.303067934427819596e-01	1.023892242707758783e-02	-1.719591255124418988e-02	4.524577070315957813e-04	6.551792145907360254e-01	1.024403792515204081e+00	1.000017141086252614e+00	-1.066208247223364089e-02	2.495082255563302903e-06	6.954473254978213751e-04
2.503334711334586626e-01	9.946105481761776529e-03	-1.695598132145133274e-02	4.907654885103487040e-04	6.572710305733654446e-01	1.028685084413433648e+00	1.000017207788715279e+00	-1.062861264606926488e-02	3.150292622432318267e-06	8.014912590970958706e-04
2.703601488241353379e-01	9.637538661428062675e-03	-1.669845278202369138e-02	5.288757215263715757e-04	6.595238838836242623e-01	1.033271081665003033e+00	1.000017279064286058e+00	-1.059303592972140641e-02	3.896245608990003130e-06	9.098951415860195759e-04
2.903868265148120131e-01	9.315047488118094465e-03	-1.642392549602364471e-02	5.667959046632740179e-04	6.619343739777876490e-01	1.038148359680651556e+00	1.000017354698577110e+00	-1.055553091917425974e-02	4.733359379469129620e-06	1.019351697056463269e-03
3.104135042054887439e-01	8.980507744478172238e-03	-1.613305030634780424e-02	6.045383731752346961e-04	6.644987638791121087e-01	1.043302159704033283e+00	1.000017434468874811e+00	-1.051629265923834447e-02	5.660815227131772432e-06	1.128542979937663957e-03
3.304401818961654191e-01	8.635828625582498905e-03	-1.582653013650657525e-02	6.421204048094243015e-04	6.672129767229640906e-01	1.048716351674385594e+00	1.000017518144266537e+00	-1.047553204551289821e-02	6.676574751093842937e-06	1.236157534611068403e-03
3.504668595868420944e-01	8.282935768123706952e-03	-1.550511976902710885e-02	6.795645102765855402e-04	6.700725809908606445e-01	1.054373405593025392e+00	1.000017605488116024e+00	-1.043347453418269274e-02	7.777414929715847566e-06	1.340907709871223125e-03
3.704935372775188251e-01	7.923754350192328128e-03	-1.516962478842143018e-02	7.168985189083135548e-04	6.730727893776140558e-01	1.060254373782780091e+00	1.000017696257768485e+00	-1.039035864847885973e-02	8.958976796977355115e-06	1.441546886306620690e-03
3.905202149681955004e-01	7.560192457445749116e-03	-1.482090036080161398e-02	7.541558901230225502e-04	6.762084490314898000e-01	1.066338886487855797e+00	1.000017790207179402e+00	-1.034643375596461766e-02	1.021583106154336020e-05	1.536886358752209691e-03
4.105468926588721756e-01	7.194124910112776466e-03	-1.445984915682980987e-02	7.913758094772440016e-04	6.794740437179910275e-01	1.072605163308903986e+00	1.000017887086193547e+00	-1.030195759757905095e-02	1.154155466639768816e-05	1.625811602973468040e-03
4.305735703495489064e-01	6.827377742489518578e-03	-1.408741898136394062e-02	8.286035564915890514e-04	6.828636911668201082e-01	1.079030042890849916e+00	1.000017986643307877e+00	-1.025719311970695741e-02	1.292882289487224915e-05	1.707297647154292376e-03
4.506002480402255816e-01	6.461713519645613003e-03	-1.370459958190067655e-02	8.658906496612395372e-04	6.863711496690421132e-01	1.085589033177365437e+00	1.000018088624375023e+00	-1.021240506429633640e-02	1.436950911936044382e-05	1.780423265252105381e-03
4.706269257309022569e-01	6.098817667146411332e-03	-1.331241907613756568e-02	9.032953150655218802e-04	6.899898239005677336e-01	1.092256384279064907e+00	1.000018192775593562e+00	-1.016785595902414477e-02	1.585479838085748265e-05	1.844383712405122094e-03
4.906536034215789877e-01	5.740285976494349275e-03	-1.291193963406837147e-02	9.408827288200685137e-04	6.937127773806569531e-01	1.099005185701581011e+00	1.000018298841550246e+00	-1.012380195074346484e-02	1.737530478808454692e-05	1.898501732883834487e-03
5.106802811122557184e-01	5.387613433573106535e-03	-1.250425276054064824e-02	9.787256417616262139e-04	6.975327474397930994e-01	1.105807489185742787e+00	1.000018406568428553e+00	-1.008048818718708384e-02	1.892120077059304274e-05	1.942236589898617112e-03
5.307069588029323937e-01	5.042184498017564590e-03	-1.209047395729149176e-02	1.016904780397620773e-03	7.014421640229577815e-01	1.112634457892954565e+00	1.000018515701404764e+00	-1.003814420019551353e-02	2.048234587831944254e-05	1.975190894038394897e-03
5.507336364936090689e-01	4.705264939766227311e-03	-1.167173701298074122e-02	1.055509696791383321e-03	7.054331746668266456e-01	1.119456541945956563e+00	1.000018625988105425e+00	-9.996979047607197286e-03	2.204842520403320035e-05	1.997115043939696327e-03
5.707603141842857442e-01	4.377995314084314089e-03	-1.124918787039672768e-02	1.094639404460489521e-03	7.094976690042134049e-01	1.126243679623157634e+00	1.000018737175318195e+00	-9.957176654240543559e-03	2.360908267395109685e-05	2.007909138338962677e-03
5.907869918749625304e-01	4.061386129553323961e-03	-1.082397819174338478e-02	1.134403540144230532e-03	7.136273134292718812e-01	1.132965522604278297e+00	1.000018849012761279e+00	-9.918891161369401341e-03	2.515406147192790677e-05	2.007622272687829054e-03
6.108136695656392057e-01	3.756314734535772665e-03	-1.039725874099362880e-02	1.174923330661876378e-03	7.178135806847458777e-01	1.139591682845730647e+00	1.000018961249116156e+00	-9.882242702556536668e-03	2.667333430846220683e-05	1.996449194369530420e-03
6.308403472563158809e-01	3.463523917801634208e-03	-9.970172598195154237e-03	1.216333175005778530e-03	7.220477919795593724e-01	1.146091997700285914e+00	1.000019073636192246e+00	-9.847313415819739651e-03	2.815723809068860841e-05	1.974724356822112840e-03
6.508670249469925562e-01	3.183622188538278407e-03	-9.543848434674782888e-03	1.258782063697225402e-03	7.263211506619194902e-01	1.152436809113262628e+00	1.000019185924233556e+00	-9.814144122871702736e-03	2.959659321736308232e-05	1.942913481899490903e-03
6.708937026376692314e-01	2.917085671085949648e-03	-9.119393801379398548e-03	1.302435717781430004e-03	7.306247890799524303e-01	1.158597251865558064e+00	1.000019297866603152e+00	-9.782731413021630157e-03	3.098282438480886013e-05	1.901602809127355678e-03
6.909203803283459067e-01	2.664261521065821800e-03	-8.697888725835357937e-03	1.347478616056038041e-03	7.349498036245248889e-01	1.164545545270619931e+00	1.000019409214345290e+00	-9.753025592071012245e-03	3.230806088351798392e-05	1.851486276843438642e-03
7.109470580190225819e-01	2.425372743109840881e-03	-8.280379508440407002e-03	1.394116866591115856e-03	7.392873032168427727e-01	1.170255282154018861e+00	1.000019519721443206e+00	-9.724929126618557865e-03	3.356523559088228035e-05	1.793350940579189166e-03
7.309737357096993682e-01	2.200524267007919824e-03	-7.867873052327117520e-03	1.442581044282275184e-03	7.436284431087227809e-01	1.175701708774881782e+00	1.000019629138678257e+00	-9.698296093836088552e-03	3.474815883215358591e-05	1.728060985231982165e-03
7.510004134003760434e-01	1.989710119430030105e-03	-7.461331572207804443e-03	1.493130025946596932e-03	7.479644710957429332e-01	1.180861989201365425e+00	1.000019737219526972e+00	-9.672932114107571019e-03	3.585158857293703737e-05	1.656540726927947706e-03
7.710270910910527187e-01	1.792821513302536108e-03	-7.061668014422217872e-03	1.546054908639628647e-03	7.522867568045330522e-01	1.185715447988211491e+00	1.000019843713226608e+00	-9.648595375256632453e-03	3.687127193174959919e-05	1.579757025753745917e-03
7.910537687817293939e-01	1.609655666620210188e-03	-6.669741995288283945e-03	1.601684119967329610e-03	7.565868318999441344e-01	1.190243785348871430e+00	1.000019948371452916e+00	-9.624998056219965376e-03	3.780398157261769172e-05	1.498701540239694196e-03
8.110804464724060692e-01	1.439925157597422628e-03	-6.286356554893145210e-03	1.660388784854745486e-03	7.608564128664248027e-01	1.194431259860153638e+00	1.000020050940632732e+00	-9.601808928462487319e-03	3.864752151279647336e-05	1.414373248097184959e-03
8.311071241630827444e-01	1.283267623264389362e-03	-5.912255522543510139e-03	1.722589536231452752e-03	7.650874314097244611e-01	1.198264834512626997e+00	1.000020151169357163e+00	-9.578656254883168020e-03	3.940072768318851577e-05	1.327761635467047258e-03
8.511338018537595307e-01	1.139255614202755104e-03	-5.548121717406346610e-03	1.788763831897216550e-03	7.692720486433182181e-01	1.201734283156990601e+00	1.000020248799956768e+00	-9.555132034135500885e-03	4.006343807907639787e-05	1.239830920306675844e-03
8.711604795444362059e-01	1.007406428247739107e-03	-5.194575774408881526e-03	1.859455042004941067e-03	7.734026740906851938e-01	1.204832255427080501e+00	1.000020343576910831e+00	-9.530796564159071255e-03	4.063645907017612147e-05	1.151505626460549818e-03
8.911871572351128812e-01	8.871917606230264337e-04	-4.852175752512744196e-03	1.935282385562262213e-03	7.774719695653646845e-01	1.207554299633614603e+00	1.000020435237590766e+00	-9.505184706014749990e-03	4.112150365658765599e-05	1.063657766554436434e-03
9.112138349257895564e-01	7.780470259054389536e-04	-4.521417287484672150e-03	2.016953048475623837e-03	7.814728574649768555e-01	1.209898844162722531e+00	1.000020523521892191e+00	-9.477812780078453611e-03	4.152112872769793243e-05	9.770958271768579156e-04
9.312405126164662317e-01	6.793802281659128573e-04	-4.202734415105916291e-03	2.105275583928846016e-03	7.853985127053264570e-01	1.211867139250585312e+00	1.000020608162381031e+00	-9.448187824630027709e-03	4.183864849088604631e-05	8.925556827973063880e-04
9.512671903071429069e-01	5.905802782109957454e-04	-3.896500752294993885e-03	2.201175966807585038e-03	7.892423640202267388e-01	1.213463161808234991e+00	1.000020688895413512e+00	-9.415818275938063475e-03	4.207805075861229200e-05	8.106934987481221461e-04
9.712938679978196932e-01	5.110246807026142890e-04	-3.603031195181282190e-03	2.305715394105820309e-03	7.929980733206085652e-01	1.214693487011816453e+00	1.000020765451049787e+00	-9.380228062306058753e-03	4.224389480426856525e-05	7.320806220733761796e-04
9.913205456884963684e-01	4.400865377046688908e-04	-3.322583694649504631e-03	2.420111162745740892e-03	7.966595355576462367e-01	1.215567130757831737e+00	1.000020837566192977e+00	-9.340973455868140790e-03	4.234121629352258898e-05	6.572004045980403292e-04
1.011347223379172933e+00	3.771408385953907037e-04	-3.055361348538746403e-03	2.545759587072483378e-03	8.002208493306266490e-01	1.216095367698088126e+00	1.000020904974854297e+00	-9.297664748999198356e-03	4.237541947300256382e-05	5.864468578104177661e-04
1.031373901069849497e+00	3.215700281063568408e-04	-2.801514249630632312e-03	2.684262045964163224e-03	8.036763197079258569e-01	1.216291529459823995e+00	1.000020967424111840e+00	-9.249992281813317757e-03	4.235218028795019495e-05	5.201250051534075112e-04
1.051400578760526283e+00	2.727688643139469121e-04	-2.561141393205390842e-03	2.837452683372098348e-03	8.070204289639868467e-01	1.216170787831055033e+00	1.000021024665479485e+00	-9.197758638394018527e-03	4.227734194801661646e-05	4.584527750988438670e-04
1.071427256451203069e+00	2.301485957235689509e-04	-2.334292020759512129e-03	3.007428144352634371e-03	8.102478493096325618e-01	1.215749927131057895e+00	1.000021076474748360e+00	-9.140916151841033468e-03	4.215682429690226815e-05	4.015642673131750466e-04
1.091453934141879634e+00	1.931405010279929222e-04	-2.120966754651248780e-03	3.196576755113738483e-03	8.133534255633473320e-01	1.215047109815856619e+00	1.000021122645317062e+00	-9.079610494488058250e-03	4.199652980733443357e-05	3.495142235319329688e-04
1.111480611832556420e+00	1.611988458167779015e-04	-1.921117906828579856e-03	3.407605859324312845e-03	8.163322060529117907e-01	1.214081638503928140e+00	1.000021163012774883e+00	-9.014227932949212332e-03	4.180226499502647544e-05	3.022835420857155958e-04
1.131507289523232984e+00	1.338033173252976772e-04	-1.734649367734075178e-03	3.643562295465979737e-03	8.191794539002805742e-01	1.212873717281640840e+00	1.000021197450760901e+00	-8.945444623337857337e-03	4.157966147518001260e-05	2.597856878154099409e-04
1.151533967213909770e+00	1.104610004489130540e-04	-1.561415576096829121e-03	3.907841341089716806e-03	8.218907028052798713e-01	1.211444214204490111e+00	1.000021225900376898e+00	-8.874272205974052807e-03	4.133411287415152092e-05	2.218738634729753938e-04
1.171560644904586557e+00	9.070795562248565454e-05	-1.401220034167257027e-03	4.204174591241238018e-03	8.244618168530308822e-01	1.209814426686763200e+00	1.000021248367773286e+00	-8.802094343972626314e-03	4.107071347055629441e-05	1.883488207428529596e-04
1.191587322595263121e+00	7.411045131145486237e-05	-1.253813132549548917e-03	4.536586356417082050e-03	8.268890734988136870e-01	1.208005850727096986e+00	1.000021264956509892e+00	-8.730683960342837738e-03	4.079421229829845733e-05	1.589671941806519565e-04
1.211614000285939907e+00	6.026589122908923275e-05	-1.118889830376195620e-03	4.909302367232042455e-03	8.291692839692157424e-01	1.206039955078533676e+00	1.000021275863608450e+00	-8.662192776581071132e-03	4.050897055061515568e-05	1.334502360392442937e-04
1.231640677976616471e+00	4.880345957664259759e-05	-9.960873215133583553e-04	5.326593413727219277e-03	8.312998984915516143e-01	1.203937961187005357e+00	1.000021281409940732e+00	-8.599100845222360998e-03	4.021893361203684168e-05	1.114928114929328372e-04
1.251667355667293258e+00	3.938448849359799689e-05	-8.849833277199263852e-04	5.792532272202327928e-03	8.332791855045126317e-01	1.201720630468150475e+00	1.000021282028177083e+00	-8.544120462792880941e-03	3.992760764993432950e-05	9.277248240409797630e-05
1.271694033357969822e+00	3.170253297258239094e-05	-7.850955053800425876e-04	6.310645361838650332e-03	8.351063275539009068e-01	1.199408060758039962e+00	1.000021278283661497e+00	-8.500048598633154831e-03	3.963804963086658463e-05	7.695846695302665109e-05
1.291720711048646608e+00	2.548312341500091218e-05	-6.958825530863960076e-04	6.883445251600916505e-03	8.367816384787117867e-01	1.197019495019173263e+00	1.000021270846289889e+00	-8.469576306884210246e-03	3.935286258620934778e-05	6.372022003293747409e-05
1.311747388739323394e+00	2.048315846223950886e-05	-6.167476572864961275e-04	7.511847516422009638e-03	8.383066026999809184e-01	1.194573145887048993e+00	1.000021260494991182e+00	-8.455065744453468812e-03	3.907420233287734634e-05	5.273534656762503048e-05
1.331774066429999959e+00	1.648990413577315446e-05	-5.470444990459133201e-04	8.194500445890876700e-03	8.396840696924711134e-01	1.192086040824973159e+00	1.000021248069262292e+00	-8.458323360423613060e-03	3.880378918179557723e-05	4.369655003182561052e-05
1.351800744120676745e+00	1.331958108840771373e-05	-4.860861631282353606e-04	8.927095873124119355e-03	8.409181877121059134e-01	1.189573892622289630e+00	1.000021234457046271e+00	-8.480393905914429542e-03	3.854292853601902697e-05	3.631734275366869350e-05
1.371827421811353309e+00	1.081554885396279113e-05	-4.331564841784156473e-04	9.701772443060873580e-03	8.420145140538337625e-01	1.187051000214705221e+00	1.000021220530797006e+00	-8.521410589637807426e-03	3.829253607072618539e-05	3.033630869397164215e-05
1.391854099502030095e+00	8.846130069090250104e-06	-3.875235438682698335e-04	1.050676233895834512e-02	8.429798125761718275e-01	1.184530183469935549e+00	1.000021207128664713e+00	-8.580519126338398070e-03	3.805317042709364429e-05	2.551980966626454293e-05
1.411880777192706660e+00	7.302152162493991359e-06	-3.484541441985502847e-04	1.132644453575224960e-02	8.438220298966668809e-01	1.182022754443544432e+00	1.000021194988741202e+00	-8.655895271891811404e-03	3.782507175149101090e-05	2.166314879744654818e-05
1.431907454883383446e+00	6.094311506945223818e-06	-3.152284696071808038e-04	1.214193538411264921e-02	8.445499890188781222e-01	1.179538525061043286e+00	1.000021184739244395e+00	-8.744852576008788417e-03	3.760820802901957110e-05	1.859032938377058069e-05
1.451934132574060232e+00	5.150479550082109470e-06	-2.871535778561802306e-04	1.293225655812938434e-02	8.451732267311257152e-01	1.177085849330067324e+00	1.000021176846320747e+00	-8.844039269135746395e-03	3.740232756879146019e-05	1.615265055348695251e-05
1.471960810264736796e+00	4.413069136258686402e-06	-2.635750036190011997e-04	1.367598504682621986e-02	8.457016507811344619e-01	1.174671695566315233e+00	1.000021171626265026e+00	-8.949703241903693082e-03	3.720701544910419960e-05	1.422644572468648137e-05
1.491987487955413583e+00	3.836563216654126498e-06	-2.438856152717763174e-04	1.435314743820799085e-02	8.461452933987781977e-01	1.172301742902962518e+00	1.000021169216572137e+00	-9.058002825050478352e-03	3.702174899973497253e-05	1.271028829028874651e-05
1.512014165646090147e+00	3.385281743621445587e-06	-2.275315839576820694e-04	1.494702697034589953e-02	8.465140289799936157e-01	1.169980494900933365e+00	1.000021169615169514e+00	-9.165320487730834256e-03	3.684594674362036664e-05	1.152196504216875099e-05
1.532040843336766933e+00	3.031431724651129673e-06	-2.140153889222249273e-04	1.544555116443428744e-02	8.468173078714248403e-01	1.167711403372698742e+00	1.000021172673938086e+00	-9.268535555649286620e-03	3.667900694048790370e-05	1.059546385997640442e-05
1.552067521027443719e+00	2.753455892650736517e-06	-2.028962630795130525e-04	1.584202712318112660e-02	8.470640264763862337e-01	1.165496995574464734e+00	1.000021178157997515e+00	-9.365212245452319423e-03	3.652033397743459131e-05	9.878153838464256403e-06
1.572094198718120284e+00	2.534671338691615168e-06	-1.937885326334728856e-04	1.613515505635219546e-02	8.472622909713704020e-01	1.163338999495820314e+00	1.000021185749007113e+00	-9.453680045531293041e-03	3.636935458780852766e-05	9.328267557262684461e-06
1.592120876408797070e+00	2.362172721351042276e-06	-1.863584119352680623e-04	1.632841505911693247e-02	8.474194888769249756e-01	1.161238462814619732e+00	1.000021195108282912e+00	-9.533010667851633119e-03	3.622552647903752343e-05	8.912736381616069895e-06
1.612147554099473634e+00	2.225965341046563420e-06	-1.803198346011786874e-04	1.642903453290468427e-02	8.475420591169887663e-01	1.159195862974752966e+00	1.000021205873335317e+00	-9.602914470267133115e-03	3.608834282441657085e-05	8.605385216243518123e-06
1.632174231790150420e+00	2.118290221751796909e-06	-1.754296967828711782e-04	1.644677875550807841e-02	8.476357556666356263e-01	1.157211206526399749e+00	1.000021217711537069e+00	-9.663597878767091545e-03	3.595733439290458954e-05	8.385463595564694616e-06
1.652200909480826985e+00	2.033104584905689734e-06	-1.714830007486434411e-04	1.639277602383036950e-02	8.477054101735839176e-01	1.155284117352919360e+00	1.000021230301982200e+00	-9.715609335184670001e-03	3.583207036033628267e-05	8.236473442465228452e-06
1.672227587171503771e+00	1.965684962925348300e-06	-1.683080086845915814e-04	1.627852030875772890e-02	8.477553054240580810e-01	1.153413913555080716e+00	1.000021243377308577e+00	-9.759705819593523721e-03	3.571215827578379557e-05	8.145247215683477051e-06
1.692254264862180557e+00	1.912325245391876704e-06	-1.657617575940241092e-04	1.611511898869025239e-02	8.477889126201622050e-01	1.151599673770755672e+00	1.000021256692867011e+00	-9.796742119743441501e-03	3.559724273540797087e-05	8.101230322814706913e-06
1.712280942552857121e+00	1.870107167304387168e-06	-1.637258447611615847e-04	1.591279305855791693e-02	8.478093144768754641e-01	1.149840293423486148e+00	1.000021270061404621e+00	-9.827595557779856758e-03	3.548700372524852447e-05	8.095925850559370634e-06
1.732307620243533908e+00	1.836725557896253807e-06	-1.621027385504893344e-04	1.568059770393642402e-02	8.478189329366446758e-01	1.148134532132724983e+00	1.000021283314863840e+00	-9.853111474305379161e-03	3.538115356376982627e-05	8.122465747855768501e-06
1.752334297934210472e+00	1.810354761075523966e-06	-1.608124257058704076e-04	1.542631501002999887e-02	8.478199304712772388e-01	1.146481052968786551e+00	1.000021296336996324e+00	-9.874075082032512246e-03	3.527943440916551904e-05	8.175279150083852305e-06
1.772360975624887258e+00	1.789545977432296180e-06	-1.597895775945652459e-04	1.515646647114140405e-02	8.478139629474917838e-01	1.144878454870937645e+00	1.000021309021896787e+00	-9.891193110730611693e-03	3.518161444999402598e-05	8.249834682706746087e-06
1.792387653315563822e+00	1.773147865108435361e-06	-1.589810317714647329e-04	1.487640150040566746e-02	8.478025176102130800e-01	1.143325298841278981e+00	1.000021321307552835e+00	-9.905090403021865955e-03	3.508748555400512266e-05	8.342438899871173095e-06
1.812414331006240609e+00	1.760244730166386014e-06	-1.583437130873602901e-04	1.459042552619913349e-02	8.477867017723907939e-01	1.141820129149212049e+00	1.000021333132948609e+00	-9.916308798084538106e-03	3.499685952913515123e-05	8.450077355877219415e-06
1.832441008696917395e+00	1.750108095042181623e-06	-1.578428127144258927e-04	1.430194425999401116e-02	8.477675312729715529e-01	1.140361489979159426e+00	1.000021344473973617e+00	-9.925313765267330252e-03	3.490956644792927332e-05	8.570288213977682106e-06
1.852467686387593959e+00	1.742158537469933950e-06	-1.574503172262599413e-04	1.401360628775644851e-02	8.477457359906502843e-01	1.138947938615557653e+00	1.000021355299633541e+00	-9.932499544468729666e-03	3.482545129959527545e-05	8.701060887575223147e-06
1.872494364078270745e+00	1.735935465092068649e-06	-1.571437313366105977e-04	1.372743628327564337e-02	8.477219951420599253e-01	1.137578055389039555e+00	1.000021365610646695e+00	-9.938198301115083039e-03	3.474437311617283714e-05	8.840754138257550101e-06
1.892521041768947310e+00	1.731073088965713308e-06	-1.569050587179934017e-04	1.344495219997158923e-02	8.476967912384686388e-01	1.136250451336692446e+00	1.000021375394766654e+00	-9.942686968706275843e-03	3.466620203095638678e-05	8.988029468761882338e-06
1.912547719459624096e+00	1.727281258622110075e-06	-1.567199333199876892e-04	1.316726685877992256e-02	8.476705690147138261e-01	1.134963773607262416e+00	1.000021384668071223e+00	-9.946195439156271800e-03	3.459081909433025061e-05	9.141796677497148192e-06
1.932574397150300882e+00	1.724330152680318074e-06	-1.565769224625055106e-04	1.289517213962376382e-02	8.476436497961544747e-01	1.133716709445634629e+00	1.000021393429184613e+00	-9.948913289541177693e-03	3.451811367408153810e-05	9.301169186162109207e-06
1.952601074840977446e+00	1.722038025337458736e-06	-1.564669516329679185e-04	1.262920927508518441e-02	8.476163202371227445e-01	1.132507988623026041e+00	1.000021401703086843e+00	-9.950995945630812176e-03	3.444798378379642154e-05	9.465427294288231071e-06
1.972627752531654233e+00	1.720261403097519890e-06	-1.563828332438198568e-04	1.236972488469179586e-02	8.475887935057994094e-01	1.131336385059449778e+00	1.000021409494000091e+00	-9.952570572832421247e-03	3.438033375210336657e-05	9.633987911925429536e-06
1.992654430222330797e+00	1.718887233720861384e-06	-1.563188945461162888e-04	1.211691689067292618e-02	8.475612511707666386e-01	1.130200717379145736e+00	1.000021416831617938e+00	-9.953740271293917002e-03	3.431507490819029309e-05	9.806379617031671305e-06
2.012681107913007583e+00	1.717826611365093394e-06	-1.562706603624742770e-04	1.187086998751328733e-02	8.475338371921146141e-01	1.129099849075196449e+00	1.000021423722419867e+00	-9.954588970255811783e-03	3.425212345569095897e-05	9.982222107400034761e-06
2.032707785603684147e+00	1.717009758004419040e-06	-1.562346206970835700e-04	1.163158452837002692e-02	8.475066593649345226e-01	1.128032687935190514e+00	1.000021430198164918e+00	-9.955183896885887868e-03	3.419140139197798995e-05	1.016120928846145935e-05
2.052734463294360712e+00	1.716382023300482927e-06	-1.562080134891048722e-04	1.139899814459743345e-02	8.474798252309537760e-01	1.126998185355798876e+00	1.000021436265553509e+00	-9.955579781903646855e-03	3.413283455190095850e-05	1.034309537332151017e-05
2.072761140985037720e+00	1.715900693342803159e-06	-1.561886900002683234e-04	1.117300343449695657e-02	8.474533855376598090e-01	1.125995335130096864e+00	1.000021441956883139e+00	-9.955819693576294788e-03	3.407635364998394171e-05	1.052768347852772568e-05
2.092787818675714284e+00	1.715532456788244968e-06	-1.561749599146518069e-04	1.095346071225896528e-02	8.474274240969882355e-01	1.125023172307129338e+00	1.000021447277843700e+00	-9.955938940425967248e-03	3.402189250166016743e-05	1.071481628679214383e-05
2.112814496366390848e+00	1.715251389765916062e-06	-1.561655206711087330e-04	1.074020859931592436e-02	8.474019607712942603e-01	1.124080771657956834e+00	1.000021452260388077e+00	-9.955964744418566159e-03	3.396938908250587811e-05	1.090436841891314699e-05
2.132841174057067857e+00	1.715037363214068943e-06	-1.561593472135271697e-04	1.053307128421873337e-02	8.473770565202725091e-01	1.123167246331542746e+00	1.000021456908599893e+00	-9.955919590152913223e-03	3.391878393640451641e-05	1.109624021720669324e-05
2.152867851747744421e+00	1.714874780655340158e-06	-1.561556575442182371e-04	1.033186473349299514e-02	8.473527161995753065e-01	1.122281746194904395e+00	1.000021461253654209e+00	-9.955820459629843508e-03	3.387002119896460721e-05	1.129035269147709634e-05
2.172894529438420985e+00	1.714751585705407243e-06	-1.561538353753837431e-04	1.013640063769406623e-02	8.473289823859532222e-01	1.121423456437992794e+00	1.000021465297686207e+00	-9.955681523014152032e-03	3.382304717160027584e-05	1.148664342105043586e-05
2.192921207129097994e+00	1.714658478196801978e-06	-1.561534165312499422e-04	9.946489975483053039e-03	8.473058503402431940e-01	1.120591595907289850e+00	1.000021469070918156e+00	-9.955513188207436651e-03	3.377781129490924251e-05	1.168506324017471982e-05
2.212947884819774558e+00	1.714588301317109105e-06	-1.561540337234686344e-04	9.761945003375377405e-03	8.472833484615067690e-01	1.119785415748385971e+00	1.000021472573469961e+00	-9.955324282386606924e-03	3.373426486432732859e-05	1.188557356455051509e-05
2.232974562510451122e+00	1.714535559091863671e-06	-1.561554144280239602e-04	9.582581247145156508e-03	8.472614670753276789e-01	1.119004197799826406e+00	1.000021475834583340e+00	-9.955121083646026672e-03	3.369236194654635165e-05	1.208814424011751387e-05
2.253001240201127686e+00	1.714496041524956920e-06	-1.561573414149408363e-04	9.408218362678917590e-03	8.472402262013211116e-01	1.118247253320826307e+00	1.000021478852383794e+00	-9.954909042400081343e-03	3.365205821176729770e-05	1.229275181716955343e-05
2.273027917891804695e+00	1.714466530217379768e-06	-1.561596562650613711e-04	9.238681209692399185e-03	8.472196167028621661e-01	1.117513921481829708e+00	1.000021481655173350e+00	-9.954691892178738760e-03	3.361331179801110071e-05	1.249937816874347864e-05
2.293054595582481259e+00	1.714444571325110359e-06	-1.561622342318964385e-04	9.073800078811873615e-03	8.471996369821093165e-01	1.116803568199037366e+00	1.000021484239163705e+00	-9.954472796282979458e-03	3.357608223805759614e-05	1.270800938801694224e-05
2.313081273273157823e+00	1.714428297510767746e-06	-1.561649817129681108e-04	8.913411246409611022e-03	8.471802939750149308e-01	1.116115584735391186e+00	1.000021486631848422e+00	-9.954254097531504628e-03	3.354033130214110380e-05	1.291863491008070453e-05
2.333107950963834831e+00	1.714416291890062817e-06	-1.561678299182223855e-04	8.757356841277149501e-03	8.471615654049884370e-01	1.115449386651457431e+00	1.000021488827627758e+00	-9.954037463556431736e-03	3.350602193557323161e-05	1.313124681468917347e-05
2.353134628654511395e+00	1.714407481158089572e-06	-1.561707233525013144e-04	8.605485135682102230e-03	8.471434680202439838e-01	1.114804412518392240e+00	1.000021490853307160e+00	-9.953824385096395749e-03	3.347311917436855764e-05	1.334583927355832667e-05
2.373161306345187960e+00	1.714401055050750788e-06	-1.561736254371946938e-04	8.457650199719736125e-03	8.471259710725240755e-01	1.114180122984381294e+00	1.000021492701584913e+00	-9.953615666544715981e-03	3.344158899857810108e-05	1.356240811376311236e-05
2.393187984035864524e+00	1.714396402572689905e-06	-1.561765043814048370e-04	8.313712077713366136e-03	8.471090876765551281e-01	1.113575999595238120e+00	1.000021494398694699e+00	-9.953412175479970855e-03	3.341139938816658415e-05	1.378095047319608482e-05
2.413214661726541532e+00	1.714393065004420442e-06	-1.561793407221762455e-04	8.173536319499134090e-03	8.470927915407566733e-01	1.112991543970398789e+00	1.000021495935786708e+00	-9.953214300181603691e-03	3.338251904755486872e-05	1.400146452969555474e-05
2.433241339417218096e+00	1.714390697993806897e-06	-1.561821176971608721e-04	8.036994117008245536e-03	8.470770857802404352e-01	1.112426276724354235e+00	1.000021497338622112e+00	-9.953022455225899248e-03	3.335491860788083551e-05	1.422394928814939073e-05
2.453268017107894661e+00	1.714389044607949547e-06	-1.561848250629108354e-04	7.903961774048338593e-03	8.470619498492487631e-01	1.111879736744118663e+00	1.000021498596913805e+00	-9.952836817464002367e-03	3.332856923824150785e-05	1.444840441385902549e-05
2.473294694798571669e+00	1.714387912820126983e-06	-1.561874545388272997e-04	7.774320834859798843e-03	8.470473818490099616e-01	1.111351480200969188e+00	1.000021499736067465e+00	-9.952657541851813588e-03	3.330344396189781261e-05	1.467483010198613218e-05
2.493321372489248233e+00	1.714387160406640039e-06	-1.561900013210836848e-04	7.647957530793874498e-03	8.470333636693585522e-01	1.110841079921923047e+00	1.000021500744446179e+00	-9.952484669625089042e-03	3.327951618064052574e-05	1.490322697579966603e-05
2.513348050179924797e+00	1.714386681509505900e-06	-1.561924628504058276e-04	7.524762917589696010e-03	8.470198853951342866e-01	1.110348124482742227e+00	1.000021501647226918e+00	-9.952318148016357779e-03	3.325676108708226786e-05	1.513359600709086616e-05
2.533374727870601362e+00	1.714386398461773402e-06	-1.561948358050948551e-04	7.404632319499961611e-03	8.470069389439378593e-01	1.109872217662673854e+00	1.000021502431500009e+00	-9.952158039591818550e-03	3.323515411806575144e-05	1.536593845436966431e-05
2.553401405561278370e+00	1.714386253669550376e-06	-1.561971225347559512e-04	7.287465477186134272e-03	8.469945002248614463e-01	1.109412977611220485e+00	1.000021503122293209e+00	-9.952004065387341780e-03	3.321467242547581912e-05	1.560025581455185676e-05
2.573428083251954934e+00	1.714386205409969756e-06	-1.561993190525527285e-04	7.173166011082933100e-03	8.469825754147373154e-01	1.108970036378281065e+00	1.000021503705511572e+00	-9.951856395797193874e-03	3.319529331846454522e-05	1.583654978551465254e-05
2.593454760942631498e+00	1.714386222848765812e-06	-1.562014317644035448e-04	7.061641567036959499e-03	8.469711251917132477e-01	1.108543039143499609e+00	1.000021504206147771e+00	-9.951714541573949274e-03	3.317699571268544178e-05	1.607482223674844044e-05
2.613481438633308507e+00	1.714386284042766542e-06	-1.562034557127804136e-04	6.952803321735892723e-03	8.469601667689891089e-01	1.108131643817260148e+00	1.000021504608945344e+00	-9.951578768393278679e-03	3.315975865213752942e-05	1.631507518670142064e-05
2.633508116323985071e+00	1.714386372835982300e-06	-1.562053986169369840e-04	6.846566108109144143e-03	8.469496570067835961e-01	1.107735520323473111e+00	1.000021504938937156e+00	-9.951448533472110128e-03	3.314356264126236770e-05	1.655731078480360049e-05
2.653534794014661635e+00	1.714386478033909611e-06	-1.562072558196759393e-04	6.742847978092932765e-03	8.469396153121739879e-01	1.107354350263567433e+00	1.000021505179814474e+00	-9.951324099973292772e-03	3.312838832046315199e-05	1.680153129770847224e-05
2.673561471705338199e+00	1.714386591431609248e-06	-1.562090376817621242e-04	6.641570301548983986e-03	8.469299860674593949e-01	1.106987826247663342e+00	1.000021505356668339e+00	-9.951204776024029711e-03	3.311421764196685553e-05	1.704773909813283553e-05
2.693588149396015208e+00	1.714386707575719619e-06	-1.562107362323160486e-04	6.542657391550525843e-03	8.469208075878326136e-01	1.106635651614897409e+00	1.000021505452185711e+00	-9.951091043611708445e-03	3.310103273799340788e-05	1.729593665640423870e-05
2.713614827086691772e+00	1.714386822529608304e-06	-1.562123640219131729e-04	6.446036559107554131e-03	8.469120144064429256e-01	1.106297539806200270e+00	1.000021505491629714e+00	-9.950982081040900262e-03	3.308881684393259439e-05	1.754612653335715740e-05
2.733641504777368336e+00	1.714386933837791374e-06	-1.562139122125990676e-04	6.351637823751662623e-03	8.469036506745849513e-01	1.105973214135179461e+00	1.000021505456674564e+00	-9.950878435329060800e-03	3.307755349085766782e-05	1.779831137504799012e-05
2.753668182468045345e+00	1.714387039817356030e-06	-1.562153959945012901e-04	6.259393905817451677e-03	8.468956358080405034e-01	1.105662407198803709e+00	1.000021505372810982e+00	-9.950779117099834911e-03	3.306722707349383822e-05	1.805249390806851637e-05
2.773694860158721909e+00	1.714387139520886602e-06	-1.562168033476604853e-04	6.169240033332614760e-03	8.468880328565122628e-01	1.105364860691993911e+00	1.000021505220783036e+00	-9.950684882286679050e-03	3.305782245069683326e-05	1.830867693615113092e-05
2.793721537849398473e+00	1.714387232450594534e-06	-1.562181513942972053e-04	6.081113851503254161e-03	8.468807505595599139e-01	1.105080324852578233e+00	1.000021505026313484e+00	-9.950594626759876743e-03	3.304932503506222130e-05	1.856686333692574776e-05
2.813748215540075037e+00	1.714387318369186086e-06	-1.562194277316324511e-04	5.994955347695195280e-03	8.468738543626778137e-01	1.104808558315487410e+00	1.000021504769254221e+00	-9.950509124589676860e-03	3.304172094780491150e-05	1.882705605967184586e-05
2.833774893230752046e+00	1.714387397387831368e-06	-1.562206496427030950e-04	5.910706661081717959e-03	8.468672524695760595e-01	1.104549327587801777e+00	1.000021504475619105e+00	-9.950427270035233293e-03	3.303499651746309371e-05	1.908925812296053605e-05
2.853801570921428610e+00	1.714387469566950086e-06	-1.562218037766867904e-04	5.828312130693481634e-03	8.468610151823718901e-01	1.104302406937926584e+00	1.000021504124382288e+00	-9.950349897825352952e-03	3.302913905447422564e-05	1.935347261309156843e-05
2.873828248612105174e+00	1.714387535329500309e-06	-1.562229082465825666e-04	5.747717999856813940e-03	8.468550460947208425e-01	1.104067577896687302e+00	1.000021503741891582e+00	-9.950275849907238082e-03	3.302413570104899759e-05	1.961970268227836102e-05
2.893854926302782182e+00	1.714387594817115474e-06	-1.562239502687171879e-04	5.668872593668874624e-03	8.468494140603929354e-01	1.103844629180813053e+00	1.000021503306284476e+00	-9.950205929995440193e-03	3.301997490268395499e-05	1.988795154756261167e-05
2.913881603993458747e+00	1.714387648607452992e-06	-1.562249451361675178e-04	5.591725910666244317e-03	8.468440353363752005e-01	1.103633356214068106e+00	1.000021502844246957e+00	-9.950139156689231240e-03	3.301664453632002403e-05	2.015822248930153793e-05
2.933908281684135311e+00	1.714387696831413760e-06	-1.562258836627014320e-04	5.516229924893575019e-03	8.468389613739428778e-01	1.103433561082735714e+00	1.000021502333100498e+00	-9.950076106942826529e-03	3.301413409340622546e-05	2.043051885041601332e-05
2.953934959374811875e+00	1.714387740127384698e-06	-1.562267773138580605e-04	5.442338081139960759e-03	8.468341285380360794e-01	1.103245052075852550e+00	1.000021501799922774e+00	-9.950016045809239110e-03	3.301243214929170175e-05	2.070484403510431393e-05
2.973961637065488883e+00	1.714387778583320648e-06	-1.562276202018142966e-04	5.370005695488900589e-03	8.468295712987375934e-01	1.103067643666766351e+00	1.000021501221245668e+00	-9.949959338539361015e-03	3.301152914580774328e-05	2.098120150827282077e-05
2.993988314756165448e+00	1.714387812849030349e-06	-1.562284191490539076e-04	5.299189379325064571e-03	8.468252489042921161e-01	1.102901156072700672e+00	1.000021500624534543e+00	-9.949905549358520687e-03	3.301141432359114850e-05	2.125959479446553279e-05
3.014014992446842012e+00	1.714387842965285941e-06	-1.562291747623596923e-04	5.229847511217455662e-03	8.468211626147228444e-01	1.102745415259174910e+00	1.000021499985543461e+00	-9.949854629488887395e-03	3.301207897391523870e-05	2.154002747739143601e-05
3.034041670137519020e+00	1.714387869550539215e-06	-1.562298873544675447e-04	5.161939623427504002e-03	8.468173055445558095e-01	1.102600252516592327e+00	1.000021499332189423e+00	-9.949806556810760969e-03	3.301351302129135949e-05	2.182250319904316239e-05
3.054068347828195584e+00	1.714387892618405378e-06	-1.562305620205571685e-04	5.095426898728141508e-03	8.468136564714261461e-01	1.102465504485365955e+00	1.000021498639449558e+00	-9.949761000043716441e-03	3.301570848045044869e-05	2.210702565927754926e-05
3.074095025518872148e+00	1.714387912732995668e-06	-1.562311952874055523e-04	5.030271564373378114e-03	8.468102277150224566e-01	1.102341012747771964e+00	1.000021497935681625e+00	-9.949718177958291956e-03	3.301865596140756190e-05	2.239359861510293562e-05
3.094121703209549157e+00	1.714387929893540343e-06	-1.562317957353718026e-04	4.966437377414438872e-03	8.468069794496773106e-01	1.102226623872193612e+00	1.000021497195129783e+00	-9.949677537368199071e-03	3.302234811048859910e-05	2.268222588029505306e-05
3.114148380900225721e+00	1.714387944598079741e-06	-1.562323570470905605e-04	4.903889054473317168e-03	8.468039393095073697e-01	1.102122189018187370e+00	1.000021496446607649e+00	-9.949639477678821550e-03	3.302677622487546491e-05	2.297291132484152458e-05
3.134175058590902285e+00	1.714387956841824950e-06	-1.562328903056229711e-04	4.842592719029141513e-03	8.468010542774303540e-01	1.102027563998447368e+00	1.000021495663621973e+00	-9.949603289951397533e-03	3.303193350244772831e-05	2.326565887455009493e-05
3.154201736281578849e+00	1.714387967051006972e-06	-1.562333856418610892e-04	4.782515388551313723e-03	8.467983702239249011e-01	1.101942608894928233e+00	1.000021494875475092e+00	-9.949569596677750732e-03	3.303781192176962622e-05	2.356047251066565991e-05
3.174228413972255858e+00	1.714387975234235263e-06	-1.562338564172227086e-04	4.723625361440371949e-03	8.467958231411659709e-01	1.101867188137890530e+00	1.000021494054948112e+00	-9.949537545644898673e-03	3.304440513932508028e-05	2.385735626947003651e-05
3.194255091662932422e+00	1.714387981740558122e-06	-1.562342925344376411e-04	4.665891785084396934e-03	8.467934585977314743e-01	1.101801170131866847e+00	1.000021493231834757e+00	-9.949507776152799812e-03	3.305170581638538536e-05	2.415631424203584565e-05
3.214281769353608986e+00	1.714387986592957673e-06	-1.562347067127795193e-04	4.609284964709554379e-03	8.467912178588677952e-01	1.101744427349254041e+00	1.000021492378205368e+00	-9.949479476491922963e-03	3.305970802370937359e-05	2.445735057378994122e-05
3.234308447044285995e+00	1.714387990072307499e-06	-1.562350890502212553e-04	4.553776016390414030e-03	8.467891437576013924e-01	1.101696835965838783e+00	1.000021491524362593e+00	-9.949453267242546264e-03	3.306840507104657952e-05	2.476046946446430928e-05
3.254335124734962559e+00	1.714387992216850502e-06	-1.562354518892022297e-04	4.499337099232117269e-03	8.467871804024823534e-01	1.101658275967807743e+00	1.000021490641666455e+00	-9.949428369268075931e-03	3.307779140418603560e-05	2.506567516756541547e-05
3.274361802425639123e+00	1.714387993244467698e-06	-1.562357856002829170e-04	4.445941151486069477e-03	8.467853690228712704e-01	1.101628630795783881e+00	1.000021489760937854e+00	-9.949405388246596038e-03	3.308786095451207975e-05	2.537297199053010311e-05
3.294388480116315687e+00	1.714387993209886942e-06	-1.562361017673565315e-04	4.393562046688900304e-03	8.467836581772001381e-01	1.101607787464303101e+00	1.000021488852847584e+00	-9.949383585817712927e-03	3.309860850758709953e-05	2.568236429411815879e-05
3.314415157806992696e+00	1.714387992274752828e-06	-1.562363913714883584e-04	4.342174410634152409e-03	8.467820856302507027e-01	1.101595636211230245e+00	1.000021487948745458e+00	-9.949363529973801953e-03	3.311002858628435397e-05	2.599385649269116236e-05
3.334441835497669260e+00	1.714387990509337960e-06	-1.562366661352183829e-04	4.291753704779739491e-03	8.467805985231715571e-01	1.101592070633282239e+00	1.000021487018591060e+00	-9.949344476729255621e-03	3.312211629012323447e-05	2.630745305363447846e-05
3.354468513188345824e+00	1.714387988021527867e-06	-1.562369158483959547e-04	4.242276120951078699e-03	8.467792424575458776e-01	1.101596987336017852e+00	1.000021486094301526e+00	-9.949327070462794451e-03	3.313486671867513347e-05	2.662315849768051815e-05
3.374495190879022832e+00	1.714387984903151507e-06	-1.562371532988051704e-04	4.193718589079150835e-03	8.467779569153666142e-01	1.101610286085023871e+00	1.000021485145129230e+00	-9.949310496049051933e-03	3.314827523302644877e-05	2.694097739835588388e-05
3.394521868569699397e+00	1.714387981209231507e-06	-1.562373671535642670e-04	4.146058757582633120e-03	8.467767946865625284e-01	1.101631869458482793e+00	1.000021484203549305e+00	-9.949295474844837422e-03	3.316233751089024012e-05	2.726091438240336814e-05
3.414548546260375961e+00	1.714387977055918317e-06	-1.562375711448479843e-04	4.099274915528706639e-03	8.467756903499079613e-01	1.101661643009991254e+00	1.000021483238120235e+00	-9.949281129677552474e-03	3.317704912542803408e-05	2.758297412917649761e-05
3.434575223951052525e+00	1.714387972445035177e-06	-1.562377526445470164e-04	4.053346067535668236e-03	8.467747029721505170e-01	1.101699514923739409e+00	1.000021482281900242e+00	-9.949268259727694907e-03	3.319240633507128613e-05	2.790716137118438210e-05
3.454601901641729533e+00	1.714387967523414188e-06	-1.562379260897115785e-04	4.008251760831495897e-03	8.467737640664608767e-01	1.101745396191363691e+00	1.000021481302728388e+00	-9.949255949538922048e-03	3.320840487178806417e-05	2.823348089349143243e-05
3.474628579332406098e+00	1.714387962240244173e-06	-1.562380785413206952e-04	3.963972263986308142e-03	8.467729342585983421e-01	1.101799200265202394e+00	1.000021480334279733e+00	-9.949245015787255841e-03	3.322504157779357744e-05	2.856193753430297529e-05
3.494655257023082662e+00	1.714387956773358430e-06	-1.562382250981445822e-04	3.920488291650705073e-03	8.467721400556164069e-01	1.101860843249193644e+00	1.000021479343672581e+00	-9.949234501139252868e-03	3.324231230870528235e-05	2.889253618437634510e-05
3.514681934713759670e+00	1.714387951019714341e-06	-1.562383514399959511e-04	3.877781291616783522e-03	8.467714521974368802e-01	1.101930243551078714e+00	1.000021478365185734e+00	-9.949225311105869274e-03	3.326021449556786975e-05	2.922528178765980780e-05
3.534708612404436234e+00	1.714387945192428784e-06	-1.562384733095861084e-04	3.835833059986848686e-03	8.467707913404503017e-01	1.102007322087938501e+00	1.000021477365226286e+00	-9.949216442178158981e-03	3.327874406197832646e-05	2.956017934076528615e-05
3.554735290095112799e+00	1.714387939137313599e-06	-1.562385762509095697e-04	3.794626146002011424e-03	8.467702306077504737e-01	1.102092001933664855e+00	1.000021476378710750e+00	-9.949208816578776135e-03	3.329789903513275391e-05	2.989723389358302108e-05
3.574761967785789363e+00	1.714387933103584302e-06	-1.562386752500742300e-04	3.754143350400633138e-03	8.467696937368632826e-01	1.102184208538474985e+00	1.000021475371303037e+00	-9.949201479176663157e-03	3.331767537214691994e-05	3.023645054879497840e-05
3.594788645476466371e+00	1.714387926889760130e-06	-1.562387568026331526e-04	3.714368249776021057e-03	8.467692488942734075e-01	1.102283869374781844e+00	1.000021474378576247e+00	-9.949195282500966284e-03	3.333807168285601971e-05	3.057783446255312224e-05
3.614815323167142935e+00	1.714387920777677532e-06	-1.562388354347810375e-04	3.675284581061644996e-03	8.467688221560246697e-01	1.102390914168886127e+00	1.000021473365468871e+00	-9.949189306337322472e-03	3.335908394497751907e-05	3.092139084400814288e-05
3.634842000857819500e+00	1.714387914521131559e-06	-1.562388990635583063e-04	3.636876880859945139e-03	8.467684744983142719e-01	1.102505274543266189e+00	1.000021472368203046e+00	-9.949184318478156847e-03	3.338071134772819441e-05	3.126712495599665118e-05
3.654868678548496508e+00	1.714387908430940528e-06	-1.562389590148655983e-04	3.599129759802926262e-03	8.467681490492428020e-01	1.102626884259781503e+00	1.000021471350968749e+00	-9.949179592874635505e-03	3.340294988319684853e-05	3.161504211459098399e-05
3.674895356239173072e+00	1.714387902227657046e-06	-1.562390055820188080e-04	3.562028646305337009e-03	8.467678938265706945e-01	1.102755678861160771e+00	1.000021470350673791e+00	-9.949175751714318602e-03	3.342579926171161691e-05	3.196514768987231820e-05
3.694922033929849636e+00	1.714387896243622960e-06	-1.562390492825248853e-04	3.525558969441810499e-03	8.467676567917234998e-01	1.102891595923035872e+00	1.000021469330762303e+00	-9.949172118624387273e-03	3.344925550575417942e-05	3.231744710542958635e-05
3.714948711620526201e+00	1.714387890169770135e-06	-1.562390810353683226e-04	3.489706991359299310e-03	8.467674818193340336e-01	1.103034574693300351e+00	1.000021468328825769e+00	-9.949169274311149211e-03	3.347331883652857938e-05	3.267194583919748367e-05
3.734975389311203209e+00	1.714387884357295161e-06	-1.562391109192850071e-04	3.454458905498047298e-03	8.467673196840387329e-01	1.103184556354610768e+00	1.000021467307554257e+00	-9.949166575207413557e-03	3.349798529479803584e-05	3.302864942294770614e-05
3.755002067001879773e+00	1.714387878470538998e-06	-1.562391295646983454e-04	3.419801754122723993e-03	8.467672155389380784e-01	1.103341483661293143e+00	1.000021466305234252e+00	-9.949164620612313201e-03	3.352325560420918920e-05	3.338756344322244181e-05
3.775028744692556337e+00	1.714387872882089415e-06	-1.562391452124051627e-04	3.385722442598339352e-03	8.467671301485756308e-01	1.103505301211856748e+00	1.000021465283796207e+00	-9.949162877340829436e-03	3.354912578820003308e-05	3.374869354078968118e-05
3.795055422383233346e+00	1.714387867235683721e-06	-1.562391475801037564e-04	3.352208740267711897e-03	8.467671146283501926e-01	1.103675955081512505e+00	1.000021464282247807e+00	-9.949162007220338153e-03	3.357559703022486910e-05	3.411204541158550409e-05
3.815082100073909910e+00	1.714387861924689309e-06	-1.562391520352417835e-04	3.319248217053827506e-03	8.467670902792248100e-01	1.103853393105959091e+00	1.000021463261742127e+00	-9.949161022998058088e-03	3.360266531141055878e-05	3.447762480623990390e-05
3.835108777764586474e+00	1.714387856546425447e-06	-1.562391656941232096e-04	3.286829344695741360e-03	8.467670133760609730e-01	1.104037564508213443e+00	1.000021462262010719e+00	-9.949159479247562596e-03	3.363033248178203682e-05	3.484543753099383277e-05
3.855135455455263482e+00	1.714387851475966369e-06	-1.562391614257771164e-04	3.254940342912382954e-03	8.467670364758411727e-01	1.104228420194343974e+00	1.000021461243435938e+00	-9.949159103878545476e-03	3.365859476282932760e-05	3.521548944727295440e-05
3.875162133145940047e+00	1.714387846416119132e-06	-1.562390867189177111e-04	3.223570233084727989e-03	8.467674391862802796e-01	1.104425912376084229e+00	1.000021460246470317e+00	-9.949163149444981147e-03	3.368745353725729482e-05	3.558778647266310743e-05
3.895188810836616611e+00	1.714387841876676444e-06	-1.562389843385794002e-04	3.192707723183980072e-03	8.467679936363370352e-01	1.104629994876733079e+00	1.000021459230743481e+00	-9.949169429032043294e-03	3.371690396067646150e-05	3.596233458035280199e-05
3.915215488527293175e+00	1.714387837453622436e-06	-1.562391113368995449e-04	3.162342592269327610e-03	8.467673039628696996e-01	1.104840622702784714e+00	1.000021458237551064e+00	-9.949143433077867540e-03	3.374694947758029062e-05	3.633913980150407840e-05
3.935242166217970183e+00	1.714387831572397821e-06	-1.562397678829734811e-04	3.132464779812269180e-03	8.467637443756634852e-01	1.105057752879057276e+00	1.000021457226356825e+00	-9.949250756916338395e-03	3.377759254405077118e-05	3.671820821076978878e-05
3.955268843908646748e+00	1.714387827296898435e-06	-1.562393992099651266e-04	3.103065028697896393e-03	8.467657417766512040e-01	1.105281343563109253e+00	1.000021456246613871e+00	-9.949065093654153868e-03	3.380884171233215665e-05	3.709954605407622859e-05
3.975295521599323312e+00	1.714387829495503528e-06	-1.562364443250502768e-04	3.074130525009574448e-03	8.467817570583017206e-01	1.105511347898286978e+00	1.000021455292213313e+00	-9.948246690680857124e-03	3.384066379793098419e-05	3.748315935322522262e-05
3.995322199289999876e+00	1.714584732784533302e-06	-1.562503090702178812e-04	3.045531353289996409e-03	8.467602886666040218e-01	1.105725138389047624e+00	1.000000000000000000e+00	-1.000000000000000021e-02	3.387174561589884471e-05	3.787100112148618141e-05
