# Time=0.0287005740115 and Columns are r	p	Paether	ur	alpha	a	b	K	Sr_tilde	tau_tilde
1.001333884533834630e-02	1.198920001133398951e-02	-1.855203250418602928e-02	2.473946239247587243e-05	6.392607252798230277e-01	1.000119155096274692e+00	1.000071835892408778e+00	-1.346762033671863520e-02	2.794148132254380212e-10	1.503045694768452430e-06
3.004001653601504063e-02	1.196070574637002337e-02	-1.853103563023091385e-02	7.420351956059442495e-05	6.394393458532707797e-01	1.000497553495763636e+00	1.000071854959933892e+00	-1.346165696519252726e-02	7.533666656506844512e-09	1.350036798039859491e-05
5.006669422669172975e-02	1.190387141902059763e-02	-1.848906301274071129e-02	1.235488196737359937e-04	6.397964763546147848e-01	1.001253451098327529e+00	1.000071879736583069e+00	-1.343887139654952566e-02	3.475977271315536159e-08	3.735102830029889430e-05
7.009337191736843276e-02	1.181907872804970408e-02	-1.842620656916186400e-02	1.726606915143429294e-04	6.403316252840972611e-01	1.002385135071812705e+00	1.000071909639419498e+00	-1.340184851345854918e-02	9.486901334588808267e-08	7.276871057073177641e-05
9.012004960804512188e-02	1.170687524836975038e-02	-1.834259115914107022e-02	2.214709892692991611e-04	6.410441234734903793e-01	1.003890006079166231e+00	1.000071948763051832e+00	-1.335403291432184746e-02	2.001928547789216229e-07	1.193280570081644041e-04
1.101467272987218110e-01	1.156798305650538587e-02	-1.823838429312291121e-02	2.698980346861167413e-04	6.419330729479351128e-01	1.005764542468597700e+00	1.000071996942872410e+00	-1.329435721597151641e-02	3.622564265596375484e-07	1.764695807486765594e-04
1.301734049893985001e-01	1.140329164516283578e-02	-1.811379675145210338e-02	3.178658288263844982e-04	6.429973395535187874e-01	1.008004300528358321e+00	1.000072053839635489e+00	-1.322324633637601311e-02	5.915814900384602316e-07	2.435061568968909288e-04
1.502000826800751754e-01	1.121384996853492556e-02	-1.796908381430631016e-02	3.653035424766545619e-04	6.442355469073492991e-01	1.010603870940698590e+00	1.000072118998958315e+00	-1.314095214961047940e-02	8.975068147554349413e-07	3.196310517578178833e-04
1.702267603707518784e-01	1.100085667072259535e-02	-1.780454640565415705e-02	4.121463813559140860e-04	6.456460640953797236e-01	1.013556841189432900e+00	1.000072191906540731e+00	-1.304780516998145859e-02	1.288033501401006435e-06	4.039274260059221586e-04
1.902534380614285814e-01	1.076564897055525515e-02	-1.762053226663688743e-02	4.583366558898958323e-04	6.472269993264017085e-01	1.016855752059261375e+00	1.000072272006608198e+00	-1.294418942862803068e-02	1.769698838758659662e-06	4.953792376906490658e-04
2.102801157521052566e-01	1.050969027530917164e-02	-1.741743718937859703e-02	5.038242056728571561e-04	6.489761856609300716e-01	1.020492050777624726e+00	1.000072358709220399e+00	-1.283055002837226767e-02	2.347478504460660483e-06	5.928834538225626408e-04
2.303067934427819596e-01	1.023455666676088664e-02	-1.719570614659467894e-02	5.485675042579683022e-04	6.508911734907399937e-01	1.024456041756457658e+00	1.000072451408504204e+00	-1.270739499502616769e-02	3.024722807406021710e-06	6.952634633547552815e-04
2.503334711334586626e-01	9.941922392118364427e-03	-1.695583439765510972e-02	5.925338494944640440e-04	6.529692144567225132e-01	1.028736836340457650e+00	1.000072549487338147e+00	-1.257529727808025764e-02	3.803121861710781403e-06	8.012835658220177851e-04
2.703601488241353379e-01	9.633544522759289810e-03	-1.669836830832921448e-02	6.357004547961902933e-04	6.552072548215992498e-01	1.033322303034482470e+00	1.000072652338148016e+00	-1.243489572266168533e-02	4.682707870400223104e-06	9.096643919249764376e-04
2.903868265148120131e-01	9.311246937126857470e-03	-1.642390608465973262e-02	6.780543887486861114e-04	6.576019184748612689e-01	1.038199020003636619e+00	1.000072759364621700e+00	-1.228689504302877059e-02	5.661882909029452710e-06	1.019099091705870852e-03
3.104135042054887439e-01	8.976903810839164527e-03	-1.613309808239722296e-02	7.195936470056633807e-04	6.601495005966301344e-01	1.043352231683613907e+00	1.000072870004427461e+00	-1.213206435880271293e-02	6.737484795117093285e-06	1.128270107054142471e-03
3.304401818961654191e-01	8.632422788701200542e-03	-1.582664682866646855e-02	7.603268251503555661e-04	6.628459544672403725e-01	1.048765811686113603e+00	1.000072983726485898e+00	-1.197123443999208517e-02	7.904870891596257705e-06	1.235866323809792092e-03
3.504668595868420944e-01	8.279728035410022224e-03	-1.550530659661389365e-02	8.002741682422979301e-04	6.656868863499685318e-01	1.054422234147170956e+00	1.000073100054753361e+00	-1.180529303986618470e-02	9.158039271189247565e-06	1.340600380726252559e-03
3.704935372775188251e-01	7.920743350860856916e-03	-1.516988258340551052e-02	8.394669685238205807e-04	6.686675438451723519e-01	1.060302556012232555e+00	1.000073218559621502e+00	-1.163517872478352262e-02	1.048975645048918283e-05	1.441225892619230672e-03
3.905202149681955004e-01	7.557375552216206646e-03	-1.482122945213156656e-02	8.779485990136136992e-04	6.717828172769373385e-01	1.066386412582473575e+00	1.000073338881874774e+00	-1.146187259184402833e-02	1.189172075262462825e-05	1.536554330794778593e-03
4.105468926588721756e-01	7.191498310808793794e-03	-1.446024947651704771e-02	9.157736366524713446e-04	6.750272318765329072e-01	1.072652028950666692e+00	1.000073460716896179e+00	-1.128638842878329322e-02	1.335471775973205750e-05	1.625471288910862325e-03
4.305735703495489064e-01	6.824936641242309449e-03	-1.408789002978414091e-02	9.530088988338865320e-04	6.783949520262430033e-01	1.079076249590928294e+00	1.000073583838287483e+00	-1.110976062130495517e-02	1.486880960118304408e-05	1.706951855779678629e-03
4.506002480402255816e-01	6.459452222050235913e-03	-1.370514046454836092e-02	9.897323127385712627e-04	6.818797844126315288e-01	1.085634588583136217e+00	1.000073708073536016e+00	-1.093303092517384709e-02	1.642349985261104561e-05	1.780074810963088328e-03
4.706269257309022569e-01	6.096729728715279475e-03	-1.331302854011631558e-02	1.026033990146816080e-03	6.854751845304590807e-01	1.092301302332031820e+00	1.000073833327150608e+00	-1.075723290542063629e-02	1.800793143219230240e-05	1.844035364253226702e-03
4.906536034215789877e-01	5.738364337435489411e-03	-1.291261608849670131e-02	1.062014891023417822e-03	6.891742692710698392e-01	1.099049486732481595e+00	1.000073959546967872e+00	-1.058337597264238060e-02	1.961104305082606977e-05	1.898156168196615508e-03
5.106802811122557184e-01	5.385850551172318909e-03	-1.250499430489422116e-02	1.097788000418839158e-03	6.929698325702841055e-01	1.105851199807798890e+00	1.000074086746882474e+00	-1.041242735019206472e-02	2.122175982688392250e-05	1.941896353835765405e-03
5.307069588029323937e-01	5.040572472599022524e-03	-1.209127842863271310e-02	1.133476866294906918e-03	6.968543622208763777e-01	1.112677610803698203e+00	1.000074214963479147e+00	-1.024529447166291733e-02	2.282912620716157448e-05	1.974858365090692829e-03
5.507336364936090689e-01	4.703795633691601127e-03	-1.167260202012209043e-02	1.169216980122339457e-03	7.008200666087101016e-01	1.119499175479071518e+00	1.000074344278996996e+00	-1.008280588288846050e-02	2.442247712172125604e-05	1.996792406179750262e-03
5.707603141842857442e-01	4.376660460882997664e-03	-1.125011083041059165e-02	1.205154309544249121e-03	7.048588978712229114e-01	1.126285837192032346e+00	1.000074474768405608e+00	-9.925693655528667128e-03	2.599153716966976730e-05	2.007598359974507862e-03
5.907869918749625304e-01	4.060177432997687935e-03	-1.082495640560882967e-02	1.241447022714128011e-03	7.089625852361721714e-01	1.133007251859603270e+00	1.000074606523897458e+00	-9.774574852644334760e-03	2.752656529342692346e-05	2.007325091188424775e-03
6.108136695656392057e-01	3.755223955928521911e-03	-1.039828936130086402e-02	1.278264182780719039e-03	7.131226696335298820e-01	1.139633034727304262e+00	1.000074739592879514e+00	-9.629935901656568042e-03	2.901841597261878614e-05	1.996167107377654158e-03
6.308403472563158809e-01	3.462542951714108006e-03	-9.971252774810326902e-03	1.315787993043590837e-03	7.173305360867672231e-01	1.146133025185666732e+00	1.000074874005911107e+00	-9.492116315609883809e-03	3.045865580181546947e-05	1.974458618676751872e-03
6.508670249469925562e-01	3.182743126374945695e-03	-9.544975220044814648e-03	1.354212867209383334e-03	7.215774601778676134e-01	1.152477565888539335e+00	1.000075009706550722e+00	-9.361296853328988921e-03	3.183958808751421733e-05	1.942665104820420893e-03
6.708937026376692314e-01	2.916300853110438771e-03	-9.120564322473654825e-03	1.393748407195643732e-03	7.258546400438372626e-01	1.158637790698628711e+00	1.000075146584831876e+00	-9.237487124822637424e-03	3.315434404355514130e-05	1.901372568590320141e-03
6.909203803283459067e-01	2.663563577190106342e-03	-8.699100076270045376e-03	1.434619102745184798e-03	7.301532459604394010e-01	1.164585916362280260e+00	1.000075284400222975e+00	-9.120518916870308176e-03	3.439687609320815973e-05	1.851274720224043574e-03
7.109470580190225819e-01	2.424754623364126695e-03	-8.281628912758272690e-03	1.477068288538793336e-03	7.344644540905189700e-01	1.170295531220356455e+00	1.000075422823011095e+00	-9.010038868188354269e-03	3.556202865185174080e-05	1.793158398453369683e-03
7.309737357096993682e-01	2.199979262660504802e-03	-7.869157740792142794e-03	1.521358762743629540e-03	7.387794952979260810e-01	1.175741875188898833e+00	1.000075561351497555e+00	-8.905507852388973647e-03	3.664550684156331312e-05	1.727887584602963694e-03
7.510004134003760434e-01	1.989231875786650391e-03	-7.462648949437092859e-03	1.567778004032992180e-03	7.430896851356086907e-01	1.180902103913464840e+00	1.000075699363711879e+00	-8.806199231507303576e-03	3.764393156343630661e-05	1.656386405751096493e-03
7.710270910910527187e-01	1.792404035533514978e-03	-7.063015508507586478e-03	1.616640044043934432e-03	7.473864703007560006e-01	1.185755531607900704e+00	1.000075836029689080e+00	-8.711204633346807460e-03	3.855478945902135257e-05	1.579621548321995467e-03
7.910537687817293939e-01	1.609293319579635246e-03	-6.671117222108149426e-03	1.668292269787744701e-03	7.516614516600478302e-01	1.190283846065461448e+00	1.000075970375706946e+00	-8.619437823922011105e-03	3.937647480620635939e-05	1.498584512857666995e-03
8.110804464724060692e-01	1.439612661092748306e-03	-6.287757173996749022e-03	1.723118949301241827e-03	7.559064220937691259e-01	1.194471291640746058e+00	1.000076101192394651e+00	-8.529646840343943839e-03	4.010822428656558018e-05	1.414274134923358163e-03
8.311071241630827444e-01	1.283000043534007198e-03	-5.913679369880914770e-03	1.781550019899518248e-03	7.601133848725839526e-01	1.198304815207855478e+00	1.000076227113255722e+00	-8.440423523542156525e-03	4.075014555333854815e-05	1.327679774028394776e-03
8.511338018537595307e-01	1.139028352961420553e-03	-5.549566656379996063e-03	1.844066762500235152e-03	7.642745795942507137e-01	1.201774173012656988e+00	1.000076346519249704e+00	-8.350222263907299686e-03	4.130313803451417850e-05	1.239765536839041631e-03
8.711604795444362059e-01	1.007215209774164942e-03	-5.196039840194175904e-03	1.911213091252445418e-03	7.683824882730256878e-01	1.204871995583825406e+00	1.000076457633561677e+00	-8.257375834238692841e-03	4.176890615441608724e-05	1.151455850636813822e-03
8.911871572351128812e-01	8.870326180255122235e-04	-4.853656973487563593e-03	1.983604013914332716e-03	7.724298552856676547e-01	1.207593811182462895e+00	1.000076558423318218e+00	-8.160122289745714089e-03	4.214986637341113553e-05	1.063622645947031936e-03
9.112138349257895564e-01	7.779162867476296797e-04	-4.522913846110973753e-03	2.061940086097446400e-03	7.764096781781163470e-01	1.209938027296623586e+00	1.000076646713262019e+00	-8.056629563822132259e-03	4.244914278401242349e-05	9.770743410411667461e-04
9.312405126164662317e-01	6.792745003213380723e-04	-4.204244460784899162e-03	2.147019454715737730e-03	7.803152183096119243e-01	1.211905873165969982e+00	1.000076720086352067e+00	-7.945034271055721395e-03	4.267046115333202928e-05	8.925467556273991142e-04
9.512671903071429069e-01	5.904964358822484055e-04	-3.898022542327709769e-03	2.239756280620387036e-03	7.841399881902885172e-01	1.213501304869451181e+00	1.000076776020222713e+00	-7.823480575475529053e-03	4.281812615795416903e-05	8.106960131916347064e-04
9.712938679978196932e-01	5.109598512224626998e-04	-3.604562919071770469e-03	2.341197246725074121e-03	7.878777439804497407e-01	1.214730877940304321e+00	1.000076811790380660e+00	-7.690177876622162310e-03	4.289690487245831167e-05	7.320934316879015294e-04
9.913205456884963684e-01	4.400380888833093133e-04	-3.324123626335630070e-03	2.452544738387160521e-03	7.915224725666237804e-01	1.215603590350207819e+00	1.000076824635704353e+00	-7.543462868417762091e-03	4.291198748157321253e-05	6.572223460297818174e-04
1.011347223379172933e+00	3.771063670258457414e-04	-3.056907644856477445e-03	2.575178485197696706e-03	7.950683815984300740e-01	1.216130701961076754e+00	1.000076811670703281e+00	-7.381886588122397834e-03	4.286886476505691600e-05	5.864767628583090206e-04
1.031373901069849497e+00	3.215473480956642619e-04	-2.803065133514494149e-03	2.710683751399118463e-03	7.985098799225456290e-01	1.216325533664506020e+00	1.000076770089301181e+00	-7.204310874015957059e-03	4.277327646848680154e-05	5.201617123005652064e-04
1.051400578760526283e+00	2.727559976954617958e-04	-2.562694955396219512e-03	2.860877742994480128e-03	8.018415711528078527e-01	1.216203252493186060e+00	1.000076697095245715e+00	-7.010035540066361821e-03	4.263108899213255036e-05	4.584951409234906575e-04
1.071427256451203069e+00	2.301437621774852236e-04	-2.335846290335324722e-03	3.027841247395173224e-03	8.050582812748534600e-01	1.215780645381326908e+00	1.000076590155424494e+00	-6.798938062362738267e-03	4.244823726433868028e-05	4.016111773709178266e-04
1.091453934141879634e+00	1.931421090442817304e-04	-2.122519736765817854e-03	3.213946465234095249e-03	8.081549610626836966e-01	1.215075887208036942e+00	1.000076446958276577e+00	-6.571642432770884168e-03	4.223060924483610647e-05	3.495646030436643371e-04
1.111480611832556420e+00	1.612054839176101518e-04	-1.922667590668280862e-03	3.421885991714105311e-03	8.111268124362586152e-01	1.214108304553215500e+00	1.000076265725527325e+00	-6.329694946631973622e-03	4.198398843730437129e-05	3.023363660310063946e-04
1.131507289523232984e+00	1.338137455848820699e-04	-1.736193266934049108e-03	3.654691856990364366e-03	8.139694037061774301e-01	1.212898139616490623e+00	1.000076045202132002e+00	-6.075753946133497646e-03	4.171395131340494846e-05	2.598399906584986378e-04
1.151533967213909770e+00	1.104741419364559286e-04	-1.562951413893817797e-03	3.915745803153511569e-03	8.166783846152436688e-01	1.211466314171600667e+00	1.000075785023544439e+00	-5.813752196121107357e-03	4.142581653901694047e-05	2.219287481127233611e-04
1.171560644904586557e+00	9.072288773615809238e-05	-1.402746066868020523e-03	4.208765874226075808e-03	8.192494621831727386e-01	1.209834196774103532e+00	1.000075485721525048e+00	-5.549031227696666485e-03	4.112456327871799518e-05	1.884034667821182123e-04
1.191587322595263121e+00	7.412639667220460632e-05	-1.255326192176200485e-03	4.537763983647828334e-03	8.216798761483904423e-01	1.208023371808797597e+00	1.000075149116291584e+00	-5.288402273098295921e-03	4.081479333274343072e-05	1.590208650854450702e-04
1.211614000285939907e+00	6.028220809795722463e-05	-1.120386337621007882e-03	4.906953245401572683e-03	8.239670443767186381e-01	1.206055412974690100e+00	1.000074778287091792e+00	-5.040082409141811992e-03	4.050067054413408182e-05	1.335022851557124348e-04
1.231640677976616471e+00	4.881963155867384226e-05	-9.975667451834063781e-04	5.320593540763515761e-03	8.261065649546576184e-01	1.203951659515637207e+00	1.000074377917000490e+00	-4.813464058782939391e-03	4.018590668999537054e-05	1.115426864969974562e-04
1.251667355667293258e+00	3.940011357660667214e-05	-8.864432077623653596e-04	5.782748417456286434e-03	8.280980311603718391e-01	1.201732998518379558e+00	1.000073954135225485e+00	-4.618759264911502516e-03	3.987373169045719482e-05	9.281972808945625913e-05
1.271694033357969822e+00	3.171731187299060953e-05	-7.865292753688531580e-04	6.296938232471364395e-03	8.299450188950422413e-01	1.199419652912370182e+00	1.000073514708648803e+00	-4.466403277230137150e-03	3.956688933087809852e-05	7.700272601634921817e-05
1.291720711048646608e+00	2.549684741460464158e-05	-6.972896330970060515e-04	6.865674669473362593e-03	8.316428148072043669e-01	1.197030980817231693e+00	1.000073068649292685e+00	-4.366224385552186678e-03	3.926763921419175902e-05	6.376123182022294515e-05
1.311747388739323394e+00	2.049569689176648855e-05	-6.181287478917152616e-04	7.489883619777292986e-03	8.331906471216841137e-01	1.194585288454262928e+00	1.000072626165982692e+00	-4.326633453195232945e-03	3.897778928268887203e-05	5.277294363406436997e-05
1.331774066429999959e+00	1.650119189423578190e-05	-5.483927128779613911e-04	8.168236035219282945e-03	8.346015720530303161e-01	1.192099665021432164e+00	1.000072197991584311e+00	-4.353798598171970159e-03	3.869869971945867903e-05	4.373065264007345698e-05
1.351800744120676745e+00	1.332960645902769465e-05	-4.873979365005073330e-04	8.896463949724407044e-03	8.358771387771346539e-01	1.189589843525837631e+00	1.000071795112930761e+00	-4.450744654725701140e-03	3.843132108583451393e-05	3.634795140964029611e-05
1.371827421811353309e+00	1.082434194490360921e-05	-4.344335563601233016e-04	9.666769778088338955e-03	8.370139641564936506e-01	1.187070096476844361e+00	1.000071427910333544e+00	-4.616850689435289708e-03	3.817623978049768476e-05	3.036349503291886271e-05
1.391854099502030095e+00	8.853752174472434517e-06	-3.887629399444678699e-04	1.046747399591478611e-02	8.380273675073864892e-01	1.184553168770370535e+00	1.000071105829864138e+00	-4.847785123286032713e-03	3.793371387042116807e-05	2.554370598645549643e-05
1.411880777192706660e+00	7.308686289036373003e-06	-3.496523475738469748e-04	1.128306322476146581e-02	8.389286075303483692e-01	1.182050253233292603e+00	1.000070836551984366e+00	-5.135599976976156465e-03	3.770370675933105352e-05	2.168393667594659932e-05
1.431907454883383446e+00	6.099854134946066019e-06	-3.163855454405989105e-04	1.209477691784812715e-02	8.397193254775950910e-01	1.179571006038977021e+00	1.000070625844925010e+00	-5.469257789960157989e-03	3.748594985925635136e-05	1.860822779288022648e-05
1.451934132574060232e+00	5.155133748718796410e-06	-2.882694288495821081e-04	1.288176191174972111e-02	8.404101542523979562e-01	1.177123601862361646e+00	1.000070476986691048e+00	-5.835640583630582676e-03	3.727999024541423190e-05	1.616790397445297717e-05
1.471960810264736796e+00	4.416939028503766624e-06	-2.646488444071840181e-04	1.362270631406754806e-02	8.410142790324152129e-01	1.174714820337935173e+00	1.000070390979967083e+00	-6.220651388156706214e-03	3.708524311414102313e-05	1.423931273895239074e-05
1.491987487955413583e+00	3.839749749086672433e-06	-2.449178842288404702e-04	1.429771843789722288e-02	8.415394257313613124e-01	1.172350158994730940e+00	1.000070366341582195e+00	-6.610367969470921749e-03	3.690104381212298802e-05	1.272103115975061085e-05
1.512014165646090147e+00	3.387879652291194344e-06	-2.285233079030172447e-04	1.489012458233252879e-02	8.419943013971545875e-01	1.170033960651113647e+00	1.000070399709344304e+00	-6.992208668238363706e-03	3.672669732955765026e-05	1.153084072024316294e-05
1.532040843336766933e+00	3.033527597756864912e-06	-2.149677694744923332e-04	1.538785105753536636e-02	8.423885920307856434e-01	1.167769549030930998e+00	1.000070485934355657e+00	-7.355815975724138561e-03	3.656150857031109918e-05	1.060271678836579166e-05
1.552067521027443719e+00	2.755127139635945534e-06	-2.038107382666069073e-04	1.578416441499550307e-02	8.427305746024639221e-01	1.165559361313112108e+00	1.000070618923071475e+00	-7.693546512211333135e-03	3.640480858971141504e-05	9.884010704389422142e-06
1.572094198718120284e+00	2.535985901724520583e-06	-1.946668323065790947e-04	1.607769329160807156e-02	8.430273353226918065e-01	1.163405074809470863e+00	1.000070791803040260e+00	-8.000567358123530926e-03	3.625596501138296821e-05	9.332934000754202926e-06
1.592120876408797070e+00	2.363189317896041199e-06	-1.872023127901263748e-04	1.627182874497431347e-02	8.432855638554608291e-01	1.161307721099592349e+00	1.000070997742773526e+00	-8.274610150101901346e-03	3.611439088227122582e-05	8.916395451176184969e-06
1.612147554099473634e+00	2.226734080633398279e-06	-1.811311291656534988e-04	1.637370211194120670e-02	8.435111227816166624e-01	1.159267789871630372e+00	1.000071229958373165e+00	-8.515483758561535541e-03	3.597954332193594677e-05	8.608197250370447311e-06
1.632174231790150420e+00	2.118853420912969131e-06	-1.762101256611522959e-04	1.639298662316778649e-02	8.437089851849379762e-01	1.157285319315085159e+00	1.000071482349811136e+00	-8.724507165266702502e-03	3.585092675944040659e-05	8.387567148970004140e-06
1.652200909480826985e+00	2.033497683223998978e-06	-1.722342197211408903e-04	1.634072732455857380e-02	8.438835003998347295e-01	1.155359977541043692e+00	1.000071749275647459e+00	-8.903969178028985076e-03	3.572808870003853942e-05	8.237986892567640863e-06
1.672227587171503771e+00	1.965937434598300607e-06	-1.690315649379823420e-04	1.622834837297918928e-02	8.440382669382235914e-01	1.153491132306685207e+00	1.000072026014636517e+00	-9.056683889256410963e-03	3.561062139293397465e-05	8.146270739813722624e-06
1.692254264862180557e+00	1.912461473411394807e-06	-1.664590538761093978e-04	1.606690002419420421e-02	8.441765215797267796e-01	1.151677913619302052e+00	1.000072308370171248e+00	-9.185662181345756808e-03	3.549815621509442654e-05	8.101848013759571372e-06
1.712280942552857121e+00	1.870147230922877030e-06	-1.643981795298008906e-04	1.586655943173482033e-02	8.443007320576744190e-01	1.149919265997326301e+00	1.000072593043396685e+00	-9.293888503868833958e-03	3.539036416572323012e-05	8.096207810389466429e-06
1.732307620243533908e+00	1.836685938772558793e-06	-1.627512674932570240e-04	1.563634822927745249e-02	8.444132238235667609e-01	1.148213995009144783e+00	1.000072877152221595e+00	-9.384188515864873292e-03	3.528694928742835538e-05	8.122470061703053733e-06
1.752334297934210472e+00	1.810248949227597382e-06	-1.614382143855065210e-04	1.538402457273547498e-02	8.445156810268535930e-01	1.146560804626645114e+00	1.000073158587594158e+00	-9.459152035759641960e-03	3.518764839883581699e-05	8.175053686140191372e-06
1.772360975624887258e+00	1.789384996558806658e-06	-1.603935707487114158e-04	1.511609259822504700e-02	8.446097618457271139e-01	1.144958330320672069e+00	1.000073435499599928e+00	-9.521103448719977352e-03	3.509222435299461264e-05	8.249418695879560606e-06
1.792387653315563822e+00	1.772940710721555049e-06	-1.595641079639953613e-04	1.483789038790318121e-02	8.446965711763408935e-01	1.143405164292761844e+00	1.000073706673465512e+00	-9.572091764659302476e-03	3.500046584641471043e-05	8.341864435764943141e-06
1.812414331006240609e+00	1.759998742279663147e-06	-1.589066437270116635e-04	1.455371567342394166e-02	8.447773517307863855e-01	1.141899877989359657e+00	1.000073971004464823e+00	-9.613903487657315602e-03	3.491218117273613597e-05	8.449370463662799946e-06
1.832441008696917395e+00	1.749829263005560685e-06	-1.583863425275705138e-04	1.426696995339023395e-02	8.448527256892017778e-01	1.140441038094939241e+00	1.000074227906690316e+00	-9.648074552310138136e-03	3.482719850833966628e-05	8.569469982860081092e-06
1.852467686387593959e+00	1.741851755799509962e-06	-1.579750971182099359e-04	1.398029944659916896e-02	8.449236445332573009e-01	1.139027221228278819e+00	1.000074476782599087e+00	-9.675920001374009594e-03	3.474536059381080612e-05	8.700148324615791573e-06
1.872494364078270745e+00	1.735604740146175009e-06	-1.576503998442495714e-04	1.369572832719475990e-02	8.449904695659292697e-01	1.137657023261488876e+00	1.000074717466836738e+00	-9.698550159056124401e-03	3.466652529849777767e-05	8.839760906107213946e-06
1.892521041768947310e+00	1.730721710254126598e-06	-1.573941826728123060e-04	1.341477493017727458e-02	8.450539038814186554e-01	1.136329068515384400e+00	1.000074949689599091e+00	-9.716902285775950998e-03	3.459056137319410439e-05	8.986966501553453893e-06
1.912547719459624096e+00	1.726911936166526709e-06	-1.571920758649589093e-04	1.313855338245847361e-02	8.451141363598042577e-01	1.135042014459777260e+00	1.000075173554019647e+00	-9.731756451906969571e-03	3.451734915152338923e-05	9.140672691850443670e-06
1.932574397150300882e+00	1.723945129499977543e-06	-1.570325965936685746e-04	1.286785727203610535e-02	8.451716689229027413e-01	1.133794557196886155e+00	1.000075388990536496e+00	-9.743763719702942111e-03	3.444677723702577242e-05	9.299991103004594646e-06
1.952601074840977446e+00	1.721639167411574208e-06	-1.569066615511893227e-04	1.260322992893523654e-02	8.452266358139388647e-01	1.132585433073934444e+00	1.000075596265145528e+00	-9.753460170766647605e-03	3.437874321895876325e-05	9.464200585209713349e-06
1.972627752531654233e+00	1.719850272207283010e-06	-1.568070427630665438e-04	1.234502022715468737e-02	8.452794342850836751e-01	1.131413421749214887e+00	1.000075795421675906e+00	-9.761288964094162052e-03	3.431315105179615419e-05	9.632716882412914320e-06
1.992654430222330797e+00	1.718465145732464144e-06	-1.567280759051523835e-04	1.209342844448324690e-02	8.453300475584014650e-01	1.130277345825476454e+00	1.000075986818461660e+00	-9.767610056451754216e-03	3.424991180832870737e-05	9.805067637072720918e-06
2.012681107913007583e+00	1.717394682681709525e-06	-1.566652398661751589e-04	1.184854171882581027e-02	8.453788661403465188e-01	1.129176072411219867e+00	1.000076170555780353e+00	-9.772720711589721540e-03	3.418894168212391918e-05	9.980871798516985707e-06
2.032707785603684147e+00	1.716568943423773444e-06	-1.566150425365424076e-04	1.161036272510858162e-02	8.454257843743356871e-01	1.128108511520119484e+00	1.000076347038892921e+00	-9.776858386098617737e-03	3.413016243000052777e-05	1.015982267486605264e-05
2.052734463294360712e+00	1.715933145070143871e-06	-1.565746778378332080e-04	1.137883155045886496e-02	8.454711613526059155e-01	1.127073616754399321e+00	1.000076516388514802e+00	-9.780219383787109450e-03	3.407350021640049063e-05	1.034167400371368736e-05
2.072761140985037720e+00	1.715444466055349435e-06	-1.565420139657850644e-04	1.115384294950823654e-02	8.455148631280138272e-01	1.126070382986056551e+00	1.000076679028694349e+00	-9.782958168937460827e-03	3.401888545363686983e-05	1.052622852383951249e-05
2.092787818675714284e+00	1.715069505135774851e-06	-1.565153296100307042e-04	1.093525961407875759e-02	8.455571686386755825e-01	1.125097846561516235e+00	1.000076835078690607e+00	-9.785202286698138976e-03	3.396625258009298293e-05	1.071332861847399607e-05
2.112814496366390848e+00	1.714782265249386210e-06	-1.564933234972009312e-04	1.072292212242579104e-02	8.455980133142121380e-01	1.124155082592964261e+00	1.000076984964647364e+00	-9.787051389676754143e-03	3.391553921956334469e-05	1.090284867147217522e-05
2.132841174057067857e+00	1.714562554799951649e-06	-1.564749528129136171e-04	1.051665689460785404e-02	8.456375846529897711e-01	1.123241204960004014e+00	1.000077128791739156e+00	-9.788587198947422408e-03	3.386668670615072140e-05	1.109468883786960034e-05
2.152867851747744421e+00	1.714394726177846828e-06	-1.564594357402182003e-04	1.031628166147795927e-02	8.456758220323791209e-01	1.122355363412219420e+00	1.000077266979018775e+00	-9.789873008792557979e-03	3.381963881373070295e-05	1.128876997981059938e-05
2.172894529438420985e+00	1.714266678112136234e-06	-1.564461366211863957e-04	1.012161019028920243e-02	8.457129051638105910e-01	1.121496743527277795e+00	1.000077399610819873e+00	-9.790960922663171154e-03	3.377434277917274792e-05	1.148502956015799771e-05
2.192921207129097994e+00	1.714169073654581108e-06	-1.564345935927919718e-04	9.932455026793809982e-03	8.457487601651506592e-01	1.120664563759310006e+00	1.000077527094469954e+00	-9.791890472365278111e-03	3.373074762993790891e-05	1.168341832157792178e-05
2.212947884819774558e+00	1.714094722613318499e-06	-1.564244190557520725e-04	9.748630358885432973e-03	8.457835569031292300e-01	1.119858075445542944e+00	1.000077649490399345e+00	-9.792694823843947280e-03	3.368880574318708950e-05	1.188389760751073223e-05
2.232974562510451122e+00	1.714038101742907248e-06	-1.564153440835101643e-04	9.569953088995906965e-03	8.458172235632466229e-01	1.119076559872869581e+00	1.000077767192479650e+00	-9.793398252754440675e-03	3.364847069284472033e-05	1.208643720724048112e-05
2.253001240201127686e+00	1.713994975319304215e-06	-1.564071394673089940e-04	9.396244675211566991e-03	8.458498645684141559e-01	1.118319328390621870e+00	1.000077880236351913e+00	-9.794021245386523578e-03	3.360969938815659707e-05	1.229101362620423470e-05
2.273027917891804695e+00	1.713962104059950648e-06	-1.563996400620723992e-04	9.227331192626631734e-03	8.458814790106494730e-01	1.117585719531465127e+00	1.000077989002326362e+00	-9.794579239996690362e-03	3.357244943751302020e-05	1.249760870233255616e-05
2.293054595582481259e+00	1.713937013710184529e-06	-1.563927095441170541e-04	9.063044595201951228e-03	8.459121403328986322e-01	1.116875099256797954e+00	1.000078093501556076e+00	-9.795084846171491291e-03	3.353668168830933552e-05	1.270620850076629749e-05
2.313081273273157823e+00	1.713917820506815458e-06	-1.563862515127046552e-04	8.903222225711311319e-03	8.459418501241310340e-01	1.116186858150658434e+00	1.000078194101593265e+00	-9.795547546372783757e-03	3.350235732855828179e-05	1.291680243472183373e-05
2.333107950963834831e+00	1.713903090887491053e-06	-1.563801895437487151e-04	8.747707760824617249e-03	8.459706351352846987e-01	1.115520411812453982e+00	1.000078290790165081e+00	-9.795974823407828727e-03	3.346944072612193953e-05	1.312938256620161554e-05
2.353134628654511395e+00	1.713891738323777187e-06	-1.563744501706444451e-04	8.596350409338669729e-03	8.459985949582123910e-01	1.114875198115586219e+00	1.000078383923373559e+00	-9.796373404862427151e-03	3.343789629689819688e-05	1.334394305313705718e-05
2.373161306345187960e+00	1.713882938709840035e-06	-1.563690105945869820e-04	8.449005656606230208e-03	8.460256287377814211e-01	1.114250677760039610e+00	1.000078473466727402e+00	-9.796746458381766845e-03	3.340769143589267264e-05	1.356047971108157499e-05
2.393187984035864524e+00	1.713876070054973315e-06	-1.563638111559381206e-04	8.305534410110589419e-03	8.460518930121322390e-01	1.113646331595635974e+00	1.000078559766378827e+00	-9.797099211134054769e-03	3.337879363130197058e-05	1.377898966907129246e-05
2.413214661726541532e+00	1.713870662042002775e-06	-1.563588428909971483e-04	8.165803493572204932e-03	8.460773013798306152e-01	1.113061661314333817e+00	1.000078642767051385e+00	-9.797433255205208885e-03	3.335117290990254155e-05	1.399947109717583053e-05
2.433241339417218096e+00	1.713866361059607047e-06	-1.563540607618309653e-04	8.029684889747762053e-03	8.461020102951271049e-01	1.112496186843305201e+00	1.000078722806421183e+00	-9.797752254571604966e-03	3.332479950496073160e-05	1.422192299451762133e-05
2.453268017107894661e+00	1.713862900349895024e-06	-1.563494773502771074e-04	7.897056045731909099e-03	8.461258685641473987e-01	1.111949447170486938e+00	1.000078799809847041e+00	-9.798056160308684162e-03	3.329964580331760927e-05	1.444634502084587454e-05
2.473294694798571669e+00	1.713860079897500802e-06	-1.563450516336282081e-04	7.767799261720218992e-03	8.461490567816309927e-01	1.111420997790046217e+00	1.000078874107948490e+00	-9.798348063310162795e-03	3.327568464398111153e-05	1.467273736742610485e-05
2.493321372489248233e+00	1.713857749152716185e-06	-1.563407824672561469e-04	7.641801777471362613e-03	8.461715227287199825e-01	1.110910411661995445e+00	1.000078945607968839e+00	-9.798628442556777882e-03	3.325289047567334122e-05	1.490110065337332647e-05
2.513348050179924797e+00	1.713855795400411600e-06	-1.563366608254932052e-04	7.518955339240747382e-03	8.461933037215175757e-01	1.110417276695927269e+00	1.000079014634914776e+00	-9.798898211358731195e-03	3.323123836110891417e-05	1.513143584774579790e-05
2.533374727870601362e+00	1.713854133728317225e-06	-1.563326792608251792e-04	7.399156207281763417e-03	8.462143997402848949e-01	1.109941196837920252e+00	1.000079081079057630e+00	-9.799158122304524668e-03	3.321070483250118357e-05	1.536374420573310883e-05
2.553401405561278370e+00	1.713852700669286641e-06	-1.563288255132594330e-04	7.282304740655657325e-03	8.462348746842837111e-01	1.109481789579717326e+00	1.000079145261038027e+00	-9.799409090125377891e-03	3.319126690668866000e-05	1.559802722228119403e-05
2.573428083251954934e+00	1.713851448217117490e-06	-1.563251009711885415e-04	7.168305411613768059e-03	8.462546922194137400e-01	1.109038687168891979e+00	1.000079207055247998e+00	-9.799651236346167832e-03	3.317290294944430019e-05	1.583428659243080500e-05
2.593454760942631498e+00	1.713850340432591664e-06	-1.563214930107331322e-04	7.057066437901863935e-03	8.462739252951525515e-01	1.108611534138730148e+00	1.000079266779066778e+00	-9.799885415477469636e-03	3.315559181871236699e-05	1.607252418424548997e-05
2.613481438633308507e+00	1.713849349936648800e-06	-1.563180029963472464e-04	6.948499761515480357e-03	8.462925462673838162e-01	1.108199988627572852e+00	1.000079324291950122e+00	-9.800111681702521060e-03	3.313931352978946766e-05	1.631274201364153888e-05
2.633508116323985071e+00	1.713848456111285751e-06	-1.563146178824938485e-04	6.842520747727435897e-03	8.463106343921150687e-01	1.107803719920263275e+00	1.000079379909061705e+00	-9.800330954644517409e-03	3.312404861298884123e-05	1.655494222895688631e-05
2.653534794014661635e+00	1.713847643068691550e-06	-1.563113466442675860e-04	6.739048130269795905e-03	8.463281198830029384e-01	1.107422409874468494e+00	1.000079433475758561e+00	-9.800542638694380998e-03	3.310977857196680305e-05	1.679912709452912459e-05
2.673561471705338199e+00	1.713846898645431358e-06	-1.563081754771911765e-04	6.638003793003602847e-03	8.463450925464158781e-01	1.107055750466571231e+00	1.000079485305900961e+00	-9.800747740303683217e-03	3.309648554879905988e-05	1.704529898222888101e-05
2.693588149396015208e+00	1.713846213352286334e-06	-1.563051107333066135e-04	6.539312645331004162e-03	8.463614937533379123e-01	1.106703445325354807e+00	1.000079535231449990e+00	-9.800945913366089501e-03	3.308415238794567008e-05	1.729346036022046647e-05
2.713614827086691772e+00	1.713845579730954984e-06	-1.563021372838925961e-04	6.442902498674169150e-03	8.463774279710922777e-01	1.106365207254639049e+00	1.000079583565892438e+00	-9.801137998739148371e-03	3.307276268691255170e-05	1.754361378868933287e-05
2.733641504777368336e+00	1.713844991889297614e-06	-1.562992643072795291e-04	6.348703879544268826e-03	8.463928191561526093e-01	1.106040759887714442e+00	1.000079630128352548e+00	-9.801323562643775994e-03	3.306230048287209418e-05	1.779576191159934479e-05
2.753668182468045345e+00	1.713844444959622128e-06	-1.562964770241237564e-04	6.256650006948408747e-03	8.464077699894857476e-01	1.105729835186977761e+00	1.000079675232687260e+00	-9.801503550114290531e-03	3.305275075161009105e-05	1.804990745502095667e-05
2.773694860158721909e+00	1.713843935107372047e-06	-1.562937896683097214e-04	6.166676526772947586e-03	8.464221777062351793e-01	1.105432175192945010e+00	1.000079718685823016e+00	-9.801677024128969615e-03	3.304409861707315705e-05	1.830605322071610376e-05
2.793721537849398473e+00	1.713843458898319412e-06	-1.562911722182265485e-04	6.078721599520529179e-03	8.464362296172494027e-01	1.105147529507801707e+00	1.000079760802599749e+00	-9.801845980795224553e-03	3.303633038052689139e-05	1.856420208587200338e-05
2.813748215540075037e+00	1.713843013780886315e-06	-1.562886497432755724e-04	5.992725508640259213e-03	8.464497649405571256e-01	1.104875657139555489e+00	1.000079801378227717e+00	-9.802008755786338970e-03	3.302943197469074374e-05	1.882435699787475496e-05
2.833774893230752046e+00	1.713842597084038847e-06	-1.562861998288317866e-04	5.908630953261645620e-03	8.464629256520375122e-01	1.104616323951814527e+00	1.000079840729224845e+00	-9.802166689745140521e-03	3.302339107096333105e-05	1.908652097494891765e-05
2.853801570921428610e+00	1.713842207010499726e-06	-1.562838399709570551e-04	5.826382466647434845e-03	8.464755954213797340e-01	1.104369304621757308e+00	1.000079878639395847e+00	-9.802319002857317123e-03	3.301819440385899920e-05	1.935069710152575466e-05
2.873828248612105174e+00	1.713841841355443037e-06	-1.562815426350457060e-04	5.745926885614155086e-03	8.464879440955748180e-01	1.104134380025164175e+00	1.000079915427589450e+00	-9.802467222819235756e-03	3.301383085855622842e-05	1.961688852948618967e-05
2.893854926302782182e+00	1.713841498879570004e-06	-1.562793343703636174e-04	5.667212615673356511e-03	8.464998061010706731e-01	1.103911339309932016e+00	1.000079950866574752e+00	-9.802609589708742230e-03	3.301028780811623785e-05	1.988509847418529837e-05
2.913881603993458747e+00	1.713841177589941911e-06	-1.562771860930829140e-04	5.590190304195421546e-03	8.465113599847114978e-01	1.103699977244564145e+00	1.000079985277946504e+00	-9.802748116013847851e-03	3.300755540106380787e-05	2.015533021561321457e-05
2.933908281684135311e+00	1.713840876646377672e-06	-1.562751212586470210e-04	5.514811896385965993e-03	8.465224570150317041e-01	1.103500096372060701e+00	1.000080018423795680e+00	-9.802881293683366956e-03	3.300562154430002309e-05	2.042758709504101860e-05
2.953934959374811875e+00	1.713840594208075215e-06	-1.562731098829104822e-04	5.441031529930547180e-03	8.465332818430835182e-01	1.103311504314794744e+00	1.000080050629004846e+00	-9.803010962399263603e-03	3.300447755806459708e-05	2.070187251636452803e-05
2.973961637065488883e+00	1.713840329750135212e-06	-1.562711847263194547e-04	5.368804390089545325e-03	8.465436329115771930e-01	1.103134016029067688e+00	1.000080081645184027e+00	-9.803135117584000843e-03	3.300411178765683357e-05	2.097818994288526070e-05
2.993988314756165448e+00	1.713840081478476870e-06	-1.562692945899126894e-04	5.298087838464371653e-03	8.465538103629789424e-01	1.102967451057041748e+00	1.000080111800949689e+00	-9.803256958348915626e-03	3.300451678206025772e-05	2.125654289884401505e-05
3.014014992446842012e+00	1.713839849226938372e-06	-1.562674917175011077e-04	5.228839988382121690e-03	8.465635079900920568e-01	1.102811635870531548e+00	1.000080140837655174e+00	-9.803373216682504179e-03	3.300568098155365137e-05	2.153693496640136698e-05
3.034041670137519020e+00	1.713839631122175699e-06	-1.562657338474407367e-04	5.161021212416602548e-03	8.465729766329254113e-01	1.102666401074765989e+00	1.000080169088046755e+00	-9.803486531486119149e-03	3.300759839837031522e-05	2.181936978724212652e-05
3.054068347828195584e+00	1.713839427275922239e-06	-1.562640497192310449e-04	5.094592325987309413e-03	8.465820431875942242e-01	1.102531583840620888e+00	1.000080196283437806e+00	-9.803595132565364953e-03	3.301025759976569380e-05	2.210385105972762656e-05
3.074095025518872148e+00	1.713839235820692053e-06	-1.562624134416960831e-04	5.029516433499007892e-03	8.465908569431838115e-01	1.102407025056747925e+00	1.000080222761038362e+00	-9.803700647513430289e-03	3.301365374868163102e-05	2.239038254057609394e-05
3.094121703209549157e+00	1.713839057058425705e-06	-1.562608535550255942e-04	4.965756861422328423e-03	8.465992576654732815e-01	1.102292571842478086e+00	1.000080248242324998e+00	-9.803801239139837281e-03	3.301777565866493490e-05	2.267896804212379889e-05
3.114148380900225721e+00	1.713838889117967277e-06	-1.562593212404195014e-04	4.903279232674346774e-03	8.466075158443946425e-01	1.102188074652998839e+00	1.000080273069302805e+00	-9.803900036860501571e-03	3.302261960590713275e-05	2.296961143400761147e-05
3.134175058590902285e+00	1.713838732569606051e-06	-1.562578547194562136e-04	4.842049132722808617e-03	8.466154158489308523e-01	1.102093389875709040e+00	1.000080296953693493e+00	-9.803994638439197246e-03	3.302817424321296679e-05	2.326231664065390799e-05
3.154201736281578849e+00	1.713838585487005300e-06	-1.562564301160539279e-04	4.782034535782921612e-03	8.466230965510431750e-01	1.102008376877783746e+00	1.000080320242670018e+00	-9.804086492818863893e-03	3.303443709741229692e-05	2.355708764301815987e-05
3.174228413972255858e+00	1.713838448577028418e-06	-1.562550729638186627e-04	4.723203159115397544e-03	8.466304110253611848e-01	1.101932900681243499e+00	1.000080342638340891e+00	-9.804174065740705116e-03	3.304139696693540171e-05	2.385392847592144528e-05
3.194255091662932422e+00	1.713838319899880593e-06	-1.562537516674103043e-04	4.665525129326023208e-03	8.466375371130691052e-01	1.101866828968501189e+00	1.000080364493300067e+00	-9.804259285558196077e-03	3.304905245871802834e-05	2.415284323021514354e-05
3.214281769353608986e+00	1.713838200332373910e-06	-1.562524877053690176e-04	4.608970106085455085e-03	8.466443508844381238e-01	1.101810034824325601e+00	1.000080385500104585e+00	-9.804340858148744703e-03	3.305739230249283753e-05	2.445383604989062145e-05
3.234308447044285995e+00	1.713838087930895769e-06	-1.562512627092128013e-04	4.553510201559912186e-03	8.466509590076619629e-01	1.101762393689357467e+00	1.000080406017053170e+00	-9.804419907363812539e-03	3.306641611329837096e-05	2.475691113441048829e-05
3.254335124734962559e+00	1.713837983681176526e-06	-1.562500891327135287e-04	4.499116892503473956e-03	8.466572887553238669e-01	1.101723786182087883e+00	1.000080425727324807e+00	-9.804495650336303783e-03	3.307611268202726942e-05	2.506207273589676143e-05
3.274361802425639123e+00	1.713837885658045183e-06	-1.562489564119641104e-04	4.445764116304759712e-03	8.466634023192839420e-01	1.101694094997539342e+00	1.000080444995055773e+00	-9.804568789509622226e-03	3.308648250890078947e-05	2.536932516149172003e-05
3.294388480116315687e+00	1.713837794922821529e-06	-1.562478651913429501e-04	4.393425040742181611e-03	8.466692880832890067e-01	1.101673207801810106e+00	1.000080463494164240e+00	-9.804639250052381988e-03	3.309751449063087623e-05	2.567867277060417039e-05
3.314415157806992696e+00	1.713837709608453942e-06	-1.562468165079493277e-04	4.342075273677668129e-03	8.466749487071353331e-01	1.101661014075352218e+00	1.000080481594878501e+00	-9.804706982007386704e-03	3.310920983066420090e-05	2.599011997730253765e-05
3.334441835497669260e+00	1.713837630797884421e-06	-1.562458125588879650e-04	4.291689571039745445e-03	8.466803653452532608e-01	1.101657408085916501e+00	1.000080498961837927e+00	-9.804771841833594473e-03	3.312155766935486476e-05	2.630367124762696937e-05
3.354468513188345824e+00	1.713837556672899359e-06	-1.562448359168676706e-04	4.242245092004356781e-03	8.466856387984937893e-01	1.101662285668115082e+00	1.000080515971651041e+00	-9.804834943222756963e-03	3.313455991127117452e-05	2.661933110197711125e-05
3.374495190879022832e+00	1.713837488398155718e-06	-1.562439167159125728e-04	4.193718029345782673e-03	8.466905996195754902e-01	1.101675547278852640e+00	1.000080532279720602e+00	-9.804894395342956051e-03	3.314820563403113990e-05	2.693710411257405760e-05
3.394521868569699397e+00	1.713837424101094466e-06	-1.562430212914750407e-04	4.146087038861542146e-03	8.466954348726122292e-01	1.101697094713862235e+00	1.000080548269180136e+00	-9.804952297948046902e-03	3.316249786830375874e-05	2.725699490585785774e-05
3.414548546260375961e+00	1.713837365077729378e-06	-1.562421822754603902e-04	4.099329612336145845e-03	8.466999655271605363e-01	1.101726834233322849e+00	1.000080563586273952e+00	-9.805006566479805563e-03	3.317742534060007985e-05	2.757900815982279106e-05
3.434575223951052525e+00	1.713837309399256105e-06	-1.562413512259114160e-04	4.053425799691851190e-03	8.467044539950698834e-01	1.101764673229242764e+00	1.000080578620833105e+00	-9.805060349112066503e-03	3.319299220748439684e-05	2.790314860667881226e-05
3.454601901641729533e+00	1.713837258531029153e-06	-1.562405822882257289e-04	4.008354264905118237e-03	8.467086076148595541e-01	1.101810523418627508e+00	1.000080593009960772e+00	-9.805110202155915833e-03	3.320918654895641745e-05	2.822942103012435601e-05
3.474628579332406098e+00	1.713837210424612842e-06	-1.562398228328175809e-04	3.964096404886088484e-03	8.467127083348047201e-01	1.101864297444142382e+00	1.000080607150400702e+00	-9.805159282581922195e-03	3.322601403324353765e-05	2.855783026814035302e-05
3.494655257023082662e+00	1.713837166703182549e-06	-1.562391158801569710e-04	3.920631958082147414e-03	8.467165295787528745e-01	1.101925912159455345e+00	1.000080620670103615e+00	-9.805205256523043256e-03	3.324346196581113173e-05	2.888838120996617339e-05
3.514681934713759670e+00	1.713837125238986216e-06	-1.562384336589466472e-04	3.877943563535977013e-03	8.467202131844118185e-01	1.101995285147442827e+00	1.000080633972895816e+00	-9.805249358983969543e-03	3.326153739350592807e-05	2.922107879955094021e-05
3.534708612404436234e+00	1.713837087745569803e-06	-1.562377843969753669e-04	3.836011996402356305e-03	8.467237235924270911e-01	1.102072338084631342e+00	1.000080646677575347e+00	-9.805291498988464097e-03	3.328022716345490988e-05	2.955592803170082738e-05
3.554735290095112799e+00	1.713837052089333547e-06	-1.562371670933411592e-04	3.794820992309213496e-03	8.467270583107818771e-01	1.102156993225402060e+00	1.000080659195183408e+00	-9.805331731227200781e-03	3.329953915001710601e-05	2.989293395646120823e-05
3.574761967785789363e+00	1.713837020022625563e-06	-1.562365835953446569e-04	3.754352338765408383e-03	8.467302138654564381e-01	1.102249176778363093e+00	1.000080671135471277e+00	-9.805369539746993171e-03	3.331946013936444735e-05	3.023210167475834237e-05
3.594788645476466371e+00	1.713836989425149377e-06	-1.562360242220631299e-04	3.714590784796491501e-03	8.467332370767609584e-01	1.102348815391117842e+00	1.000080682916744346e+00	-9.805405979983904466e-03	3.333999874186885728e-05	3.057343634283682209e-05
3.614815323167142935e+00	1.713836962074192295e-06	-1.562355051614503334e-04	3.675519042776919949e-03	8.467360444399223418e-01	1.102455839565649409e+00	1.000080694139740656e+00	-9.805439742525829880e-03	3.336114149784534977e-05	3.091694316793944675e-05
3.634842000857819500e+00	1.713836935846362360e-06	-1.562350038061068079e-04	3.637122835938325516e-03	8.467387520977331938e-01	1.102570180084814444e+00	1.000080705230137257e+00	-9.805472451830622369e-03	3.338289799982373213e-05	3.126262741319753372e-05
3.654868678548496508e+00	1.713836912579200568e-06	-1.562345372435148887e-04	3.599385710451678475e-03	8.467412758298910047e-01	1.102691771507640084e+00	1.000080715779675833e+00	-9.805502907306279381e-03	3.340525426681682612e-05	3.161049439268538431e-05
3.674895356239173072e+00	1.713836890141608444e-06	-1.562340871383217813e-04	3.562294303313340727e-03	8.467437085022700982e-01	1.102820548517507104e+00	1.000080726221583616e+00	-9.805532287756536097e-03	3.342822089023882490e-05	3.196054947681177386e-05
3.694922033929849636e+00	1.713836870408892583e-06	-1.562336860143561951e-04	3.525832948234266292e-03	8.467458778400130948e-01	1.102956449506576897e+00	1.000080736138553750e+00	-9.805558568174615672e-03	3.345178344599738937e-05	3.231279808703574688e-05
3.714948711620526201e+00	1.713836851191118967e-06	-1.562332895252761290e-04	3.489989170053083792e-03	8.467480195632477447e-01	1.103099412851598071e+00	1.000080745971469343e+00	-9.805584528841995370e-03	3.347595383303129691e-05	3.266724570177811416e-05
3.734975389311203209e+00	1.713836834482732550e-06	-1.562329420651979771e-04	3.454747980759516335e-03	8.467499002662146612e-01	1.103249380568632088e+00	1.000080755293978108e+00	-9.805607389303942420e-03	3.350071663093891791e-05	3.302389785057797581e-05
3.755002067001879773e+00	1.713836818005202421e-06	-1.562325951617447211e-04	3.420097761599327855e-03	8.467517731032905282e-01	1.103406294523612052e+00	1.000080764554759361e+00	-9.805630206765603846e-03	3.352608527179462740e-05	3.338276012044311694e-05
3.775028744692556337e+00	1.713836803879386637e-06	-1.562322977681779713e-04	3.386024145408912840e-03	8.467533853691551204e-01	1.103570100166475054e+00	1.000080773318370086e+00	-9.805649836460606991e-03	3.355204321319558151e-05	3.374383814988608939e-05
3.795055422383233346e+00	1.713836789718652979e-06	-1.562320115977679301e-04	3.352516334384571944e-03	8.467549289392423129e-01	1.103740742671753594e+00	1.000080782041419480e+00	-9.805668775219872693e-03	3.357860558581900217e-05	3.410713763540364782e-05
3.815082100073909910e+00	1.713836777739231389e-06	-1.562317510966023965e-04	3.319560550229041195e-03	8.467563405459302972e-01	1.103918170743311000e+00	1.000080790279326060e+00	-9.805686073536048000e-03	3.360575481604793674e-05	3.447266432521315792e-05
3.835108777764586474e+00	1.713836765550699811e-06	-1.562315124855605827e-04	3.287146703690001573e-03	8.467576282130200305e-01	1.104102332688447596e+00	1.000080798496762791e+00	-9.805701975317744970e-03	3.363350709459906706e-05	3.484042402626302056e-05
3.855135455455263482e+00	1.713836755362514888e-06	-1.562313073111550954e-04	3.255261631660206958e-03	8.467587354876926486e-01	1.104293180299730226e+00	1.000080806240001285e+00	-9.805715799426384036e-03	3.366184446632044727e-05	3.521042259743265061e-05
3.875162133145940047e+00	1.713836744802222675e-06	-1.562311069277311573e-04	3.223895907326271900e-03	8.467598207585959047e-01	1.104490664849439918e+00	1.000080813981878203e+00	-9.805728679052676602e-03	3.369078415891098619e-05	3.558266595720299729e-05
3.895188810836616611e+00	1.713836736027962322e-06	-1.562309402475834459e-04	3.193036889057128923e-03	8.467607239592884749e-01	1.104694741107106415e+00	1.000080821259558439e+00	-9.805742927498750650e-03	3.372030725295327983e-05	3.595716007514787452e-05
3.915215488527293175e+00	1.713836733079758058e-06	-1.562307809118773042e-04	3.162675798964714475e-03	8.467615852102070573e-01	1.104905360881548892e+00	1.000080828555364842e+00	-9.805506966725583556e-03	3.375043228551615366e-05	3.633391104389136823e-05
3.935242166217970183e+00	1.713836670758623926e-06	-1.562306055239789265e-04	3.132800638278894403e-03	8.467625207528379772e-01	1.105122505592977644e+00	1.000080835404181467e+00	-9.807679313059642148e-03	3.378114102071820194e-05	3.671292430004991322e-05
3.955268843908646748e+00	1.713836776378605308e-06	-1.562304602640401919e-04	3.103403499895379669e-03	8.467633385982498151e-01	1.105346077146760253e+00	1.000080842478692889e+00	-9.808689836311631702e-03	3.381245705171293111e-05	3.709420912326547861e-05
3.975295521599323312e+00	1.713837091997047758e-06	-1.562304664581108118e-04	3.074472976044070622e-03	8.467633891343792074e-01	1.105575939041063327e+00	1.000080849431203234e+00	-9.790400998905112590e-03	3.384436031167257087e-05	3.747776940634099419e-05
3.995322199289999876e+00	1.714584732784533302e-06	-1.562686423851895184e-04	3.045531353289996409e-03	8.467602886656153682e-01	1.105725138389047624e+00	1.000000000000000000e+00	-1.000000000000000021e-02	3.387174561589884471e-05	3.787100112148618141e-05
