# Time=0.0341006820136 and Columns are r	p	Paether	ur	alpha	a	b	K	Sr_tilde	tau_tilde
1.001333884533834630e-02	1.198760245197782667e-02	-1.855109905621313976e-02	2.595420747528882357e-05	6.389407199578575058e-01	1.000135030020829152e+00	1.000087711371219212e+00	-1.412966723345841780e-02	2.931226033591957897e-10	1.502916983759042452e-06
3.004001653601504063e-02	1.195911767000663872e-02	-1.853010687780215146e-02	7.785257601313478573e-05	6.391192217850505397e-01	1.000513419029364526e+00	1.000087734717804322e+00	-1.412404236549707169e-02	7.903826340290308366e-09	1.349921825428863389e-05
5.006669422669172975e-02	1.190229598515446172e-02	-1.848813953200534668e-02	1.296145766866684803e-04	6.394761382068149258e-01	1.001269270971887559e+00	1.000087758762359336e+00	-1.409726247066936215e-02	3.646487992522438546e-08	3.734786134772698972e-05
7.009337191736843276e-02	1.181752194767375121e-02	-1.842529089008970722e-02	1.810983027873116688e-04	6.400109642902468421e-01	1.002400884032050632e+00	1.000087782622805843e+00	-1.405302403381978454e-02	9.950113960717899820e-08	7.276257951468636631e-05
9.012004960804512188e-02	1.170534277052254560e-02	-1.834168563944982983e-02	2.322274421313398650e-04	6.407230363898861469e-01	1.003905666729884016e+00	1.000087813363858658e+00	-1.399619426308089387e-02	2.099076325083237858e-07	1.193180859611704718e-04
1.101467272987218110e-01	1.156648041106959381e-02	-1.823749134363198895e-02	2.829051743852395006e-04	6.416114520292112156e-01	1.005780092141158377e+00	1.000087850858063510e+00	-1.392520737726731829e-02	3.796998940406254782e-07	1.764549862227836568e-04
1.301734049893985001e-01	1.140182400518673436e-02	-1.811291869216996239e-02	3.330417643426450696e-04	6.426750839594885800e-01	1.008019717503259027e+00	1.000087894735559368e+00	-1.384062990482229187e-02	6.198019373786280850e-07	2.434862652356500185e-04
1.502000826800751754e-01	1.121242211420918865e-02	-1.796822288273005122e-02	3.825531833271176956e-04	6.439125503482364676e-01	1.010619133637769895e+00	1.000087944455537281e+00	-1.374274877411059415e-02	9.398521056928543173e-07	3.196053138930158416e-04
1.702267603707518784e-01	1.099947293707224591e-02	-1.780370472077947089e-02	4.313622690646305691e-04	6.453222288380741078e-01	1.013571928374775055e+00	1.000087999408114214e+00	-1.363196011288466888e-02	1.348037646930923544e-06	4.038954285082614615e-04
1.902534380614285814e-01	1.076431320915219834e-02	-1.761971182903555866e-02	4.793999565995254314e-04	6.469022211455220939e-01	1.016870642925819412e+00	1.000088058939723856e+00	-1.350872027023785997e-02	1.850961435668941428e-06	4.953407100524363739e-04
2.102801157521052566e-01	1.050840582382259539e-02	-1.741663985251772073e-02	5.266057152416379200e-04	6.486503713544454763e-01	1.020506725070956300e+00	1.000088122363238741e+00	-1.337355874657638125e-02	2.453540389375190035e-06	5.928382717642072123e-04
2.303067934427819596e-01	1.023332632874782329e-02	-1.719493362479337928e-02	5.729288747707319803e-04	6.505642220456668845e-01	1.024470479909320719e+00	1.000088188983803139e+00	-1.322707977954305954e-02	3.158942608682758874e-06	6.952116482335127072e-04
2.503334711334586626e-01	9.940748425352700229e-03	-1.695508822554303574e-02	6.183287742944831508e-04	6.526410380106896225e-01	1.028751019634440045e+00	1.000088258104333772e+00	-1.306996481378671845e-02	3.968556400190376398e-06	8.012252802050639318e-04
2.703601488241353379e-01	9.632428637522175846e-03	-1.669764987642640905e-02	6.627760885773082604e-04	6.548777566222635516e-01	1.033336213770110534e+00	1.000088329055196734e+00	-1.290297359723984079e-02	4.882001681813292737e-06	9.095999316763014051e-04
2.903868265148120131e-01	9.310190302612635777e-03	-1.642321658729907485e-02	7.062526714795781986e-04	6.572710159520850359e-01	1.038212641697645378e+00	1.000088401195052823e+00	-1.272694420349514133e-02	5.897168728537351041e-06	1.019028874851972931e-03
3.104135042054887439e-01	8.975907070621801792e-03	-1.613243853378183018e-02	7.487528702688100220e-04	6.598171032781425804e-01	1.043365549266991987e+00	1.000088473943554934e+00	-1.254279125698265843e-02	7.010300620433902533e-06	1.128194660009091549e-03
3.304401818961654191e-01	8.631486083185946692e-03	-1.582601805014048624e-02	7.902830397391741053e-04	6.625119859125555566e-01	1.048778811726463145e+00	1.000088546775451670e+00	-1.235150266259293916e-02	8.216093540241430499e-06	1.235786265361086839e-03
3.504668595868420944e-01	8.278851031767085755e-03	-1.550470924168836223e-02	8.308628370942889880e-04	6.653512619109087645e-01	1.054434905059649541e+00	1.000088619255161682e+00	-1.215413405382403597e-02	9.507840235570347301e-06	1.340516404514264679e-03
3.704935372775188251e-01	7.919925278235543514e-03	-1.516931707609192603e-02	8.705243894040433144e-04	6.683301956428358004e-01	1.060314888288467428e+00	1.000088691022000820e+00	-1.195180151888567549e-02	1.087757724466366882e-05	1.441138748563644675e-03
3.905202149681955004e-01	7.556615242342606953e-03	-1.482069607815589447e-02	9.093135686796859421e-04	6.714436664687484235e-01	1.066398398991171614e+00	1.000088761825428163e+00	-1.174567165712652253e-02	1.231627369057714643e-05	1.536464806255327230e-03
4.105468926588721756e-01	7.190794241816319057e-03	-1.445974830444632896e-02	9.472888086900105873e-04	6.746862185386536259e-01	1.072663664746430046e+00	1.000088831499466036e+00	-1.153695001655266270e-02	1.381400603680356966e-05	1.625380189997706858e-03
4.305735703495489064e-01	6.824286984521713006e-03	-1.408742098157198322e-02	9.845223725363275689e-04	6.780520067587435529e-01	1.079087532673596472e+00	1.000088899997942482e+00	-1.132686663357625884e-02	1.536017284095473961e-05	1.706859989554599744e-03
4.506002480402255816e-01	6.458854890099270316e-03	-1.370470327560626041e-02	1.021098835062211668e-03	6.815348545512475154e-01	1.085645519653090307e+00	1.000088967356113079e+00	-1.111666038825978413e-02	1.694367530578978683e-05	1.779982968828557792e-03
4.706269257309022569e-01	6.096182423691813741e-03	-1.331262281627098969e-02	1.057116377525617410e-03	6.851282103228132359e-01	1.092311884971588931e+00	1.000089033725742871e+00	-1.090756047640609357e-02	1.855313758864410149e-05	1.843944307136662379e-03
4.906536034215789877e-01	5.737864598595791496e-03	-1.291224125913240442e-02	1.092684982034114417e-03	6.888252072569641671e-01	1.099059727470280690e+00	1.000089099322692299e+00	-1.070076750609435037e-02	2.017707208097397847e-05	1.898066613652725759e-03
5.106802811122557184e-01	5.385395800905463763e-03	-1.250464972517043201e-02	1.127927819473312264e-03	6.926186321474925300e-01	1.105861108083764810e+00	1.000089164462001134e+00	-1.049743197991722873e-02	2.180408683524392427e-05	1.941808965479922518e-03
5.307069588029323937e-01	5.040160059596864028e-03	-1.209096329291580764e-02	1.162979242410221853e-03	6.965009901030452255e-01	1.112687198905871977e+00	1.000089229490942699e+00	-1.029863353109493687e-02	2.342301826816057354e-05	1.974773744291380244e-03
5.507336364936090689e-01	4.703422873052700084e-03	-1.167231549453260318e-02	1.197986373171621918e-03	7.004644804946336123e-01	1.119508458357361569e+00	1.000089294825081465e+00	-1.010535806007414363e-02	2.502311203372932003e-05	1.996711086205263386e-03
5.707603141842857442e-01	4.376324670121239761e-03	-1.124985194598169917e-02	1.233107029503590106e-03	7.045010745333825097e-01	1.126294832237864529e+00	1.000089360866904586e+00	-9.918477046273814837e-03	2.659411214990481072e-05	2.007520802346148339e-03
5.907869918749625304e-01	4.059875963911763024e-03	-1.082472418725906327e-02	1.268511664217543107e-03	7.086024935894130738e-01	1.133015978543948421e+00	1.000089428044839801e+00	-9.738725326411143066e-03	2.812640827580709473e-05	2.007251684233609702e-03
6.108136695656392057e-01	3.754954221758581134e-03	-1.039808276213131065e-02	1.304381409742984190e-03	7.127602947306266312e-01	1.139641514207345052e+00	1.000089496718065352e+00	-9.566682692775212160e-03	2.961107786170266568e-05	1.996098166614242771e-03
6.308403472563158809e-01	3.462302449728571225e-03	-9.971070748416849608e-03	1.340910564686495759e-03	7.169658581883087134e-01	1.146141279759349318e+00	1.000089567221295495e+00	-9.402754437758387845e-03	3.103999976867203691e-05	1.974394388869549818e-03
6.508670249469925562e-01	3.182529455741211610e-03	-9.544816692072516720e-03	1.378304991775117878e-03	7.212104735734486960e-01	1.152485618431759784e+00	1.000089639757137050e+00	-9.247157366023163808e-03	3.240585315950383135e-05	1.942605763298030927e-03
6.708937026376692314e-01	2.916111728363283192e-03	-9.120428256374992285e-03	1.416785385125077061e-03	7.254853346258436364e-01	1.158645663949981142e+00	1.000089714449767353e+00	-9.099904981955968600e-03	3.370220296303205222e-05	1.901318229578954737e-03
6.909203803283459067e-01	2.663396837504623978e-03	-8.698985417874102732e-03	1.456586298700869326e-03	7.297816252610345167e-01	1.164593632216835539e+00	1.000089791226614011e+00	-8.960799678063392087e-03	3.492346417595742044e-05	1.851225439825272953e-03
7.109470580190225819e-01	2.424608238065081509e-03	-8.281534677169632985e-03	1.497960457855401165e-03	7.340905175377008263e-01	1.170303109880722392e+00	1.000089869884411620e+00	-8.829423877518444500e-03	3.606496737369820798e-05	1.793114180006445462e-03
7.309737357096993682e-01	2.199851333418472582e-03	-7.869082942190403288e-03	1.541178732143535070e-03	7.384032560107591792e-01	1.175749334363547005e+00	1.000089949961878721e+00	-8.705139481385792966e-03	3.712289879514723033e-05	1.727848384163753687e-03
7.510004134003760434e-01	1.989120635975740858e-03	-7.462592679496601877e-03	1.586535782355868052e-03	7.427111529886188945e-01	1.180909457890368497e+00	1.000090030821653375e+00	-8.587085618613701440e-03	3.809435350292770687e-05	1.656352137463156134e-03
7.710270910910527187e-01	1.792307847323919723e-03	-7.062976876186873379e-03	1.634351329746562770e-03	7.470056650946286236e-01	1.185762790423031010e+00	1.000090111515270275e+00	-8.474185699446972961e-03	3.897726011736699352e-05	1.579592089553365480e-03
7.910537687817293939e-01	1.609210669203625481e-03	-6.671095417412377382e-03	1.684977467556284967e-03	7.512783929283086692e-01	1.190291014570413086e+00	1.000090190884232788e+00	-8.365151856804324895e-03	3.977042605290557526e-05	1.498559708937444558e-03
8.110804464724060692e-01	1.439542152870774668e-03	-6.287751394352140630e-03	1.738801633442162327e-03	7.555211396721221995e-01	1.194478368719397610e+00	1.000090267418247691e+00	-8.258499596550854596e-03	4.047345224231152841e-05	1.414253803494127651e-03
8.311071241630827444e-01	1.282940392999999723e-03	-5.913688896641343049e-03	1.796255978348868573e-03	7.597259071956498078e-01	1.198311792919878549e+00	1.000090339378152393e+00	-8.152558912841901748e-03	4.108677072805836641e-05	1.327663708904184246e-03
8.511338018537595307e-01	1.138978379605307166e-03	-5.549590786946614722e-03	1.857822538559727923e-03	7.638849429748825193e-01	1.201781035946307696e+00	1.000090404648268372e+00	-8.045496849287125940e-03	4.161155100714338033e-05	1.239753511499177337e-03
8.711604795444362059e-01	1.007173829607963152e-03	-5.196077927301667211e-03	1.924045159946531159e-03	7.679907324699543070e-01	1.204878720168442996e+00	1.000090460883982457e+00	-7.935336160365102573e-03	4.204972698481881699e-05	1.151447621279590595e-03
8.911871572351128812e-01	8.869988363766557115e-04	-4.853708388605763001e-03	1.995537497023459634e-03	7.720360226694805705e-01	1.207600365280306676e+00	1.000090505359150228e+00	-7.819987502010065927e-03	4.240389423548291065e-05	1.063617954304198155e-03
9.112138349257895564e-01	7.778891913505830893e-04	-4.522977992445541620e-03	2.072998135345782266e-03	7.760138193804184681e-01	1.209944369799453190e+00	1.000090535142111658e+00	-7.697278596673342785e-03	4.267732219169684997e-05	9.770729168847923189e-04
9.312405126164662317e-01	6.792532549868430516e-04	-4.204320743927801411e-03	2.157222199111007068e-03	7.799173858729973041e-01	1.211911953960909782e+00	1.000090546940475944e+00	-7.565000555926400076e-03	4.287384145227473453e-05	8.925483191961502581e-04
9.512671903071429069e-01	5.904802747025873896e-04	-3.898110398427950991e-03	2.249120450451313254e-03	7.837402432194856550e-01	1.213507064880385844e+00	1.000090537311018268e+00	-7.420953971955268971e-03	4.299783824668208370e-05	8.107002774552074910e-04
9.712938679978196932e-01	5.109480734819491507e-04	-3.604661769511667384e-03	2.349735374093355617e-03	7.874761445478642985e-01	1.214736249664238876e+00	1.000090502506987722e+00	-7.263017777696213068e-03	4.305413256075538012e-05	7.321001046676318350e-04
9.913205456884963684e-01	4.400300545557983556e-04	-3.324232902186031926e-03	2.460265013996800355e-03	7.911190950291063784e-01	1.215608498583213848e+00	1.000090438730633524e+00	-7.089222857012131458e-03	4.304795465210941506e-05	6.572311330725215178e-04
1.011347223379172933e+00	3.771014929444941092e-04	-3.057026753571096163e-03	2.582084192044525797e-03	7.946632900521160003e-01	1.216135065196543463e+00	1.000090341991855647e+00	-6.897855762175339814e-03	4.298481722676763557e-05	5.864873690508789518e-04
1.031373901069849497e+00	3.215451046354972191e-04	-2.803193479116928687e-03	2.716773311460468111e-03	7.981031677326840823e-01	1.216329265849238617e+00	1.000090208416371196e+00	-6.687573210813060193e-03	4.287047684239150142e-05	5.201738449011654919e-04
1.051400578760526283e+00	2.727559059963972216e-04	-2.562831870214914241e-03	2.866144329416728427e-03	8.014333223584023669e-01	1.216206265684019350e+00	1.000090034128237715e+00	-6.457553519236691394e-03	4.271080559264444151e-05	4.585085119559518022e-04
1.071427256451203069e+00	2.301453917336620961e-04	-2.335991194674966621e-03	3.032272944765869189e-03	8.046485853540866762e-01	1.215782852962170812e+00	1.000089815629255474e+00	-6.207661851271397725e-03	4.251174265360344273e-05	4.016255062422977745e-04
1.091453934141879634e+00	1.931450756483426873e-04	-2.122671876084473649e-03	3.217525993910994465e-03	8.077439190781769973e-01	1.215077208235344486e+00	1.000089549718957027e+00	-5.938652098003259147e-03	4.227917224534636959e-05	3.495796192838659228e-04
1.111480611832556420e+00	1.612094477874940091e-04	-1.922826200359545887e-03	3.424590868351632279e-03	8.107145863758536963e-01	1.214108668804590119e+00	1.000089233957505153e+00	-5.652374266910917787e-03	4.201887217930747140e-05	3.023518120020448328e-04
1.131507289523232984e+00	1.338184096340923378e-04	-1.736357702788982830e-03	3.656494145582638543e-03	8.135560403102269911e-01	1.212897493844814933e+00	1.000088866627672157e+00	-5.351999193744094198e-03	4.173640501303613122e-05	2.598556242804381331e-04
1.151533967213909770e+00	1.104792500265561374e-04	-1.563121038576171769e-03	3.916612247010466639e-03	8.162639839547953802e-01	1.211464628928932807e+00	1.000088447276727299e+00	-5.042212389500508145e-03	4.143707113426022183e-05	2.219443454413331596e-04
1.171560644904586557e+00	9.072822286096196022e-05	-1.402919535668958276e-03	4.208657578683088624e-03	8.188343866542829863e-01	1.209831474085719005e+00	1.000087976697853431e+00	-4.729375126322901864e-03	4.112582064782670184e-05	1.884188244332548571e-04
1.191587322595263121e+00	7.413177893787517808e-05	-1.255502820015608721e-03	4.536636402299048382e-03	8.212642965584003862e-01	1.208019652679754419e+00	1.000087457507401023e+00	-4.421585598243472567e-03	4.080721787150266968e-05	1.590358023340079593e-04
1.211614000285939907e+00	6.028749245653723974e-05	-1.120566187193023592e-03	4.904756140950657962e-03	8.235504589587459012e-01	1.206050784632712869e+00	1.000086894073131560e+00	-4.128606946026380439e-03	4.048537887420887806e-05	1.335166456672144913e-04
1.231640677976616471e+00	4.882470522019911050e-05	-9.977482371246286508e-04	5.317271159839724072e-03	8.256896714864910836e-01	1.203946260904604104e+00	1.000086293024637474e+00	-3.861606391194429347e-03	4.016395752091914297e-05	1.115563395347017600e-04
1.251667355667293258e+00	3.940489311015375518e-05	-8.866240289026098252e-04	5.778239445904552983e-03	8.276822459770857288e-01	1.201727023620527302e+00	1.000085662996907487e+00	-3.632705574617626013e-03	3.984611227166485618e-05	9.283256915610849547e-05
1.271694033357969822e+00	3.172173998995505759e-05	-7.867107367201651600e-04	6.291177090341770750e-03	8.295287640942637930e-01	1.199413350205589035e+00	1.000085014924818827e+00	-3.454250042751742106e-03	3.953450965843779231e-05	7.701467683214796350e-05
1.291720711048646608e+00	2.550088952418097429e-05	-6.974716531736183459e-04	6.858593716198078775e-03	8.312251736710158934e-01	1.197024648620809595e+00	1.000084361451937021e+00	-3.337882812294863232e-03	3.923132760374124469e-05	6.377223964758369065e-05
1.311747388739323394e+00	2.049933753656840927e-05	-6.183074760828353869e-04	7.481415203949833524e-03	8.327755472003992576e-01	1.194579265014128255e+00	1.000083716887820717e+00	-3.293551787690931175e-03	3.893828267811958539e-05	5.278297994301183127e-05
1.331774066429999959e+00	1.650443117785273329e-05	-5.485680763459168221e-04	8.158316828919124838e-03	8.341887210929209706e-01	1.192094314111718178e+00	1.000083096220144574e+00	-3.328448685846422967e-03	3.865664325087344189e-05	4.373971120396239707e-05
1.351800744120676745e+00	1.333245659050078717e-05	-4.875719345566756021e-04	8.885042042833118242e-03	8.354626231080092280e-01	1.189585535732935906e+00	1.000082514762683727e+00	-3.446029547680517016e-03	3.838727560929479626e-05	3.635604591236240836e-05
1.371827421811353309e+00	1.082682405860437502e-05	-4.346034960866641925e-04	9.653811289708618196e-03	8.366011734627470942e-01	1.187067188410564578e+00	1.000081986904408637e+00	-3.645458840475123384e-03	3.813068237320476445e-05	3.037065632264255769e-05
1.391854099502030095e+00	8.855893496552418273e-06	-3.889275026477334520e-04	1.045297012036549601e-02	8.376187181122770609e-01	1.184551981529590625e+00	1.000081525684357153e+00	-3.921414247212556652e-03	3.788704077489481138e-05	2.554997909331908031e-05
1.411880777192706660e+00	7.310517686069627513e-06	-3.498126847244687658e-04	1.126703922486744017e-02	8.385208003085977690e-01	1.182051053154641984e+00	1.000081141587780387e+00	-4.264269020182329117e-03	3.765624691095653112e-05	2.168937772585504144e-05
1.431907454883383446e+00	6.101408103938243149e-06	-3.165411202355277961e-04	1.207729754662130450e-02	8.393132078938158047e-01	1.179573989075669571e+00	1.000080842388221924e+00	-4.660817913819880268e-03	3.743797190004376940e-05	1.861290092139823463e-05
1.451934132574060232e+00	5.156442828341714495e-06	-2.884193192406926828e-04	1.286293305369451065e-02	8.400078766619580861e-01	1.177128884107287332e+00	1.000080632308874895e+00	-5.095414283702024046e-03	3.723170908412753180e-05	1.617187834871693539e-05
1.471960810264736796e+00	4.418034592913610588e-06	-2.647934334392457417e-04	1.360267295934590101e-02	8.406151390206483276e-01	1.174722434932098603e+00	1.000080512385333797e+00	-5.551280638855111624e-03	3.703682890647091693e-05	1.424265978095692301e-05
1.491987487955413583e+00	3.840661151074690228e-06	-2.450572675036883849e-04	1.427665844687564349e-02	8.411431936506444940e-01	1.172360060438284446e+00	1.000080480147158113e+00	-6.011952114346324171e-03	3.685263104985668281e-05	1.272382206752129939e-05
1.512014165646090147e+00	3.388633685017607859e-06	-2.286575280299233098e-04	1.486823738052878673e-02	8.416019869340461979e-01	1.170046034923702960e+00	1.000080530534780410e+00	-6.462620317721787765e-03	3.667838936365145204e-05	1.153314436974624965e-05
1.532040843336766933e+00	3.034148204197500811e-06	-2.150970159280709323e-04	1.536534580903388403e-02	8.420002297680155845e-01	1.167783628687279363e+00	1.000080655999352475e+00	-6.891155842582102550e-03	3.651338498991599219e-05	1.060459808459302927e-05
1.552067521027443719e+00	2.755635339021574674e-06	-2.039354021029350466e-04	1.576124729578810835e-02	8.423464218282010751e-01	1.165575242396567068e+00	1.000080847742124357e+00	-7.288673795476597640e-03	3.635692907345927470e-05	9.885529412009303826e-06
1.572094198718120284e+00	2.536399864370624253e-06	-1.947871817455214683e-04	1.605455786935506418e-02	8.426473757282855193e-01	1.163422534066921088e+00	1.000081095902179751e+00	-7.649632574019606113e-03	3.620837515713992819e-05	9.334144045469675241e-06
1.592120876408797070e+00	2.363524559825478233e-06	-1.873187215159360388e-04	1.624864781396338428e-02	8.429103209353145942e-01	1.161326530633084886e+00	1.000081390753872146e+00	-7.971504064385619148e-03	3.606712383202618843e-05	8.917344639485406613e-06
1.612147554099473634e+00	2.227003709734462088e-06	-1.812439045305709270e-04	1.635062452560333973e-02	8.431403833397723702e-01	1.159287728971354348e+00	1.000081722658398453e+00	-8.254193746282657146e-03	3.593262464102244680e-05	8.608927328258816732e-06
1.632174231790150420e+00	2.119068426092918869e-06	-1.763196273623329584e-04	1.637013503420508415e-02	8.433432432250957955e-01	1.157306182202861633e+00	1.000082082999047328e+00	-8.499354488143371841e-03	3.580437445039035688e-05	8.388114105936411886e-06
1.652200909480826985e+00	2.033667211286375347e-06	-1.723407194720918956e-04	1.631820017692958702e-02	8.435223971796552700e-01	1.155381578299774281e+00	1.000082463802495880e+00	-8.709755402591362605e-03	3.568191721016725942e-05	8.238381422519770253e-06
1.672227587171503771e+00	1.966069068151305214e-06	-1.691353542768327502e-04	1.620622097863231789e-02	8.436824436329946053e-01	1.153513306691434037e+00	1.000082858431763366e+00	-8.888752312164276831e-03	3.556484030981775523e-05	8.146538783239163593e-06
1.692254264862180557e+00	1.912561467639807391e-06	-1.665603632465131954e-04	1.604522879831943305e-02	8.438254605847322898e-01	1.151700519498991548e+00	1.000083260969350185e+00	-9.039912277271100818e-03	3.545277386366103064e-05	8.102011325409563296e-06
1.712280942552857121e+00	1.870220738686293150e-06	-1.644972322913029132e-04	1.584538374364743984e-02	8.439550994399692696e-01	1.149942182087499543e+00	1.000083666791721226e+00	-9.166753381781298990e-03	3.534538546780227776e-05	8.096284513736695822e-06
1.732307620243533908e+00	1.836737189239620580e-06	-1.628482372810635822e-04	1.561569478936247757e-02	8.440724464565757534e-01	1.148237119446093635e+00	1.000084071834152821e+00	-9.272596898152145675e-03	3.524237915284795841e-05	8.122475167442561131e-06
1.752334297934210472e+00	1.810281416266690212e-06	-1.615332636176545339e-04	1.536390875932155779e-02	8.441803459261717490e-01	1.146584052693458755e+00	1.000084473146700015e+00	-9.360479715410459714e-03	3.514348905788826767e-05	8.174999562152810223e-06
1.772360975624887258e+00	1.789401524671880925e-06	-1.604868288335238081e-04	1.509652221971326952e-02	8.442794333765181181e-01	1.144981632626254298e+00	1.000084868113252368e+00	-9.433123896466199740e-03	3.504847875326065517e-05	8.249315484353388707e-06
1.792387653315563822e+00	1.772943636432292053e-06	-1.596556848702043057e-04	1.481886617138730537e-02	8.443716672223189335e-01	1.143428464460857663e+00	1.000085255038585919e+00	-9.492927572394756555e-03	3.495713462282094505e-05	8.341720417167678594e-06
1.812414331006240609e+00	1.759989979210740582e-06	-1.589966462269565566e-04	1.453523430189184243e-02	8.444574372155404518e-01	1.141923131036580497e+00	1.000085632350866449e+00	-9.541978995042861914e-03	3.486926610492385026e-05	8.449192370599072936e-06
1.832441008696917395e+00	1.749810387649625828e-06	-1.584748348882185104e-04	1.424902387624693394e-02	8.445382202129380067e-01	1.140464208417955927e+00	1.000085999237006584e+00	-9.582076969978741560e-03	3.478469932276327653e-05	8.569263267787272342e-06
1.852467686387593959e+00	1.741824063353109332e-06	-1.580621654548551851e-04	1.396287926300796879e-02	8.446141386789493000e-01	1.139050281355890260e+00	1.000086354836019931e+00	-9.614757254702751763e-03	3.470327832146548005e-05	8.699917386404130946e-06
1.872494364078270745e+00	1.735569304156567885e-06	-1.577360825350248848e-04	1.367882220958450794e-02	8.446863965931383778e-01	1.137679952210141510e+00	1.000086698925505058e+00	-9.641322024006054869e-03	3.462485915586187768e-05	8.839509280300707306e-06
1.892521041768947310e+00	1.730679418296612823e-06	-1.574785512350514595e-04	1.339837048959966782e-02	8.447548111904588097e-01	1.136351850921677675e+00	1.000087031104362145e+00	-9.662865550521407623e-03	3.454931191633136368e-05	8.986697019129568257e-06
1.912547719459624096e+00	1.726863530934722231e-06	-1.572751491827436470e-04	1.312263690792622554e-02	8.448204229951733479e-01	1.135064639274580012e+00	1.000087351528168078e+00	-9.680304840709780256e-03	3.447651533867802839e-05	9.140387610996765003e-06
1.932574397150300882e+00	1.723891231016200119e-06	-1.571144319159451755e-04	1.285241519266169981e-02	8.448829223738208993e-01	1.133817017148512019e+00	1.000087660077263907e+00	-9.694399835436668875e-03	3.440635929819462629e-05	9.299692217795536855e-06
1.952601074840977446e+00	1.721580301119734428e-06	-1.569872671524268960e-04	1.258824801485825158e-02	8.449432136661441106e-01	1.132607723637808705e+00	1.000087957137317130e+00	-9.705782175684371169e-03	3.433873998878490412e-05	9.463889315009444867e-06
1.972627752531654233e+00	1.719786882380828013e-06	-1.568864776334212465e-04	1.233048474758056783e-02	8.450009245667009505e-01	1.131435540876280621e+00	1.000088242748395029e+00	-9.714968072922911674e-03	3.427356254030987517e-05	9.632394344840961532e-06
1.992654430222330797e+00	1.718397614548916693e-06	-1.568063302897334730e-04	1.207932542495949828e-02	8.450568786191943182e-01	1.130299293119734871e+00	1.000088517427360602e+00	-9.722384544013131999e-03	3.421073688190770545e-05	9.804734707637976029e-06
2.012681107913007583e+00	1.717323338385383699e-06	-1.567423760931360970e-04	1.183485779033670131e-02	8.451105348119856142e-01	1.129197849060782799e+00	1.000088781293975382e+00	-9.728375625878813229e-03	3.415018012701201688e-05	9.980529158768599058e-06
2.032707785603684147e+00	1.716494072778956156e-06	-1.566910397573465386e-04	1.159708457381353891e-02	8.451626413130169935e-01	1.128130119624842997e+00	1.000089034932515775e+00	-9.733225813517105973e-03	3.409181326015601213e-05	1.015947085163097869e-05
2.052734463294360712e+00	1.715854998797083177e-06	-1.566495961775091856e-04	1.136594642182015523e-02	8.452129133882358980e-01	1.127095059404217503e+00	1.000089278491741451e+00	-9.737160290251869327e-03	3.403556297948316997e-05	1.034131340037544471e-05
2.072761140985037720e+00	1.715363266364739869e-06	-1.566158301478915945e-04	1.114133837054650730e-02	8.452617009844314300e-01	1.126091663692968980e+00	1.000089512583678619e+00	-9.740366196683052091e-03	3.398135936704592625e-05	1.052585944587136190e-05
2.092787818675714284e+00	1.714985449936170183e-06	-1.565880961930898017e-04	1.092312355361727168e-02	8.453088746924329877e-01	1.125118969444418582e+00	1.000089737355143615e+00	-9.742988479740196522e-03	3.392913695632099238e-05	1.071295129343945339e-05
2.112814496366390848e+00	1.714695532113008132e-06	-1.565650221256980864e-04	1.071114299852150148e-02	8.453547100995715269e-01	1.124176051874686610e+00	1.000089953422409916e+00	-9.745148985714916293e-03	3.387883348442520531e-05	1.090246326552415612e-05
2.132841174057067857e+00	1.714473304679190821e-06	-1.565456317410339557e-04	1.050522343615586940e-02	8.453990965982705053e-01	1.123262025232094841e+00	1.000090160912412873e+00	-9.746939538025961927e-03	3.383038997389823234e-05	1.109429546831897810e-05
2.152867851747744421e+00	1.714303104862232399e-06	-1.565290767022452820e-04	1.030518317026720559e-02	8.454422398203800260e-01	1.122376039170403628e+00	1.000090360432636327e+00	-9.748438915830926615e-03	3.378375073191565713e-05	1.128836872573264638e-05
2.172894529438420985e+00	1.714172819915009470e-06	-1.565147858830186949e-04	1.011083613410055336e-02	8.454840838692685434e-01	1.121517279492044494e+00	1.000090552080493023e+00	-9.749704277746922346e-03	3.373886225908204130e-05	1.148462047016160038e-05
2.192921207129097994e+00	1.714073100973352100e-06	-1.565022331570561215e-04	9.921995554393376118e-03	8.455247569684209985e-01	1.120684964433217079e+00	1.000090736448113304e+00	-9.750786293818274400e-03	3.369567455719708920e-05	1.168300142061888151e-05
2.212947884819774558e+00	1.713996749895076002e-06	-1.564910943460426189e-04	9.738475633638329215e-03	8.455642658931865618e-01	1.119878345475100012e+00	1.000090913598956188e+00	-9.751719911063421592e-03	3.365413881756788720e-05	1.188347290156064145e-05
2.232974562510451122e+00	1.713938233555948701e-06	-1.564810382763131441e-04	9.560094057146780247e-03	8.456026404551020281e-01	1.119096703614018917e+00	1.000091084107289419e+00	-9.752537701287956884e-03	3.361421005793208133e-05	1.208600468771572648e-05
2.253001240201127686e+00	1.713893310784291198e-06	-1.564718900757280332e-04	9.386672142985365286e-03	8.456399140227623956e-01	1.118339350302198998e+00	1.000091248001247379e+00	-9.753260353742413541e-03	3.357584352032000899e-05	1.229057327266127453e-05
2.273027917891804695e+00	1.713858733758325865e-06	-1.564634330940299005e-04	9.218036832495770869e-03	8.456761558741140439e-01	1.117605623740977716e+00	1.000091405837064240e+00	-9.753909215750809422e-03	3.353899869689785468e-05	1.249716048539651654e-05
2.293054595582481259e+00	1.713832024537889345e-06	-1.564555825425340192e-04	9.054019805945331262e-03	8.457113937880887944e-01	1.116894889977986471e+00	1.000091557607884596e+00	-9.754495925716503632e-03	3.350363432875142552e-05	1.270575238358341187e-05
2.313081273273157823e+00	1.713811291689345684e-06	-1.564481944381288230e-04	8.894459354429850445e-03	8.457456553742349614e-01	1.116206539244636531e+00	1.000091703853030367e+00	-9.755034543693533872e-03	3.346971394995375699e-05	1.291633837496297056e-05
2.333107950963834831e+00	1.713795099283832816e-06	-1.564412318790337441e-04	8.739198752776554738e-03	8.457789775582059688e-01	1.115539987225889096e+00	1.000091844532035701e+00	-9.755531483694242223e-03	3.343719937225158283e-05	1.312891051673509693e-05
2.353134628654511395e+00	1.713782353766888857e-06	-1.564345942488652849e-04	8.588088220344677198e-03	8.458113203654411549e-01	1.114894671431999384e+00	1.000091980169137917e+00	-9.755996108610847165e-03	3.340605776759594190e-05	1.334346296347827782e-05
2.373161306345187960e+00	1.713772229570830497e-06	-1.564282753437986923e-04	8.440982752696267813e-03	8.458428011788666767e-01	1.114270052655720544e+00	1.000092110691929825e+00	-9.756431435307936703e-03	3.337625364540939090e-05	1.355999152756813809e-05
2.393187984035864524e+00	1.713764098279162370e-06	-1.564221986485288339e-04	8.297744286036305011e-03	8.458733581734203533e-01	1.113665611381558396e+00	1.000092236611640262e+00	-9.756844259560278412e-03	3.334775750524884619e-05	1.377849333596921104e-05
2.413214661726541532e+00	1.713757488766861022e-06	-1.564163732019387414e-04	8.158239087346020463e-03	8.459031375272624276e-01	1.113080849405861716e+00	1.000092357825870248e+00	-9.757235617590873794e-03	3.332053621339887089e-05	1.399896655656023982e-05
2.433241339417218096e+00	1.713752041438249972e-06	-1.564107414223017559e-04	8.022340195525222081e-03	8.459320484507129034e-01	1.112515286289875727e+00	1.000092474834943124e+00	-9.757610230666151005e-03	3.329456331137062275e-05	1.422141018718287326e-05
2.453268017107894661e+00	1.713747489233199605e-06	-1.564053198097972741e-04	7.889924442459885987e-03	8.459602579561311675e-01	1.111968461142025744e+00	1.000092587508390141e+00	-9.757968179383270935e-03	3.326980776504467467e-05	1.444582388599627927e-05
2.473294694798571669e+00	1.713743626594008605e-06	-1.564000601297352365e-04	7.760875183920796540e-03	8.459875302613627523e-01	1.111439929091835310e+00	1.000092696337625986e+00	-9.758313125433910884e-03	3.324624590805510155e-05	1.467220784345610402e-05
2.493321372489248233e+00	1.713740303043249058e-06	-1.563949829886794889e-04	7.635079001329527111e-03	8.460142037951033922e-01	1.110929263235297171e+00	1.000092801165856748e+00	-9.758644446325182020e-03	3.322384854977486924e-05	1.490056267745711418e-05
2.513348050179924797e+00	1.713737400574824864e-06	-1.563900500466034295e-04	7.512428735698837602e-03	8.460399469040066345e-01	1.110436051119811030e+00	1.000092902477594858e+00	-9.758964924670777627e-03	3.320259460589353271e-05	1.513088935654856414e-05
2.533374727870601362e+00	1.713734834806160159e-06	-1.563852786608980821e-04	7.392819900193925604e-03	8.460651610275162771e-01	1.109959896843510485e+00	1.000093000091305306e+00	-9.759273948139029695e-03	3.318245653775881164e-05	1.536318913491124938e-05
2.553401405561278370e+00	1.713732537164885523e-06	-1.563806393467508788e-04	7.276153995282420330e-03	8.460894960494592665e-01	1.109500417537713002e+00	1.000093094486370182e+00	-9.759573494622319351e-03	3.316341561407428487e-05	1.559746350718197320e-05
2.573428083251954934e+00	1.713730460499388134e-06	-1.563761461466984300e-04	7.162334684085335489e-03	8.461133747516293990e-01	1.109057245618088494e+00	1.000093185457985090e+00	-9.759863037040301947e-03	3.314544578977477964e-05	1.583371416752821478e-05
2.593454760942631498e+00	1.713728563983189850e-06	-1.563717774897453662e-04	7.051271351277406049e-03	8.461363314981488193e-01	1.108630025258535712e+00	1.000093273481980294e+00	-9.760143947767968911e-03	3.312853049063730417e-05	1.607194298382379373e-05
2.613481438633308507e+00	1.713726821331666540e-06	-1.563675421167662479e-04	6.942875083885785732e-03	8.461588925642713477e-01	1.108218414781423578e+00	1.000093358331581195e+00	-9.760415936836571577e-03	3.311264503438055419e-05	1.631215197120775243e-05
2.633508116323985071e+00	1.713725207250954539e-06	-1.563634234665518840e-04	6.837062432115431632e-03	8.461805611475123889e-01	1.107822083112855793e+00	1.000093440480549933e+00	-9.760680085420438828e-03	3.309777480755676229e-05	1.655434327789832272e-05
2.653534794014661635e+00	1.713723707134363483e-06	-1.563594276136830272e-04	6.733751238602920901e-03	8.462019141688615909e-01	1.107440712308642050e+00	1.000093519681295895e+00	-9.760936081539531642e-03	3.308389635904528510e-05	1.679851916752218898e-05
2.673561471705338199e+00	1.713722304384999148e-06	-1.563555426203973482e-04	6.632864570235444401e-03	8.462224046882498296e-01	1.107073993987288452e+00	1.000093596406772090e+00	-9.761184749603945762e-03	3.307099688371417461e-05	1.704468201188841952e-05
2.693588149396015208e+00	1.713720990921220871e-06	-1.563517751804165416e-04	6.534326421301256058e-03	8.462425793069786595e-01	1.106721631990108978e+00	1.000093670389587963e+00	-9.761425811981930267e-03	3.305905405701319559e-05	1.729283427847830499e-05
2.713614827086691772e+00	1.713719755050550060e-06	-1.563481103608519145e-04	6.438065794018896400e-03	8.462619473203779608e-01	1.106383338761524504e+00	1.000093742103172145e+00	-9.761660031729558346e-03	3.304805677425151172e-05	1.754297852747839165e-05
2.733641504777368336e+00	1.713718592403253219e-06	-1.563445571275982253e-04	6.344012273618485076e-03	8.462809619993132415e-01	1.106058838161052327e+00	1.000093811261098420e+00	-9.761887066410866731e-03	3.303798366806182910e-05	1.779511740218231062e-05
2.753668182468045345e+00	1.713717494055284501e-06	-1.563411015769613870e-04	6.252100277145929488e-03	8.462991998844556774e-01	1.105747861791466446e+00	1.000093878338338627e+00	-9.762107741361592678e-03	3.302882525763431340e-05	1.804925362869400803e-05
2.773694860158721909e+00	1.713716457795713426e-06	-1.563377525745565102e-04	6.162264484083483998e-03	8.463172732979947765e-01	1.105450151931373304e+00	1.000093943030301302e+00	-9.762321530769354702e-03	3.302056102063256410e-05	1.830539000812863155e-05
2.793721537849398473e+00	1.713715476315844844e-06	-1.563344933742957343e-04	6.074444252513427726e-03	8.463344337332208145e-01	1.105165457822116171e+00	1.000094005814374132e+00	-9.762529532604702354e-03	3.301318300882741599e-05	1.856352941773182683e-05
2.813748215540075037e+00	1.713714548708803567e-06	-1.563313354870851115e-04	5.988578900614123686e-03	8.463515291250940376e-01	1.104893538722223401e+00	1.000094066368479417e+00	-9.762731002689680262e-03	3.300667139752148406e-05	1.882367480426160142e-05
2.833774893230752046e+00	1.713713668643251460e-06	-1.563282648013493707e-04	5.904612307617841845e-03	8.463677189915383980e-01	1.104634160130907539e+00	1.000094125173370596e+00	-9.762926699339214906e-03	3.300101972597126128e-05	1.908582918603325543e-05
2.853801570921428610e+00	1.713712836003509656e-06	-1.563252855516466101e-04	5.822488030374830051e-03	8.463838060420577625e-01	1.104387096989913220e+00	1.000094181889932710e+00	-9.763116733353135665e-03	3.299620878736983314e-05	1.934999564682421039e-05
2.873828248612105174e+00	1.713712045112237124e-06	-1.563223930290090491e-04	5.742154072007552880e-03	8.463990405842561904e-01	1.104152129807505878e+00	1.000094237003192221e+00	-9.763301152657839765e-03	3.299223346583481830e-05	1.961617733864727301e-05
2.893854926302782182e+00	1.713711296377564831e-06	-1.563195879602661458e-04	5.663557881896875458e-03	8.464142414190920505e-01	1.103929048005220404e+00	1.000094290157525156e+00	-9.763479864664312627e-03	3.298907518175609664e-05	1.988437747622950842e-05
2.913881603993458747e+00	1.713710584561862429e-06	-1.563168637686427785e-04	5.586651234591477957e-03	8.464285501098139930e-01	1.103717645982810858e+00	1.000094341842818091e+00	-9.763653425332946556e-03	3.298673006652214166e-05	2.015459933968776656e-05
2.933908281684135311e+00	1.713709910430549549e-06	-1.563142238770029089e-04	5.511385138425998684e-03	8.464429053810620385e-01	1.103517726568463475e+00	1.000094391687425643e+00	-9.763821628672104611e-03	3.298518005847433932e-05	2.042684626966010956e-05
2.953934959374811875e+00	1.713709269089963852e-06	-1.563116607337189466e-04	5.437714832218772804e-03	8.464563829058132649e-01	1.103329097010817161e+00	1.000094440186835687e+00	-9.763984862818680943e-03	3.298442251083191871e-05	2.070112167020665903e-05
2.973961637065488883e+00	1.713708661574744648e-06	-1.563091791204264554e-04	5.365594584247816365e-03	8.464698932910084128e-01	1.103151572562886207e+00	1.000094486953686967e+00	-9.764142926135806894e-03	3.298443979235002029e-05	2.097742900398842685e-05
2.993988314756165448e+00	1.713708083244214837e-06	-1.563067689256636373e-04	5.294982817526599529e-03	8.464825069587287310e-01	1.102984972388944662e+00	1.000094532489691712e+00	-9.764296394615937583e-03	3.298523044457888904e-05	2.125577179542638211e-05
3.014014992446842012e+00	1.713707535362997150e-06	-1.563044389478064470e-04	5.225836786242641502e-03	8.464952786614706737e-01	1.102829123268270761e+00	1.000094576392078105e+00	-9.764444766095215639e-03	3.298677716303498851e-05	2.153615362604656465e-05
3.034041670137519020e+00	1.713707013482722728e-06	-1.563021751336497245e-04	5.158117849515263080e-03	8.465071328125387540e-01	1.102683855423131964e+00	1.000094619169326071e+00	-9.764588875609788929e-03	3.298907968373465953e-05	2.181857813771950492e-05
3.054068347828195584e+00	1.713706519074726765e-06	-1.562999857651511905e-04	5.091785995118060584e-03	8.465191033302305046e-01	1.102549006343180427e+00	1.000094660403577862e+00	-9.764728267461029315e-03	3.299212090528694041e-05	2.210304902817538785e-05
3.074095025518872148e+00	1.713706047851434572e-06	-1.562978635826880916e-04	5.026805286217193684e-03	8.465302221865199650e-01	1.102424416528288820e+00	1.000094700610553389e+00	-9.764863370938285658e-03	3.299590172165533001e-05	2.238957005431962101e-05
3.094121703209549157e+00	1.713705601439295097e-06	-1.562958102356117377e-04	4.963138236403469468e-03	8.465414899311095587e-01	1.102309933427108035e+00	1.000094739357565210e+00	-9.764994065639031467e-03	3.300040525390438419e-05	2.267814502786310343e-05
3.114148380900225721e+00	1.713705175713994807e-06	-1.562938190501572352e-04	4.900751389091810920e-03	8.465519407379618055e-01	1.102205407101145784e+00	1.000094777168057947e+00	-9.765120809251851691e-03	3.300563343714744095e-05	2.296877781864555939e-05
3.134175058590902285e+00	1.713704772428196488e-06	-1.562918954885483564e-04	4.839609583458355339e-03	8.465624501515852662e-01	1.102110694277528946e+00	1.000094813594637033e+00	-9.765243277703375760e-03	3.301156955856726719e-05	2.326147235045812099e-05
3.154201736281578849e+00	1.713704387592620386e-06	-1.562900339960185479e-04	4.779681661018855138e-03	8.465722805058288891e-01	1.102025653923181858e+00	1.000094849168975841e+00	-9.765361750245032946e-03	3.301821662669791792e-05	2.355623260447957818e-05
3.174228413972255858e+00	1.713704023066017835e-06	-1.562882344736259317e-04	4.720934605614329066e-03	8.465820644489301383e-01	1.101950151410497236e+00	1.000094883429182291e+00	-9.765476323194256444e-03	3.302555805262208735e-05	2.385306261487414527e-05
3.194255091662932422e+00	1.713703674996592694e-06	-1.562864945830131085e-04	4.663339371183847400e-03	8.465913256738358816e-01	1.101884054016021297e+00	1.000094916915496235e+00	-9.765587064284372149e-03	3.303359781566422057e-05	2.415196647274683709e-05
3.214281769353608986e+00	1.713703345324908667e-06	-1.562848150748425769e-04	4.606864925838581593e-03	8.466004330983133430e-01	1.101827235184608789e+00	1.000094949151638657e+00	-9.765694000790602070e-03	3.304231944054772347e-05	2.445294832141179053e-05
3.234308447044285995e+00	1.713703030319411445e-06	-1.562831919044863961e-04	4.551484179500612029e-03	8.466090071334202438e-01	1.101779569944464354e+00	1.000094980686831780e+00	-9.765797346938541804e-03	3.305172787019550488e-05	2.475601236059504548e-05
3.254335124734962559e+00	1.713702732001751409e-06	-1.562816258979520684e-04	4.497167929055238822e-03	8.466175137538018980e-01	1.101740939284675092e+00	1.000095011030586400e+00	-9.765897052944238349e-03	3.306180666926462360e-05	2.506116284174377462e-05
3.274361802425639123e+00	1.713702446744034143e-06	-1.562801167570298405e-04	4.443890896353375024e-03	8.466255210309430179e-01	1.101711225481047496e+00	1.000095040741338259e+00	-9.765993170072002211e-03	3.307256172995123443e-05	2.536840407226905115e-05
3.294388480116315687e+00	1.713702176625231922e-06	-1.562786600578546024e-04	4.391625575600974565e-03	8.466334786786507971e-01	1.101690316580554940e+00	1.000095069314566931e+00	-9.766085954073282921e-03	3.308397666419922342e-05	2.567774041089481118e-05
3.314415157806992696e+00	1.713701918136333733e-06	-1.562772573648848237e-04	4.340348357603716553e-03	8.466407879254341795e-01	1.101678101636988760e+00	1.000095097318257187e+00	-9.766175309762972420e-03	3.309605821737953530e-05	2.598917627197572280e-05
3.334441835497669260e+00	1.713701673395434188e-06	-1.562759050498458216e-04	4.290033310425739321e-03	8.466482286139933588e-01	1.101674475309637247e+00	1.000095124233830735e+00	-9.766261464601095482e-03	3.310879003111661913e-05	2.630271612085017014e-05
3.354468513188345824e+00	1.713701438996934619e-06	-1.562746055015846916e-04	4.240658375235684119e-03	8.466550388563036655e-01	1.101679332999090377e+00	1.000095150639230379e+00	-9.766344287557094175e-03	3.312217970432418103e-05	2.661836447822282903e-05
3.374495190879022832e+00	1.713701217091759364e-06	-1.562733517221443966e-04	4.192199079405518371e-03	8.466619461554921733e-01	1.101692575563853360e+00	1.000095176001873698e+00	-9.766424218126784976e-03	3.313621088155302658e-05	2.693612591559189858e-05
3.394521868569699397e+00	1.713701004380077066e-06	-1.562721525947392506e-04	4.144634797768788001e-03	8.466682123372567537e-01	1.101714104357952806e+00	1.000095200909882687e+00	-9.766500683130972804e-03	3.315089195404955982e-05	2.725600505971657658e-05
3.414548546260375961e+00	1.713700803019963350e-06	-1.562709958969364979e-04	4.097942423563271513e-03	8.466746236808793125e-01	1.101743826053035447e+00	1.000095224816763384e+00	-9.766574417303133110e-03	3.316620663569248481e-05	2.757800658785849280e-05
3.434575223951052525e+00	1.713700609821768269e-06	-1.562698900297397728e-04	4.052102653088680492e-03	8.466803781543909002e-01	1.101781647593025992e+00	1.000095248321058339e+00	-9.766644996575164078e-03	3.318216401071890758e-05	2.790213523256366058e-05
3.454601901641729533e+00	1.713700426944136655e-06	-1.562688276431504813e-04	4.007093647169643162e-03	8.466862312092342524e-01	1.101827481115463803e+00	1.000095270862408459e+00	-9.766712840685814676e-03	3.319874782583091268e-05	2.822839577676302140e-05
3.474628579332406098e+00	1.713700251303840416e-06	-1.562678151080554333e-04	3.962897340623786936e-03	8.466914716031206378e-01	1.101881238806224239e+00	1.000095293050048850e+00	-9.766777399436392740e-03	3.321596792595017840e-05	2.855679305882081890e-05
3.494655257023082662e+00	1.713700085041372679e-06	-1.562668421734622181e-04	3.919493068232236289e-03	8.466969765743957987e-01	1.101942837952219145e+00	1.000095314309751293e+00	-9.766839686115098146e-03	3.323380802967104447e-05	2.888733196716457594e-05
3.514681934713759670e+00	1.713699925190562976e-06	-1.562659152591916467e-04	3.876863910692292768e-03	8.467017518405552945e-01	1.102012195668922612e+00	1.000095335261705687e+00	-9.766898787185590569e-03	3.325227867191551929e-05	2.922001744616094192e-05
3.534708612404436234e+00	1.713699773888463575e-06	-1.562650304580147679e-04	3.834990295330744595e-03	8.467067032657957792e-01	1.102089234076845337e+00	1.000095355317788037e+00	-9.766955369402349763e-03	3.327136352085434227e-05	2.955485448978362672e-05
3.554735290095112799e+00	1.713699628210919595e-06	-1.562641859059245048e-04	3.793856382755670005e-03	8.467110552420101799e-01	1.102173874957108390e+00	1.000095375109335549e+00	-9.767009548620354115e-03	3.329107389965547552e-05	2.989184814846344772e-05
3.574761967785789363e+00	1.713699490361931940e-06	-1.562633855205604262e-04	3.753443601690581877e-03	8.467154685351354626e-01	1.102266044968738479e+00	1.000095394034451912e+00	-9.767060675345775114e-03	3.331139326527186254e-05	3.023100352236247819e-05
3.594788645476466371e+00	1.713699357436088874e-06	-1.562626235392638443e-04	3.713737135163975439e-03	8.467194737828515061e-01	1.102365670279027876e+00	1.000095412735750866e+00	-9.767109557401003339e-03	3.333233385485346993e-05	3.057232576806713563e-05
3.614815323167142935e+00	1.713699231658906151e-06	-1.562619041529568367e-04	3.674719336533640700e-03	8.467234766591952289e-01	1.102472681852262104e+00	1.000095430597576884e+00	-9.767155640308710154e-03	3.335387882133117489e-05	3.091582009204357491e-05
3.634842000857819500e+00	1.713699110179157368e-06	-1.562612200684611080e-04	3.636376344159049107e-03	8.467270108507538584e-01	1.102587009979940857e+00	1.000095448273960130e+00	-9.767199586441416975e-03	3.337604131451424219e-05	3.126149175778147269e-05
3.654868678548496508e+00	1.713698995240814068e-06	-1.562605814238686300e-04	3.598691369392747075e-03	8.467305585930109402e-01	1.102708589695809316e+00	1.000095465135522055e+00	-9.767240630740563895e-03	3.339880412812982054e-05	3.160934607857197041e-05
3.674895356239173072e+00	1.713698884023232394e-06	-1.562599730657509233e-04	3.561651456102082631e-03	8.467336838922415732e-01	1.102837355181574885e+00	1.000095481847976364e+00	-9.767279751324851531e-03	3.342218143660820941e-05	3.195938842520984648e-05
3.694922033929849636e+00	1.713698778810235520e-06	-1.562594110556526060e-04	3.525240598707958875e-03	8.467368127485306317e-01	1.102973245315032269e+00	1.000095497768118236e+00	-9.767315959591117008e-03	3.344615549578435089e-05	3.231162421831955368e-05
3.714948711620526201e+00	1.713698676784762752e-06	-1.562588757078638558e-04	3.489446701036806944e-03	8.467396226552531546e-01	1.103116197961814704e+00	1.000095513573506345e+00	-9.767350483641213180e-03	3.347074161989568554e-05	3.266605893672343031e-05
3.734975389311203209e+00	1.713698580286136766e-06	-1.562583888324065604e-04	3.454254477619347202e-03	8.467423737858208455e-01	1.103266155634058165e+00	1.000095528607105377e+00	-9.767381963514891463e-03	3.349592140980967437e-05	3.302269810910592022e-05
3.755002067001879773e+00	1.713698486481363120e-06	-1.562579262966070769e-04	3.419652651470153886e-03	8.467447800511110900e-01	1.103423059678893647e+00	1.000095543558540578e+00	-9.767411926354786431e-03	3.352171144824660817e-05	3.338154732293613657e-05
3.775028744692556337e+00	1.713698397779272013e-06	-1.562575104372581670e-04	3.385626597268398888e-03	8.467471483744455352e-01	1.103586856050465581e+00	1.000095557756893738e+00	-9.767438897473309026e-03	3.354809254918514431e-05	3.374261221579679906e-05
3.795055422383233346e+00	1.713698311323515672e-06	-1.562571215338754978e-04	3.352165810617608026e-03	8.467491835199799644e-01	1.103757489396645974e+00	1.000095571903991010e+00	-9.767464209882012818e-03	3.357508260443505454e-05	3.410589848469109997e-05
3.815082100073909910e+00	1.713698229570532840e-06	-1.562567748159323234e-04	3.319256287331861892e-03	8.467510353923168864e-01	1.103934908936466064e+00	1.000095585314979330e+00	-9.767486868443994372e-03	3.360266167458360808e-05	3.447141187687822100e-05
3.835108777764586474e+00	1.713698149669268639e-06	-1.562564556355617944e-04	3.286888237403263243e-03	8.467526880693855285e-01	1.104119062439309129e+00	1.000095598704113353e+00	-9.767507787547853246e-03	3.363084885123438780e-05	3.483915819981708671e-05
3.855135455455263482e+00	1.713698074104520055e-06	-1.562561818335628716e-04	3.255048244421815222e-03	8.467541757666996460e-01	1.104309902225779183e+00	1.000095611372563198e+00	-9.767525937825559390e-03	3.365962350129501142e-05	3.520914331142846720e-05
3.875162133145940047e+00	1.713698000047926974e-06	-1.562559314883006916e-04	3.223727197029158196e-03	8.467554342878249596e-01	1.104507379014736834e+00	1.000095624047163012e+00	-9.767541641975865940e-03	3.368900599834042384e-05	3.558137313080556063e-05
3.895188810836616611e+00	1.713697929840506774e-06	-1.562557251463206765e-04	3.192912210976930378e-03	8.467565705138961896e-01	1.104711448141080687e+00	1.000095636015156941e+00	-9.767559749078497458e-03	3.371897481900576113e-05	3.595585362578274796e-05
3.915215488527293175e+00	1.713697871442128758e-06	-1.562555371109897455e-04	3.162594802399171321e-03	8.467576112075427819e-01	1.104922059320047056e+00	1.000095648018014538e+00	-9.767225706935367055e-03	3.374955150850588137e-05	3.633259093127626688e-05
3.935242166217970183e+00	1.713697714515638472e-06	-1.562553838713835199e-04	3.132762830077133638e-03	8.467584152721163715e-01	1.105139210593728993e+00	1.000095659339496068e+00	-9.770275315696652987e-03	3.378071625925887930e-05	3.671159004779880306e-05
3.955268843908646748e+00	1.713697787686811496e-06	-1.562552734562359816e-04	3.103408853567659036e-03	8.467590733279134474e-01	1.105362777964892684e+00	1.000095671030157396e+00	-9.770774090938297990e-03	3.381249801892347137e-05	3.709286160909549553e-05
3.975295521599323312e+00	1.713698318819115839e-06	-1.562552071905420675e-04	3.074520304858813398e-03	8.467596165415405274e-01	1.105592526167507694e+00	1.000095682507139871e+00	-9.745970948533405967e-03	3.384486303641521756e-05	3.747641020989608558e-05
3.995322199289999876e+00	1.714584732784533302e-06	-1.562996671110766550e-04	3.045531353289996409e-03	8.467602886561872433e-01	1.105725138389047624e+00	1.000000000000000000e+00	-1.000000000000000021e-02	3.387174561589884471e-05	3.787100112148618141e-05
