# Time=0.00720014400288 and Columns are r	p	Paether	ur	alpha	a	b	K	Sr_tilde	tau_tilde
1.001333884533834630e-02	1.199481371243800790e-02	-1.855245308163427226e-02	1.986818710129416808e-05	6.435827142245272858e-01	1.000063382594602812e+00	1.000016060147834951e+00	-1.081883172270364617e-02	2.244291878918024403e-10	1.503497886790551352e-06
3.004001653601504063e-02	1.196628702777702107e-02	-1.853144229869325976e-02	5.959312431937904066e-05	6.437626006625579711e-01	1.000441806841783077e+00	1.000016066107992874e+00	-1.081624938160872205e-02	6.051172187569654373e-09	1.350440821308369011e-05
5.006669422669172975e-02	1.190941185035786568e-02	-1.848945757403507029e-02	9.927969856026765127e-05	6.441221754629831153e-01	1.001197794076999159e+00	1.000016077814447568e+00	-1.081046891382975508e-02	2.793572215874179964e-08	3.736216466656611432e-05
7.009337191736843276e-02	1.182455937385153838e-02	-1.842658369012216760e-02	1.389009433884279656e-04	6.446609821829737408e-01	1.002329615925950268e+00	1.000016095221173629e+00	-1.080165167686648192e-02	7.633026291470168816e-08	7.279029281041790654e-05
9.012004960804512188e-02	1.171227768476167108e-02	-1.834294555270544677e-02	1.784335911477833976e-04	6.453783461508924013e-01	1.003834661736332512e+00	1.000016118333721948e+00	-1.079002131115702583e-02	1.613126345003283387e-07	1.193632044958179865e-04
1.101467272987218110e-01	1.157328941122469021e-02	-1.823871059896094854e-02	2.178550030718804850e-04	6.462733632440318399e-01	1.005709417198060729e+00	1.000016147077435136e+00	-1.077554789136746585e-02	2.924443244664166331e-07	1.765211141468862920e-04
1.301734049893985001e-01	1.140848507635286967e-02	-1.811408980254297640e-02	2.571445996062069199e-04	6.473448899932306988e-01	1.007949437122748870e+00	1.000016181357568090e+00	-1.075829515378852463e-02	4.786372862807566986e-07	2.435765397238429705e-04
1.502000826800751754e-01	1.121891481775327999e-02	-1.796933867263440093e-02	2.962842250031322397e-04	6.485915373884073576e-01	1.010549311701333552e+00	1.000016221061418076e+00	-1.073832819247396916e-02	7.280308036268190877e-07	3.197223408552288476e-04
1.702267603707518784e-01	1.100577861614079715e-02	-1.780475838676916570e-02	3.352584992922277417e-04	6.500116613559162593e-01	1.013502627615456397e+00	1.000016266059493342e+00	-1.071572577083029776e-02	1.047880266648691020e-06	4.040412329582456874e-04
1.902534380614285814e-01	1.077041514671939204e-02	-1.762069698640766555e-02	3.740552013991812769e-04	6.516033532966287734e-01	1.016801924633180532e+00	1.000016316206824962e+00	-1.069058063012892461e-02	1.444459576310466800e-06	4.955167017488923843e-04
2.102801157521052566e-01	1.051428936851306513e-02	-1.741755057947836499e-02	4.126655552167854640e-04	6.533644288229722985e-01	1.020438648688235528e+00	1.000016371343691368e+00	-1.066300025640057499e-02	1.922978138101029590e-06	5.930452269290465697e-04
2.303067934427819596e-01	1.023897898123680636e-02	-1.719576450635500187e-02	4.510845691740768813e-04	6.552924166781429749e-01	1.024403102594213300e+00	1.000016431297160002e+00	-1.063310752690540574e-02	2.487513885379026679e-06	6.954497071596540785e-04
2.503334711334586626e-01	9.946159891394128205e-03	-1.695583439870964812e-02	4.893112568536074798e-04	6.573845462147426266e-01	1.028684395739366764e+00	1.000016495881704159e+00	-1.060104119854634284e-02	3.140962390239317113e-06	8.014939605796172779e-04
2.703601488241353379e-01	9.637590842470487168e-03	-1.669830703779111997e-02	5.273489381601977142e-04	6.596377371376368481e-01	1.033270394291219585e+00	1.000016564901059057e+00	-1.056695619962827806e-02	3.885003371463032803e-06	9.098981563662200157e-04
2.903868265148120131e-01	9.315097374263768895e-03	-1.642378104528049998e-02	5.652054018933327885e-04	6.620485859502895920e-01	1.038147673644722380e+00	1.000016638148637060e+00	-1.053102360626938933e-02	4.720083583977627830e-06	1.019355013189377542e-03
3.104135042054887439e-01	8.980555286943766799e-03	-1.613290720685827198e-02	6.028931823415964279e-04	6.646133567312163537e-01	1.043301475025540048e+00	1.000016715409627999e+00	-1.049343033635085666e-02	5.645417540127965371e-06	1.128546580422884688e-03
3.304401818961654191e-01	8.635873792659579107e-03	-1.582638850043213696e-02	6.404296794358170465e-04	6.673279696907908898e-01	1.048715668352533825e+00	1.000016796461126178e+00	-1.045437843527759030e-02	6.659003802006390155e-06	1.236161397849732052e-03
3.504668595868420944e-01	8.282978544528524570e-03	-1.550497964227457587e-02	6.778374314388369492e-04	6.701879945620491386e-01	1.054372723604420470e+00	1.000016881074461628e+00	-1.041408398632018631e-02	7.757658770407357211e-06	1.340911810197652427e-03
3.704935372775188251e-01	7.923794736242889200e-03	-1.516948628302549305e-02	7.151442157898286285e-04	6.731886404546583158e-01	1.060253693079118209e+00	1.000016969014939638e+00	-1.037277551539219668e-02	8.937064288418482134e-06	1.441551194579537495e-03
3.905202149681955004e-01	7.560230468086373730e-03	-1.482076352981111754e-02	7.523833469295028355e-04	6.763247552470333934e-01	1.066338206993974191e+00	1.000017060044318340e+00	-1.033069202793375496e-02	1.019183183730395836e-05	1.536890842987749225e-03
4.105468926588721756e-01	7.194160573817747449e-03	-1.445971408572623886e-02	7.895937873807478422e-04	6.795908204338646508e-01	1.072604484920881784e+00	1.000017153920158997e+00	-1.028808049628257733e-02	1.151557798681624912e-05	1.625816229004295108e-03
4.305735703495489064e-01	6.827411100068282029e-03	-1.408728574271477137e-02	8.268205065692046897e-04	6.829809521945960915e-01	1.079029365474733604e+00	1.000017250398437252e+00	-1.024519291137475363e-02	1.290101512891047619e-05	1.707302379297251328e-03
4.506002480402255816e-01	6.461744622981235343e-03	-1.370446824421370571e-02	8.641146425308150400e-04	6.864889080271708854e-01	1.085588356568092161e+00	1.000017349232361852e+00	-1.020228297761520929e-02	1.434005028071423871e-05	1.780428066970034251e-03
4.706269257309022569e-01	6.098846577889990850e-03	-1.331228970218551431e-02	9.015339635348142621e-04	6.901080905632893669e-01	1.092255708280300830e+00	1.000017450175205269e+00	-1.015960227228180496e-02	1.582389749158174532e-05	1.844388546947339173e-03
4.906536034215789877e-01	5.740312764743675522e-03	-1.291181229878335217e-02	9.391431312289195803e-04	6.938315614967534017e-01	1.099004510085938247e+00	1.000017552978524460e+00	-1.011739623500290501e-02	1.734319466054541037e-05	1.898506563893769461e-03
5.106802811122557184e-01	5.387638176556705169e-03	-1.250412751522492205e-02	9.770143196909024472e-04	6.976520568244763965e-01	1.105806813696187607e+00	1.000017657395189552e+00	-1.007589977849551212e-02	1.888813195802812545e-05	1.942241381976552751e-03
5.307069588029323937e-01	5.042207278807413727e-03	-1.209035085738382163e-02	1.015227639590905251e-03	7.015620049428001881e-01	1.112633782244741631e+00	1.000017763177019958e+00	-1.003533281195599994e-02	2.044858050894562610e-05	1.975195613251573123e-03
5.507336364936090689e-01	4.705285846036562011e-03	-1.167161611658231075e-02	1.053871984604178415e-03	7.055535504240653122e-01	1.119455865830011776e+00	1.000017870078052429e+00	-9.995895602964360166e-03	2.201423042983583286e-05	1.997119658271970678e-03
5.707603141842857442e-01	4.378014436933151503e-03	-1.124906922072351628e-02	1.093045692855987164e-03	7.096185822079250638e-01	1.126243002710056285e+00	1.000017977851541451e+00	-9.957764321977580907e-03	2.357472452127964973e-05	2.007913618076323688e-03
5.907869918749625304e-01	4.061403562399892170e-03	-1.082386184113103174e-02	1.132857704672996521e-03	7.137487631977033065e-01	1.132964844549859018e+00	1.000018086253529503e+00	-9.921086548459015150e-03	2.511979871551659537e-05	2.007626590736302959e-03
6.108136695656392057e-01	3.756330572103514301e-03	-1.039714471794911214e-02	1.173428558094371729e-03	7.179355657921741019e-01	1.139591003297257155e+00	1.000018195039218405e+00	-9.885977266142636360e-03	2.663941325310903682e-05	1.996453326505575211e-03
6.308403472563158809e-01	3.463538255194623626e-03	-9.970060945928093873e-03	1.214891964240678900e-03	7.221703072765137676e-01	1.146091316304313157e+00	1.000018303966911493e+00	-9.852514978393595024e-03	2.812388767093153269e-05	1.974728281875829349e-03
6.508670249469925562e-01	3.183635120414244745e-03	-9.543739174953659934e-03	1.257396258239225177e-03	7.264441902772240667e-01	1.152436125523876420e+00	1.000018412793702405e+00	-9.820738585913509414e-03	2.956402140574853891e-05	1.942917181873775540e-03
6.708937026376692314e-01	2.917097290928942835e-03	-9.119286960041134149e-03	1.301106526807462244e-03	7.307483439115030066e-01	1.158596565754252961e+00	1.000018521279914196e+00	-9.790644540431672760e-03	3.095121503471247109e-05	1.901606269256309002e-03
6.909203803283459067e-01	2.664271920556134966e-03	-8.697784332273894234e-03	1.346206668663894618e-03	7.350738617654150042e-01	1.164544856336202194e+00	1.000018629184078689e+00	-9.762184889793502907e-03	3.227757209800447756e-05	1.851489485595097552e-03
7.109470580190225819e-01	2.425382011590122323e-03	-8.280277571185688107e-03	1.392902250171263812e-03	7.394118513249446911e-01	1.170254590133966488e+00	1.000018736267909603e+00	-9.735265826747389190e-03	3.353599848479642064e-05	1.793353889607818101e-03
7.309737357096993682e-01	2.200532491038933308e-03	-7.867773571304800123e-03	1.441423373528559048e-03	7.437534660859289604e-01	1.175701013456257993e+00	1.000018842290618215e+00	-9.709747110164607814e-03	3.472027776983610325e-05	1.728063669285863227e-03
7.510004134003760434e-01	1.989717382432279642e-03	-7.461234571459018743e-03	1.492028493148627680e-03	7.480899483675167438e-01	1.180861290432877020e+00	1.000018947014468473e+00	-9.685441984282200378e-03	3.582514164640630469e-05	1.656543143718864188e-03
7.710270910910527187e-01	1.792827895274605628e-03	-7.061573484003022365e-03	1.545008363117079432e-03	7.524126680732874384e-01	1.185714745691252237e+00	1.000019050198342585e+00	-9.662118257245843472e-03	3.684631274551519411e-05	1.579759175794021942e-03
7.910537687817293939e-01	1.609661243928703486e-03	-6.669649943018335879e-03	1.600691120126876118e-03	7.567131520066002759e-01	1.190243079529346604e+00	1.000019151604011558e+00	-9.639499550224488525e-03	3.778054087525760764e-05	1.498703426653128943e-03
8.110804464724060692e-01	1.439930002828237934e-03	-6.286266956394352158e-03	1.659447681312375749e-03	7.609831167027518717e-01	1.194430550618641229e+00	1.000019250988976705e+00	-9.617267901526158069e-03	3.862560996065558962e-05	1.414374876409087156e-03
8.311071241630827444e-01	1.283271805130265083e-03	-5.912168376060872310e-03	1.721698518568812912e-03	7.652144884639306976e-01	1.198264122054925052e+00	1.000019348113412754e+00	-9.595066430458095569e-03	3.938033801861944808e-05	1.327763013379289680e-03
8.511338018537595307e-01	1.139259197496592536e-03	-5.548037000669910762e-03	1.787921008951547227e-03	7.693994268657603497e-01	1.201733567802281133e+00	1.000019442732297925e+00	-9.572503512453934757e-03	4.004454825640553712e-05	1.239832057461977624e-03
8.711604795444362059e-01	1.007409473837741088e-03	-5.194493474155984988e-03	1.858658477062172546e-03	7.735303375131585835e-01	1.204831537616035231e+00	1.000019534603276972e+00	-9.549157089812375376e-03	4.061903440910258670e-05	1.151506534201212619e-03
8.911871572351128812e-01	8.871943254799232901e-04	-4.852095840598932321e-03	1.934530166646270628e-03	7.775998797923023842e-01	1.207553579933291932e+00	1.000019623477983677e+00	-9.524580717603281857e-03	4.110549977105366361e-05	1.063658457678614503e-03
9.112138349257895564e-01	7.780491631590578288e-04	-4.521339746787925856e-03	2.016243308085694137e-03	7.816009716516532091e-01	1.209898123270788384e+00	1.000019709111033661e+00	-9.498310146782176083e-03	4.150649325993646861e-05	9.770963156967662523e-04
9.312405126164662317e-01	6.793819871827061919e-04	-4.202659206377210542e-03	2.104606555190066848e-03	7.855267865211963407e-01	1.211866417995269840e+00	1.000019791250763790e+00	-9.469872258662796749e-03	4.182532350800721434e-05	8.925559837013462457e-04
9.512671903071429069e-01	5.905817046909531218e-04	-3.896427853842492853e-03	2.200545984084512595e-03	7.893707473724974610e-01	1.213462441146642812e+00	1.000019869649598325e+00	-9.438795236424766741e-03	4.206597385184411428e-05	8.106936277704298493e-04
9.712938679978196932e-01	5.110258167886386985e-04	-3.602960570329139488e-03	2.305122934180319199e-03	7.931265128349326288e-01	1.214692768022450853e+00	1.000019944054552967e+00	-9.404622161154056748e-03	4.223300086569161299e-05	7.320805954717786272e-04
9.913205456884963684e-01	4.400874221039561478e-04	-3.322515310192200328e-03	2.419554825415227463e-03	7.967879744618284743e-01	1.215566414629937420e+00	1.000020014219457964e+00	-9.366927169323057897e-03	4.233143799092530565e-05	6.572002389429898884e-04
1.011347223379172933e+00	3.771415067070666045e-04	-3.055295171216305863e-03	2.545238119415139250e-03	8.003492238576069839e-01	1.216094655712982142e+00	1.000020079895773906e+00	-9.325336205453048713e-03	4.236668844648143684e-05	5.864465697849955686e-04
1.031373901069849497e+00	3.215705121558634270e-04	-2.801450251601854836e-03	2.683774306583576984e-03	8.038045612630871917e-01	1.216290822966777707e+00	1.000020140847429628e+00	-9.279552091252453450e-03	4.234442721319762483e-05	5.201246113660994109e-04
1.051400578760526283e+00	2.727691934895597864e-04	-2.561079529152186871e-03	2.836997650091287182e-03	8.071484656348364428e-01	1.216170088212245926e+00	1.000020196842644538e+00	-9.229385419044213931e-03	4.227049732325257350e-05	4.584522919084286705e-04
1.071427256451203069e+00	2.301487963162274827e-04	-2.334232263244179380e-03	3.007004862172221391e-03	8.103756004584986572e-01	1.215749235758290636e+00	1.000020247672365192e+00	-9.174790496358421754e-03	4.215081828795719769e-05	4.015637106667127240e-04
1.091453934141879634e+00	1.931405965707877622e-04	-2.120909059843238253e-03	3.196184334049280342e-03	8.134808056712463653e-01	1.215046427993391021e+00	1.000020293143901284e+00	-9.115907307373632973e-03	4.199129291209887109e-05	3.495136088147484245e-04
1.111480611832556420e+00	1.611988572260028931e-04	-1.921062250667207984e-03	3.407243409141016543e-03	8.164591189228379564e-01	1.214080967400991140e+00	1.000020333103770476e+00	-9.053106787371428474e-03	4.179772788216860082e-05	3.022828839839341382e-04
1.131507289523232984e+00	1.338032630402849130e-04	-1.734595716092167785e-03	3.643228919080149751e-03	8.193057941364065844e-01	1.212873057849907843e+00	1.000020367433676727e+00	-8.987038269403519603e-03	4.157575571281680189e-05	2.597850001899601425e-04
1.151533967213909770e+00	1.104608965732240927e-04	-1.561363894007885590e-03	3.907536062164713130e-03	8.220163613665529834e-01	1.211443567086663453e+00	1.000020396077859530e+00	-8.918673331707224414e-03	4.133077092168942023e-05	2.218731592456905629e-04
1.171560644904586557e+00	9.070781606449814665e-05	-1.401170297124064911e-03	4.203896345002796665e-03	8.245866648621422712e-01	1.209813792114465603e+00	1.000020419040689168e+00	-8.849340710310687683e-03	4.106786950779416697e-05	1.883481117941777222e-04
1.191587322595263121e+00	7.411028792719568325e-05	-1.253765316078385037e-03	4.536333924531960569e-03	8.270129752178625449e-01	1.208005228418943755e+00	1.000020436416798608e+00	-8.780743205807555601e-03	4.079180249025082848e-05	1.589664912602607651e-04
1.211614000285939907e+00	6.026571396615577501e-05	-1.118843904087044819e-03	4.909074369207910155e-03	8.292920910205801022e-01	1.206039344141584202e+00	1.000020448387285654e+00	-8.714947564518960021e-03	4.050693391267487715e-05	1.334495486901826199e-04
1.231640677976616471e+00	4.880327662174246647e-05	-9.960432623854042610e-04	5.326388249299543291e-03	8.314214499007653858e-01	1.203937360038352944e+00	1.000020455248092910e+00	-8.654336142895348652e-03	4.021721239795424368e-05	1.114921479916566584e-04
1.251667355667293258e+00	3.938430642253392701e-05	-8.849411337959898951e-04	5.792348121536155386e-03	8.333992844051375526e-01	1.201720036784213574e+00	1.000020457398753670e+00	-8.601514529426592184e-03	3.992614818056887952e-05	9.277184971824945392e-05
1.271694033357969822e+00	3.170235690436365694e-05	-7.850551555195643466e-04	6.310480140587884472e-03	8.352247805004552328e-01	1.199407471471131803e+00	1.000020455362049532e+00	-8.559170573277281174e-03	3.963680266366036186e-05	7.695787072012637330e-05
1.291720711048646608e+00	2.548295716841414687e-05	-6.958440315385696490e-04	6.883296594172965722e-03	8.368982308492523003e-01	1.197018906366944302e+00	1.000020449757914598e+00	-8.529890841822335840e-03	3.935178379612272150e-05	6.371966456234027512e-05
1.311747388739323394e+00	2.048300471459193729e-05	-6.167109435697435207e-04	7.511712729530275849e-03	8.384211110594620431e-01	1.194572553528163494e+00	1.000020441307979402e+00	-8.515946847919644153e-03	3.907325248534861107e-05	5.273483486858574973e-05
1.331774066429999959e+00	1.648976458135713389e-05	-5.470096016435090948e-04	8.194376470289744391e-03	8.397962188244438853e-01	1.192085440014091668e+00	1.000020430790658388e+00	-8.519076566140005094e-03	3.880293424811977605e-05	4.369608386895745670e-05
1.351800744120676745e+00	1.331945659469752062e-05	-4.860530476988164845e-04	8.926979232493440983e-03	8.410277410453139701e-01	1.189573278442264126e+00	1.000020419030329011e+00	-8.540287818377232873e-03	3.854213960400305178e-05	3.631692273051892163e-05
1.371827421811353309e+00	1.081543961298957498e-05	-4.331251600914553081e-04	9.701659157196789937e-03	8.421211667117738386e-01	1.187050367841466336e+00	1.000020406838052933e+00	-8.579711843612324376e-03	3.829178895667344630e-05	3.033593436321282527e-05
1.391854099502030095e+00	8.846035740101724565e-06	-3.874939709057824595e-04	1.050664793314787064e-02	8.430833114151172758e-01	1.184529528453856839e+00	1.000020394994521222e+00	-8.636532381313318310e-03	3.805244549359302540e-05	2.551947966380785325e-05
1.411880777192706660e+00	7.302072005098685187e-06	-3.484263277821415318e-04	1.132632397335824569e-02	8.439220547025980679e-01	1.182022072973056392e+00	1.000020384188971878e+00	-8.708998995551399044e-03	3.782435314022221292e-05	2.166286099544222977e-05
1.431907454883383446e+00	6.094244499416316465e-06	-3.152023734273133181e-04	1.214180327442278273e-02	8.446462559711895857e-01	1.179537814189944411e+00	1.000020375010380880e+00	-8.794532812427346621e-03	3.760748353517828139e-05	1.859008105641863672e-05
1.451934132574060232e+00	5.150424494891945150e-06	-2.871291733103524058e-04	1.293210724140549106e-02	8.452654839995736857e-01	1.177085107137175291e+00	1.000020367898769358e+00	-8.889913222034700677e-03	3.740158769672854549e-05	1.615243854778629210e-05
1.471960810264736796e+00	4.413024747040981169e-06	-2.635522472568407209e-04	1.367581306400809590e-02	8.457896300255829392e-01	1.174670921237789045e+00	1.000020363156661318e+00	-8.991532710279902599e-03	3.720625334631045856e-05	1.422626662795572064e-05
1.491987487955413583e+00	3.836528190818180896e-06	-2.438644534342912485e-04	1.435294781022034179e-02	8.462288236709685219e-01	1.172300936719385733e+00	1.000020360921719309e+00	-9.095695956319586883e-03	3.702095962918577475e-05	1.271013858570998743e-05
1.512014165646090147e+00	3.385254816197031730e-06	-2.275119663739780837e-04	1.494679574851093783e-02	8.465928828735623801e-01	1.169979658139912226e+00	1.000020361203064256e+00	-9.198920292983267175e-03	3.684512684918071291e-05	1.152184124478282410e-05
1.532040843336766933e+00	3.031411708508071127e-06	-2.139972582417709623e-04	1.544528566504319890e-02	8.468913584010003825e-01	1.167710538133424958e+00	1.000020363874571494e+00	-9.298200270135907955e-03	3.667815444541534304e-05	1.059536262706869551e-05
1.552067521027443719e+00	2.753441703020474005e-06	-2.028795552826073777e-04	1.584172622121517854e-02	8.471331399313708488e-01	1.165496104559815560e+00	1.000020368729732212e+00	-9.391188379730635791e-03	3.651944796635275391e-05	9.878072051268833718e-06
1.572094198718120284e+00	2.534662007512856838e-06	-1.937731743335971760e-04	1.613481908132034792e-02	8.473264639272730658e-01	1.163338085775281083e+00	1.000020375484015345e+00	-9.476274017276877654e-03	3.636843483000027543e-05	9.328202373841056212e-06
1.592120876408797070e+00	2.362167400648846217e-06	-1.863443401710877399e-04	1.632804572230076023e-02	8.474786547970458717e-01	1.161237529606918617e+00	1.000020383833436721e+00	-9.552560461924836793e-03	3.622457345541386914e-05	8.912685263763294244e-06
1.612147554099473634e+00	2.225963300612562172e-06	-1.803069727593440547e-04	1.642863457110520231e-02	8.475963086764266574e-01	1.159194913462994414e+00	1.000020393450805178e+00	-9.619768095577619499e-03	3.608735741645841081e-05	8.605345935091378640e-06
1.632174231790150420e+00	2.118290841251169652e-06	-1.754179805807239373e-04	1.644635164444460673e-02	8.476851123600800397e-01	1.157210243724671850e+00	1.000020404035746102e+00	-9.678094619801028142e-03	3.595631786934243285e-05	8.385434221466847872e-06
1.652200909480826985e+00	2.033107343779898938e-06	-1.714723651166264547e-04	1.639232562319530018e-02	8.477499952924468785e-01	1.155283144016058916e+00	1.000020415297514065e+00	-9.728068669278076841e-03	3.583102422525834480e-05	8.236452324516143865e-06
1.672227587171503771e+00	1.965689428672083226e-06	-1.682983902270180103e-04	1.627805060612547150e-02	8.477952177902774444e-01	1.153412932133849989e+00	1.000020426994182143e+00	-9.770420252868658451e-03	3.571108424736161392e-05	8.145232955407147315e-06
1.692254264862180557e+00	1.912331061987090913e-06	-1.657531026772093288e-04	1.611463386171393952e-02	8.478242923091496852e-01	1.151598686394329274e+00	1.000020438903753695e+00	-9.805973416577424412e-03	3.559614263812742709e-05	8.101221745466267115e-06
1.712280942552857121e+00	1.870114043716802595e-06	-1.637180965807159252e-04	1.591229616979294645e-02	8.478402922875845071e-01	1.149839301908401445e+00	1.000020450856817344e+00	-9.835574749488660076e-03	3.548587953087204610e-05	8.095921976404755492e-06
1.732307620243533908e+00	1.836733258125551746e-06	-1.620958402568028155e-04	1.568009236348439847e-02	8.478457252867779292e-01	1.148133538001171905e+00	1.000020462700820456e+00	-9.860039728837255435e-03	3.538000724367049030e-05	8.122465764907368433e-06
1.752334297934210472e+00	1.810363094696386040e-06	-1.608063216145969791e-04	1.542580418269403654e-02	8.478427127153974618e-01	1.146480057479097869e+00	1.000020474330825415e+00	-9.880125624049765007e-03	3.527826800327501882e-05	8.175282389124352759e-06
1.772360975624887258e+00	1.789554791881085785e-06	-1.597842302550202644e-04	1.515595272776858529e-02	8.478328945424226104e-01	1.144877459046397261e+00	1.000020485650725766e+00	-9.896512753733370527e-03	3.518042994681408453e-05	8.249840594962175918e-06
1.792387653315563822e+00	1.773157038364067710e-06	-1.589763980723975180e-04	1.487588711724098858e-02	8.478177399797691693e-01	1.143324303504091199e+00	1.000020496604881570e+00	-9.909803748492327161e-03	3.508628505786403473e-05	8.342447037428014437e-06
1.812414331006240609e+00	1.760254165585057274e-06	-1.583397420088142446e-04	1.458991241335448261e-02	8.477984764717017008e-01	1.141819134947747783e+00	1.000020507137946213e+00	-9.920521214382973033e-03	3.499564501982906561e-05	8.450087354720000314e-06
1.832441008696917395e+00	1.750117716092177808e-06	-1.578394763809444078e-04	1.430143407513420617e-02	8.477759408939197217e-01	1.140360497418038799e+00	1.000020517228730865e+00	-9.929112068870331667e-03	3.490833995080735736e-05	8.570299779495368656e-06
1.852467686387593959e+00	1.742168283975455484e-06	-1.574475646188797117e-04	1.401310043544204582e-02	8.477510613433756337e-01	1.138946948077158572e+00	1.000020526849130453e+00	-9.935957368434592332e-03	3.482421479531459547e-05	8.701073782269783786e-06
1.872494364078270745e+00	1.735945290071608315e-06	-1.571415322315479696e-04	1.372693593158319167e-02	8.477243457120470227e-01	1.137577067157691912e+00	1.000020536000501448e+00	-9.941375554030363812e-03	3.474312849131294944e-05	8.840768171403267273e-06
1.892521041768947310e+00	1.731082955695459087e-06	-1.569033684193051395e-04	1.344445836575433768e-02	8.476964255906692669e-01	1.136249465613951237e+00	1.000020544671722966e+00	-9.945634005809920325e-03	3.466495120668117581e-05	8.988044487791550891e-06
1.912547719459624096e+00	1.727291138950841920e-06	-1.567187282475091708e-04	1.316678034846612347e-02	8.476675703606865175e-01	1.134962790530543719e+00	1.000020552878079227e+00	-9.948952550066841524e-03	3.458956380763007613e-05	9.141812560825510802e-06
1.932574397150300882e+00	1.724340024639350714e-06	-1.565761715423999272e-04	1.289469370183971529e-02	8.476382094131524880e-01	1.133715729098073055e+00	1.000020560618271492e+00	-9.951513958478890379e-03	3.451685580340968496e-05	9.301185837303932536e-06
1.952601074840977446e+00	1.722047872537941521e-06	-1.564666150850502375e-04	1.262873946891132290e-02	8.476086145261603200e-01	1.132507011047536594e+00	1.000020567915633762e+00	-9.953468228038728563e-03	3.444672495771917655e-05	9.465444636980163408e-06
1.972627752531654233e+00	1.720271212976684086e-06	-1.563828902234450037e-04	1.236926422571248997e-02	8.475789632235939397e-01	1.131335410264428631e+00	1.000020574773894833e+00	-9.954936378987812653e-03	3.437907568501693287e-05	9.634005886187521202e-06
1.992654430222330797e+00	1.718896997122997421e-06	-1.563193170189665848e-04	1.211646577303616447e-02	8.475494114607854401e-01	1.130199745349150353e+00	1.000020581220642635e+00	-9.956017945769682354e-03	3.431381915556996947e-05	9.806398175923499358e-06
2.012681107913007583e+00	1.717836321487310790e-06	-1.562714185919683607e-04	1.187042877002754404e-02	8.475201799529857860e-01	1.129098879773493103e+00	1.000020587261593930e+00	-9.956793675460116899e-03	3.425087161655817746e-05	9.982241214421284237e-06
2.032707785603684147e+00	1.717019410246690652e-06	-1.562356886484826506e-04	1.163115345988663396e-02	8.474912916505344951e-01	1.128031721312104274e+00	1.000020592926185170e+00	-9.957327904958708856e-03	3.419015487321425204e-05	1.016122891542354631e-05
2.052734463294360712e+00	1.716391614410034949e-06	-1.562093671381376892e-04	1.139857746236474720e-02	8.474629079577494783e-01	1.126997221349024914e+00	1.000020598220280332e+00	-9.957673077613578977e-03	3.413159482357407896e-05	1.034311549866489483e-05
2.072761140985037720e+00	1.715910221482504985e-06	-1.561903017700305479e-04	1.117259328133243801e-02	8.474350361543722121e-01	1.125994373671433069e+00	1.000020603173783273e+00	-9.957870763065347630e-03	3.407512198621578757e-05	1.052770408594064736e-05
2.092787818675714284e+00	1.715541920901558097e-06	-1.561768117591160387e-04	1.095306122334484787e-02	8.474077713744601059e-01	1.125022213321198672e+00	1.000020607791588967e+00	-9.957954266287063344e-03	3.402067021836952107e-05	1.071483736413441979e-05
2.112814496366390848e+00	1.715260789653810622e-06	-1.561675822505545171e-04	1.073981984190646236e-02	8.473811383448448531e-01	1.124079815067997368e+00	1.000020612103270201e+00	-9.957950484812919112e-03	3.396817734277289010e-05	1.090438995733373017e-05
2.132841174057067857e+00	1.715046699187071870e-06	-1.561616134124987041e-04	1.053269330299557403e-02	8.473551229588873746e-01	1.123166292056957838e+00	1.000020616112220484e+00	-9.957879407047095024e-03	3.391758387475519261e-05	1.109626221045833111e-05
2.152867851747744421e+00	1.714884053370179814e-06	-1.561581013452022952e-04	1.033149756307753971e-02	8.473297876463951050e-01	1.122280794156447215e+00	1.000020619847293846e+00	-9.957758703550595100e-03	3.386883395339490864e-05	1.129037513536757720e-05
2.172894529438420985e+00	1.714760796298599402e-06	-1.561564399793480263e-04	1.013604424860473779e-02	8.473051808177459732e-01	1.121422506554565324e+00	1.000020623310065915e+00	-9.957601338240962968e-03	3.382187370077816875e-05	1.148666631299843018e-05
2.192921207129097994e+00	1.714667627896426041e-06	-1.561561684538938059e-04	9.946144351859441401e-03	8.472812190185103898e-01	1.120590648100774356e+00	1.000020626528523193e+00	-9.957417059998538780e-03	3.377665262149362674e-05	1.168508657887802457e-05
2.212947884819774558e+00	1.714597391674568383e-06	-1.561568991607113690e-04	9.761610072438964975e-03	8.472581008443522688e-01	1.119784469939959726e+00	1.000020629502372138e+00	-9.957215645800742906e-03	3.373312183586231206e-05	1.188559734970397987e-05
2.232974562510451122e+00	1.714544591800522927e-06	-1.561583949904934835e-04	9.582256913082405625e-03	8.472355657691560404e-01	1.119003253914526042e+00	1.000020632258711073e+00	-9.957000840965254604e-03	3.369123533804574942e-05	1.208816847220400167e-05
2.253001240201127686e+00	1.714505018221232351e-06	-1.561604213710476418e-04	9.407904551015897759e-03	8.472137858910757657e-01	1.118246311283541905e+00	1.000020634795397934e+00	-9.956778982410482287e-03	3.365094887581250908e-05	1.229277649730091697e-05
2.273027917891804695e+00	1.714475452761704492e-06	-1.561628083379243469e-04	9.238377787442039399e-03	8.471927574471783684e-01	1.117512981221782331e+00	1.000020637138674395e+00	-9.956554374202335189e-03	3.361222038176329692e-05	1.249940329851490966e-05
2.293054595582481259e+00	1.714453441565045135e-06	-1.561654614783812719e-04	9.073506911579742526e-03	8.471723701987015076e-01	1.116802629645522016e+00	1.000020639284634028e+00	-9.956328112065222086e-03	3.357500937688446472e-05	1.270803496941479567e-05
2.313081273273157823e+00	1.714437117246020629e-06	-1.561682589894319373e-04	8.913128205099627582e-03	8.471527288559641544e-01	1.116114647822203709e+00	1.000020641258786647e+00	-9.956104231312316866e-03	3.353927764343098345e-05	1.291866094540156452e-05
2.333107950963834831e+00	1.714425063085663001e-06	-1.561711504319856407e-04	8.757083740094753418e-03	8.471337670737703052e-01	1.115448451312528455e+00	1.000020643055550051e+00	-9.955883153617169773e-03	3.350498790455564893e-05	1.313127330646923964e-05
2.353134628654511395e+00	1.714416205572368399e-06	-1.561740854358555466e-04	8.605221833947251237e-03	8.471154190754014435e-01	1.114803478692214078e+00	1.000020644699822769e+00	-9.955665975188701319e-03	3.347210535110051118e-05	1.334586622453871451e-05
2.373161306345187960e+00	1.714409734558666084e-06	-1.561770002961534206e-04	8.457396509303771737e-03	8.470978544208889183e-01	1.114179190609431602e+00	1.000020646184444750e+00	-9.955455184174438060e-03	3.344059576634091525e-05	1.356243552683877042e-05
2.393187984035864524e+00	1.714405039028311455e-06	-1.561798934869588411e-04	8.313467800438371566e-03	8.470808703104197868e-01	1.113575068614557351e+00	1.000020647533802709e+00	-9.955249680484215200e-03	3.341042706944771128e-05	1.378097835138990598e-05
2.413214661726541532e+00	1.714401660152256858e-06	-1.561827326697574003e-04	8.173301273030343997e-03	8.470645608173241747e-01	1.112990614326815342e+00	1.000020648739309959e+00	-9.955050641959782218e-03	3.338156800554299529e-05	1.400149287614134068e-05
2.433241339417218096e+00	1.714399253624723634e-06	-1.561855120278502504e-04	8.036768087867482077e-03	8.470488200303747384e-01	1.112425348365209565e+00	1.000020649824933550e+00	-9.954857765524930888e-03	3.335398905665047431e-05	1.422397810606424373e-05
2.453268017107894661e+00	1.714397562340414597e-06	-1.561882060282657940e-04	7.903744584190403391e-03	8.470337589338142736e-01	1.111878809616325459e+00	1.000020650780759190e+00	-9.954672180604647036e-03	3.332766151221506969e-05	1.444843370654153918e-05
2.473294694798571669e+00	1.714396394429160354e-06	-1.561908039464451762e-04	7.774112239805073925e-03	8.470193415262232683e-01	1.111350554255890799e+00	1.000020651630438184e+00	-9.954494188442134656e-03	3.330255809181679300e-05	1.467485987278736372e-05
2.493321372489248233e+00	1.714395607502364334e-06	-1.561933254080312774e-04	7.647757319543493047e-03	8.470054635817809707e-01	1.110840155110243144e+00	1.000020652362817675e+00	-9.954322259121893904e-03	3.327865230630059078e-05	1.490325722813114395e-05
2.513348050179924797e+00	1.714395095679773104e-06	-1.561957613625493998e-04	7.524570868349999934e-03	8.469921045797429437e-01	1.110347200759559616e+00	1.000020653001347792e+00	-9.954156747044392087e-03	3.325591927152201505e-05	1.513362674441077018e-05
2.533374727870601362e+00	1.714394781173128948e-06	-1.561980995528311185e-04	7.404448232407001736e-03	8.469793497058110132e-01	1.109871294982146761e+00	1.000020653533701731e+00	-9.953998275493706333e-03	3.323433448971177415e-05	1.536596968018155479e-05
2.553401405561278370e+00	1.714394606439601596e-06	-1.562003435475291583e-04	7.287289118402057002e-03	8.469671247685082172e-01	1.109412055931834784e+00	1.000020653983203500e+00	-9.953846484663743735e-03	3.321387493056184720e-05	1.560028753239219620e-05
2.573428083251954934e+00	1.714394529633926875e-06	-1.562024930332984660e-04	7.172997170425650555e-03	8.469554580638004593e-01	1.108969115657405080e+00	1.000020654336434500e+00	-9.953701304410917175e-03	3.319451797569730809e-05	1.583658199895775058e-05
2.593454760942631498e+00	1.714394519943277882e-06	-1.562045601919517834e-04	7.061480009958918426e-03	8.469442378064083732e-01	1.108542119342751375e+00	1.000020654616702975e+00	-9.953561876200835504e-03	3.317624239508198161e-05	1.607485494939661300e-05
2.613481438633308507e+00	1.714394555276542381e-06	-1.562065238086308983e-04	6.952648848275484218e-03	8.469336098624811182e-01	1.108130724896924990e+00	1.000020654809510967e+00	-9.953429495834430554e-03	3.315902735873942504e-05	1.631510840219095305e-05
2.633508116323985071e+00	1.714394619596467804e-06	-1.562084075796832936e-04	6.846418460341651899e-03	8.469234053825841491e-01	1.107734602248015010e+00	1.000020654938219566e+00	-9.953302604080704538e-03	3.314285306111729862e-05	1.655734450678886734e-05
2.653534794014661635e+00	1.714394701464863534e-06	-1.562102110534171985e-04	6.742706968259359196e-03	8.469136584088275965e-01	1.107353432995951570e+00	1.000020654987362922e+00	-9.953181189930998193e-03	3.312770044084425167e-05	1.680156552988001302e-05
2.673561471705338199e+00	1.714394792774825089e-06	-1.562119256125180686e-04	6.641435691694092848e-03	8.469043792442194629e-01	1.106986909755006021e+00	1.000020654980362744e+00	-9.953065772437375003e-03	3.311355117149842898e-05	1.704777384419817781e-05
2.693588149396015208e+00	1.714394887945367365e-06	-1.562135581826630309e-04	6.542528974651243105e-03	8.468955622653547843e-01	1.106634735862565000e+00	1.000020654900828587e+00	-9.952955880740854688e-03	3.310038749932730156e-05	1.729597192009654468e-05
2.713614827086691772e+00	1.714394983053923134e-06	-1.562151246639908759e-04	6.445914108451718597e-03	8.468870882063078698e-01	1.106296624763696279e+00	1.000020654772351802e+00	-9.952850480321524806e-03	3.308819252377677954e-05	1.754616231842994855e-05
2.733641504777368336e+00	1.714395075502736157e-06	-1.562166031650864362e-04	6.351521151913306316e-03	8.468791054506785709e-01	1.105972299770112466e+00	1.000020654577604695e+00	-9.952750946498412424e-03	3.307694993886713700e-05	1.779834768527995836e-05
2.753668182468045345e+00	1.714395163697948560e-06	-1.562180200265885020e-04	6.259282777751952812e-03	8.468714412956596105e-01	1.105661493482884783e+00	1.000020654340401105e+00	-9.952655581300829876e-03	3.306664385668941131e-05	1.805253074725249904e-05
2.773694860158721909e+00	1.714395246498426545e-06	-1.562193579937619977e-04	6.169134275415262374e-03	8.468642179716573404e-01	1.105363947594851126e+00	1.000020654042553581e+00	-9.952565470108165960e-03	3.305725941967784290e-05	1.830871430810653849e-05
2.793721537849398473e+00	1.714395323523433036e-06	-1.562206328072902840e-04	6.081013231326566106e-03	8.468573212166398134e-01	1.105079412347954149e+00	1.000020653708097562e+00	-9.952479599134303120e-03	3.304878169200612694e-05	1.856690124548383562e-05
2.813748215540075037e+00	1.714395394353042135e-06	-1.562218407336425966e-04	5.994859692699370905e-03	8.468507996606239319e-01	1.104807646374847740e+00	1.000020653318026032e+00	-9.952398186591352933e-03	3.304119707845113769e-05	1.882709450868774555e-05
2.833774893230752046e+00	1.714395459173988605e-06	-1.562229890580292665e-04	5.910615756520273649e-03	8.468445851702938176e-01	1.104548416186762916e+00	1.000020652896649764e+00	-9.952320765196273275e-03	3.303449164135408169e-05	1.908929711630402601e-05
2.853801570921428610e+00	1.714395517913980939e-06	-1.562240780401105071e-04	5.828225804001010112e-03	8.468387049989758442e-01	1.104301496049638454e+00	1.000020652424151058e+00	-9.952247300380166056e-03	3.302865288709187270e-05	1.935351215465133627e-05
2.873828248612105174e+00	1.714395571012598106e-06	-1.562251088989916200e-04	5.747636060897847073e-03	8.468331245754882053e-01	1.104066667498482035e+00	1.000020651925156212e+00	-9.952177710488696941e-03	3.302366782463971023e-05	1.961974277596179343e-05
2.893854926302782182e+00	1.714395618562704142e-06	-1.562260839794748276e-04	5.668794861643884284e-03	8.468278588669382323e-01	1.103843719247420863e+00	1.000020651379074810e+00	-9.952111834833327064e-03	3.301952491612670907e-05	1.988799219728956029e-05
2.913881603993458747e+00	1.714395661093391188e-06	-1.562270055853346243e-04	5.591652215247484674e-03	8.468228681858469553e-01	1.103632446724316596e+00	1.000020650810857559e+00	-9.952049518493202504e-03	3.301621206416716753e-05	2.015826369901293537e-05
2.933908281684135311e+00	1.714395698745661008e-06	-1.562278802161726481e-04	5.516160081266966234e-03	8.468181441000139920e-01	1.103432652012845461e+00	1.000020650199152206e+00	-9.951990339614255957e-03	3.301371863988821560e-05	2.043056062406289897e-05
2.953934959374811875e+00	1.714395732049833941e-06	-1.562286929104610058e-04	5.442271942476715856e-03	8.468137418699707153e-01	1.103244143406097555e+00	1.000020649569284492e+00	-9.951935244577965814e-03	3.301203341006260749e-05	2.070488637666166094e-05
2.973961637065488883e+00	1.714395761218559727e-06	-1.562294703788422385e-04	5.369943049638259934e-03	8.468095418376712091e-01	1.103066735374622853e+00	1.000020648899169418e+00	-9.951882524226504656e-03	3.301114638711694603e-05	2.098124442171567683e-05
2.993988314756165448e+00	1.714395786648340841e-06	-1.562302037773423988e-04	5.299130119241854224e-03	8.468055674250328790e-01	1.102900248139774053e+00	1.000020648214504204e+00	-9.951832737035946896e-03	3.301104741796345585e-05	2.125963828380418556e-05
3.014014992446842012e+00	1.714395808573224557e-06	-1.562308909994042350e-04	5.229791433480009827e-03	8.468018542310188357e-01	1.102744507664183748e+00	1.000020647492472659e+00	-9.951786009910455061e-03	3.301172716716065949e-05	2.154007154663179906e-05
3.034041670137519020e+00	1.714395827377076465e-06	-1.562315468606208626e-04	5.161886624368613313e-03	8.467982986506114029e-01	1.102599345242303519e+00	1.000020646759207876e+00	-9.951741393715617459e-03	3.301317614981252050e-05	2.182254785222243870e-05
3.054068347828195584e+00	1.714395843210298065e-06	-1.562321525092897202e-04	5.095376803563931092e-03	8.467950260899390624e-01	1.102464597511663369e+00	1.000020645991163804e+00	-9.951700084226978646e-03	3.301538590083543789e-05	2.210707090043555743e-05
3.074095025518872148e+00	1.714395856510256514e-06	-1.562327203735472088e-04	5.030224250501575886e-03	8.467919461481652199e-01	1.102340106058526725e+00	1.000020645214897863e+00	-9.951661285625839487e-03	3.301834733253566581e-05	2.239364444829997213e-05
3.094121703209549157e+00	1.714395867343951481e-06	-1.562332631365124234e-04	4.966392682739233233e-03	8.467890131571694790e-01	1.102225717448306330e+00	1.000020644406177661e+00	-9.951624184134305953e-03	3.302205280321535575e-05	2.268227230960016255e-05
3.114148380900225721e+00	1.714395876062247308e-06	-1.562337671546540992e-04	4.903846881123564636e-03	8.467862781836702490e-01	1.102121282844593431e+00	1.000020643591993164e+00	-9.951589644344276120e-03	3.302649400428032505e-05	2.297295835434554753e-05
3.134175058590902285e+00	1.714395882763192293e-06	-1.562342445078577222e-04	4.842552912798752350e-03	8.467836980266100211e-01	1.102026658056948660e+00	1.000020642747422306e+00	-9.951556894643531423e-03	3.303166372976665976e-05	2.326570650834937416e-05
3.154201736281578849e+00	1.714395887730125309e-06	-1.562346822846652570e-04	4.782477859752044987e-03	8.467813217507621504e-01	1.101941703171425369e+00	1.000020641899922680e+00	-9.951526749971351116e-03	3.303755436668964757e-05	2.356052075287782247e-05
3.174228413972255858e+00	1.714395891086561972e-06	-1.562350983466198129e-04	4.723589956948590941e-03	8.467790726555965986e-01	1.101866282615049153e+00	1.000020641023888324e+00	-9.951498072207265802e-03	3.304415910968528367e-05	2.385740512421782216e-05
3.194255091662932422e+00	1.714395893024571026e-06	-1.562354796733334537e-04	4.665858426067290114e-03	8.467770013950395303e-01	1.101800264796479523e+00	1.000020640147247564e+00	-9.951471685628833150e-03	3.305147110819542920e-05	2.415636371346362057e-05
3.214281769353608986e+00	1.714395893694178523e-06	-1.562358352926848572e-04	4.609253501534548055e-03	8.467750789127864719e-01	1.101743522184768453e+00	1.000020639243726528e+00	-9.951447014240267369e-03	3.305948390936834242e-05	2.445740066604660832e-05
3.234308447044285995e+00	1.714395893228537195e-06	-1.562361777892087291e-04	4.553746370996915489e-03	8.467732176755822238e-01	1.101695930959892156e+00	1.000020638341739598e+00	-9.951423245497045475e-03	3.306819130468727008e-05	2.476052018171909686e-05
3.254335124734962559e+00	1.714395891707459357e-06	-1.562364969559118869e-04	4.499309167309981788e-03	8.467714920712866578e-01	1.101657371104522110e+00	1.000020637414345659e+00	-9.951401036545874310e-03	3.307758752976618690e-05	2.506572651399906809e-05
3.274361802425639123e+00	1.714395889298171548e-06	-1.562367750859373265e-04	4.445914851437609248e-03	8.467699796066339157e-01	1.101627726063618917e+00	1.000020636490447368e+00	-9.951381507215561681e-03	3.308766665942777904e-05	2.537302397033704661e-05
3.294388480116315687e+00	1.714395886130285054e-06	-1.562370484994094735e-04	4.393537252091185910e-03	8.467685015917154612e-01	1.101606882848017888e+00	1.000020635542461678e+00	-9.951362343656205978e-03	3.309842312313719551e-05	2.568241691149972063e-05
3.314415157806992696e+00	1.714395882216441207e-06	-1.562373026472425419e-04	4.342151072132713688e-03	8.467671187211904815e-01	1.101594731700008989e+00	1.000020634599792846e+00	-9.951344465551780274e-03	3.310985199799037869e-05	2.599390975187145181e-05
3.334441835497669260e+00	1.714395877726326542e-06	-1.562375259177843537e-04	4.291731714800684806e-03	8.467659118525800999e-01	1.101591166212494644e+00	1.000020633634186806e+00	-9.951328615160189017e-03	3.312194792431671518e-05	2.630750695884295464e-05
3.354468513188345824e+00	1.714395872706708288e-06	-1.562377411282291149e-04	4.242255402034476354e-03	8.467647396843508423e-01	1.101596082995518477e+00	1.000020632675586718e+00	-9.951313333076351048e-03	3.313470620888254927e-05	2.662321305316072464e-05
3.374495190879022832e+00	1.714395867233182653e-06	-1.562379342332693467e-04	4.193699069816512331e-03	8.467636960366020649e-01	1.101609381810729094e+00	1.000020631695079709e+00	-9.951299512998047075e-03	3.314812224114065321e-05	2.694103260836759004e-05
3.394521868569699397e+00	1.714395861387562433e-06	-1.562381176502782498e-04	4.146040347453653664e-03	8.467626963269931917e-01	1.101630965240820048e+00	1.000020630723129633e+00	-9.951286363494651205e-03	3.316219152836384604e-05	2.726097025121095455e-05
3.414548546260375961e+00	1.714395855197498806e-06	-1.562382773546508333e-04	4.099257572785180645e-03	8.467618328407344741e-01	1.101660738835472220e+00	1.000020629730177468e+00	-9.951274775041036094e-03	3.317691001394063575e-05	2.758303066107103998e-05
3.434575223951052525e+00	1.714395848783486655e-06	-1.562384261793826684e-04	4.053329677717657648e-03	8.467610207913501830e-01	1.101698610783349519e+00	1.000020628747233742e+00	-9.951263925021070281e-03	3.319227335222670131e-05	2.790721857044994606e-05
3.454601901641729533e+00	1.714395842116605312e-06	-1.562385727268354708e-04	4.008236310675337109e-03	8.467602282717507922e-01	1.101744492072053161e+00	1.000020627744073520e+00	-9.951253269593613240e-03	3.320827808068431143e-05	2.823353876444721855e-05
3.474628579332406098e+00	1.714395835282447667e-06	-1.562386970622326734e-04	3.963957656518770495e-03	8.467595488765825573e-01	1.101798296158490231e+00	1.000020626752278430e+00	-9.951244070532595104e-03	3.322492033927018607e-05	2.856199608126026607e-05
3.494655257023082662e+00	1.714395828316291585e-06	-1.562388112755993836e-04	3.920474513705734382e-03	8.467589315727193089e-01	1.101859939142500133e+00	1.000020625740956293e+00	-9.951235562473036145e-03	3.324219666610267178e-05	2.889259541167964708e-05
3.514681934713759670e+00	1.714395821263530618e-06	-1.562389048298669879e-04	3.877768236985478303e-03	8.467584194888664317e-01	1.101929339436403366e+00	1.000020624742250730e+00	-9.951228409339407319e-03	3.326010369347184902e-05	2.922534169964257202e-05
3.534708612404436234e+00	1.714395814180947527e-06	-1.562389986075486800e-04	3.835820716880471420e-03	8.467579121285445654e-01	1.102006417953091288e+00	1.000020623724612756e+00	-9.951221280810317385e-03	3.327863813258582408e-05	2.956023994179627476e-05
3.554735290095112799e+00	1.714395807042162742e-06	-1.562390746780548297e-04	3.794614420714479720e-03	8.467574950547176460e-01	1.102091097771123129e+00	1.000020622720775965e+00	-9.951215319527880951e-03	3.329779729102385450e-05	2.989729518802242090e-05
3.574761967785789363e+00	1.714395799950411578e-06	-1.562391542392287764e-04	3.754132239545084591e-03	8.467570646423423497e-01	1.102183304336415093e+00	1.000020621698503476e+00	-9.951209175417219735e-03	3.331757789916125020e-05	3.023651254103749790e-05
3.594788645476466371e+00	1.714395792814807189e-06	-1.562392120374795539e-04	3.714357677694207771e-03	8.467567470682215713e-01	1.102282965126118564e+00	1.000020620691142392e+00	-9.951204448403479230e-03	3.333797791948718542e-05	3.057789715698636498e-05
3.614815323167142935e+00	1.714395785809207323e-06	-1.562392764467103782e-04	3.675274540491155813e-03	8.467563983215098400e-01	1.102390009862100673e+00	1.000020619665778376e+00	-9.951199336960833350e-03	3.335899392755629477e-05	3.092145424504997182e-05
3.634842000857819500e+00	1.714395778759013502e-06	-1.562393190150267088e-04	3.636867316334316171e-03	8.467561633910921648e-01	1.102504370171691228e+00	1.000020618656365379e+00	-9.951195650696286268e-03	3.338062466971146089e-05	3.126718906806303532e-05
3.654868678548496508e+00	1.714395771921466031e-06	-1.562393511707818453e-04	3.599120650130567794e-03	8.467559894796242714e-01	1.102625979812225987e+00	1.000020617629290731e+00	-9.951192657645376721e-03	3.340286643952757013e-05	3.161510694212299162e-05
3.674895356239173072e+00	1.714395765084356477e-06	-1.562393854956897787e-04	3.562019923605694131e-03	8.467557996746892801e-01	1.102754774331334620e+00	1.000020616619152980e+00	-9.951189559436626406e-03	3.342571850427318103e-05	3.196521323730823255e-05
3.694922033929849636e+00	1.714395758454804723e-06	-1.562394181129222071e-04	3.525550649342268448e-03	8.467556227270348623e-01	1.102890691300038029e+00	1.000020615591643569e+00	-9.951186597615605325e-03	3.344917765711747629e-05	3.231751337724190402e-05
3.714948711620526201e+00	1.714395751834307327e-06	-1.562394392725489922e-04	3.489699013398334711e-03	8.467555048403129225e-01	1.103033669971178243e+00	1.000020614581995870e+00	-9.951184393905387546e-03	3.347324339623234394e-05	3.267201283985025125e-05
3.734975389311203209e+00	1.714395745458501021e-06	-1.562394571475724751e-04	3.454451287856120326e-03	8.467554072798902931e-01	1.103183651522716913e+00	1.000020613555203219e+00	-9.951182427721944057e-03	3.349791250545131510e-05	3.302871715693911581e-05
3.755002067001879773e+00	1.714395739110641297e-06	-1.562394573790480397e-04	3.419794431621140177e-03	8.467554029814254868e-01	1.103340578714031128e+00	1.000020612547144694e+00	-9.951181614418285262e-03	3.352318489897078570e-05	3.338763191504159200e-05
3.775028744692556337e+00	1.714395733059791982e-06	-1.562394633848303370e-04	3.385715421607591799e-03	8.467553699044351179e-01	1.103504396138781596e+00	1.000020611522108416e+00	-9.951180455729524005e-03	3.354905728799768974e-05	3.374876275495726805e-05
3.795055422383233346e+00	1.714395727020573699e-06	-1.562394625167498271e-04	3.352201976401772334e-03	8.467553723327382320e-01	1.103675049877376635e+00	1.000020610516647590e+00	-9.951179762482121813e-03	3.357553035098042031e-05	3.411211537262063138e-05
3.815082100073909910e+00	1.714395721293385837e-06	-1.562394523808303254e-04	3.319241731804859884e-03	8.467554262160037482e-01	1.103852487760518031e+00	1.000020609494324031e+00	-9.951179680505597286e-03	3.360260072121550924e-05	3.447769551869115886e-05
3.835108777764586474e+00	1.714395715601422688e-06	-1.562394479176382482e-04	3.286823068049408471e-03	8.467554484085887401e-01	1.104036659016465416e+00	1.000020608492367291e+00	-9.951179263524219040e-03	3.363026932128034642e-05	3.484550899940028201e-05
3.855135455455263482e+00	1.714395710200360298e-06	-1.562394361999991821e-04	3.254934290887897229e-03	8.467555108422721855e-01	1.104227514546280320e+00	1.000020607473623757e+00	-9.951179337153216037e-03	3.365853323868952060e-05	3.521556167620947707e-05
3.875162133145940047e+00	1.714395704857420462e-06	-1.562394050071500972e-04	3.223564374156912861e-03	8.467556783228388229e-01	1.104425006567028245e+00	1.000020606475994445e+00	-9.951180589626993506e-03	3.368739336565005537e-05	3.558785946670128944e-05
3.895188810836616611e+00	1.714395699865076034e-06	-1.562393390162875018e-04	3.192702189563239191e-03	8.467560342045886701e-01	1.104629088896716516e+00	1.000020605461620304e+00	-9.951184512352469549e-03	3.371684657456137555e-05	3.596240834411670460e-05
3.915215488527293175e+00	1.714395695111425702e-06	-1.562393102103106380e-04	3.162337286182366307e-03	8.467561888646965018e-01	1.104839716552077578e+00	1.000020604469185059e+00	-9.951169740832169208e-03	3.374689390332581630e-05	3.633921433945153437e-05
3.935242166217970183e+00	1.714395689503376624e-06	-1.562395991430957519e-04	3.132459335868742305e-03	8.467546212260760319e-01	1.105056846503045254e+00	1.000020603460695767e+00	-9.951288792561373275e-03	3.377753489397280210e-05	3.671828352867918235e-05
3.955268843908646748e+00	1.714395685402146643e-06	-1.562396436126352664e-04	3.103059017020750720e-03	8.467543787801279365e-01	1.105280437041203045e+00	1.000020602482392995e+00	-9.951157406830165447e-03	3.380877726971651809e-05	3.709962214532975909e-05
3.975295521599323312e+00	1.714395686108382386e-06	-1.562385489263065402e-04	3.074125362018089152e-03	8.467603116880665359e-01	1.105510441470385574e+00	1.000020601528854636e+00	-9.950233949059451855e-03	3.384060801243042984e-05	3.748323623387855543e-05
3.995322199289999876e+00	1.714584732784533302e-06	-1.562480610719336690e-04	3.045531353289996409e-03	8.467602886660212658e-01	1.105725138389047624e+00	1.000000000000000000e+00	-1.000000000000000021e-02	3.387174561589884471e-05	3.787100112148618141e-05
