# Time=0.020100402008 and Columns are r	p	Paether	ur	alpha	a	b	K	Sr_tilde	tau_tilde
1.001333884533834630e-02	1.199158821036975034e-02	-1.855322011382178407e-02	2.279906674842995396e-05	6.401978583014811264e-01	1.000095426870837745e+00	1.000048106359552547e+00	-1.241077636656793583e-02	2.575150351189902571e-10	1.503238087455100693e-06
3.004001653601504063e-02	1.196307985833528105e-02	-1.853221634903917669e-02	6.837939464662179574e-05	6.403767835679181619e-01	1.000473839193692704e+00	1.000048120105776484e+00	-1.240526155538688655e-02	6.942778249930741147e-09	1.350208667878073402e-05
5.006669422669172975e-02	1.190622736006884466e-02	-1.849023652295291378e-02	1.138711216529842573e-04	6.407344866434075970e-01	1.001229790242541329e+00	1.000048143092301611e+00	-1.238906188117522289e-02	3.203892392935585291e-08	3.735576402439082249e-05
7.009337191736843276e-02	1.182140798834101399e-02	-1.842736956993395667e-02	1.591986665753040303e-04	6.412704906241132319e-01	1.002361556711122592e+00	1.000048175058588340e+00	-1.236341927514355947e-02	8.747745009916617145e-08	7.277788344453422749e-05
9.012004960804512188e-02	1.170916966777907180e-02	-1.834374040932932812e-02	2.043094659898210422e-04	6.419841263339863824e-01	1.003866531686918862e+00	1.000048217293548092e+00	-1.233001555039658394e-02	1.846909938366589612e-07	1.193429849356084517e-04
1.101467272987218110e-01	1.157023469422488286e-02	-1.823951653252383828e-02	2.491456475401494721e-04	6.428744939086359356e-01	1.005741198515229806e+00	1.000048269629896014e+00	-1.228837907909179072e-02	3.344219998206940324e-07	1.764914489280543729e-04
1.301734049893985001e-01	1.140549304461994061e-02	-1.811490880522011182e-02	2.936532581352119925e-04	6.439404579849978827e-01	1.007981112548611780e+00	1.000048331811240310e+00	-1.223875617379369812e-02	5.465505166570362040e-07	2.435359923005537023e-04
1.502000826800751754e-01	1.121599422027108779e-02	-1.797017267743943048e-02	3.377825206206762484e-04	6.451806374368131980e-01	1.010580864236118481e+00	1.000048403520103601e+00	-1.218133017977188204e-02	8.299373842504447384e-07	3.196697015733617614e-04
1.702267603707518784e-01	1.100293748339414499e-02	-1.780560916695987303e-02	3.814883518720313263e-04	6.465934000960348316e-01	1.013534040634985978e+00	1.000048484395542614e+00	-1.211632994048388728e-02	1.192286730101540339e-06	4.039755411621743651e-04
1.902534380614285814e-01	1.076766072532079135e-02	-1.762156622500573450e-02	4.247312362765914145e-04	6.481768484814717235e-01	1.016833181991007695e+00	1.000048574041826788e+00	-1.204402347374666608e-02	1.640031384510504739e-06	4.954372616668952303e-04
2.102801157521052566e-01	1.051162806887208541e-02	-1.741843977146943084e-02	4.674775214052411909e-04	6.499288134187143351e-01	1.020469734839846598e+00	1.000048672032793906e+00	-1.196472122460345844e-02	2.178240779293718384e-06	5.929516170091357142e-04
2.303067934427819596e-01	1.023641634061338464e-02	-1.719667502443332496e-02	5.097002984755684548e-04	6.518468385342688354e-01	1.024434002735389981e+00	1.000048777920395260e+00	-1.187877755736427114e-02	2.810556210263291303e-06	6.953417828900332201e-04
2.503334711334586626e-01	9.943700550025108553e-03	-1.695676740676058461e-02	5.513795144777400943e-04	6.539281719279381733e-01	1.028715095966060922e+00	1.000048891238368931e+00	-1.178659224462172590e-02	3.539149216853427985e-06	8.013718508285755035e-04
2.703601488241353379e-01	9.635238534745772798e-03	-1.669926355458808270e-02	5.925028480125291890e-04	6.561697520531180050e-01	1.033300881771317847e+00	1.000049011511831232e+00	-1.168861105463449984e-02	4.364710123905282015e-06	9.097622536963170413e-04
2.903868265148120131e-01	9.312854932312448347e-03	-1.642476187603616328e-02	6.330656283849429682e-04	6.585681975453957504e-01	1.038177936809707713e+00	1.000049138259902382e+00	-1.158532583099770343e-02	5.286457257114132157e-06	1.019205958488785327e-03
3.104135042054887439e-01	8.978424657969120634e-03	-1.613391297280451775e-02	6.730717096020817592e-04	6.611197962662775929e-01	1.043331503767770840e+00	1.000049271005916562e+00	-1.147727341295344192e-02	6.302177665746294647e-06	1.128385242663303058e-03
3.304401818961654191e-01	8.633856067057387937e-03	-1.582741962712283859e-02	7.125331914072145171e-04	6.638204935487410641e-01	1.048745454237117736e+00	1.000049409278382040e+00	-1.136503372359757603e-02	7.408282956139449870e-06	1.235988849529940465e-03
3.504668595868420944e-01	8.281073995517666472e-03	-1.550603634082491598e-02	7.514713007927126525e-04	6.666658881691155392e-01	1.054402260076303888e+00	1.000049552621317117e+00	-1.124922653473018133e-02	8.599896870975073308e-06	1.340729299528176056e-03
3.704935372775188251e-01	7.922002867870741455e-03	-1.517056858880102416e-02	7.899159158622176373e-04	6.696512178868239129e-01	1.060282975675661321e+00	1.000049700592904767e+00	-1.113050708354661709e-02	9.870949507359607760e-06	1.441360115067727085e-03
3.905202149681955004e-01	7.558550071839512455e-03	-1.482187123349186682e-02	8.279064732131369677e-04	6.727713654333506987e-01	1.066367233537814707e+00	1.000049852775472203e+00	-1.100956037498490754e-02	1.121430295245508714e-05	1.536692701592659929e-03
4.105468926588721756e-01	7.192589790712608337e-03	-1.446084687251935133e-02	8.654913040240514019e-04	6.760208426897665879e-01	1.072633255705573330e+00	1.000050008771305343e+00	-1.088709413786824974e-02	1.262187261609017851e-05	1.625612613499664936e-03
4.305735703495489064e-01	6.825947488100694155e-03	-1.408844298841664330e-02	9.027285967605663038e-04	6.793938086190445258e-01	1.079057883411834506e+00	1.000050168211947144e+00	-1.076383059355778653e-02	1.408477976059346567e-05	1.707094925990846647e-03
4.506002480402255816e-01	6.460385227005988572e-03	-1.370564930157817073e-02	9.396855682075581527e-04	6.828840526480705053e-01	1.085616627311408067e+00	1.000050330750570593e+00	-1.064049686947659938e-02	1.559348697540242085e-05	1.780218429289062492e-03
4.706269257309022569e-01	6.097588001609308313e-03	-1.331349360637092659e-02	9.764395269841807468e-04	6.864850259933250598e-01	1.092283740290050265e+00	1.000050496070531425e+00	-1.051781449746262524e-02	1.713796548335594813e-05	1.844178365897410814e-03
4.906536034215789877e-01	5.739151242238469362e-03	-1.291303809115079519e-02	1.013076921336501790e-03	6.901898264902502911e-01	1.099032314653447306e+00	1.000050663873949919e+00	-1.039648779643517068e-02	1.870783163662126123e-05	1.898297440695327848e-03
5.106802811122557184e-01	5.386569642984607303e-03	-1.250537396611025795e-02	1.049694569507465597e-03	6.939912420538409954e-01	1.105834404886506750e+00	1.000050833889468693e+00	-1.027719168894767297e-02	2.029251741881963098e-05	1.942034853657222636e-03
5.307069588029323937e-01	5.041227438193144651e-03	-1.209161675807936265e-02	1.086398652636759226e-03	6.978817422632275225e-01	1.112661176785037620e+00	1.000051005857009567e+00	-1.016055896549292702e-02	2.188139626421914039e-05	1.974993131257485324e-03
5.507336364936090689e-01	4.704390235846262792e-03	-1.167290004177803930e-02	1.123306202197795313e-03	7.018535263745213637e-01	1.119483082896129300e+00	1.000051179534934054e+00	-1.004716726285330430e-02	2.346394702672548801e-05	1.996922570600406267e-03
5.707603141842857442e-01	4.377198487929534129e-03	-1.125036977110446465e-02	1.160544141351522616e-03	7.058985300840122656e-01	1.126270063649500219e+00	1.000051354681064097e+00	-9.937526478013889233e-03	2.502986016400798728e-05	2.007723154762977059e-03
5.907869918749625304e-01	4.060662653622496877e-03	-1.082517748830798092e-02	1.198251145651664561e-03	7.100084713008052439e-01	1.132991772489032378e+00	1.000051531059818810e+00	-9.832065991790785858e-03	2.656918813486646306e-05	2.007443852922196660e-03
6.108136695656392057e-01	3.755660080068110637e-03	-1.039847394820721249e-02	1.236576874413373170e-03	7.141748754010558420e-01	1.139617822684459547e+00	1.000051708419738450e+00	-9.731123598400099814e-03	2.807242638906836895e-05	1.996279278739240132e-03
6.308403472563158809e-01	3.462933597345256229e-03	-9.971402205947551417e-03	1.275684350526313073e-03	7.183891140032787614e-01	1.146118052331905890e+00	1.000051886501418075e+00	-9.634934167896564219e-03	2.953064605087989082e-05	1.974563747636355095e-03
6.508670249469925562e-01	3.183091792485524124e-03	-9.545090898732512888e-03	1.315749562498526011e-03	7.226424494585846903e-01	1.152462803497153132e+00	1.000052065011956426e+00	-9.543621387398145209e-03	3.093554742019611540e-05	1.942762841874417622e-03
6.708937026376692314e-01	2.916610898432559287e-03	-9.120647647380859813e-03	1.356964539649506939e-03	7.269260623504463226e-01	1.158623210344964294e+00	1.000052243634589111e+00	-9.457188937249852434e-03	3.227957313245861373e-05	1.901462662337912845e-03
6.909203803283459067e-01	2.663838204522523453e-03	-8.699152414725798768e-03	1.399537545793605800e-03	7.312311140955101152e-01	1.164571490806181053e+00	1.000052422000715202e+00	-9.375516100635665137e-03	3.355593430184884544e-05	1.851357011763209203e-03
7.109470580190225819e-01	2.424996868913081253e-03	-8.281651642892426043e-03	1.443697058561868758e-03	7.355487600070497178e-01	1.170281235459686764e+00	1.000052599702153877e+00	-9.298352210835922685e-03	3.475870359708774584e-05	1.793232814918993036e-03
7.309737357096993682e-01	2.200191989900693312e-03	-7.869152156623593353e-03	1.489692819649417058e-03	7.398702244483991164e-01	1.175727687458447024e+00	1.000052776261272758e+00	-9.225316736996041350e-03	3.588281536714819529e-05	1.727954132209537233e-03
7.510004134003760434e-01	1.989417773215516622e-03	-7.462616356580989603e-03	1.537800968775945723e-03	7.441868007025846943e-01	1.180888006831823933e+00	1.000052951146973568e+00	-9.155897425662066005e-03	3.692413822786579314e-05	1.656445162638305263e-03
7.710270910910527187e-01	1.792565617645697695e-03	-7.062957105477997780e-03	1.588326268953242420e-03	7.484899298612142093e-01	1.185741513211377107e+00	1.000053123743242844e+00	-9.089455015772133356e-03	3.787945062156380710e-05	1.579672657397772568e-03
7.910537687817293939e-01	1.609432930478365848e-03	-6.671034222569795225e-03	1.641608706269851977e-03	7.527711896207699427e-01	1.190269900959839866e+00	1.000053293369822738e+00	-9.025225157089348041e-03	3.874649202233061137e-05	1.498628174879239891e-03
8.110804464724060692e-01	1.439732480028727696e-03	-6.287650663726373004e-03	1.698027285349741839e-03	7.570223692657652714e-01	1.194457421973705635e+00	1.000053459249555798e+00	-8.962327695670856825e-03	3.952391505104642415e-05	1.414310601836843819e-03
8.311071241630827444e-01	1.283102091911045555e-03	-5.913550450761257370e-03	1.758008497013044576e-03	7.612354492275001938e-01	1.198291031724457945e+00	1.000053620534447463e+00	-8.899772408663839118e-03	4.021131401080038566e-05	1.327709342748374871e-03
8.511338018537595307e-01	1.139114502168554885e-03	-5.549416336041736696e-03	1.822032190821590422e-03	7.654026622721047390e-01	1.201760495857695066e+00	1.000053776272187278e+00	-8.836472949332038057e-03	4.080915466487329731e-05	1.239788543344367677e-03
8.711604795444362059e-01	1.007287189548564501e-03	-5.195869115126136584e-03	1.890642444958145953e-03	7.695164721626790438e-01	1.204858455146287533e+00	1.000053925438498359e+00	-8.771257010294061796e-03	4.131877924002774196e-05	1.151472664525876556e-03
8.911871572351128812e-01	8.870920248357057813e-04	-4.853466794935991022e-03	1.964456169827875128e-03	7.735696113730297085e-01	1.207580448601040413e+00	1.000054066903167227e+00	-8.702885851662296723e-03	4.174231571246371449e-05	1.063633665233904230e-03
9.112138349257895564e-01	7.779645920700484999e-04	-4.522705129553707300e-03	2.044177079476702449e-03	7.775550644962864189e-01	1.209924894951319940e+00	1.000054199469959437e+00	-8.630070707993231852e-03	4.208265987401866204e-05	9.770799873254419447e-04
9.312405126164662317e-01	6.793130584468546349e-04	-4.204018127070952189e-03	2.130607843145857026e-03	7.814660753992043185e-01	1.211893034720361806e+00	1.000054321843164784e+00	-8.551500461157037977e-03	4.234336755018842290e-05	8.925474693763969531e-04
9.512671903071429069e-01	5.905264912669107953e-04	-3.897779459809124023e-03	2.224668005442576035e-03	7.852961484220863930e-01	1.213488835211327777e+00	1.000054432676971139e+00	-8.465868219898821032e-03	4.252861649094644413e-05	8.106922492784890280e-04
9.712938679978196932e-01	5.109825451521817462e-04	-3.604304025134138709e-03	2.327410587578133093e-03	7.890390133841603815e-01	1.214718862518079590e+00	1.000054530544504994e+00	-8.371911944998131072e-03	4.264308674404096444e-05	7.320856549230580004e-04
9.913205456884963684e-01	4.400544655650338974e-04	-3.323849783613087860e-03	2.440044791405028470e-03	7.926886545227187497e-01	1.215592124266320795e+00	1.000054613999775022e+00	-8.268457557601961022e-03	4.269190738423950449e-05	6.572110268487628979e-04
1.011347223379172933e+00	3.771173789785298744e-04	-3.056619829973453682e-03	2.563957732826604909e-03	7.962392461522875831e-01	1.216119888242221947e+00	1.000054681552596136e+00	-8.154479871379799114e-03	4.268053169094040506e-05	5.864623729288925705e-04
1.031373901069849497e+00	3.215538610084040351e-04	-2.802764236821974914e-03	2.700742226500991040e-03	7.996851983122149621e-01	1.216315481079869087e+00	1.000054731747785919e+00	-8.029170032290878709e-03	4.261467511105964854e-05	5.201447202292214765e-04
1.051400578760526283e+00	2.727587947003058395e-04	-2.562381984321000870e-03	2.852223293568085724e-03	8.030210826322405904e-01	1.216194072267261950e+00	1.000054763150690196e+00	-7.892024491798250649e-03	4.250019258460154193e-05	4.584760078650652946e-04
1.071427256451203069e+00	2.301435477265026440e-04	-2.335522292757356150e-03	3.020489501287925999e-03	8.062416901735283137e-01	1.215772447202591477e+00	1.000054774449316231e+00	-7.742942592600225889e-03	4.234301447153314776e-05	4.015903527324398911e-04
1.091453934141879634e+00	1.931395123910312379e-04	-2.122185724879357017e-03	3.207920927496379134e-03	8.093419846184023436e-01	1.215068773849433459e+00	1.000054764455642786e+00	-7.582345743159037664e-03	4.214903297533240437e-05	3.495425201376050196e-04
1.111480611832556420e+00	1.612010623969257919e-04	-1.922324568752136311e-03	3.417217921910477383e-03	8.123171552398561479e-01	1.214102365609227352e+00	1.000054732235296173e+00	-7.411299825553179302e-03	4.192404216608440628e-05	3.023134378775800784e-04
1.131507289523232984e+00	1.338079877281853763e-04	-1.735842630075378184e-03	3.651420353676825079e-03	8.151626175533948082e-01	1.212893443754765821e+00	1.000054677126834601e+00	-7.231648502701590667e-03	4.167363948209195995e-05	2.598166058537555723e-04
1.151533967213909770e+00	1.104674706094680461e-04	-1.562594356719603124e-03	3.913917784122143348e-03	8.178740614230012307e-01	1.211462900661558484e+00	1.000054598897849534e+00	-7.046129016292688486e-03	4.140317514312615412e-05	2.219052669737918123e-04
1.171560644904586557e+00	9.071566335969889208e-05	-1.402383110397165036e-03	4.208436150168097870e-03	8.204475611746052666e-01	1.209832065965957382e+00	1.000054497774910622e+00	-6.858469164018242414e-03	4.111767343815294598e-05	1.883802177530801434e-04
1.191587322595263121e+00	7.411892068533061119e-05	-1.254959284427157110e-03	4.538995231575485012e-03	8.228795949278653321e-01	1.208022475794187978e+00	1.000054374611429431e+00	-6.673423551052281438e-03	4.082179585516561792e-05	1.589981416256727351e-04
1.211614000285939907e+00	6.027472670880873587e-05	-1.120017743191704636e-03	4.909816355669857288e-03	8.251672028368889356e-01	1.206055646570105111e+00	1.000054230903598684e+00	-6.496740120803818318e-03	4.051978586490050777e-05	1.334803431493906327e-04
1.231640677976616471e+00	4.881233989359692356e-05	-9.971956859813029938e-04	5.325167158566595192e-03	8.273080804473613714e-01	1.203952853372828757e+00	1.000054068934575380e+00	-6.335011189546852807e-03	4.021544949929087076e-05	1.115217423925047896e-04
1.251667355667293258e+00	3.939316021368709833e-05	-8.860706921040690208e-04	5.789118005477776434e-03	8.293008148523827172e-01	1.201734914910974839e+00	1.000053891730921407e+00	-6.195405522717840549e-03	3.991212545273233606e-05	9.279995781974555884e-05
1.271694033357969822e+00	3.171080374605664146e-05	-7.861604496912692969e-04	6.305195219453002195e-03	8.311448819680326006e-01	1.199421986256674177e+00	1.000053703130861615e+00	-6.085255390843842885e-03	3.961268502965472515e-05	7.698426484859221533e-05
1.291720711048646608e+00	2.549085500409922992e-05	-6.969236529114563542e-04	6.875914064519813435e-03	8.328408483623899183e-01	1.197033363262573369e+00	1.000053507628306138e+00	-6.011532821127883557e-03	3.931952717023644701e-05	6.374417513317845864e-05
1.311747388739323394e+00	2.049025960750471204e-05	-6.177634374445459872e-04	7.502198038192514108e-03	8.343906375424502420e-01	1.194587301945839952e+00	1.000053310321647571e+00	-5.980241441595792774e-03	3.903459634757030323e-05	5.275734865794615901e-05
1.331774066429999959e+00	1.649632342950745924e-05	-5.480335522133620218e-04	8.182710077892792200e-03	8.357973502318738479e-01	1.192100858904232119e+00	1.000053116621639093e+00	-5.995803518751544395e-03	3.875939744148694039e-05	4.371654106800199318e-05
1.351800744120676745e+00	1.332529998359850222e-05	-4.870471562710055225e-04	8.913166384834298253e-03	8.370654856807805411e-01	1.189589757500765010e+00	1.000052932087304836e+00	-6.060519497141992826e-03	3.849502722835106041e-05	3.633531279619272572e-05
1.371827421811353309e+00	1.082057499656109637e-05	-4.340881923881965282e-04	9.685740919632633908e-03	8.382008614572117322e-01	1.187068286192284106e+00	1.000052762040482213e+00	-6.174193852502741706e-03	3.824220268468913198e-05	3.035229080963906849e-05
1.391854099502030095e+00	8.850491081446181752e-06	-3.884248719610591360e-04	1.048871333062212363e-02	8.392105835315567530e-01	1.184549232423045106e+00	1.000052611366441191e+00	-6.333983509957506405e-03	3.800130141367895261e-05	2.553387394439676457e-05
1.411880777192706660e+00	7.305890022361989929e-06	-3.493243293682446243e-04	1.130652002042893157e-02	8.401024986970414554e-01	1.182043855540646504e+00	1.000052484138391318e+00	-6.534510892214333115e-03	3.777240094119675744e-05	2.167539572335343029e-05
1.431907454883383446e+00	6.097477596609483515e-06	-3.160668866829454836e-04	1.212034100274536966e-02	8.408857607972523018e-01	1.179561897872891674e+00	1.000052383497424646e+00	-6.768241701515315817e-03	3.755532889123632315e-05	1.860088281799425310e-05
1.451934132574060232e+00	5.153130451643120223e-06	-2.879599817904135743e-04	1.290926005953618554e-02	8.415696843801938609e-01	1.177111632500246863e+00	1.000052311396275151e+00	-7.026081422268491000e-03	3.734971271037200647e-05	1.616165062732729304e-05
1.471960810264736796e+00	4.415263179219565600e-06	-2.643494210097965097e-04	1.365190706962964885e-02	8.421640592747523524e-01	1.174699941906409695e+00	1.000052268648463860e+00	-7.298142831336775979e-03	3.715503751945139853e-05	1.423404196015052809e-05
1.491987487955413583e+00	3.838357789379734658e-06	-2.446284595616830229e-04	1.432834338496506883e-02	8.426784200802716063e-01	1.172332421804701319e+00	1.000052254851510281e+00	-7.574582042252681231e-03	3.697069693065909118e-05	1.271663327326615748e-05
1.512014165646090147e+00	3.386731313289363916e-06	-2.282434459987971013e-04	1.492186451565662153e-02	8.431224687067364609e-01	1.170013501224609120e+00	1.000052268627164231e+00	-7.846402427913614849e-03	3.679604237827054141e-05	1.152720893370319706e-05
1.532040843336766933e+00	3.032586519758433617e-06	-2.146971904227940368e-04	1.542038547097085779e-02	8.435048911717997200e-01	1.167746571799766597e+00	1.000052307700808107e+00	-8.106087266483246595e-03	3.663041656027965802e-05	1.059974997393148831e-05
1.552067521027443719e+00	2.754361138082134350e-06	-2.035490295475301116e-04	1.581718042018812401e-02	8.438341410062192294e-01	1.165534117796044322e+00	1.000052369263612739e+00	-8.347998657521223803e-03	3.647318091724688317e-05	9.881615399568773338e-06
1.572094198718120284e+00	2.535366960224824046e-06	-1.944134774243388021e-04	1.611090096746322850e-02	8.441175390728570260e-01	1.163377842194917688e+00	1.000052450100644474e+00	-8.568474318501112172e-03	3.632372660893643472e-05	9.331025638236123288e-06
1.592120876408797070e+00	2.362693383486993208e-06	-1.869567420460274112e-04	1.630497190191408305e-02	8.443619569954611270e-01	1.161278783796923397e+00	1.000052546949773635e+00	-8.765687384427159681e-03	3.618148508100435410e-05	8.914898899918075617e-06
1.612147554099473634e+00	2.226340736540696850e-06	-1.808928171076321957e-04	1.640656372747318487e-02	8.445731566906985455e-01	1.159237424460084487e+00	1.000052656561459585e+00	-8.939318765639699127e-03	3.604592725513005788e-05	8.607046796916567423e-06
1.632174231790150420e+00	2.118545492684480529e-06	-1.759785396132619801e-04	1.642539022441633079e-02	8.447562895117888271e-01	1.157253784525075657e+00	1.000052775969400898e+00	-9.090172281216977318e-03	3.591656847002275673e-05	8.386706070661699485e-06
1.652200909480826985e+00	2.033260829264403637e-06	-1.720088762828279536e-04	1.637253466759775594e-02	8.449157444277662909e-01	1.155327507761489514e+00	1.000052902439796387e+00	-9.219787479429815413e-03	3.579296402374914623e-05	8.237366767306669491e-06
1.672227587171503771e+00	1.965759744854626564e-06	-1.688120179291537765e-04	1.625945567377767853e-02	8.450551860591468678e-01	1.153457935036998450e+00	1.000053033652288370e+00	-9.330120533849283262e-03	3.567471261093964899e-05	8.145850615299465443e-06
1.692254264862180557e+00	1.912333101987600180e-06	-1.662449007199646946e-04	1.609723270475235321e-02	8.451779655993537643e-01	1.151644168698158444e+00	1.000053167565096546e+00	-9.423301066848814925e-03	3.556144999147070840e-05	8.101593527974094232e-06
1.712280942552857121e+00	1.870060063961649602e-06	-1.641890886889400857e-04	1.589606728924468360e-02	8.452864515428880621e-01	1.149885127048468458e+00	1.000053302546694001e+00	-9.501460561611125427e-03	3.545285107109491079e-05	8.096090326601307983e-06
1.732307620243533908e+00	1.836633307487392215e-06	-1.625469137659558982e-04	1.566500041415656852e-02	8.453832445944456930e-01	1.148179591132959310e+00	1.000053437198362927e+00	-9.566635744567578148e-03	3.534862248172094824e-05	8.122465856208114693e-06
1.752334297934210472e+00	1.810225380982052117e-06	-1.612383697460976616e-04	1.541180554502637710e-02	8.454697540425363256e-01	1.146526243224030184e+00	1.000053570472526410e+00	-9.620696222080274071e-03	3.524850337815110465e-05	8.175143209654046040e-06
1.772360975624887258e+00	1.789386004919344806e-06	-1.601979659167599042e-04	1.514299851990345835e-02	8.455480990852144441e-01	1.144923699350999691e+00	1.000053701479951540e+00	-9.665332943031502283e-03	3.515225835830927930e-05	8.249585916654195644e-06
1.792387653315563822e+00	1.772962619165783445e-06	-1.593726036921730112e-04	1.486392613006762287e-02	8.456188868724021646e-01	1.143370535205792349e+00	1.000053829613930079e+00	-9.702028459092827684e-03	3.505967729711733445e-05	8.342096265418575345e-06
1.812414331006240609e+00	1.760038535024880966e-06	-1.587190288086946972e-04	1.457889278679758670e-02	8.456839182476649786e-01	1.141865307759327486e+00	1.000053954354032104e+00	-9.732087843765757293e-03	3.497057004855764584e-05	8.449656261553605715e-06
1.832441008696917395e+00	1.749884465521534114e-06	-1.582025242736413739e-04	1.429130436044524256e-02	8.457433209561426857e-01	1.140406571796212187e+00	1.000054075403287168e+00	-9.756621214913413498e-03	3.488476500551490893e-05	8.569801132918735946e-06
1.852467686387593959e+00	1.741920330206165969e-06	-1.577949041364561881e-04	1.400381071115128391e-02	8.457985954937246031e-01	1.138992893604181544e+00	1.000054192492080718e+00	-9.776590313157924872e-03	3.480210654804665425e-05	8.700517877075024579e-06
1.872494364078270745e+00	1.735685007374825095e-06	-1.574737818174737857e-04	1.371843769816032121e-02	8.458495487235095922e-01	1.137622860836167815e+00	1.000054305529624488e+00	-9.792794014329586627e-03	3.472245195065278922e-05	8.840163276497587660e-06
1.892521041768947310e+00	1.730812276595319183e-06	-1.572210024709561429e-04	1.343670562220167577e-02	8.458974372911498563e-01	1.136295090679549702e+00	1.000054414407932635e+00	-9.805918216791033315e-03	3.464567193191708013e-05	8.987397219483009414e-06
1.912547719459624096e+00	1.727011645304931374e-06	-1.570222836359936138e-04	1.315972865450367423e-02	8.459420423133013900e-01	1.135008235149687739e+00	1.000054519166835743e+00	-9.816522507263279393e-03	3.457164545957304929e-05	9.141128192486869684e-06
1.932574397150300882e+00	1.724053010312595970e-06	-1.568660961022542457e-04	1.288830144771077428e-02	8.459841819558920895e-01	1.133760985559506551e+00	1.000054619796769906e+00	-9.825081202885473444e-03	3.450026342266143567e-05	9.300468555064125164e-06
1.952601074840977446e+00	1.721754406151879748e-06	-1.567434086501144391e-04	1.262296647169282131e-02	8.460237459671028359e-01	1.132552074791519869e+00	1.000054716415834433e+00	-9.831978372353790060e-03	3.443142154021155342e-05	9.464697749553688049e-06
1.972627752531654233e+00	1.719972174976493794e-06	-1.566469730355377814e-04	1.236407320076220000e-02	8.460612846455592972e-01	1.131380279370649333e+00	1.000054809069993444e+00	-9.837535333569765242e-03	3.436502631171989319e-05	9.633231996547934566e-06
1.992654430222330797e+00	1.718593123899816108e-06	-1.565711215763209395e-04	1.211182057461336267e-02	8.460968220562173903e-01	1.130244419819094848e+00	1.000054897920856334e+00	-9.842011397298211159e-03	3.430098658685951752e-05	9.805599320919135620e-06
2.012681107913007583e+00	1.717528225583162141e-06	-1.565113787443867303e-04	1.186629604866658999e-02	8.461305378947227007e-01	1.129143361243430510e+00	1.000054983041920531e+00	-9.845618166794384285e-03	3.423922113404548453e-05	9.981418978139529062e-06
2.032707785603684147e+00	1.716707611465323255e-06	-1.564641936159136780e-04	1.162750083778682844e-02	8.461626514913971331e-01	1.128076012513658855e+00	1.000055064616055756e+00	-9.848529570960464635e-03	3.417964953867826800e-05	1.016038452064982580e-05
2.052734463294360712e+00	1.716076550232745837e-06	-1.564268386552561450e-04	1.139537511773212539e-02	8.461931309857824157e-01	1.127041325982153674e+00	1.000055142726703705e+00	-9.850882187755739816e-03	3.412220029041989288e-05	1.034224988065446630e-05
2.072761140985037720e+00	1.715592268992903502e-06	-1.563970942346341343e-04	1.116981224679301776e-02	8.462223126859683697e-01	1.126038295994401972e+00	1.000055217564276955e+00	-9.852791876529175263e-03	3.406680190344672381e-05	1.052681795157473828e-05
2.092787818675714284e+00	1.715221401576871288e-06	-1.563733390552639964e-04	1.095067480858708669e-02	8.462499657040689627e-01	1.125065958132491328e+00	1.000055289211565945e+00	-9.854344190696050221e-03	3.401339071698189509e-05	1.071393123925998952e-05
2.112814496366390848e+00	1.714937984771666095e-06	-1.563541714230020827e-04	1.073780216112733485e-02	8.462765545429520309e-01	1.124123387379055483e+00	1.000055357858441241e+00	-9.855616574072072200e-03	3.396190291366579323e-05	1.090346422463689139e-05
2.132841174057067857e+00	1.714721851784740697e-06	-1.563386584868945480e-04	1.053102044195825676e-02	8.463017077934815724e-01	1.123209697154015752e+00	1.000055423580979541e+00	-9.856660832242148187e-03	3.391228120502689841e-05	1.109531713943869775e-05
2.152867851747744421e+00	1.714557378934241593e-06	-1.563258977368539224e-04	1.033014639127158990e-02	8.463259929336549581e-01	1.122324037324825108e+00	1.000055486564162655e+00	-9.857529596776826164e-03	3.386446849395315166e-05	1.128941090636688664e-05
2.172894529438420985e+00	1.714432483509702963e-06	-1.563153831024353783e-04	1.013499329880769226e-02	8.463489293960161364e-01	1.121465593194434396e+00	1.000055546874110357e+00	-9.858252265608248577e-03	3.381841269440347245e-05	1.148568303595887896e-05
2.192921207129097994e+00	1.714337845560023458e-06	-1.563065236507981965e-04	9.945373009177064030e-03	8.463711096706854065e-01	1.120633583483614526e+00	1.000055604688768529e+00	-9.858864954695772259e-03	3.377406272900493876e-05	1.168408430849597412e-05
2.212947884819774558e+00	1.714266289695620139e-06	-1.562990581499052898e-04	9.761099028418738360e-03	8.463920650963066006e-01	1.119827259360722582e+00	1.000055660062899143e+00	-9.859383754149859957e-03	3.373137083951608371e-05	1.188457609695690265e-05
2.232974562510451122e+00	1.714212304782294631e-06	-1.562925969150018161e-04	9.581987849042652300e-03	8.464123317666631952e-01	1.119045902465709341e+00	1.000055713166664750e+00	-9.859833303974182769e-03	3.369029130889354966e-05	1.208712821394219586e-05
2.253001240201127686e+00	1.714171667585124287e-06	-1.562870176412636293e-04	9.407860057001742396e-03	8.464314976428853887e-01	1.118288824034729734e+00	1.000055764043089601e+00	-9.860221706048914389e-03	3.365078008007949608e-05	1.229171718317620038e-05
2.273027917891804695e+00	1.714141147477581846e-06	-1.562820644848002499e-04	9.238541575901306965e-03	8.464499903042970175e-01	1.117555363000455770e+00	1.000055812854605986e+00	-9.860565638824134171e-03	3.361279622693112462e-05	1.249832485707853362e-05
2.293054595582481259e+00	1.714118281085706986e-06	-1.562776902809418845e-04	9.073863356507115216e-03	8.464674726153673667e-01	1.116844885235903861e+00	1.000055859632680511e+00	-9.860868670933616020e-03	3.357629895752506832e-05	1.270693731217377567e-05
2.313081273273157823e+00	1.714101190809885793e-06	-1.562737103852839221e-04	8.913662813833838142e-03	8.464843532200645448e-01	1.116156781747499105e+00	1.000055904532500595e+00	-9.861143052847687329e-03	3.354125162014136519e-05	1.291754397073433059e-05
2.333107950963834831e+00	1.714088452968316486e-06	-1.562701199672654169e-04	8.757782482951750186e-03	8.465003516931434158e-01	1.115490468049660677e+00	1.000055947574534088e+00	-9.861389696884671416e-03	3.350761620843551759e-05	1.313013690191793956e-05
2.353134628654511395e+00	1.714078985340796431e-06	-1.562668072092108346e-04	8.606071838894349679e-03	8.465156965678759526e-01	1.114845382450586841e+00	1.000055988907418980e+00	-9.861616034380616541e-03	3.347535993695839243e-05	1.334471026940406202e-05
2.373161306345187960e+00	1.714071972729280335e-06	-1.562637719601332861e-04	8.458385183442145711e-03	8.465302491880795088e-01	1.114220985556643617e+00	1.000056028541251640e+00	-9.861822608837134477e-03	3.344444742967511101e-05	1.356125989333632985e-05
2.393187984035864524e+00	1.714066796320612631e-06	-1.562609228126742283e-04	8.314583778693485083e-03	8.465442521694815925e-01	1.113616758653588779e+00	1.000056066618884021e+00	-9.862015579362852849e-03	3.341484925937312128e-05	1.377978290647623433e-05
2.413214661726541532e+00	1.714062993965303670e-06	-1.562582814241422031e-04	8.174533224967995074e-03	8.465575476411829614e-01	1.113032203326621117e+00	1.000056103140811947e+00	-9.862193921865256008e-03	3.338653227922708477e-05	1.400027748193494435e-05
2.433241339417218096e+00	1.714060214233486028e-06	-1.562557963481933621e-04	8.038105971798638338e-03	8.465702311526316359e-01	1.112466839937322538e+00	1.000056138244828974e+00	-9.862361033332619695e-03	3.335947021483350440e-05	1.422274262129681191e-05
2.453268017107894661e+00	1.714058197812367179e-06	-1.562534706420898041e-04	7.905178250439971396e-03	8.465823044092603000e-01	1.111920207349606837e+00	1.000056171922564019e+00	-9.862517090661113497e-03	3.333363206769152196e-05	1.444717798645230534e-05
2.473294694798571669e+00	1.714056746332585831e-06	-1.562512560470902332e-04	7.775632848024880556e-03	8.465938860516999398e-01	1.111391861488087995e+00	1.000056204307480545e+00	-9.862665228414824875e-03	3.330899423264678012e-05	1.467358377034400019e-05
2.493321372489248233e+00	1.714055716094206907e-06	-1.562491800579874420e-04	7.649355791210893721e-03	8.466048743499728912e-01	1.110881375169951335e+00	1.000056235382964287e+00	-9.862803914547278034e-03	3.328552753806631484e-05	1.490196059365850067e-05
2.513348050179924797e+00	1.714054995330326690e-06	-1.562472150311531313e-04	7.526239416998622804e-03	8.466153048973324990e-01	1.110388336732408332e+00	1.000056265278872036e+00	-9.862934957737134675e-03	3.326321103706461038e-05	1.513230942666781268e-05
2.533374727870601362e+00	1.714054505569524475e-06	-1.562453494148966263e-04	7.406178746024037925e-03	8.466253008041862982e-01	1.109912349957461908e+00	1.000056293970949639e+00	-9.863059293920279150e-03	3.324201728936790611e-05	1.536463152578100772e-05
2.553401405561278370e+00	1.714054183907505123e-06	-1.562435803919467981e-04	7.289074756582099475e-03	8.466347788076495906e-01	1.109453032763143110e+00	1.000056321586063390e+00	-9.863177039951258329e-03	3.322192743537635964e-05	1.559892838684692379e-05
2.573428083251954934e+00	1.714053988262646904e-06	-1.562419029383890128e-04	7.174830709704967634e-03	8.466438353032352815e-01	1.109010017212834542e+00	1.000056348092882796e+00	-9.863288701263517311e-03	3.320291575309503631e-05	1.583520170592107312e-05
2.593454760942631498e+00	1.714053882932261852e-06	-1.562403207019591922e-04	7.063355471246817938e-03	8.466523610448238868e-01	1.108582948264121626e+00	1.000056373615810568e+00	-9.863393972866256118e-03	3.318496537445323450e-05	1.607345335176142185e-05
2.613481438633308507e+00	1.714053845979730820e-06	-1.562388071323072831e-04	6.954559808679676089e-03	8.466605721514159910e-01	1.108171483852030681e+00	1.000056398116926148e+00	-9.863494676437498457e-03	3.316805216291606107e-05	1.631368534117613484e-05
2.633508116323985071e+00	1.714053856877841585e-06	-1.562373852500140072e-04	6.848359717199568875e-03	8.466682603979549526e-01	1.107775293683852968e+00	1.000056421718714006e+00	-9.863589350620550686e-03	3.315216086521108210e-05	1.655589982304839867e-05
2.653534794014661635e+00	1.714053904642377823e-06	-1.562360207315517289e-04	6.744672828666544405e-03	8.466756868805644931e-01	1.107394059396389130e+00	1.000056444377094733e+00	-9.863680160202541874e-03	3.313726895146708621e-05	1.680009906252719212e-05
2.673561471705338199e+00	1.714053977169645929e-06	-1.562347497422595635e-04	6.643421607757007963e-03	8.466825758699251248e-01	1.107027473388767946e+00	1.000056466213038897e+00	-9.863764878242697876e-03	3.312336257257007235e-05	1.704628543192855981e-05
2.693588149396015208e+00	1.714054069319522178e-06	-1.562335212174918351e-04	6.544529959398120295e-03	8.466892780811733354e-01	1.106675239048380943e+00	1.000056487176700815e+00	-9.863846804367847401e-03	3.311042080116327597e-05	1.729446140017605911e-05
2.713614827086691772e+00	1.714054173755363358e-06	-1.562323797208956411e-04	6.447926196200346426e-03	8.466954737842996570e-01	1.106337069606156298e+00	1.000056507388009441e+00	-9.863922960298841108e-03	3.309843087336346464e-05	1.754462952780276423e-05
2.733641504777368336e+00	1.714054288373653354e-06	-1.562312727316172946e-04	6.353539956050421184e-03	8.467015220752710514e-01	1.106012688435221714e+00	1.000056526791620382e+00	-9.863996832943368667e-03	3.308737343770114199e-05	1.779679245951891470e-05
2.753668182468045345e+00	1.714054408532263038e-06	-1.562302551844850474e-04	6.261304870923550814e-03	8.467070513693532030e-01	1.105701827925912761e+00	1.000056545506771588e+00	-9.864064924938426709e-03	3.307723667468773709e-05	1.805095292167368623e-05
2.773694860158721909e+00	1.714054533615261391e-06	-1.562292581863977149e-04	6.171155831462954260e-03	8.467125063321213618e-01	1.105404229843364616e+00	1.000056563472990989e+00	-9.864131553919013029e-03	3.306800283084662331e-05	1.830711371675418608e-05
2.793721537849398473e+00	1.714054660636828899e-06	-1.562283436686768049e-04	6.083031278024411681e-03	8.467174809163343641e-01	1.105119644219177966e+00	1.000056580809089768e+00	-9.864192896616613346e-03	3.305966071630433029e-05	1.856527772215255595e-05
2.813748215540075037e+00	1.714054789614748806e-06	-1.562274586297089922e-04	5.996870920736000095e-03	8.467223289021182930e-01	1.104847829770748691e+00	1.000056597449722862e+00	-9.864252219384701814e-03	3.305219419861373426e-05	1.882544788600071454e-05
2.833774893230752046e+00	1.714054918527372850e-06	-1.562266458326116785e-04	5.912617611976497475e-03	8.467267527380674119e-01	1.104588552795922940e+00	1.000056613513633952e+00	-9.864306741756754746e-03	3.304559276605629152e-05	1.908762722663711646e-05
2.853801570921428610e+00	1.714055047695386855e-06	-1.562258495513641420e-04	5.830215434645231835e-03	8.467311197014356638e-01	1.104341587662562851e+00	1.000056628930744873e+00	-9.864360302495963143e-03	3.303984163140671128e-05	1.935181882930122647e-05
2.873828248612105174e+00	1.714055175743624575e-06	-1.562251266818658329e-04	5.749611258904020576e-03	8.467350572736244141e-01	1.104106715685303941e+00	1.000056643820057767e+00	-9.864409093843028165e-03	3.303493080006104671e-05	1.961802584589552695e-05
2.893854926302782182e+00	1.714055303004872761e-06	-1.562244256491129889e-04	5.670753208225141721e-03	8.467389065517697544e-01	1.103883725690995021e+00	1.000056658106962315e+00	-9.864456282249753696e-03	3.303084696441482197e-05	1.988625149256475867e-05
2.913881603993458747e+00	1.714055428541658428e-06	-1.562237818686148399e-04	5.593591828884525441e-03	8.467424155282929910e-01	1.103672412889417975e+00	1.000056671910897199e+00	-9.864499817091825287e-03	3.302758058183000178e-05	2.015649904931805949e-05
2.933908281684135311e+00	1.714055552681000880e-06	-1.562231595099392587e-04	5.518078910563639292e-03	8.467458373415196471e-01	1.103472579486530325e+00	1.000056685152923341e+00	-9.864541914882276816e-03	3.302511952789076883e-05	2.042877185822739632e-05
2.953934959374811875e+00	1.714055674762122726e-06	-1.562225909457091923e-04	5.444168390986702313e-03	8.467489368492945312e-01	1.103284033553547205e+00	1.000056697953193074e+00	-9.864580495891294570e-03	3.302345478724891530e-05	2.070307332313600293e-05
2.973961637065488883e+00	1.714055795053724206e-06	-1.562220406933224057e-04	5.371815424671254162e-03	8.467519666658088751e-01	1.103106589693834128e+00	1.000056710228522716e+00	-9.864617840919213607e-03	3.302257535648572465e-05	2.097940690816489477e-05
2.993988314756165448e+00	1.714055913114545835e-06	-1.562215341755675562e-04	5.300977054745397571e-03	8.467547293945709708e-01	1.102940067905487487e+00	1.000056722099981643e+00	-9.864652335490017507e-03	3.302247265375945736e-05	2.125777613747986379e-05
3.014014992446842012e+00	1.714056029151814223e-06	-1.562210556619862581e-04	5.231611519675074401e-03	8.467573706199166272e-01	1.102784294292780354e+00	1.000056733480288340e+00	-9.864684972774328403e-03	3.302313668803790126e-05	2.153818459406952839e-05
3.034041670137519020e+00	1.714056142830109830e-06	-1.562206045506734297e-04	5.163678747951817340e-03	8.467598314738290499e-01	1.102639099923813149e+00	1.000056744491609528e+00	-9.864715791155564267e-03	3.302455946724298089e-05	2.182063591950822855e-05
3.054068347828195584e+00	1.714056254388638570e-06	-1.562201844166097146e-04	5.097139766629072387e-03	8.467621541744085878e-01	1.102504321586578406e+00	1.000056755042681322e+00	-9.864744583030207389e-03	3.302673165338491001e-05	2.210513381297759096e-05
3.074095025518872148e+00	1.714056363498969983e-06	-1.562197905557204450e-04	5.031957194101216099e-03	8.467643054909977929e-01	1.102379800640300500e+00	1.000056765256905233e+00	-9.864771651659534971e-03	3.302964602383041699e-05	2.239168203107514706e-05
3.094121703209549157e+00	1.714056470436301897e-06	-1.562194255296778494e-04	4.968094618195585156e-03	8.467663275751825536e-01	1.102265383808263000e+00	1.000056775039164458e+00	-9.864796781469455447e-03	3.303329380740892404e-05	2.268028438695558725e-05
3.114148380900225721e+00	1.714056574881776383e-06	-1.562190757924122257e-04	4.905517130530931413e-03	8.467682389712130053e-01	1.102160922024029155e+00	1.000056784514258501e+00	-9.864820905568260842e-03	3.303766847518125802e-05	2.297094475013955849e-05
3.134175058590902285e+00	1.714056677169000967e-06	-1.562187645125458950e-04	4.844190661804027333e-03	8.467699670132987633e-01	1.102066271263651753e+00	1.000056793583263826e+00	-9.864842544532650276e-03	3.304276166409616670e-05	2.326366704586196394e-05
3.154201736281578849e+00	1.714056776906405022e-06	-1.562184555704183451e-04	4.784082624797621891e-03	8.467716562242036948e-01	1.101981291381230799e+00	1.000056802372540465e+00	-9.864863943123523479e-03	3.304856777151660277e-05	2.355845525492488411e-05
3.174228413972255858e+00	1.714056874571835834e-06	-1.562181817017833539e-04	4.725161064049793538e-03	8.467731796888895435e-01	1.101905846975599346e+00	1.000056810779442973e+00	-9.864883077409198481e-03	3.305507848037188089e-05	2.385531341300757032e-05
3.194255091662932422e+00	1.714056969657966194e-06	-1.562179171876336209e-04	4.667395558784111394e-03	8.467746274467410350e-01	1.101839806221818874e+00	1.000056818932012925e+00	-9.864901535795356571e-03	3.306228922928526631e-05	2.415424561074460885e-05
3.214281769353608986e+00	1.714057062735761108e-06	-1.562176806266908028e-04	4.610756121966450537e-03	8.467759484624918231e-01	1.101783041769271110e+00	1.000056826723921155e+00	-9.864918191772861777e-03	3.307019183850403967e-05	2.445525599301855024e-05
3.234308447044285995e+00	1.714057153244589584e-06	-1.562174467262812910e-04	4.555214310459826388e-03	8.467772278800576036e-01	1.101735429560214641e+00	1.000056834285022234e+00	-9.864934612793646238e-03	3.307878256901458565e-05	2.475834875907317108e-05
3.254335124734962559e+00	1.714057241843720871e-06	-1.562172441655290212e-04	4.500741952735219653e-03	8.467783633921143194e-01	1.101696849763829533e+00	1.000056841505400529e+00	-9.864948985745315355e-03	3.308805331869493072e-05	2.506352816189459450e-05
3.274361802425639123e+00	1.714057327876524863e-06	-1.562170425185105481e-04	4.447312460214418797e-03	8.467794678365658800e-01	1.101667185585175401e+00	1.000056848516762020e+00	-9.864963268939389018e-03	3.309800131576277980e-05	2.537079850841158636e-05
3.294388480116315687e+00	1.714057412108677417e-06	-1.562168607894421496e-04	4.394899325617861521e-03	8.467804882891335483e-01	1.101646324229595963e+00	1.000056855205698536e+00	-9.864976228334220582e-03	3.310861839698588994e-05	2.568016415892626102e-05
3.314415157806992696e+00	1.714057493821552815e-06	-1.562166953660258379e-04	4.343477665635548518e-03	8.467813945176345669e-01	1.101634155694773298e+00	1.000056861705885369e+00	-9.864988107734942377e-03	3.311990262539987832e-05	2.599162952723573896e-05
3.334441835497669260e+00	1.714057573785886454e-06	-1.562165390188088995e-04	4.293022562499125908e-03	8.467822753881373288e-01	1.101630573776030575e+00	1.000056867900372071e+00	-9.864999359999893774e-03	3.313184612248720441e-05	2.630519908032588343e-05
3.354468513188345824e+00	1.714057651319022293e-06	-1.562163922559960864e-04	4.243510663217458199e-03	8.467830794849127152e-01	1.101635474834242068e+00	1.000056873924993539e+00	-9.865009967639273500e-03	3.314444736910864301e-05	2.662087733829892312e-05
3.374495190879022832e+00	1.714057727187302170e-06	-1.562162521280997124e-04	4.194918527869706017e-03	8.467838715532010063e-01	1.101648758840355402e+00	1.000056879659281472e+00	-9.865020113843846195e-03	3.315769877168193698e-05	2.693866887432816646e-05
3.394521868569699397e+00	1.714057800718374622e-06	-1.562161298871475698e-04	4.147224235842850160e-03	8.467845431956082525e-01	1.101670328126364451e+00	1.000056885241254356e+00	-9.865029084939311646e-03	3.317159930360848039e-05	2.725857831453398238e-05
3.414548546260375961e+00	1.714057872635148179e-06	-1.562160119487270927e-04	4.100405741855831648e-03	8.467852120364236512e-01	1.101700088454643955e+00	1.000056890547002864e+00	-9.865037696448074669e-03	3.318614181691064921e-05	2.758061033790459938e-05
3.434575223951052525e+00	1.714057942313219797e-06	-1.562159031007830069e-04	4.054442431635019509e-03	8.467858106990919786e-01	1.101737947761032954e+00	1.000056895716808558e+00	-9.865045752753391975e-03	3.320132556652902699e-05	2.790476967628479932e-05
3.454601901641729533e+00	1.714058010457433544e-06	-1.562157969636471428e-04	4.009313541291224109e-03	8.467864144248461455e-01	1.101783817252727671e+00	1.000056900623328415e+00	-9.865053610982332799e-03	3.321714370473863743e-05	2.823106111442156912e-05
3.474628579332406098e+00	1.714058076470573382e-06	-1.562157022094432023e-04	3.964999685300563126e-03	8.467869352548758055e-01	1.101837610128685307e+00	1.000056905409193009e+00	-9.865060577418259188e-03	3.323359586872674793e-05	2.855948948986448965e-05
3.494655257023082662e+00	1.714058141011543488e-06	-1.562156188291624137e-04	3.921481303656244345e-03	8.467874156600366797e-01	1.101899242716100735e+00	1.000056909943658034e+00	-9.865067023364388482e-03	3.325067559300745628e-05	2.889005969299615444e-05
3.514681934713759670e+00	1.714058203494579074e-06	-1.562155321351992076e-04	3.878740163462267038e-03	8.467878938409517664e-01	1.101968633166185985e+00	1.000056914371750594e+00	-9.865073359413228590e-03	3.326838296406349049e-05	2.922277666721083257e-05
3.534708612404436234e+00	1.714058264620408263e-06	-1.562154580187029285e-04	3.836757777241671299e-03	8.467883215772497030e-01	1.102045702617588940e+00	1.000056918559343311e+00	-9.865079013898846172e-03	3.328671146680952465e-05	2.955764540854499296e-05
3.554735290095112799e+00	1.714058323745782588e-06	-1.562153835597997469e-04	3.795517017889341906e-03	8.467887336241011198e-01	1.102130373898507987e+00	1.000056922653912439e+00	-9.865084787532079139e-03	3.330566189599904977e-05	2.989467096653472870e-05
3.574761967785789363e+00	1.714058381613454017e-06	-1.562153304838907091e-04	3.755000403099411146e-03	8.467890442815289020e-01	1.102222572674677270e+00	1.000056926518013256e+00	-9.865088919991472916e-03	3.332522773115614097e-05	3.023385844324717145e-05
3.594788645476466371e+00	1.714058437516205521e-06	-1.562152594808135391e-04	3.715191846553759451e-03	8.467894394230480737e-01	1.102322226171698505e+00	1.000056930301589597e+00	-9.865094327728489779e-03	3.334541054736427280e-05	3.057521299440549696e-05
3.614815323167142935e+00	1.714058492303617497e-06	-1.562152143074838084e-04	3.676074746273331854e-03	8.467897045978425297e-01	1.102429264337812409e+00	1.000056933863902042e+00	-9.865097966182774167e-03	3.336620329920091810e-05	3.091873982850924400e-05
3.634842000857819500e+00	1.714058545150186459e-06	-1.562151515732622636e-04	3.637634034305228629e-03	8.467900559302338204e-01	1.102543618545392734e+00	1.000056937357396869e+00	-9.865102769262794682e-03	3.338760874425777823e-05	3.126444420807373030e-05
3.654868678548496508e+00	1.714058597015288180e-06	-1.562151171448166278e-04	3.599853919324335055e-03	8.467902598079007914e-01	1.102665222784899868e+00	1.000056940638055725e+00	-9.865105722598349960e-03	3.340961921715742615e-05	3.161233144846905494e-05
3.674895356239173072e+00	1.714058646956962520e-06	-1.562150518096425079e-04	3.562720291339292657e-03	8.467906242542961870e-01	1.102794012342651175e+00	1.000056943860920367e+00	-9.865110581818700708e-03	3.343223869615673374e-05	3.196240691946406327e-05
3.694922033929849636e+00	1.714058696089646703e-06	-1.562150153413118469e-04	3.526218076477193302e-03	8.467908389419041004e-01	1.102929925028766300e+00	1.000056946878670860e+00	-9.865113603815020560e-03	3.345545852703767954e-05	3.231467604388061482e-05
3.714948711620526201e+00	1.714058743307131371e-06	-1.562149640689003730e-04	3.490334099381035837e-03	8.467911262234666392e-01	1.103072899832978404e+00	1.000056949848993515e+00	-9.865117530529125475e-03	3.347928424911178605e-05	3.266914429943310169e-05
3.734975389311203209e+00	1.714058789830051139e-06	-1.562149295872227958e-04	3.455053979432537274e-03	8.467913269802720411e-01	1.103222878176685295e+00	1.000056952621268369e+00	-9.865120374732949324e-03	3.350370645355730230e-05	3.302581721706152837e-05
3.755002067001879773e+00	1.714058834479921446e-06	-1.562148748052979497e-04	3.420365364527863054e-03	8.467916334605876116e-01	1.103379802551518241e+00	1.000056955355880017e+00	-9.865124496022011080e-03	3.352873171978608223e-05	3.338470038308676338e-05
3.775028744692556337e+00	1.714058878566207158e-06	-1.562148402358377809e-04	3.386254526286216430e-03	8.467918348186843636e-01	1.103543617798195431e+00	1.000056957898914245e+00	-9.865127266262515085e-03	3.355434992192440777e-05	3.374579943738254049e-05
3.795055422383233346e+00	1.714058920805327888e-06	-1.562147917728119251e-04	3.352709910797609799e-03	8.467921059132716977e-01	1.103714269729638930e+00	1.000056960413493012e+00	-9.865130922037078365e-03	3.358056893132713942e-05	3.410912007579371748e-05
3.815082100073909910e+00	1.714058962582996926e-06	-1.562147550361013819e-04	3.319718399927834053e-03	8.467923196324280699e-01	1.103891706426450625e+00	1.000056962742399413e+00	-9.865133818724511686e-03	3.360737791120281813e-05	3.447466804792097327e-05
3.835108777764586474e+00	1.714059002557364584e-06	-1.562147231299984324e-04	3.287269165100469535e-03	8.467925000224854060e-01	1.104075876846318360e+00	1.000056965051544511e+00	-9.865136382191165912e-03	3.363478577690207262e-05	3.484244916000954939e-05
3.855135455455263482e+00	1.714059042132431804e-06	-1.562146521009170528e-04	3.255349694596666038e-03	8.467928988967998727e-01	1.104266732145403163e+00	1.000056967180428691e+00	-9.865141417371060470e-03	3.366278134120920506e-05	3.521246927238547104e-05
3.875162133145940047e+00	1.714059080118539120e-06	-1.562145295783780633e-04	3.223949692242922532e-03	8.467935723696868866e-01	1.104464224262226235e+00	1.000056969297777876e+00	-9.865149371578788712e-03	3.369137301521362668e-05	3.558473430266965082e-05
3.895188810836616611e+00	1.714059117840509586e-06	-1.562145311158664616e-04	3.193057249290389994e-03	8.467935750409102402e-01	1.104668307290989082e+00	1.000056971239822401e+00	-9.865151236935919624e-03	3.372054958152680821e-05	3.595925022262050228e-05
3.915215488527293175e+00	1.714059155775890004e-06	-1.562147798908314453e-04	3.162663095591598892e-03	8.467922379658920917e-01	1.104878935214080871e+00	1.000056973178608866e+00	-9.865014054193040755e-03	3.375032454630338616e-05	3.633602308361773931e-05
3.935242166217970183e+00	1.714059171753940686e-06	-1.562148672437381730e-04	3.132756120674965242e-03	8.467917689240729295e-01	1.105096073130296119e+00	1.000056974949472099e+00	-9.866075636864786794e-03	3.378068930155025127e-05	3.671505874770032490e-05
3.955268843908646748e+00	1.714059291495586119e-06	-1.562135790986556288e-04	3.103326567120744898e-03	8.467987855601317726e-01	1.105319646977867443e+00	1.000056976790715257e+00	-9.865628216979902346e-03	3.381164722205895896e-05	3.709636502848864912e-05
3.975295521599323312e+00	1.714059392310324181e-06	-1.562115661343267139e-04	3.074362085536946638e-03	8.468097266623569874e-01	1.105549620580617010e+00	1.000056978582948064e+00	-9.857733874692912318e-03	3.384316887725318608e-05	3.747994556865574177e-05
3.995322199289999876e+00	1.714584732784533302e-06	-1.562471114497757151e-04	3.045531353289996409e-03	8.467602886654199690e-01	1.105725138389047624e+00	1.000000000000000000e+00	-1.000000000000000021e-02	3.387174561589884471e-05	3.787100112148618141e-05
