# Time=0.0158003160063 and Columns are r	p	Paether	ur	alpha	a	b	K	Sr_tilde	tau_tilde
1.001333884533834630e-02	1.199271069735438622e-02	-1.855357039028201344e-02	2.182561430566842207e-05	6.409542450296539240e-01	1.000084275262299593e+00	1.000036954038765691e+00	-1.188105332102645448e-02	2.465269369328938968e-10	1.503328505910063030e-06
3.004001653601504063e-02	1.196419583244172184e-02	-1.853256372757257006e-02	6.545975365936500278e-05	6.411333941090083810e-01	1.000462693174431594e+00	1.000036965369848874e+00	-1.187621969343481861e-02	6.646525852100694775e-09	1.350289452407717314e-05
5.006669422669172975e-02	1.190733516089866918e-02	-1.849058108886249274e-02	1.090213736655279886e-04	6.414915342004792187e-01	1.001218662130617165e+00	1.000036985858317795e+00	-1.186342007616210219e-02	3.067525591503215035e-08	3.735799073459242339e-05
7.009337191736843276e-02	1.182250383599414180e-02	-1.842770990124021485e-02	1.524524195338251300e-04	6.420281974944411774e-01	1.002350456069261098e+00	1.000037015344002578e+00	-1.184341619437977514e-02	8.377282068743322650e-08	7.278219880290746761e-05
9.012004960804512188e-02	1.171024987438634528e-02	-1.834407525120757693e-02	1.957093136311520475e-04	6.427427088949431155e-01	1.003855466057947066e+00	1.000037054393987823e+00	-1.181724671842075518e-02	1.769215471548680354e-07	1.193500126394055278e-04
1.101467272987218110e-01	1.157129568634409668e-02	-1.823984458767260661e-02	2.387459828166162363e-04	6.436341681218575861e-01	1.005730176739220161e+00	1.000037102861807803e+00	-1.178464637436706271e-02	3.204715355343664776e-07	1.765017529481942142e-04
1.301734049893985001e-01	1.140653145416877130e-02	-1.811522878358588773e-02	2.815195565926027223e-04	6.447014400314308169e-01	1.007970143197008062e+00	1.000037160541991321e+00	-1.174579055842799730e-02	5.239812291480575166e-07	2.435500651842083296e-04
1.502000826800751754e-01	1.121700691597133162e-02	-1.797048341290762019e-02	3.239908005504069642e-04	6.459431379511932914e-01	1.010569955776760009e+00	1.000037227185462729e+00	-1.170082451939103048e-02	7.960719148485242170e-07	3.196879545427545486e-04
1.702267603707518784e-01	1.100392160130570125e-02	-1.780590944747566587e-02	3.661245020387160530e-04	6.473576319440179638e-01	1.013523201376213212e+00	1.000037302508227421e+00	-1.164992701533628522e-02	1.144298843066109156e-06	4.039982964003032578e-04
1.902534380614285814e-01	1.076861369277002690e-02	-1.762185495549939418e-02	4.078902522770069556e-04	6.489430188566153168e-01	1.016822420037425623e+00	1.000037386196734213e+00	-1.159330775501277513e-02	1.575042456473929985e-06	4.954647469030552852e-04
2.102801157521052566e-01	1.051254762357627277e-02	-1.741871599522196168e-02	4.492626607494235686e-04	6.506971249676853919e-01	1.020459058037281430e+00	1.000037477910742600e+00	-1.153120963206168831e-02	2.093419087888038273e-06	5.929839625278639963e-04
2.303067934427819596e-01	1.023730054386097835e-02	-1.719693772035771340e-02	4.902221451046391435e-04	6.526174945278142570e-01	1.024423418609667680e+00	1.000037577288829027e+00	-1.146391009098927070e-02	2.703215808168987701e-06	6.953790209339660248e-04
2.503334711334586626e-01	9.944547794999102769e-03	-1.695701574365143099e-02	5.307549743606271558e-04	6.547013687568949969e-01	1.028704611651654721e+00	1.000037683950862011e+00	-1.139172201368357680e-02	3.406845257026005490e-06	8.014139173825812019e-04
2.703601488241353379e-01	9.636047549028104245e-03	-1.669949675145657522e-02	5.708540759097005968e-04	6.569456821001895541e-01	1.033290503934740201e+00	1.000037797504267356e+00	-1.131499442981839625e-02	4.205327501175200207e-06	9.098089924603657485e-04
2.903868265148120131e-01	9.313624775780847062e-03	-1.642497924683571434e-02	6.105188972471136278e-04	6.593470494898074907e-01	1.038167671563344996e+00	1.000037917545865795e+00	-1.123411247802639200e-02	5.098289648663046056e-06	1.019257126913608938e-03
3.104135042054887439e-01	8.979154715381071697e-03	-1.613411392445750908e-02	6.497562343638273131e-04	6.619017525103990662e-01	1.043321356581333292e+00	1.000038043668544763e+00	-1.114949657760984369e-02	6.083994341736590244e-06	1.128440519718674866e-03
3.304401818961654191e-01	8.634546036650720541e-03	-1.582760366505670674e-02	6.885799178150474147e-04	6.646057316829893091e-01	1.048735429841623157e+00	1.000038175462137691e+00	-1.106160093825501491e-02	7.159381097956028245e-06	1.236047845002059310e-03
3.504668595868420944e-01	8.281723873173605852e-03	-1.550620309326977177e-02	7.270116746651356706e-04	6.674545777443425809e-01	1.054392362370420999e+00	1.000038312520212358e+00	-1.097091100067508311e-02	8.320137637259777613e-06	1.340791564421232440e-03
3.704935372775188251e-01	7.922612928227056733e-03	-1.517071768939248257e-02	7.650806461349324641e-04	6.704435268072373999e-01	1.060273207628394720e+00	1.000038454439545532e+00	-1.087794009790002923e-02	9.560776612325331251e-06	1.441425152873963356e-03
3.905202149681955004e-01	7.559120846107355955e-03	-1.482200253732947337e-02	8.028243040918280494e-04	6.735674483981279881e-01	1.066357597100325405e+00	1.000038600826756552e+00	-1.078322474879917989e-02	1.087474313291958006e-05	1.536759979963828789e-03
4.105468926588721756e-01	7.193122042570934335e-03	-1.446096025555202759e-02	8.402878214332686274e-04	6.768208507534467788e-01	1.072623751724677943e+00	1.000038751296094874e+00	-1.068731941402318274e-02	1.225451813973306381e-05	1.625681576099437167e-03
4.305735703495489064e-01	6.826442187574058990e-03	-1.408853849676551355e-02	8.775250700406089311e-04	6.801978807739463839e-01	1.079048511561233159e+00	1.000038905475705286e+00	-1.059078979456022120e-02	1.369175346216690857e-05	1.707165004073323998e-03
4.506002480402255816e-01	6.460843523610431023e-03	-1.370572689918319979e-02	9.145978710366474982e-04	6.836923278599537079e-01	1.085607386031205435e+00	1.000039063003348883e+00	-1.049420558023307463e-02	1.517739154701991002e-05	1.780289052839808921e-03
4.706269257309022569e-01	6.098011196764557308e-03	-1.331355356616432777e-02	9.515771210612160649e-04	6.872976234091340286e-01	1.092274626753857669e+00	1.000039223532310562e+00	-1.039813174092430771e-02	1.670181847119372458e-05	1.844248973942723933e-03
4.906536034215789877e-01	5.739540762073703194e-03	-1.291308056785323184e-02	9.885419726421678776e-04	6.910068652890617447e-01	1.099023324750783237e+00	1.000039386724816959e+00	-1.030311999611472316e-02	1.825498950034974853e-05	1.898367490702035842e-03
5.106802811122557184e-01	5.386927011570220164e-03	-1.250539929827006701e-02	1.025581141067892629e-03	6.948128266491722105e-01	1.105825533242959624e+00	1.000039552257526498e+00	-1.020969871479204295e-02	1.982659036257675619e-05	1.942103829724592780e-03
5.307069588029323937e-01	5.041554252113886365e-03	-1.209162529743339383e-02	1.062792083812693451e-03	6.987079684766512866e-01	1.112652416803952882e+00	1.000039719812691352e+00	-1.011836325858443859e-02	2.140615878485945523e-05	1.975060551120938653e-03
5.507336364936090689e-01	4.704688140131059806e-03	-1.167289223108543446e-02	1.100282577828045781e-03	7.026844791817317137e-01	1.119474426847245407e+00	1.000039889083335520e+00	-1.002956556136270355e-02	2.298324555781248714e-05	1.996987991262113172e-03
5.707603141842857442e-01	4.377469154010480736e-03	-1.125034605350380516e-02	1.138169982569522563e-03	7.067342843684584208e-01	1.126261502783005408e+00	1.000040059762140610e+00	-9.943704404224098028e-03	2.454752358956133291e-05	2.007786176858668455e-03
5.907869918749625304e-01	4.060907759283835343e-03	-1.082513837537168143e-02	1.176583198701040139e-03	7.108490913053671090e-01	1.132983297203286499e+00	1.000040231546687197e+00	-9.861115199190756062e-03	2.608894178907221641e-05	2.007504123751319754e-03
6.108136695656392057e-01	3.755881291803746941e-03	-1.039841999467424304e-02	1.215662141768996448e-03	7.150204112064812989e-01	1.139609422719162213e+00	1.000040404126218085e+00	-9.782061452497287785e-03	2.759781542458077016e-05	1.996336494132225185e-03
6.308403472563158809e-01	3.463132555016776738e-03	-9.971333926430630754e-03	1.255560214063298737e-03	7.192396100484229615e-01	1.146109717017850471e+00	1.000040577187368385e+00	-9.706725803408021783e-03	2.906496742475599466e-05	1.974617652680305327e-03
6.508670249469925562e-01	3.183270096460594049e-03	-9.545008904273328751e-03	1.296444146711423721e-03	7.234979314449609955e-01	1.152454522026337136e+00	1.000040750399036948e+00	-9.635203487435416853e-03	3.048179577937571602e-05	1.942813230698866526e-03
6.708937026376692314e-01	2.916770099028924337e-03	-9.120552478181841866e-03	1.338497153261372034e-03	7.277865508884543422e-01	1.158614972095588502e+00	1.000040923419134975e+00	-9.567495491021860837e-03	3.184039839312303630e-05	1.901509377047563322e-03
6.909203803283459067e-01	2.663979793739278644e-03	-8.699044688103752324e-03	1.381919335186753686e-03	7.320966114085800669e-01	1.164563285677382209e+00	1.000041095877924446e+00	-9.503505047838698913e-03	3.313361485659752369e-05	1.851399940708169881e-03
7.109470580190225819e-01	2.425122274227862248e-03	-8.281531874575909918e-03	1.426931713277429081e-03	7.364192643903890723e-01	1.170273054254758360e+00	1.000041267386271082e+00	-9.443033300944684086e-03	3.435513166730529920e-05	1.793271890423869331e-03
7.309737357096993682e-01	2.200302569970088822e-03	-7.869020944655202160e-03	1.473777443927553688e-03	7.407457153234027203e-01	1.175719522261999828e+00	1.000041437517737331e+00	-9.385779338200268482e-03	3.549949689995710088e-05	1.727989327907909680e-03
7.510004134003760434e-01	1.989514815243408757e-03	-7.462474193894032097e-03	1.522726969950047001e-03	7.450672527029884584e-01	1.180879851425272298e+00	1.000041605819001811e+00	-9.331338719325902448e-03	3.656220297895313055e-05	1.656476490542987999e-03
7.710270910910527187e-01	1.792650336172933690e-03	-7.062804613005990370e-03	1.574080352669827640e-03	7.493752940534030849e-01	1.185733363462453394e+00	1.000041771790803669e+00	-9.279207136529327160e-03	3.753967339063465653e-05	1.579700164789411354e-03
7.910537687817293939e-01	1.609506467377489706e-03	-6.670871891323712846e-03	1.628173851592472875e-03	7.536614134594349368e-01	1.190261755237723040e+00	1.000041934901082952e+00	-9.228781978624910412e-03	3.842932051570797621e-05	1.498651941137301704e-03
8.110804464724060692e-01	1.439795905429923535e-03	-6.287478990833983428e-03	1.685383756236947996e-03	7.579173886395759174e-01	1.194449281515427064e+00	1.000042094565027684e+00	-9.179369699695438464e-03	3.922950409182739611e-05	1.414330735227411822e-03
8.311071241630827444e-01	1.283156405888690420e-03	-5.913369883166812169e-03	1.746134799406098490e-03	7.621351903990739585e-01	1.198282901012508006e+00	1.000042250161273349e+00	-9.130189910182927651e-03	3.993956226582444705e-05	1.327725977281610540e-03
8.511338018537595307e-01	1.139160636930431313e-03	-5.549227453234926478e-03	1.810906014000332942e-03	7.663070232653587111e-01	1.201752382923647611e+00	1.000042401011264515e+00	-9.080386589626159716e-03	4.055974320307792610e-05	1.239801835657446246e-03
8.711604795444362059e-01	1.007326012017207119e-03	-5.195672275749570884e-03	1.880241517557763300e-03	7.704253621968971677e-01	1.204850371868889658e+00	1.000042546399111609e+00	-9.029036162147079450e-03	4.109120887183207880e-05	1.151482790895603462e-03
8.911871572351128812e-01	8.871243394069418817e-04	-4.853262489707244054e-03	1.954759035814514906e-03	7.744829137284219289e-01	1.207572410900710658e+00	1.000042685550453170e+00	-8.975162434294902195e-03	4.153594207731211039e-05	1.063640818633448818e-03
9.112138349257895564e-01	7.779911434977804024e-04	-4.522493772638886723e-03	2.035163801274572290e-03	7.784726523145251154e-01	1.209916922956888907e+00	1.000042817656740635e+00	-8.917749510920457839e-03	4.189672552013124363e-05	9.770843746262167923e-04
9.312405126164662317e-01	6.793345346924461060e-04	-4.203800187543444040e-03	2.122260573008503438e-03	7.823878081846884491e-01	1.211885152793758635e+00	1.000042941854287104e+00	-8.855763743782475717e-03	4.217702915993087138e-05	8.925493085873017303e-04
9.512671903071429069e-01	5.905435263123688097e-04	-3.897555383763268589e-03	2.216971491397253923e-03	7.862218647407899219e-01	1.213481071910276876e+00	1.000043057254174528e+00	-8.788174057651174792e-03	4.238096837227638651e-05	8.106917669234175615e-04
9.712938679978196932e-01	5.109957216653675293e-04	-3.604074174935740452e-03	2.320352529632078130e-03	7.899685664558997455e-01	1.214711250362223716e+00	1.000043162922794604e+00	-8.713984686374361133e-03	4.251317887008956826e-05	7.320830834432342192e-04
9.913205456884963684e-01	4.400643174514925495e-04	-3.323614656775426054e-03	2.433616135596556977e-03	7.936218459131464398e-01	1.215584699387089573e+00	1.000043257919319029e+00	-8.632267467710570685e-03	4.257875997653652014e-05	6.572066021305821796e-04
1.011347223379172933e+00	3.771243937480315785e-04	-3.056379835385036013e-03	2.558152851353215958e-03	7.971758913335744712e-01	1.216112689758034326e+00	1.000043341279934328e+00	-8.542211489382816464e-03	4.258314573004820915e-05	5.864563318492776144e-04
1.031373901069849497e+00	3.215584820124084485e-04	-2.802519833877661643e-03	2.695559014020518836e-03	8.006250802810467304e-01	1.216308550275734035e+00	1.000043412065885429e+00	-8.443174425340248604e-03	4.253203991294441494e-05	5.201372983165759205e-04
1.051400578760526283e+00	2.727614231979123686e-04	-2.562133594098560570e-03	2.847663203316030088e-03	8.039639860999915344e-01	1.216187451398052621e+00	1.000043469354422676e+00	-8.334753740218180454e-03	4.243129141683084615e-05	4.584674369804504139e-04
1.071427256451203069e+00	2.301445448449208322e-04	-2.335270423519768268e-03	3.016557507347828251e-03	8.071873572324275159e-01	1.215766178005030174e+00	1.000043512301045379e+00	-8.216862056152261784e-03	4.228682858838773664e-05	4.015808588642168480e-04
1.091453934141879634e+00	1.931392009612563658e-04	-2.121930841550075889e-03	3.204625480363417454e-03	8.102901560727354680e-01	1.215062895575781621e+00	1.000043540140558740e+00	-8.089822407640575794e-03	4.210454561475479476e-05	3.495323212325231123e-04
1.111480611832556420e+00	1.611997287341029818e-04	-1.922067232922906399e-03	3.414570838782128841e-03	8.132675212543315491e-01	1.214096912699970332e+00	1.000043552266481228e+00	-7.954463021612005746e-03	4.189024209437206307e-05	3.023027417969837631e-04
1.131507289523232984e+00	1.338058833555128935e-04	-1.735583297816019419e-03	3.649436766006023194e-03	8.161148914279109379e-01	1.212888442998510952e+00	1.000043548243777947e+00	-7.812224390346328602e-03	4.164952605039794474e-05	2.598056084021562883e-04
1.151533967213909770e+00	1.104648139950678879e-04	-1.562333652636991709e-03	3.912616009663749672e-03	8.188278699317858011e-01	1.211458368048245138e+00	1.000043527904975749e+00	-7.665248243983836113e-03	4.138776333737107058e-05	2.218941500875088412e-04
1.171560644904586557e+00	9.071264167698648369e-05	-1.402121555803888904e-03	4.207837706032066007e-03	8.214025449442451388e-01	1.209828003187900292e+00	1.000043491370182114e+00	-7.516457558207062864e-03	4.111000151860951565e-05	1.883691478252497880e-04
1.191587322595263121e+00	7.411569166082864542e-05	-1.254697495215929392e-03	4.539124690734215768e-03	8.238353414153718468e-01	1.208018866766822574e+00	1.000043439151021341e+00	-7.369583626029933485e-03	4.082093226714026123e-05	1.589872680572302765e-04
1.211614000285939907e+00	6.027142056722417326e-05	-1.119756303012409832e-03	4.910701370638941368e-03	8.261232612726281399e-01	1.206052454104504346e+00	1.000043372162896960e+00	-7.229143335087682802e-03	4.052483877123563404e-05	1.334697971301496947e-04
1.231640677976616471e+00	4.880906144491534474e-05	-9.969352123045107858e-04	5.326838191656444593e-03	8.282639819960053718e-01	1.203950016575532578e+00	1.000043291814833868e+00	-7.100323114604204129e-03	4.022557457016451304e-05	1.115116359994833132e-04
1.251667355667293258e+00	3.938999107419883529e-05	-8.858118387728267139e-04	5.791608074960589991e-03	8.302559868796733911e-01	1.201732347599161033e+00	1.000043199985876763e+00	-6.988771768235236236e-03	3.992653500798756854e-05	9.279038345112242798e-05
1.271694033357969822e+00	3.170780470150114610e-05	-7.859038562835730327e-04	6.308539094709539850e-03	8.320987515896741682e-01	1.199419577052357466e+00	1.000043099068333996e+00	-6.900279144503879830e-03	3.963065443771653448e-05	7.697529506222853017e-05
1.291720711048646608e+00	2.548806847483540801e-05	-6.966698695898753887e-04	6.880147088296280529e-03	8.337928429673600039e-01	1.197030977582979938e+00	1.000042991875190967e+00	-6.840368733660661185e-03	3.934040079943654672e-05	6.373586289779126462e-05
1.311747388739323394e+00	2.048771218167159589e-05	-6.175131295231543358e-04	7.507353979784355674e-03	8.353400549069499581e-01	1.194584786312034685e+00	1.000042881609310985e+00	-6.813820455996618883e-03	3.905779004908030427e-05	5.274972804656181860e-05
1.331774066429999959e+00	1.649402839441095947e-05	-5.477873624913510552e-04	8.188818278386475816e-03	8.367433552098728633e-01	1.192098047333659538e+00	1.000042771686386667e+00	-6.824192706294114098e-03	3.878440007287401294e-05	4.370962836926770879e-05
1.351800744120676745e+00	1.332325979913921532e-05	-4.868056910426198135e-04	8.920247592307826989e-03	8.380072536777984915e-01	1.189586479823949716e+00	1.000042665633043226e+00	-6.873396642190531154e-03	3.852139825185093680e-05	3.632910802315773786e-05
1.371827421811353309e+00	1.081878363655267376e-05	-4.338518467190425536e-04	9.693802481618217157e-03	8.391377161390354278e-01	1.187064377425593564e+00	1.000042566850665615e+00	-6.961399666947564943e-03	3.826956885348287558e-05	3.034677954442200880e-05
1.391854099502030095e+00	8.848936194087844831e-06	-3.881942490645836990e-04	1.049774366354818723e-02	8.401414404074390996e-01	1.184544542512045773e+00	1.000042478489092668e+00	-7.086088551864248679e-03	3.802935044591846428e-05	2.552902945726224086e-05
1.411880777192706660e+00	7.304554855748192402e-06	-3.490996360444404366e-04	1.131648402968477192e-02	8.410266851994266935e-01	1.182038258279107801e+00	1.000042403213972086e+00	-7.243357700167959816e-03	3.780087615695230512e-05	2.167118127947523598e-05
1.431907454883383446e+00	6.096342674567016540e-06	-3.158485980574455556e-04	1.213117621496114136e-02	8.418020815706205306e-01	1.179555298262908059e+00	1.000042343126103184e+00	-7.427371093749001937e-03	3.758402043924170062e-05	1.859725408613009781e-05
1.451934132574060232e+00	5.152174965771312558e-06	-2.877481342720766898e-04	1.292087653648753276e-02	8.424773772289950724e-01	1.177103971552809769e+00	1.000042299599660289e+00	-7.631034187520419412e-03	3.737845279191379951e-05	1.615855809068591540e-05
1.471960810264736796e+00	4.414466121194609281e-06	-2.641442224272340855e-04	1.366418902779902370e-02	8.430621135550120382e-01	1.174691198570796180e+00	1.000042273303389573e+00	-7.846563241376881132e-03	3.718369106169119490e-05	1.423143323034555754e-05
1.491987487955413583e+00	3.837698800053836992e-06	-2.444297873209162536e-04	1.434115608288337278e-02	8.435659827824417700e-01	1.172322611624588395e+00	1.000042264148794491e+00	-8.066157107673378041e-03	3.699915874182315584e-05	1.271445520498013371e-05
1.512014165646090147e+00	3.386191304517034080e-06	-2.280512592964494944e-04	1.493506125757883100e-02	8.439988308291459518e-01	1.170002672189684345e+00	1.000042271429461893e+00	-8.282620809234475523e-03	3.682422862654849790e-05	1.152540944875773808e-05
1.532040843336766933e+00	3.032148053672330583e-06	-2.145112696954026951e-04	1.543381825158959830e-02	8.443690676301127684e-01	1.167734797835705995e+00	1.000042293868340870e+00	-8.489888241193161919e-03	3.665826382856233654e-05	1.059827952393821199e-05
1.552067521027443719e+00	2.754008642204944306e-06	-2.033692323823760209e-04	1.583070720420022906e-02	8.446854422206709900e-01	1.165521491126109144e+00	1.000042329835634680e+00	-8.683351299756067801e-03	3.650063899404048032e-05	9.880428030306931408e-06
1.572094198718120284e+00	2.535086770396763104e-06	-1.942394313388425681e-04	1.612439412400655872e-02	8.449553771406350666e-01	1.163364465427975780e+00	1.000042377431033191e+00	-8.859970075397601355e-03	3.635075898066920263e-05	9.330079659016449220e-06
1.592120876408797070e+00	2.362473703230406346e-06	-1.867882092125559043e-04	1.631832080023101067e-02	8.451860005741047566e-01	1.161264762934073769e+00	1.000042434703474425e+00	-9.018163072662571320e-03	3.620806232184202596e-05	8.914157197584120465e-06
1.612147554099473634e+00	2.226171495543998869e-06	-1.807295228909771233e-04	1.641967862543717085e-02	8.453824842692601038e-01	1.159222863177520546e+00	1.000042499694846931e+00	-9.157572464840620097e-03	3.607202936246758587e-05	8.606476861144494840e-06
1.632174231790150420e+00	2.118418193222558062e-06	-1.758201794320745118e-04	1.643820008798109814e-02	8.455510178688526723e-01	1.157238780213757590e+00	1.000042570606765491e+00	-9.278766684737196554e-03	3.594217891006704806e-05	8.386279806555233784e-06
1.652200909480826985e+00	2.033168347632438341e-06	-1.718551921427750797e-04	1.638498745814642721e-02	8.456952024933928058e-01	1.155312148980289111e+00	1.000042645776933137e+00	-9.382921191779131434e-03	3.581807254139159644e-05	8.237060170509002873e-06
1.672227587171503771e+00	1.965696158643506090e-06	-1.686626865002208251e-04	1.627151409443279920e-02	8.458199021119582328e-01	1.153442300363477058e+00	1.000042723789583032e+00	-9.471576702494693273e-03	3.569931033265373783e-05	8.145643371183372767e-06
1.692254264862180557e+00	1.912293503536325732e-06	-1.660997979958451132e-04	1.610887321231113667e-02	8.459269849496355853e-01	1.151628326385709222e+00	1.000042803399000091e+00	-9.546414533747112074e-03	3.558553228667069897e-05	8.101468583228262169e-06
1.712280942552857121e+00	1.870040410159374053e-06	-1.640479447050855182e-04	1.590727614475291249e-02	8.460203698594339627e-01	1.149869135440389600e+00	1.000042883607911604e+00	-9.609150247147374077e-03	3.547641413513202092e-05	8.096033464659390077e-06
1.732307620243533908e+00	1.836630272533538678e-06	-1.624095909440492519e-04	1.567577236987346967e-02	8.461015193057394024e-01	1.148163499310929758e+00	1.000042963563609000e+00	-9.661415737865400311e-03	3.537166509504695929e-05	8.122465297296355182e-06
1.752334297934210472e+00	1.810236239568755629e-06	-1.611046933913915533e-04	1.542214105371721850e-02	8.461728223776054936e-01	1.146510091993455882e+00	1.000043042626890921e+00	-9.704721776572016248e-03	3.527102481575069296e-05	8.175189245780681407e-06
1.772360975624887258e+00	1.789408523551224765e-06	-1.600678434999593168e-04	1.515290284748560534e-02	8.462354647162917409e-01	1.144907522143512102e+00	1.000043120258162110e+00	-9.740431682720762652e-03	3.517425971396142935e-05	8.249670586561926529e-06
1.792387653315563822e+00	1.772994971807082297e-06	-1.592458060345329257e-04	1.487340746656131557e-02	8.462914974062979434e-01	1.143354359128468944e+00	1.000043196089249298e+00	-9.769752257113567886e-03	3.508115991393828404e-05	8.342213069843797509e-06
1.812414331006240609e+00	1.760079227324316022e-06	-1.585955947785035842e-04	1.458796159156345272e-02	8.463408064858026769e-01	1.141849154433057789e+00	1.000043269807352253e+00	-9.793724731068211356e-03	3.499153608385547281e-05	8.449799917328096931e-06
1.832441008696917395e+00	1.749932272457461461e-06	-1.580822196778825558e-04	1.429997280728525708e-02	8.463856579504814848e-01	1.140390458273213614e+00	1.000043341234523986e+00	-9.813262283140456940e-03	3.490521776657439109e-05	8.569967362835230479e-06
1.852467686387593959e+00	1.741974249683003622e-06	-1.576777754192565297e-04	1.401209136608828724e-02	8.464254946384317524e-01	1.138976833036708047e+00	1.000043410211845618e+00	-9.829126719941197465e-03	3.482204858124203587e-05	8.700703231753013082e-06
1.872494364078270745e+00	1.735744211436565578e-06	-1.573596360311046917e-04	1.372634441877427884e-02	8.464620889390577219e-01	1.137606863214334574e+00	1.000043476687585198e+00	-9.841976155911777088e-03	3.474188810570571454e-05	8.840364984974250650e-06
1.892521041768947310e+00	1.730876087238972974e-06	-1.571098680177166807e-04	1.344425144204682530e-02	8.464949478852968889e-01	1.136279163319017904e+00	1.000043540601518899e+00	-9.852351936229115578e-03	3.466460487090771374e-05	8.987613064040702573e-06
1.912547719459624096e+00	1.727079494850196716e-06	-1.569140230242658390e-04	1.316692782952689350e-02	8.465253773810040849e-01	1.134992383260400084e+00	1.000043601981507324e+00	-9.860713697535539862e-03	3.459008121763743906e-05	9.141356405350500104e-06
1.932574397150300882e+00	1.724124432624346972e-06	-1.567607295994220124e-04	1.289516668731326490e-02	8.465527947872348857e-01	1.133745212573199046e+00	1.000043660826986036e+00	-9.867434538875483746e-03	3.451820475452159633e-05	9.300707732469253969e-06
1.952601074840977446e+00	1.721829003555255339e-06	-1.566408029334105602e-04	1.262951177152314870e-02	8.465784977894432739e-01	1.132536382792112217e+00	1.000043717213198402e+00	-9.872831737837635055e-03	3.444887545653236752e-05	9.464946781926382124e-06
1.972627752531654233e+00	1.720049620168179501e-06	-1.565471086021816001e-04	1.237031048350946232e-02	8.466019059859163365e-01	1.131364669296183623e+00	1.000043771172854923e+00	-9.877157081950419665e-03	3.438199541161248617e-05	9.633490010589386849e-06
1.992654430222330797e+00	1.718673130792829928e-06	-1.564739485308400450e-04	1.211776319188690929e-02	8.466237719082017055e-01	1.130228891784857082e+00	1.000043822807283878e+00	-9.880619837991320639e-03	3.431747852610620851e-05	9.805865633331064263e-06
2.012681107913007583e+00	1.717610557495461700e-06	-1.564168417836970160e-04	1.187195512050699328e-02	8.466437718426317316e-01	1.129127914649274533e+00	1.000043872165330638e+00	-9.883390142067559683e-03	3.425523869909219969e-05	9.981693057193342244e-06
2.032707785603684147e+00	1.716792056295592055e-06	-1.563722678845724345e-04	1.163288888815456300e-02	8.466625058237652324e-01	1.128060646291069613e+00	1.000043919360823708e+00	-9.885605298260886908e-03	3.419520077492795387e-05	1.016066595601571642e-05
2.052734463294360712e+00	1.716162931334100791e-06	-1.563374624123108254e-04	1.140050244807644213e-02	8.466796084067226280e-01	1.127026038633108129e+00	1.000043964448031009e+00	-9.887376664731221260e-03	3.413728822580833460e-05	1.034253835822452312e-05
2.072761140985037720e+00	1.715680424024037390e-06	-1.563102253808871568e-04	1.117469051121050029e-02	8.466958649053385466e-01	1.126023085784118472e+00	1.000044007544977243e+00	-9.888796021263095495e-03	3.408143485712306970e-05	1.052711323409051639e-05
2.092787818675714284e+00	1.715311194707214557e-06	-1.562889106132017919e-04	1.095531344748300329e-02	8.467106456531540148e-01	1.125050823080441464e+00	1.000044048704933797e+00	-9.889932633720529762e-03	3.402757176274992312e-05	1.071423314998838636e-05
2.112814496366390848e+00	1.715029287877281691e-06	-1.562721727579636393e-04	1.074221197359300807e-02	8.467246447854148705e-01	1.124108325417875642e+00	1.000044088045245694e+00	-9.890845529687981516e-03	3.397564055941785138e-05	1.090377263512319718e-05
2.132841174057067857e+00	1.714814557081472977e-06	-1.562590017302420713e-04	1.053521011618558517e-02	8.467373739921524312e-01	1.123194706085299144e+00	1.000044125614570012e+00	-9.891579989786659921e-03	3.392557874098261881e-05	1.109563195901731220e-05
2.152867851747744421e+00	1.714651382657950949e-06	-1.562485897529384323e-04	1.033412587949877025e-02	8.467494589675987893e-01	1.122309114954875620e+00	1.000044161526994380e+00	-9.892173113685924155e-03	3.387733445261565497e-05	1.128973207450273160e-05
2.172894529438420985e+00	1.714527697733763306e-06	-1.562403349608070652e-04	1.013877062809949783e-02	8.467603527315364920e-01	1.121450737269005016e+00	1.000044195824618454e+00	-9.892653171648427626e-03	3.383085068544358236e-05	1.148601051558241132e-05
2.192921207129097994e+00	1.714434184348130717e-06	-1.562337484679533121e-04	9.948957342285649069e-03	8.467706958169763931e-01	1.120618791809040005e+00	1.000044228617027242e+00	-9.893043749369615641e-03	3.378608127567944231e-05	1.168441808126428205e-05
2.212947884819774558e+00	1.714363679684984862e-06	-1.562284677853202814e-04	9.764497803249989547e-03	8.467799735694100383e-01	1.119812529721584404e+00	1.000044259938988045e+00	-9.893362882391275662e-03	3.374297391954615526e-05	1.188491615905258146e-05
2.232974562510451122e+00	1.714310673567368617e-06	-1.562241899798710821e-04	9.585209491569294735e-03	8.467888264761905814e-01	1.119031232740042681e+00	1.000044289895164029e+00	-9.893625890816111490e-03	3.370148738915198806e-05	1.208747457316069812e-05
2.253001240201127686e+00	1.714270953034029787e-06	-1.562206853564575856e-04	9.410911432019272022e-03	8.467968682724900109e-01	1.118274212098928189e+00	1.000044318512813835e+00	-9.893844945583943340e-03	3.366157337182168274e-05	1.229206985630057085e-05
2.273027917891804695e+00	1.714241287928786860e-06	-1.562178717450645067e-04	9.241430388870312818e-03	8.468041620117040535e-01	1.117540806842527878e+00	1.000044345891755171e+00	-9.894023334512962523e-03	3.362319496641792856e-05	1.249868386811106360e-05
2.293054595582481259e+00	1.714219222708092959e-06	-1.562154891961907931e-04	9.076596097193580584e-03	8.468109264402619019e-01	1.116830382850516168e+00	1.000044372051880126e+00	-9.894176429552804103e-03	3.358630811169379207e-05	1.270730269073689123e-05
2.313081273273157823e+00	1.714202880947949619e-06	-1.562135523421207071e-04	8.916246433020628970e-03	8.468171089147419339e-01	1.116142331249523334e+00	1.000044397088496240e+00	-9.894302411560945698e-03	3.355087884710666359e-05	1.291791575092152460e-05
2.333107950963834831e+00	1.714190844537760324e-06	-1.562119059776320121e-04	8.760223115314874978e-03	8.468226204481287267e-01	1.115476067562231277e+00	1.000044421014537166e+00	-9.894410686398284749e-03	3.351686715859221552e-05	1.313051512142156661e-05
2.353134628654511395e+00	1.714182032851334049e-06	-1.562105304280808767e-04	8.608375821887826601e-03	8.468278083135054590e-01	1.114831030220829078e+00	1.000044443921205284e+00	-9.894501972530077294e-03	3.348424198923617153e-05	1.334509496869843445e-05
2.373161306345187960e+00	1.714175635021775585e-06	-1.562093970106861616e-04	8.460558228532878353e-03	8.468320802837934203e-01	1.114206679837172143e+00	1.000044465814921679e+00	-9.894578009590586365e-03	3.345296651751241779e-05	1.356165111525392176e-05
2.393187984035864524e+00	1.714171033558257702e-06	-1.562083743514756733e-04	8.316631769371647664e-03	8.468364841594109294e-01	1.113602497820458614e+00	1.000044486783258524e+00	-9.894646946507603194e-03	3.342301290437585246e-05	1.378018069562800607e-05
2.413214661726541532e+00	1.714167770462493343e-06	-1.562075509657868868e-04	8.176461345161348607e-03	8.468399398142307799e-01	1.113017985757592365e+00	1.000044506826629931e+00	-9.894703180082276700e-03	3.339434612631387526e-05	1.400068188451087986e-05
2.433241339417218096e+00	1.714165494788248665e-06	-1.562068275740771260e-04	8.039919740287537406e-03	8.468433436018112381e-01	1.112452664132179248e+00	1.000044526029447267e+00	-9.894752786062378097e-03	3.336694212069930376e-05	1.422315368466752523e-05
2.453268017107894661e+00	1.714163951319528598e-06	-1.562062107765261579e-04	7.906882398727060543e-03	8.468461704120120448e-01	1.111906071803450136e+00	1.000044544386583523e+00	-9.894795539069477924e-03	3.334076751455472174e-05	1.444759575908977017e-05
2.473294694798571669e+00	1.714162941823777836e-06	-1.562057255432095502e-04	7.777232483778579071e-03	8.468486178517097285e-01	1.111377764816146474e+00	1.000044561979743118e+00	-9.894829707125510007e-03	3.331580107654901000e-05	1.467400830153383655e-05
2.493321372489248233e+00	1.714162325912588065e-06	-1.562053052564780532e-04	7.650855390703134584e-03	8.468506272049978190e-01	1.110867315976470593e+00	1.000044578798648942e+00	-9.894859625569558600e-03	3.329201177626132095e-05	1.490239193351988860e-05
2.513348050179924797e+00	1.714161992344655818e-06	-1.562049633728870629e-04	7.527643659400804453e-03	8.468524962519247135e-01	1.110374313739826091e+00	1.000044594922767649e+00	-9.894884358494794238e-03	3.326938030999993250e-05	1.513274762587753740e-05
2.533374727870601362e+00	1.714161865457317622e-06	-1.562046994725934366e-04	7.407491763352666223e-03	8.468537972703968908e-01	1.109898361870038874e+00	1.000044610337069928e+00	-9.894904088616913659e-03	3.324787760930259423e-05	1.536507663568083631e-05
2.553401405561278370e+00	1.714161882575150237e-06	-1.562045075288629955e-04	7.290300935239366412e-03	8.468549242414076250e-01	1.109439078401590617e+00	1.000044625119134833e+00	-9.894919040301848948e-03	3.322748667572200578e-05	1.559938045919220749e-05
2.573428083251954934e+00	1.714162004284886888e-06	-1.562043058630536183e-04	7.175973871126077944e-03	8.468559603534340230e-01	1.108996095373613322e+00	1.000044639249558331e+00	-9.894934556944538426e-03	3.320817996770105172e-05	1.583566079302239156e-05
2.593454760942631498e+00	1.714162195387241242e-06	-1.562042162000980912e-04	7.064419556911265968e-03	8.468565938551466665e-01	1.108569057857677453e+00	1.000044652804372491e+00	-9.894942794469799296e-03	3.318994184805582862e-05	1.607391950621535367e-05
2.613481438633308507e+00	1.714162435697399532e-06	-1.562041645956179620e-04	6.955548449407320151e-03	8.468568464796494277e-01	1.108157623759150168e+00	1.000044665760100981e+00	-9.894948564707630248e-03	3.317274741715786195e-05	1.631415861611148672e-05
2.633508116323985071e+00	1.714162705321051491e-06	-1.562041373414241058e-04	6.849276585215387063e-03	8.468571429356220870e-01	1.107761462896932780e+00	1.000044678191555514e+00	-9.894952687166287675e-03	3.315658227516783246e-05	1.655638027179605904e-05
2.653534794014661635e+00	1.714162995092129395e-06	-1.562041776191620650e-04	6.745521213630064142e-03	8.468569160621077785e-01	1.107380256873787383e+00	1.000044690071480780e+00	-9.894952435393580825e-03	3.314142269939069426e-05	1.680058673889907940e-05
2.673561471705338199e+00	1.714163292988427809e-06	-1.562042318263904249e-04	6.644205004589945861e-03	8.468567824674403388e-01	1.107013698197595986e+00	1.000044701473720821e+00	-9.894951211567058064e-03	3.312725646105023494e-05	1.704678038989881621e-05
2.693588149396015208e+00	1.714163596020399002e-06	-1.562043461748515176e-04	6.545251315247700534e-03	8.468561850353747422e-01	1.106661490216325650e+00	1.000044712367453625e+00	-9.894946183127049932e-03	3.311406053674688854e-05	1.729496369415271095e-05
2.713614827086691772e+00	1.714163896317252527e-06	-1.562044836679589931e-04	6.448588864868863915e-03	8.468555770563617191e-01	1.106323346269910468e+00	1.000044722825892407e+00	-9.894939488147305728e-03	3.310182478688167610e-05	1.754513921234394566e-05
2.733641504777368336e+00	1.714164194239456596e-06	-1.562046222676165958e-04	6.354146581594763421e-03	8.468548532892158365e-01	1.105998989685833989e+00	1.000044732814806103e+00	-9.894932723059933488e-03	3.309052683351626197e-05	1.779730958956585591e-05
2.753668182468045345e+00	1.714164484382785576e-06	-1.562048139334488083e-04	6.261858572854708468e-03	8.468539508175146890e-01	1.105688152963085535e+00	1.000044742406987153e+00	-9.894922523058400851e-03	3.308015785559966692e-05	1.805147755231613618e-05
2.773694860158721909e+00	1.714164768456361582e-06	-1.562050251054929607e-04	6.171659025342861836e-03	8.468528324758246573e-01	1.105390577816336650e+00	1.000044751565033252e+00	-9.894911013214829562e-03	3.307069696404593164e-05	1.830764590343102714e-05
2.793721537849398473e+00	1.714165042478035608e-06	-1.562052441062669107e-04	6.083486936066289513e-03	8.468517562306087099e-01	1.105106014385634827e+00	1.000044760361482821e+00	-9.894898969649901233e-03	3.306213644488487357e-05	1.856581752045313065e-05
2.813748215540075037e+00	1.714165309043975495e-06	-1.562055125046986185e-04	5.997281166526659789e-03	8.468503281921895276e-01	1.104834221332726463e+00	1.000044768755925073e+00	-9.894883728459917538e-03	3.305445611362756544e-05	1.882599535181687817e-05
2.833774893230752046e+00	1.714165564619349490e-06	-1.562057923240237187e-04	5.912985325953560960e-03	8.468489220695051278e-01	1.104574965064777592e+00	1.000044776820865566e+00	-9.894867561529605698e-03	3.304765008330758970e-05	1.908818241601744909e-05
2.853801570921428610e+00	1.714165812415271354e-06	-1.562060430237993279e-04	5.830542479090792402e-03	8.468476032444982593e-01	1.104328019887272916e+00	1.000044784512960971e+00	-9.894853398216692589e-03	3.304169842266946132e-05	1.935238179857207063e-05
2.873828248612105174e+00	1.714166049418175948e-06	-1.562063716199161428e-04	5.749900302189915949e-03	8.468459168286958105e-01	1.104093167226686489e+00	1.000044791904909580e+00	-9.894834197647936133e-03	3.303659611621143348e-05	1.961859665155193038e-05
2.893854926302782182e+00	1.714166278481308791e-06	-1.562067093075118567e-04	5.671006007569368013e-03	8.468441176381741320e-01	1.103870195843023039e+00	1.000044798950555425e+00	-9.894814267790277840e-03	3.303232513860559892e-05	1.988683019133704441e-05
2.913881603993458747e+00	1.714166497100322107e-06	-1.562070428370431342e-04	5.593810924813041527e-03	8.468423845144615880e-01	1.103658901057773312e+00	1.000044805722884345e+00	-9.894794585664310610e-03	3.302888090968412896e-05	2.015708569812885075e-05
2.933908281684135311e+00	1.714166708299788861e-06	-1.562073678759708735e-04	5.518265813925067598e-03	8.468406600200697465e-01	1.103459085004787177e+00	1.000044812173052522e+00	-9.894775431616835773e-03	3.302624571992627053e-05	2.042936651419451676e-05
2.953934959374811875e+00	1.714166909661531634e-06	-1.562077386033719625e-04	5.444325480530128568e-03	8.468387281936938793e-01	1.103270555869736436e+00	1.000044818374534961e+00	-9.894753285513464489e-03	3.302441610759017127e-05	2.070367604358151618e-05
2.973961637065488883e+00	1.714167103968070596e-06	-1.562080847816722079e-04	5.371944088725303171e-03	8.468368817017108974e-01	1.103093128177955462e+00	1.000044824275858835e+00	-9.894732669204231792e-03	3.302337553240051722e-05	2.098001775057985429e-05
2.993988314756165448e+00	1.714167289169389717e-06	-1.562084260299666683e-04	5.301079491256243358e-03	8.468351024636394664e-01	1.102926622044088756e+00	1.000044829951066028e+00	-9.894712304282933871e-03	3.302312072848723076e-05	2.125839515957275982e-05
3.014014992446842012e+00	1.714167467933754165e-06	-1.562087952099239978e-04	5.231688917739287306e-03	8.468331249338247879e-01	1.102770863489416886e+00	1.000044835346173722e+00	-9.894690139744203444e-03	3.302363585773629526e-05	2.153881185367943990e-05
3.034041670137519020e+00	1.714167638057343242e-06	-1.562091836598062029e-04	5.163733234021697198e-03	8.468310852637700448e-01	1.102625683700485082e+00	1.000044840535916357e+00	-9.894666675142139989e-03	3.302491915393983713e-05	2.182127147472579315e-05
3.054068347828195584e+00	1.714167802212564318e-06	-1.562095739737667712e-04	5.097172434353854607e-03	8.468289878366221934e-01	1.102490919378553924e+00	1.000044845463855081e+00	-9.894643082734541281e-03	3.302695510342886653e-05	2.210577772201705548e-05
3.074095025518872148e+00	1.714167958310204278e-06	-1.562099433237374639e-04	5.031970036716139870e-03	8.468270633154914018e-01	1.102366412001757778e+00	1.000044850205494606e+00	-9.894620769244152556e-03	3.302974260626630003e-05	2.239233435238222530e-05
3.094121703209549157e+00	1.714168109084681562e-06	-1.562103272927501361e-04	4.968088544373865274e-03	8.468249764809486768e-01	1.102252008203324696e+00	1.000044854702024866e+00	-9.894597462089930323e-03	3.303326617568995573e-05	2.268094517907737271e-05
3.114148380900225721e+00	1.714168252303185135e-06	-1.562106950688509695e-04	4.905494034007702731e-03	8.468230639678142602e-01	1.102147559037349733e+00	1.000044859029847855e+00	-9.894575153647063026e-03	3.303752609485598868e-05	2.297161407188598917e-05
3.134175058590902285e+00	1.714168390776736346e-06	-1.562110532454558543e-04	4.844151305167036271e-03	8.468211091755746267e-01	1.102052920385417023e+00	1.000044863127793393e+00	-9.894553446110076339e-03	3.304250676737909774e-05	2.326434495611824855e-05
3.154201736281578849e+00	1.714168522224165987e-06	-1.562114743181596585e-04	4.784028757126503918e-03	8.468189057767168126e-01	1.101967952224056857e+00	1.000044867073245580e+00	-9.894527674791995034e-03	3.304820955356120257e-05	2.355914181283196417e-05
3.174228413972255858e+00	1.714168649150905192e-06	-1.562118014664529500e-04	4.725093493492200751e-03	8.468171145763068175e-01	1.101892519054608721e+00	1.000044870802752950e+00	-9.894507841868445050e-03	3.305462000503572097e-05	2.385600867782557166e-05
3.194255091662932422e+00	1.714168769886240763e-06	-1.562121945819502445e-04	4.667315726915199914e-03	8.468150659116691070e-01	1.101826489175161239e+00	1.000044874394738548e+00	-9.894483764669425793e-03	3.306173822257385775e-05	2.415494964191301484e-05
3.214281769353608986e+00	1.714168886274810561e-06	-1.562125742306562717e-04	4.610664883982579405e-03	8.468129998970747030e-01	1.101769735134579875e+00	1.000044877783513142e+00	-9.894460538318949200e-03	3.306955219264569188e-05	2.445596885015726565e-05
3.234308447044285995e+00	1.714168996926589895e-06	-1.562129630403746611e-04	4.555112991182301216e-03	8.468109561634773463e-01	1.101722132999460868e+00	1.000044881048595569e+00	-9.894436684835271334e-03	3.307806178475040216e-05	2.475907050195112766e-05
3.254335124734962559e+00	1.714169103617188947e-06	-1.562132985608401302e-04	4.500631351977705391e-03	8.468091454671947682e-01	1.101683562836167418e+00	1.000044884122120559e+00	-9.894416166301602325e-03	3.308725538519424438e-05	2.506425885048023752e-05
3.274361802425639123e+00	1.714169205183134271e-06	-1.562136484792940702e-04	4.447193678458523196e-03	8.468073044998033483e-01	1.101653907974425195e+00	1.000044887084733158e+00	-9.894394723195268360e-03	3.309713265341446937e-05	2.537153820277675333e-05
3.294388480116315687e+00	1.714169303108218586e-06	-1.562139910604836692e-04	4.394773131821209586e-03	8.468054387858945375e-01	1.101633055514826820e+00	1.000044889866468001e+00	-9.894373704968512095e-03	3.310768321984160266e-05	2.568091291939573719e-05
3.314415157806992696e+00	1.714169396281729282e-06	-1.562143393128106290e-04	4.343345068889002333e-03	8.468036258067229705e-01	1.101620895579593418e+00	1.000044892549161846e+00	-9.894352298451878150e-03	3.311890717115064195e-05	2.599238741418167568e-05
3.334441835497669260e+00	1.714169486122965352e-06	-1.562146765653069850e-04	4.292884265260114504e-03	8.468017874874828044e-01	1.101617321857937704e+00	1.000044895060690386e+00	-9.894331562236940297e-03	3.313079453489660507e-05	2.630596615442433391e-05
3.354468513188345824e+00	1.714169571588276328e-06	-1.562149835972902103e-04	4.243367590519254648e-03	8.468001960398650052e-01	1.101622230835640259e+00	1.000044897484222650e+00	-9.894312711345276679e-03	3.314334571073495944e-05	2.662165366023214086e-05
3.374495190879022832e+00	1.714169654134439235e-06	-1.562153137318042018e-04	4.194771261257735848e-03	8.467984009585435290e-01	1.101635522376792631e+00	1.000044899745491378e+00	-9.894292383213954337e-03	3.315655064635043554e-05	2.693945450513961367e-05
3.394521868569699397e+00	1.714169732525094925e-06	-1.562156151763615601e-04	4.147073695665841157e-03	8.467968042602809220e-01	1.101657098936783985e+00	1.000044901929019181e+00	-9.894273846347828930e-03	3.317041117448951915e-05	2.725937331520108322e-05
3.414548546260375961e+00	1.714169808369718865e-06	-1.562159132410806796e-04	4.100252378615091946e-03	8.467951829981321676e-01	1.101686866169979906e+00	1.000044903958411835e+00	-9.894255453000077791e-03	3.318491660781238285e-05	2.758141476979237010e-05
3.434575223951052525e+00	1.714169880341449401e-06	-1.562162227629132418e-04	4.054287119257302119e-03	8.467935575354674782e-01	1.101724732137380647e+00	1.000044905919625471e+00	-9.894236372826199430e-03	3.320006978394200584e-05	2.790558360071142543e-05
3.454601901641729533e+00	1.714169949981655682e-06	-1.562164903905530991e-04	4.009156699378658983e-03	8.467920903683298084e-01	1.101770607934758228e+00	1.000044907734128907e+00	-9.894219938238135725e-03	3.321586034638936564e-05	2.823188459309956721e-05
3.474628579332406098e+00	1.714170016145385484e-06	-1.562167656604140952e-04	3.964842067182383460e-03	8.467906395923355811e-01	1.101824406889370556e+00	1.000044909489357092e+00	-9.894202861395423251e-03	3.323229084171595502e-05	2.856032258441384308e-05
3.494655257023082662e+00	1.714170080190878162e-06	-1.562170107455752453e-04	3.921323279729039407e-03	8.467893055632875754e-01	1.101886045211564635e+00	1.000044911104695622e+00	-9.894187918952518715e-03	3.324935178173063705e-05	2.889090246547375968e-05
3.514681934713759670e+00	1.714170141070277303e-06	-1.562173025828167655e-04	3.878582386286176433e-03	8.467877429257296695e-01	1.101955441185302531e+00	1.000044912669056041e+00	-9.894169706942124165e-03	3.326704577551231926e-05	2.922362917955123729e-05
3.534708612404436234e+00	1.714170199905406895e-06	-1.562174972860669244e-04	3.836600677984516091e-03	8.467866830259993538e-01	1.102032515829229453e+00	1.000044914099753157e+00	-9.894157777243995505e-03	3.328536458359113138e-05	2.955850772316772539e-05
3.554735290095112799e+00	1.714170256102697800e-06	-1.562177036702487771e-04	3.795360995108883109e-03	8.467856066438100848e-01	1.102117192102961551e+00	1.000044915487204644e+00	-9.894145221518890060e-03	3.330430884384455345e-05	2.989554314568051519e-05
3.574761967785789363e+00	1.714170310410123099e-06	-1.562179502319803936e-04	3.754845880910068559e-03	8.467842591913744554e-01	1.102209395554646809e+00	1.000044916746732682e+00	-9.894129849934268570e-03	3.332387238306108024e-05	3.023474054967984219e-05
3.594788645476466371e+00	1.714170362124021180e-06	-1.562181419109211526e-04	3.715039247034822995e-03	8.467832620254354126e-01	1.102309053539596739e+00	1.000044917970236646e+00	-9.894118111557992368e-03	3.334405688781342077e-05	3.057610509068717648e-05
3.614815323167142935e+00	1.714170412293703025e-06	-1.562183127593847571e-04	3.675924390727813070e-03	8.467823218404071373e-01	1.102416095886521452e+00	1.000044919071061189e+00	-9.894107567280686910e-03	3.336485453078868053e-05	3.091964197776914201e-05
3.634842000857819500e+00	1.714170460099718890e-06	-1.562185339924539206e-04	3.637486234019493558e-03	8.467811766975995580e-01	1.102530454099963197e+00	1.000044920142623806e+00	-9.894093898454541305e-03	3.338626807928776752e-05	3.126535647318174922e-05
3.654868678548496508e+00	1.714170506356209739e-06	-1.562186982189748934e-04	3.599709110873781925e-03	8.467802450505763634e-01	1.102652062047541515e+00	1.000044921096277184e+00	-9.894083799962247183e-03	3.340829112880636771e-05	3.161325389294433779e-05
3.674895356239173072e+00	1.714170550582599359e-06	-1.562188330670470280e-04	3.562578593691316867e-03	8.467795696806784678e-01	1.102780855150313988e+00	1.000044922027027550e+00	-9.894075532461512820e-03	3.343092482189592083e-05	3.196333960647098856e-05
3.694922033929849636e+00	1.714170593499063749e-06	-1.562189899390199592e-04	3.526079901594850532e-03	8.467786777559248579e-01	1.102916771092253390e+00	1.000044922844228079e+00	-9.894065861252604455e-03	3.345416332237901967e-05	3.231561903729758274e-05
3.714948711620526201e+00	1.714170634449213362e-06	-1.562191384215103410e-04	3.490199540976369856e-03	8.467779175995273633e-01	1.103059749000787404e+00	1.000044923644501260e+00	-9.894056702748369944e-03	3.347800925658994746e-05	3.267009766278218937e-05
3.734975389311203209e+00	1.714170674239512078e-06	-1.562192415634776929e-04	3.454923442832207037e-03	8.467773259203421610e-01	1.103209730166234248e+00	1.000044924335212970e+00	-9.894050421334963166e-03	3.350245626893165918e-05	3.302678101454013538e-05
3.755002067001879773e+00	1.714170712325770028e-06	-1.562193559467609199e-04	3.420238798934734266e-03	8.467767238311829647e-01	1.103366657222819791e+00	1.000044925014592634e+00	-9.894043419647967352e-03	3.352750660987008173e-05	3.338567467857821624e-05
3.775028744692556337e+00	1.714170749338680744e-06	-1.562194513004765931e-04	3.386132383030282435e-03	8.467761864847572761e-01	1.103530474876203149e+00	1.000044925588059463e+00	-9.894037571531838840e-03	3.355315511298460619e-05	3.374678429544490540e-05
3.795055422383233346e+00	1.714170784804386891e-06	-1.562195513571384693e-04	3.352592049571412238e-03	8.467756750262934728e-01	1.103701129084520449e+00	1.000044926155460034e+00	-9.894031438024340069e-03	3.357940388510981646e-05	3.411011556066402838e-05
3.815082100073909910e+00	1.714170819298087791e-06	-1.562195925225664693e-04	3.319605286635068323e-03	8.467754245477063790e-01	1.103878567788813436e+00	1.000044926620282659e+00	-9.894029039783413040e-03	3.360624818060914382e-05	3.447567422449926048e-05
3.835108777764586474e+00	1.714170852519435302e-06	-1.562196425558587843e-04	3.287160490938716238e-03	8.467751957109075356e-01	1.104062740097368156e+00	1.000044927083982405e+00	-9.894026046270229177e-03	3.363368915924821084e-05	3.484346609290994593e-05
3.855135455455263482e+00	1.714170884845135891e-06	-1.562196613450717541e-04	3.255245925047873298e-03	8.467750685083293982e-01	1.104253597020681710e+00	1.000044927448180410e+00	-9.894025052040950410e-03	3.366172353726595742e-05	3.521349702683212269e-05
3.875162133145940047e+00	1.714170916050754417e-06	-1.562197400069929691e-04	3.223850557203781272e-03	8.467746762166742380e-01	1.104451090653984169e+00	1.000044927815921580e+00	-9.894020032131495279e-03	3.369035221107006715e-05	3.558577294366304603e-05
3.895188810836616611e+00	1.714170946239839596e-06	-1.562197832544140756e-04	3.192963431567320560e-03	8.467744433619907030e-01	1.104655174933879991e+00	1.000044928086956109e+00	-9.894018393719008000e-03	3.371957393287252074e-05	3.596029981592375731e-05
3.915215488527293175e+00	1.714170976527843189e-06	-1.562198684913481501e-04	3.162573912154229439e-03	8.467739867841796997e-01	1.104865804407588747e+00	1.000044928366226937e+00	-9.893937717359120240e-03	3.374938788907873126e-05	3.633708368381613062e-05
3.935242166217970183e+00	1.714170995585103214e-06	-1.562198162200746047e-04	3.132671731531054982e-03	8.467742628767820356e-01	1.105082939785176022e+00	1.000044928553127876e+00	-9.894601798725729050e-03	3.377979433355095111e-05	3.671613052462766502e-05
3.955268843908646748e+00	1.714171077613165290e-06	-1.562193050425857578e-04	3.103246379485487781e-03	8.467770590049539248e-01	1.105306520756708988e+00	1.000044928787719112e+00	-9.891027128458350012e-03	3.381078834871806922e-05	3.709744747306967998e-05
3.975295521599323312e+00	1.714171125234019753e-06	-1.562192307711923875e-04	3.074287495054455095e-03	8.467774996938570720e-01	1.105536516493957677e+00	1.000044929012276151e+00	-9.889333400578403932e-03	3.384236264819289375e-05	3.748103894865539956e-05
3.995322199289999876e+00	1.714584732784533302e-06	-1.562432110176223226e-04	3.045531353289996409e-03	8.467602886736695922e-01	1.105725138389047624e+00	1.000000000000000000e+00	-1.000000000000000021e-02	3.387174561589884471e-05	3.787100112148618141e-05
