# Time=0.00620012400248 and Columns are r	p	Paether	ur	alpha	a	b	K	Sr_tilde	tau_tilde
1.001333884533834630e-02	1.199504605886114218e-02	-1.855177491073117108e-02	1.963885656147589318e-05	6.439750053799574436e-01	1.000061074139863893e+00	1.000013751585607569e+00	-1.069523010778652798e-02	2.218400000370725870e-10	1.503516597903883731e-06
3.004001653601504063e-02	1.196651811204675273e-02	-1.853076431836520044e-02	5.890613997240106900e-05	6.441549855503455602e-01	1.000439498589168696e+00	1.000013756818140864e+00	-1.069298375309352643e-02	5.981449836115681821e-09	1.350457546572402480e-05
5.006669422669172975e-02	1.190964140813071011e-02	-1.848878061051261942e-02	9.813919643854319681e-05	6.445147445903611771e-01	1.001195486433385851e+00	1.000013767143055343e+00	-1.068803860603252491e-02	2.761496405445731442e-08	3.736262601484454190e-05
7.009337191736843276e-02	1.182478670951343618e-02	-1.842590828584828380e-02	1.373143439303829867e-04	6.450538268221076565e-01	1.002327309211652251e+00	1.000013782522368944e+00	-1.068051574993092445e-02	7.545881559892953733e-08	7.279118790441572930e-05
9.012004960804512188e-02	1.171250210376863568e-02	-1.834227221260794488e-02	1.764108647883256664e-04	6.457715577765655857e-01	1.003832356205402565e+00	1.000013802946633001e+00	-1.067058352493251323e-02	1.594849072083056596e-07	1.193646643228502203e-04
1.101467272987218110e-01	1.157351024229003218e-02	-1.823803983525213238e-02	2.154088384258586830e-04	6.466670319837527492e-01	1.005707113138990083e+00	1.000013828351221212e+00	-1.065822463574711554e-02	2.891622826842638099e-07	1.765232584719865613e-04
1.301734049893985001e-01	1.140870168193920155e-02	-1.811342212720789061e-02	2.542902767267899810e-04	6.477391047616208875e-01	1.007947134808742096e+00	1.000013858654620780e+00	-1.064349215072830750e-02	4.733270323553075548e-07	2.435794748144005863e-04
1.502000826800751754e-01	1.121912660033546130e-02	-1.796867458272884480e-02	2.930394824231191231e-04	6.489863861303079018e-01	1.010547011393104766e+00	1.000013893759913230e+00	-1.062644161604913220e-02	7.200617840368493908e-07	3.197261575280376466e-04
1.702267603707518784e-01	1.100598502341526910e-02	-1.780409838001292128e-02	3.316433759395100546e-04	6.504072302730032895e-01	1.013500329557404767e+00	1.000013933555635059e+00	-1.060714017254423686e-02	1.036586500409600889e-06	4.040460049949653521e-04
1.902534380614285814e-01	1.077061567587191994e-02	-1.762004154492874397e-02	3.700918593670141457e-04	6.519997271276465334e-01	1.016799629049503384e+00	1.000013977916784924e+00	-1.058566691978263773e-02	1.429162251821227645e-06	4.955224847089818039e-04
2.102801157521052566e-01	1.051448356963679935e-02	-1.741690018843489174e-02	4.083780786398059698e-04	6.537616899168957607e-01	1.020436355778328252e+00	1.000014026705420056e+00	-1.056211355147793074e-02	1.903008850372096018e-06	5.930520573795300008e-04
2.303067934427819596e-01	1.023916645987881305e-02	-1.719511963075319450e-02	4.464987479694880836e-04	6.556906455374668097e-01	1.024400812527752613e+00	1.000014079771852415e+00	-1.053658494197548534e-02	2.462237798757924244e-06	6.954576023271371883e-04
2.503334711334586626e-01	9.946340310263354634e-03	-1.695519549637103732e-02	4.844543479190287585e-04	6.577838207809263427e-01	1.028682108650597282e+00	1.000014136955167832e+00	-1.050919954591777138e-02	3.109800543972710850e-06	8.015029184206714889e-04
2.703601488241353379e-01	9.637763922293433178e-03	-1.669767455472838044e-02	5.222494167624971463e-04	6.600381325806103927e-01	1.033268110273068974e+00	1.000014198084680395e+00	-1.048008966727492428e-02	3.847453454478254218e-06	9.099081560382121531e-04
2.903868265148120131e-01	9.315262893843972297e-03	-1.642315541902850118e-02	5.598926931297842392e-04	6.624501743145835286e-01	1.038145392742186646e+00	1.000014262980301494e+00	-1.044940143353029725e-02	4.675738425132062518e-06	1.019366015897292879e-03
3.104135042054887439e-01	8.980713082440987607e-03	-1.613228885711275734e-02	5.973973889605322394e-04	6.650162068933866966e-01	1.043299197229180075e+00	1.000014331454191163e+00	-1.041729454861213371e-02	5.593980788448406868e-06	1.128558530604810515e-03
3.304401818961654191e-01	8.636023756169808677e-03	-1.582577783445962907e-02	6.347812935575072478e-04	6.677321469226831230e-01	1.048713393591387044e+00	1.000014403310907740e+00	-1.038394167081360848e-02	6.600302155335536456e-06	1.236174224661049570e-03
3.504668595868420944e-01	8.283120622005826772e-03	-1.550437706374149620e-02	6.720670503655898874e-04	6.705935597054700770e-01	1.054370451739499615e+00	1.000014478349269931e+00	-1.034952748159891252e-02	7.691650482917440157e-06	1.340925429243113465e-03
3.704935372775188251e-01	7.923928924862381346e-03	-1.516889216104768366e-02	7.092822469772355276e-04	6.735956509953696658e-01	1.060251423896602097e+00	1.000014556362202933e+00	-1.031424733932101261e-02	8.863843497580550744e-06	1.441565509844299929e-03
3.905202149681955004e-01	7.560356813106335581e-03	-1.482017823070112990e-02	7.464597250743759639e-04	6.767332635182767842e-01	1.066335940199611088e+00	1.000014637138739504e+00	-1.027830556212401547e-02	1.011162876922650122e-05	1.536905748909981424e-03
4.105468926588721756e-01	7.194279165048987970e-03	-1.445913796146522726e-02	7.836376882884695189e-04	6.800008738226694938e-01	1.072602220134483808e+00	1.000014720463582307e+00	-1.024191329697234608e-02	1.142875482992151012e-05	1.625831612638254471e-03
4.305735703495489064e-01	6.827522068017340823e-03	-1.408671910628509806e-02	8.208600819097418722e-04	6.833925938599312300e-01	1.079027102226650658e+00	1.000014806119228439e+00	-1.020528599869870677e-02	1.280805799407005652e-05	1.707318122509790493e-03
4.506002480402255816e-01	6.461848134774039222e-03	-1.370391141653005962e-02	8.581767583385733512e-04	6.869021744490092507e-01	1.085586094296283610e+00	1.000014893885147860e+00	-1.016864055289456656e-02	1.424155727489450233e-05	1.780444048623495805e-03
4.706269257309022569e-01	6.098942833043679602e-03	-1.331174296614841962e-02	8.956439711853927434e-04	6.905230131999381404e-01	1.092253446330227584e+00	1.000014983540096436e+00	-1.013219203290601118e-02	1.572056373002186301e-05	1.844404645018130930e-03
4.906536034215789877e-01	5.740401990883861084e-03	-1.291127591812473059e-02	9.333246472795720880e-04	6.942481657787720195e-01	1.099002247711570845e+00	1.000015074860854503e+00	-1.009615022585136183e-02	1.723579436821615107e-05	1.898522657488523621e-03
5.106802811122557184e-01	5.387720625140861308e-03	-1.250360174084910909e-02	9.712890494640288646e-04	6.980703611959034882e-01	1.105804550064720226e+00	1.000015167624735524e+00	-1.006071586372496614e-02	1.877749886731816889e-05	1.942257353205919558e-03
5.307069588029323937e-01	5.042283220937048005e-03	-1.208983591624041010e-02	1.009615215418135101e-03	7.019820213533102260e-01	1.112631516442806223e+00	1.000015261607876793e+00	-1.002607680553871568e-02	2.033558674208977378e-05	1.975211348935624039e-03
5.507336364936090689e-01	4.705355568405986816e-03	-1.167111220584537458e-02	1.048389855742039344e-03	7.059752840756319259e-01	1.119453596874412149e+00	1.000015356587968363e+00	-9.992404040659076669e-03	2.189976529275252084e-05	1.997135051450493748e-03
5.707603141842857442e-01	4.378078237978824672e-03	-1.124857652016341206e-02	1.087709034097204949e-03	7.100420308603037078e-01	1.126240729560163967e+00	1.000015452342071454e+00	-9.959847869990061733e-03	2.345967332295443295e-05	2.007928569311125989e-03
5.907869918749625304e-01	4.061461748682162858e-03	-1.082338050172599979e-02	1.127679382864872973e-03	7.141739171638741279e-01	1.132962566125105486e+00	1.000015548649597630e+00	-9.928534047070256691e-03	2.500502313123496655e-05	2.007641009192585174e-03
6.108136695656392057e-01	3.756383454963643440e-03	-1.039667487552911607e-02	1.168419117490932099e-03	7.183624072512648784e-01	1.139588718496118203e+00	1.000015645289652477e+00	-9.898560347986525704e-03	2.652573308439484201e-05	1.996467130811705251e-03
6.308403472563158809e-01	3.463586147702642920e-03	-9.969602705049845914e-03	1.210059672513054234e-03	7.225988105103208214e-01	1.146089024028623671e+00	1.000015742044323197e+00	-9.869993234190799214e-03	2.801206548552907024e-05	1.974741400761176758e-03
6.508670249469925562e-01	3.183678334629938458e-03	-9.543292617718019191e-03	1.252747167260027895e-03	7.268743214912093409e-01	1.152433824704017784e+00	1.000015838695478942e+00	-9.842865187960349663e-03	2.945474950951693674e-05	1.942929554593767535e-03
6.708937026376692314e-01	2.917136135475830502e-03	-9.118852152157594024e-03	1.296644592768438726e-03	7.311800598061389822e-01	1.158594255379520988e+00	1.000015935028451652e+00	-9.817172235764349761e-03	3.084510612494976392e-05	1.901617845814338251e-03
6.909203803283459067e-01	2.664306698512865137e-03	-8.697361288577915711e-03	1.341933879577880814e-03	7.355071127213774762e-01	1.164542535484958563e+00	1.000016030828279279e+00	-9.792872351614105228e-03	3.217515259826264211e-05	1.851500226777137064e-03
7.109470580190225819e-01	2.425413018687050132e-03	-8.279866317561801817e-03	1.388818805168580894e-03	7.398465757663337250e-01	1.170252258008425139e+00	1.000016125883772311e+00	-9.769884079017165587e-03	3.343770566335338548e-05	1.793363766846109040e-03
7.309737357096993682e-01	2.200560014149898110e-03	-7.867374094142334448e-03	1.437527862394647523e-03	7.441895946463394917e-01	1.175698669415559783e+00	1.000016219983221877e+00	-9.748086188191621565e-03	3.462645935026830248e-05	1.728072664370825266e-03
7.510004134003760434e-01	1.989741698341513688e-03	-7.460846826395103534e-03	1.488318113811762291e-03	7.485274030854822680e-01	1.180858934029916929e+00	1.000016312918892147e+00	-9.727317503935994578e-03	3.573605862692959620e-05	1.656551248379199833e-03
7.710270910910527187e-01	1.792849269699320390e-03	-7.061197414732535600e-03	1.541479128767714053e-03	7.528513604886750699e-01	1.185712376706003601e+00	1.000016404482098942e+00	-9.707377874037628404e-03	3.676214399116234144e-05	1.579766391164493617e-03
7.910537687817293939e-01	1.609679930773453898e-03	-6.669285467551243005e-03	1.597338093552929088e-03	7.571529842410368305e-01	1.190240698004893405e+00	1.000016494468225714e+00	-9.688029215128667396e-03	3.770139004454213272e-05	1.498709762650977939e-03
8.110804464724060692e-01	1.439946243647383627e-03	-6.285913986107433300e-03	1.656265184231525949e-03	7.614239794080943646e-01	1.194428156891677917e+00	1.000016582671177767e+00	-9.668997775898921856e-03	3.855151313938150155e-05	1.414380351036769552e-03
8.311071241630827444e-01	1.283285828773935875e-03	-5.911826790928146995e-03	1.718680358101042516e-03	7.656562630924678148e-01	1.198261716787798692e+00	1.000016668888877414e+00	-9.649976404668945268e-03	3.931127267824549240e-05	1.327767651973588712e-03
8.511338018537595307e-01	1.139271219916578081e-03	-5.547706668506551669e-03	1.785060664838020780e-03	7.698419837127087328e-01	1.201731152007325054e+00	1.000016752917107787e+00	-9.630628157260841954e-03	3.998044184601181830e-05	1.239835891904175627e-03
8.711604795444362059e-01	1.007419698030638565e-03	-5.194174245228253689e-03	1.855949298349107539e-03	7.739735355083048329e-01	1.204829112680110281e+00	1.000016834555672363e+00	-9.610589943324242615e-03	4.055977338841715995e-05	1.151509602106240296e-03
8.911871572351128812e-01	8.872029415463835236e-04	-4.851787553191010995e-03	1.931965518504147068e-03	7.780435661674063308e-01	1.207551147632067945e+00	1.000016913601547319e+00	-9.589477792888663477e-03	4.105093746756534952e-05	1.063660801574354544e-03
9.112138349257895564e-01	7.780563484601464314e-04	-4.521042223495886150e-03	2.013816721265931833e-03	7.820449813158176777e-01	1.209895685781462671e+00	1.000016989855856409e+00	-9.566892431589082632e-03	4.145645752927753017e-05	9.770979822086329081e-04
9.312405126164662317e-01	6.793879065756579065e-04	-4.202372266437488617e-03	2.102311819140081223e-03	7.859709403402359573e-01	1.211863977895726530e+00	1.000017063116519500e+00	-9.542427031153689898e-03	4.177962279291789853e-05	8.925570227497000046e-04
9.512671903071429069e-01	5.905865108296160610e-04	-3.896151303176345181e-03	2.198377239456381430e-03	7.898148523593868653e-01	1.213460001410212374e+00	1.000017133186243745e+00	-9.515675890042839258e-03	4.202440277473109832e-05	8.106940917927911829e-04
9.712938679978196932e-01	5.110296504745689321e-04	-3.602694202312200882e-03	2.303074704950766171e-03	7.935703623626525482e-01	1.214690331994404904e+00	1.000017199864913664e+00	-9.486246224501178326e-03	4.219534414938084615e-05	7.320805386739473236e-04
9.913205456884963684e-01	4.400904126771583110e-04	-3.322258928095936717e-03	2.417622049718808844e-03	7.972313419171180859e-01	1.215563985995010254e+00	1.000017262958984077e+00	-9.453771911141578554e-03	4.229747395942007625e-05	6.571997165876868876e-04
1.011347223379172933e+00	3.771437724660473218e-04	-3.055048552748712998e-03	2.543416123137004665e-03	8.007918696394974445e-01	1.216092238437801454e+00	1.000017322274050713e+00	-9.417931597491284793e-03	4.233619115345428076e-05	5.864456375190492702e-04
1.031373901069849497e+00	3.215721607991143161e-04	-2.801213187466392116e-03	2.682058771182914154e-03	8.042462229905069648e-01	1.216288421226501049e+00	1.000017377626221338e+00	-9.378470019354675710e-03	4.231716829891232426e-05	5.201233245914882843e-04
1.051400578760526283e+00	2.727703225711509754e-04	-2.560851805584120951e-03	2.835384534708776643e-03	8.075888596615707904e-01	1.216167706283155292e+00	1.000017428835391353e+00	-9.335224844276401868e-03	4.224624705144347275e-05	4.584507051956896069e-04
1.071427256451203069e+00	2.301494937106115591e-04	-2.334013670803739612e-03	3.005490318346436002e-03	8.108144189415122938e-01	1.215746877886258792e+00	1.000017475739377604e+00	-9.288157496402079175e-03	4.212934656059379667e-05	4.015618772132529234e-04
1.091453934141879634e+00	1.931409409422158374e-04	-2.120699389966438676e-03	3.194764584170994241e-03	8.139177138231579178e-01	1.215044098219117297e+00	1.000017518188536680e+00	-9.237389454060591573e-03	4.197236993819957097e-05	3.495115799449871022e-04
1.111480611832556420e+00	1.611989185002753872e-04	-1.920861297004296427e-03	3.405914623122959818e-03	8.168937540152423349e-01	1.214078669354905049e+00	1.000017556063268920e+00	-9.183241206907534482e-03	4.178112511713003398e-05	3.022807086921370243e-04
1.131507289523232984e+00	1.338031028770167127e-04	-1.734403276573335010e-03	3.641987065593777113e-03	8.197377602337823088e-01	1.212870794500256366e+00	1.000017589270429497e+00	-9.126273278196291375e-03	4.156124679030526387e-05	2.597827247226234528e-04
1.151533967213909770e+00	1.104605688386899878e-04	-1.561179784260596998e-03	3.906376769053755173e-03	8.224452220495463983e-01	1.211441340461632210e+00	1.000017617764327182e+00	-9.067323967496924986e-03	4.131813303410409124e-05	2.218708267244104892e-04
1.171560644904586557e+00	9.070736730578870058e-05	-1.400994330356374442e-03	4.202814750220064920e-03	8.250119463741003578e-01	1.209811602990485735e+00	1.000017641544391545e+00	-9.007539774392107901e-03	4.105688494324809680e-05	1.883457618777464654e-04
1.191587322595263121e+00	7.410975784967597688e-05	-1.253597315417073711e-03	4.535324542830823126e-03	8.274341603889199259e-01	1.208003076010794263e+00	1.000017660678433673e+00	-8.948389947391463192e-03	4.078226051729803853e-05	1.589641598490471302e-04
1.211614000285939907e+00	6.026513591629085618e-05	-1.118683718534718577e-03	4.908130970080808349e-03	8.297086017114126966e-01	1.206037225801248836e+00	1.000017675299362363e+00	-8.891657936363551659e-03	4.049863280818823960e-05	1.334472676753259944e-04
1.231640677976616471e+00	4.880267807777428668e-05	-9.958907351481109324e-04	5.325503764189628772e-03	8.318326650992362570e-01	1.203935271016350672e+00	1.000017685627314634e+00	-8.839400214631613559e-03	4.020996161117235021e-05	1.114899450556847534e-04
1.251667355667293258e+00	3.938370949477921048e-05	-8.847961196556817154e-04	5.791514556538711160e-03	8.338045263536033591e-01	1.201717970073660213e+00	1.000017691960890076e+00	-8.793866653980991765e-03	3.991977026548380344e-05	9.276974819397203415e-05
1.271694033357969822e+00	3.170177884538162783e-05	-7.849175178599879579e-04	6.309688529087572294e-03	8.356233125257597205e-01	1.199405417796824080e+00	1.000017694692915349e+00	-8.757379244798531304e-03	3.963113511337600016e-05	7.695588951741137295e-05
1.291720711048646608e+00	2.548241089211921595e-05	-6.957136683341377456e-04	6.882536943434575116e-03	8.372892312404948134e-01	1.197016854333842861e+00	1.000017694290612491e+00	-8.732173707173173510e-03	3.934668033213767753e-05	6.371781817168991680e-05
1.311747388739323394e+00	2.048249932050221013e-05	-6.165877379965424955e-04	7.510973997890610203e-03	8.388037154914728122e-01	1.194570489972696326e+00	1.000017691300125078e+00	-8.720215698342789756e-03	3.906858399688905486e-05	5.273313345037927171e-05
1.331774066429999959e+00	1.648930587922463618e-05	-5.468934465118056214e-04	8.193646489361995980e-03	8.401695095839334382e-01	1.192083350534941077e+00	1.000017686312531184e+00	-8.723011529978411116e-03	3.879858887167619722e-05	4.369453343401877765e-05
1.351800744120676745e+00	1.331904762103383275e-05	-4.859438468660569549e-04	8.926244676073429724e-03	8.413907301866282440e-01	1.189571148106686627e+00	1.000017679956795691e+00	-8.741437910443627946e-03	3.853802250945643256e-05	3.631552541411388265e-05
1.371827421811353309e+00	1.081508113183309276e-05	-4.330228046598453488e-04	9.700905479607186549e-03	8.424728518596824589e-01	1.187048181990954854e+00	1.000017672854834672e+00	-8.775615158965641496e-03	3.828782136414648460e-05	3.033468878881366901e-05
1.391854099502030095e+00	8.845726717909486487e-06	-3.873983575377993411e-04	1.050585941544952828e-02	8.434226442990871986e-01	1.184527273561516436e+00	1.000017665609631123e+00	-8.824844114467411335e-03	3.804856343400200191e-05	2.551838138715075137e-05
1.411880777192706660e+00	7.301810051362979295e-06	-3.483373216874346610e-04	1.132548391532789932e-02	8.442480309129044569e-01	1.182019737447452368e+00	1.000017658758669770e+00	-8.887617250169727381e-03	3.782050585063453322e-05	2.166190301316113181e-05
1.431907454883383446e+00	6.094026264911929219e-06	-3.151198284054843360e-04	1.214089445046036622e-02	8.449578939130065747e-01	1.179535389069968687e+00	1.000017652768007359e+00	-8.961707844493391195e-03	3.760363171464904821e-05	1.858925435808831067e-05
1.451934132574060232e+00	5.150246021045889085e-06	-2.870529320732162319e-04	1.293111271922022139e-02	8.455618351769598195e-01	1.177082586581031265e+00	1.000017647994650316e+00	-9.044330324929088574e-03	3.739770183208558602e-05	1.615173268584452971e-05
1.471960810264736796e+00	4.412881762447167584e-06	-2.634821124288003690e-04	1.367471733534726501e-02	8.460698827407894251e-01	1.174668302777587492e+00	1.000017644695470054e+00	-9.132360947444217655e-03	3.720231208341434170e-05	1.422567027716625783e-05
1.491987487955413583e+00	3.836416352880603662e-06	-2.438002240982171053e-04	1.435173809315750705e-02	8.464922278273003808e-01	1.172298221224744363e+00	1.000017643005160606e+00	-9.222594725503590121e-03	3.701694826367204512e-05	1.270964006342993740e-05
1.512014165646090147e+00	3.385169897688427054e-06	-2.274533934424967005e-04	1.494546328251106226e-02	8.468389112657348505e-01	1.169976849524095863e+00	1.000017642963408449e+00	-9.312008526820637552e-03	3.684103613665513249e-05	1.152142896591957567e-05
1.532040843336766933e+00	3.031349733144201410e-06	-2.139440877542579450e-04	1.544382655795357474e-02	8.471196123092037400e-01	1.167707642819764802e+00	1.000017644508008230e+00	-9.397989138079956145e-03	3.667397932527950748e-05	1.059502547379248462e-05
1.552067521027443719e+00	2.753399032953814216e-06	-2.028315129950154685e-04	1.584014189495155586e-02	8.473434026138134678e-01	1.165493130817835121e+00	1.000017647515880848e+00	-9.478493366371873105e-03	3.651518683390418121e-05	9.877799646775001571e-06
1.572094198718120284e+00	2.534635392139304631e-06	-1.937299915560834035e-04	1.613311592294399549e-02	8.475186543444223064e-01	1.163335042995935931e+00	1.000017651803069896e+00	-9.552117288282297933e-03	3.636408856109023697e-05	9.327985259897440180e-06
1.592120876408797070e+00	2.362153991789518653e-06	-1.863057334736105961e-04	1.632623439603871074e-02	8.476528866861658962e-01	1.161234427638121458e+00	1.000017657168941865e+00	-9.618079435207689196e-03	3.622014502211337952e-05	8.912514991339376950e-06
1.612147554099473634e+00	2.225960645499016563e-06	-1.802726746590796719e-04	1.642672875751076400e-02	8.477528090801065286e-01	1.159191762042151019e+00	1.000017663392063438e+00	-9.676135914128127999e-03	3.608285110761203163e-05	8.605215083810613047e-06
1.632174231790150420e+00	2.118296857223186025e-06	-1.753877240081592450e-04	1.644436694455092551e-02	8.478242415881297456e-01	1.157207052070417630e+00	1.000017670268535941e+00	-9.726460788370694388e-03	3.595173921247092700e-05	8.385336366472795146e-06
1.652200909480826985e+00	2.033120285378824327e-06	-1.714458898337981670e-04	1.639027824557660190e-02	8.478722604825444931e-01	1.155279920550061457e+00	1.000017677598214583e+00	-9.769517814465097927e-03	3.582637934203823546e-05	8.236381968617741397e-06
1.672227587171503771e+00	1.965707847956267444e-06	-1.682754578406658625e-04	1.627595657391403897e-02	8.479011408203985800e-01	1.153409684344397945e+00	1.000017685215277341e+00	-9.805946227549532448e-03	3.570637993534791940e-05	8.145185441721751248e-06
1.692254264862180557e+00	1.912353769850842910e-06	-1.657334694442053177e-04	1.611250820210475762e-02	8.479145697431859086e-01	1.151595420781315715e+00	1.000017692965829097e+00	-9.836468896194860631e-03	3.559138591111580603e-05	8.101193161985742754e-06
1.712280942552857121e+00	1.870140071256928263e-06	-1.637015497778098220e-04	1.591015258539814695e-02	8.479155624376548683e-01	1.149836024012532487e+00	1.000017700733719206e+00	-9.861826026677757845e-03	3.548107768126596885e-05	8.095909060448039881e-06
1.732307620243533908e+00	1.836761822054066678e-06	-1.620821696013815204e-04	1.567794296636388154e-02	8.479067217770333009e-01	1.148130252459268696e+00	1.000017708412978434e+00	-9.882731455999172951e-03	3.537516761246015866e-05	8.122465812390808953e-06
1.752334297934210472e+00	1.810393565900240925e-06	-1.607953431326049928e-04	1.542365948812446722e-02	8.478901056095494715e-01	1.146476768119664369e+00	1.000017715932246976e+00	-9.899846018237561107e-03	3.527339798658446989e-05	8.175293171406221120e-06
1.772360975624887258e+00	1.789586668362801267e-06	-1.597757430529278295e-04	1.515382169974608534e-02	8.478675145359696463e-01	1.144874168977074058e+00	1.000017723224823962e+00	-9.913764875266507098e-03	3.517553689980581111e-05	8.249860284514625794e-06
1.792387653315563822e+00	1.773189922277691592e-06	-1.589702311244612081e-04	1.487377724703315904e-02	8.478403158775640325e-01	1.143321015217705350e+00	1.000017730253757842e+00	-9.925012082198573019e-03	3.508137613937144516e-05	8.342474142583545317e-06
1.812414331006240609e+00	1.760287743137849543e-06	-1.583357324281207924e-04	1.458782996309594855e-02	8.478097327162593677e-01	1.141815850404940269e+00	1.000017736980735927e+00	-9.934042443958479920e-03	3.499072735181645342e-05	8.450120663242063264e-06
1.832441008696917395e+00	1.750151741748960668e-06	-1.578374603476211883e-04	1.429938415234688169e-02	8.477766514705248335e-01	1.140357218140883200e+00	1.000017743392853875e+00	-9.941244758303885085e-03	3.490342038234249680e-05	8.570338310260767751e-06
1.852467686387593959e+00	1.742202566610708651e-06	-1.574474013210417050e-04	1.401108722051651496e-02	8.477418919114011464e-01	1.138943675214298734e+00	1.000017749470713868e+00	-9.946948826611451758e-03	3.481930003911004601e-05	8.701116744354175998e-06
1.872494364078270745e+00	1.735979682178087376e-06	-1.571430779260241638e-04	1.372496278451790924e-02	8.477060144672393660e-01	1.137573801559384812e+00	1.000017755217111670e+00	-9.951431053293373352e-03	3.473822501635564439e-05	8.840814929653316901e-06
1.892521041768947310e+00	1.731117344354116159e-06	-1.569064958191474630e-04	1.344252797064114137e-02	8.476695631852663171e-01	1.136246207878207404e+00	1.000017760624368979e+00	-9.954922265372190965e-03	3.466006526466441071e-05	8.988094534102599665e-06
1.912547719459624096e+00	1.727325438623979226e-06	-1.567233022141615976e-04	1.316489482226440057e-02	8.476328804148134388e-01	1.134959541060583499e+00	1.000017765704934281e+00	-9.957613128506456052e-03	3.458470142093493792e-05	9.141865490292001533e-06
1.932574397150300882e+00	1.724374171543305532e-06	-1.565820687523238747e-04	1.289285465453834760e-02	8.475963222049920365e-01	1.133712488132088581e+00	1.000017770457817479e+00	-9.959661061209277091e-03	3.451202267274104896e-05	9.301241328551570047e-06
1.952601074840977446e+00	1.722081819776133331e-06	-1.564737305677347168e-04	1.262694812681084723e-02	8.475600913985410489e-01	1.132503778702045105e+00	1.000017774901014400e+00	-9.961194583051207613e-03	3.444192657310804609e-05	9.465502436012692992e-06
1.972627752531654233e+00	1.720304926954119876e-06	-1.563911059787288858e-04	1.236752147636374123e-02	8.475244155043760719e-01	1.131332186551343488e+00	1.000017779036864063e+00	-9.962318872064517342e-03	3.437431727313338396e-05	9.634065793196851848e-06
1.992654430222330797e+00	1.718930454726724311e-06	-1.563285294496280585e-04	1.211477219585172307e-02	8.474894065747532457e-01	1.130196530208482653e+00	1.000017782886265305e+00	-9.963118927894936208e-03	3.430910561491887586e-05	9.806460034532281980e-06
2.012681107913007583e+00	1.717869507575822872e-06	-1.562815321626483968e-04	1.186878472081667919e-02	8.474552131709376379e-01	1.129095673081172979e+00	1.000017786452775281e+00	-9.963663898484992343e-03	3.424620762719624890e-05	9.982304902997547643e-06
2.032707785603684147e+00	1.717052315981031620e-06	-1.562466097927121150e-04	1.162955907384422873e-02	8.474218841131154756e-01	1.128028522905101472e+00	1.000017789758515407e+00	-9.964009016922844436e-03	3.418554480516327546e-05	1.016129434002707777e-05
2.052734463294360712e+00	1.716424235695307664e-06	-1.562210083763142980e-04	1.139703271059333556e-02	8.473895131031782268e-01	1.126994031026681942e+00	1.000017792806983774e+00	-9.964199086075124431e-03	3.412704281319777091e-05	1.034318258740917702e-05
2.072761140985037720e+00	1.715942557950019299e-06	-1.562025820679404568e-04	1.117109797109923190e-02	8.473581122359334916e-01	1.125991191215506282e+00	1.000017795620586680e+00	-9.964269433407372048e-03	3.407063186702895925e-05	1.052777278442793860e-05
2.092787818675714284e+00	1.715573974901692372e-06	-1.561896491784109701e-04	1.095161504666011983e-02	8.473277440833855145e-01	1.125019038492485413e+00	1.000017798201993990e+00	-9.964248740174356037e-03	3.401624560594516917e-05	1.071490763184676861e-05
2.112814496366390848e+00	1.715292565734706786e-06	-1.561809101069728156e-04	1.073842235415552182e-02	8.472983893666962141e-01	1.124076647623205361e+00	1.000017800573348659e+00	-9.964159195899928434e-03	3.396382152039316231e-05	1.090446176470761149e-05
2.132841174057067857e+00	1.715078203301657783e-06	-1.561753471482150556e-04	1.053134399657771302e-02	8.472700934386544480e-01	1.123163131741974130e+00	1.000017802736132388e+00	-9.964018941394531606e-03	3.391329997836917668e-05	1.109633553660872966e-05
2.152867851747744421e+00	1.714915292897881263e-06	-1.561721821540409233e-04	1.033019577457853881e-02	8.472428183277000979e-01	1.122277640721477843e+00	1.000017804711977876e+00	-9.963841644978406811e-03	3.386462464280763190e-05	1.129044996622096604e-05
2.172894529438420985e+00	1.714791779084006623e-06	-1.561708044353953212e-04	1.013478932218817366e-02	8.472165965057616432e-01	1.121419359744872279e+00	1.000017806500970385e+00	-9.963638675052424037e-03	3.381774164945886528e-05	1.148674263988844253e-05
2.192921207129097994e+00	1.714698362687575669e-06	-1.561707550590295051e-04	9.944935479468317713e-03	8.471913779420766621e-01	1.120587507670928629e+00	1.000017808124125107e+00	-9.963418184291923663e-03	3.377259997315102324e-05	1.168516439735483891e-05
2.212947884819774558e+00	1.714627887241981967e-06	-1.561716700841035536e-04	9.760446471743455810e-03	8.471671880669636723e-01	1.119781335642939801e+00	1.000017809580123318e+00	-9.963187259430088608e-03	3.372915076728815506e-05	1.188567665868018546e-05
2.232974562510451122e+00	1.714574857307911322e-06	-1.561732832656844382e-04	9.581137703671973108e-03	8.471439696848013234e-01	1.119000125515218214e+00	1.000017810889350489e+00	-9.962950587448365924e-03	3.368734762838581222e-05	1.208824927320228254e-05
2.253001240201127686e+00	1.714535062861835040e-06	-1.561753793138887176e-04	9.406828823122083405e-03	8.471217441915669388e-01	1.118243188546981015e+00	1.000017812049111443e+00	-9.962712548751920943e-03	3.364714611971592772e-05	1.229285879393136312e-05
2.273027917891804695e+00	1.714505285771543532e-06	-1.561778078835589798e-04	9.237344580272841693e-03	8.471004481771647887e-01	1.117509863926273050e+00	1.000017813079201234e+00	-9.962475633671702066e-03	3.360850389886012524e-05	1.249948709600894395e-05
2.293054595582481259e+00	1.714483071922759764e-06	-1.561804422763303176e-04	9.072515281549703436e-03	8.470801001398580166e-01	1.116799517570214118e+00	1.000017813975598857e+00	-9.962242544085880142e-03	3.357138044411240544e-05	1.270812027432208342e-05
2.313081273273157823e+00	1.714466554115260715e-06	-1.561832004474454855e-04	8.912177095119728359e-03	8.470606353384648735e-01	1.116111540760084342e+00	1.000017814757608203e+00	-9.962014445667820295e-03	3.353573700817087216e-05	1.291874776527172057e-05
2.333107950963834831e+00	1.714454315013609105e-06	-1.561860084823702951e-04	8.756172194635647443e-03	8.470420683300281528e-01	1.115445349057184510e+00	1.000017815419960376e+00	-9.961792974001420012e-03	3.350153656634639757e-05	1.313136164970592856e-05
2.353134628654511395e+00	1.714445281408186750e-06	-1.561888243058407106e-04	8.604348737593654067e-03	8.470243333955931320e-01	1.114800381051657796e+00	1.000017815981555591e+00	-9.961578499140633786e-03	3.346874357653498595e-05	1.334595610017058247e-05
2.373161306345187960e+00	1.714438642444552790e-06	-1.561916046380285245e-04	8.456560870499557972e-03	8.470074452537953436e-01	1.114176097391529341e+00	1.000017816435953222e+00	-9.961372030203223191e-03	3.343732415547223831e-05	1.356252694445827073e-05
2.393187984035864524e+00	1.714433787230376980e-06	-1.561943304868851346e-04	8.312668511633133916e-03	8.469913400344105670e-01	1.113571979641694965e+00	1.000017816801715309e+00	-9.961173465620440023e-03	3.340724562905161767e-05	1.378107132099729088e-05
2.413214661726541532e+00	1.714430256356596115e-06	-1.561969769877659907e-04	8.172537316787369457e-03	8.469760258033828260e-01	1.112987529420616184e+00	1.000017817071344517e+00	-9.960983396312935237e-03	3.337847694952223305e-05	1.400158740811820003e-05
2.433241339417218096e+00	1.714427705593691394e-06	-1.561995381577551344e-04	8.036038342131368931e-03	8.469614434561049121e-01	1.112422267361633299e+00	1.000017817263133546e+00	-9.960801462932695680e-03	3.335098802496361969e-05	1.422407421106425131e-05
2.453268017107894661e+00	1.714425877255768592e-06	-1.562019994740312251e-04	7.903048022444495238e-03	8.469475979718249503e-01	1.111875732349726587e+00	1.000017817368612061e+00	-9.960628023893407235e-03	3.332475037652074762e-05	1.444853139549025959e-05
2.473294694798571669e+00	1.714424579464276926e-06	-1.562043618278074998e-04	7.773447757623757302e-03	8.469344367781179717e-01	1.111347480574992108e+00	1.000017817405864928e+00	-9.960462602041132013e-03	3.329973624053696131e-05	1.467495915680606849e-05
2.493321372489248233e+00	1.714423669203155178e-06	-1.562066173834552739e-04	7.647123931544324779e-03	8.469219575332582739e-01	1.110837084861202806e+00	1.000017817365516093e+00	-9.960305370389305191e-03	3.327591947045904259e-05	1.490335811854676084e-05
2.513348050179924797e+00	1.714423040788106121e-06	-1.562087705591150971e-04	7.523967448577553035e-03	8.469101134027332556e-01	1.110344133802871669e+00	1.000017817265530518e+00	-9.960155807838396921e-03	3.325327441504861525e-05	1.513372925268667210e-05
2.533374727870601362e+00	1.714422615740880057e-06	-1.562108171515508217e-04	7.403873802517725068e-03	8.468988998948119296e-01	1.109868231174793385e+00	1.000017817095673722e+00	-9.960013989361743772e-03	3.323177705143700369e-05	1.536607381794526117e-05
2.553401405561278370e+00	1.714422336660490642e-06	-1.562127629574835963e-04	7.286742579006128331e-03	8.468882776821979874e-01	1.109408995145078070e+00	1.000017816873844723e+00	-9.959879406889951894e-03	3.321140364593543331e-05	1.560039331138132041e-05
2.573428083251954934e+00	1.714422161019374051e-06	-1.562146068671743573e-04	7.172477577979622515e-03	8.468782304221115220e-01	1.108966057758189461e+00	1.000017816589008346e+00	-9.959752014121660973e-03	3.319213211217887286e-05	1.583668943104555324e-05
2.593454760942631498e+00	1.714422058174519091e-06	-1.562163546157196113e-04	7.060986293485843265e-03	8.468687311176057442e-01	1.108539064212271219e+00	1.000017816259079151e+00	-9.959631362934619897e-03	3.317394047073105951e-05	1.607496404654761067e-05
2.613481438633308507e+00	1.714422005411185940e-06	-1.562180067543515142e-04	6.952180083306459465e-03	8.468597573401528411e-01	1.108127672411087117e+00	1.000017815872232152e+00	-9.959517342559705624e-03	3.315680840079751444e-05	1.631521917647973594e-05
2.633508116323985071e+00	1.714421986750815907e-06	-1.562195684782187661e-04	6.845973636572293131e-03	8.468512897643541981e-01	1.107731552297147370e+00	1.000017815446440084e+00	-9.959409571954444540e-03	3.314071552705469151e-05	1.655745697038029222e-05
2.653534794014661635e+00	1.714421990269723866e-06	-1.562210419263670893e-04	6.742285184227022297e-03	8.468433001826863871e-01	1.107350385464280329e+00	1.000017814969171637e+00	-9.959307861904817191e-03	3.312564314106770399e-05	1.680167969502573724e-05
2.673561471705338199e+00	1.714422007923200211e-06	-1.562224314948818134e-04	6.641035962158671306e-03	8.468357755335245152e-01	1.106983864541108087e+00	1.000017814458466825e+00	-9.959211902813841846e-03	3.311157234322142972e-05	1.704788972323325420e-05
2.693588149396015208e+00	1.714422033587833915e-06	-1.562237400618735029e-04	6.542150453367617802e-03	8.468286857167927062e-01	1.106631692858158988e+00	1.000017813901118879e+00	-9.959121470263418083e-03	3.309848589949618996e-05	1.729608952543385144e-05
2.713614827086691772e+00	1.714422063448524421e-06	-1.562249713745680760e-04	6.445555852964644609e-03	8.468220225022157210e-01	1.106293583874975672e+00	1.000017813315310367e+00	-9.959036305133214806e-03	3.308636626655267878e-05	1.754628166256217472e-05
2.733641504777368336e+00	1.714422094451800963e-06	-1.562261290608020622e-04	6.351182335700891919e-03	8.468157513034645367e-01	1.105969260895723671e+00	1.000017812687145513e+00	-9.958956147831982478e-03	3.307519756279413825e-05	1.779846878076262926e-05
2.753668182468045345e+00	1.714422124992437214e-06	-1.562272161450087315e-04	6.258962526664659659e-03	8.468098702964580449e-01	1.105658456535876688e+00	1.000017812034993847e+00	-9.958880787305631963e-03	3.306496349710874404e-05	1.805265360672542995e-05
2.773694860158721909e+00	1.714422153611001549e-06	-1.562282363568460509e-04	6.168831787336788268e-03	8.468043453330850179e-01	1.105360912480314983e+00	1.000017811344332763e+00	-9.958809964963713859e-03	3.305564942937990315e-05	1.830883894425955691e-05
2.793721537849398473e+00	1.714422179828445800e-06	-1.562291923778995242e-04	6.080727695048054014e-03	8.467991740579255966e-01	1.105076378985158758e+00	1.000017810633707427e+00	-9.958743497453646787e-03	3.304724022175883674e-05	1.856702767109220077e-05
2.813748215540075037e+00	1.714422202988754175e-06	-1.562300876188633773e-04	5.994590343928579354e-03	8.467943241277774424e-01	1.104804614674647079e+00	1.000017809887989717e+00	-9.958681145616227887e-03	3.303972237866112052e-05	1.882722273656683214e-05
2.833774893230752046e+00	1.714422223165940622e-06	-1.562309251473839534e-04	5.910361832793152408e-03	8.467897938226361942e-01	1.104545386074237356e+00	1.000017809125955726e+00	-9.958622707680973157e-03	3.303308182321639528e-05	1.908942715935583651e-05
2.853801570921428610e+00	1.714422240088897638e-06	-1.562317078858159393e-04	5.827986581032137611e-03	8.467855521714686695e-01	1.104298467440975484e+00	1.000017808331872482e+00	-9.958567977256676390e-03	3.302730612558449065e-05	1.935364402581131062e-05
2.873828248612105174e+00	1.714422254086295603e-06	-1.562324384224360416e-04	5.747410820378539946e-03	8.467816007737692940e-01	1.104063640324062900e+00	1.000017807524770541e+00	-9.958516783410486378e-03	3.302238218389587566e-05	1.961987648825069488e-05
2.893854926302782182e+00	1.714422265058665958e-06	-1.562331198956494862e-04	5.668582926506933808e-03	8.467779057553128652e-01	1.103840693428246755e+00	1.000017806688343613e+00	-9.958468912631022671e-03	3.301829855334039674e-05	1.988812776375695123e-05
2.913881603993458747e+00	1.714422273435105852e-06	-1.562337541593172233e-04	5.591452914971964741e-03	8.467744746863095084e-01	1.103629422195594678e+00	1.000017805841881824e+00	-9.958424237098379567e-03	3.301504303646573651e-05	2.015840113279256308e-05
2.933908281684135311e+00	1.714422279182448862e-06	-1.562343449877759177e-04	5.515972784378369610e-03	8.467712689707385110e-01	1.103429628700073994e+00	1.000017804968509560e+00	-9.958382506190553013e-03	3.301260509778449550e-05	2.043069993831481959e-05
2.953934959374811875e+00	1.714422282750591882e-06	-1.562348932928027336e-04	5.442096019858777382e-03	8.467683024727113983e-01	1.103241121248870193e+00	1.000017804087818263e+00	-9.958343654168394510e-03	3.301097338628281518e-05	2.070502758462609380e-05
2.973961637065488883e+00	1.714422284123429637e-06	-1.562354031727766963e-04	5.369777941148060584e-03	8.467655349309803903e-01	1.103063714302633835e+00	1.000017803182383869e+00	-9.958307409518293851e-03	3.301013820308507503e-05	2.098138753666470326e-05
2.993988314756165448e+00	1.714422283735492994e-06	-1.562358743976495663e-04	5.298975218173323197e-03	8.467629844384571003e-01	1.102897228096615168e+00	1.000017802272091583e+00	-9.958273782059212653e-03	3.301008898741702150e-05	2.125978331907680586e-05
3.014014992446842012e+00	1.714422281568417643e-06	-1.562363122410886159e-04	5.229646218257851149e-03	8.467606075650324637e-01	1.102741488583355522e+00	1.000017801338970669e+00	-9.958242425160385158e-03	3.301081680697185610e-05	2.154021851560255168e-05
3.034041670137519020e+00	1.714422278020458360e-06	-1.562367148395567697e-04	5.161750540213855959e-03	8.467584277909566692e-01	1.102596327071153848e+00	1.000017800403247392e+00	-9.958213452796535123e-03	3.301231185229020881e-05	2.182269676833175782e-05
3.054068347828195584e+00	1.714422273067468353e-06	-1.562370882984230862e-04	5.095249349914089503e-03	8.467564002838239290e-01	1.102461580187155121e+00	1.000017799446407452e+00	-9.958186468399344432e-03	3.301456588518132397e-05	2.210722177715409602e-05
3.074095025518872148e+00	1.714422267063667906e-06	-1.562374303400408530e-04	5.030104942724400799e-03	8.467545477953475341e-01	1.102337089531423509e+00	1.000017798489009069e+00	-9.958161611734487814e-03	3.301756981089433635e-05	2.239379729916900197e-05
3.094121703209549157e+00	1.714422259976968236e-06	-1.562377471516027279e-04	4.966281059400627119e-03	8.467528265092389983e-01	1.102222701658768012e+00	1.000017797512019468e+00	-9.958138481977478820e-03	3.302131603250987554e-05	2.268242714818767761e-05
3.114148380900225721e+00	1.714422252117492455e-06	-1.562380352632869777e-04	4.903742479490314637e-03	8.467512658299035655e-01	1.102118267746509561e+00	1.000017796536338821e+00	-9.958117295136055189e-03	3.302579612808780783e-05	2.297311519428258138e-05
3.134175058590902285e+00	1.714422243449061246e-06	-1.562383022382843171e-04	4.842455313725992083e-03	8.467498147542829035e-01	1.102023643593436297e+00	1.000017795542413879e+00	-9.958097564032646065e-03	3.303100308145386381e-05	2.326586536330020808e-05
3.154201736281578849e+00	1.714422234234945578e-06	-1.562385430000899915e-04	4.782386635551963069e-03	8.467485088574346896e-01	1.101938689299143848e+00	1.000017794551510741e+00	-9.958079606672715425e-03	3.303692912399443731e-05	2.356068163656090383e-05
3.174228413972255858e+00	1.714422224443419620e-06	-1.562387657772733838e-04	4.723504738232855819e-03	8.467472964132416458e-01	1.101863269280055180e+00	1.000017793543559685e+00	-9.958062895565174266e-03	3.304356775645114861e-05	2.385756805039831725e-05
3.194255091662932422e+00	1.714422214290695520e-06	-1.562389648753275892e-04	4.665778814732584115e-03	8.467462179705318448e-01	1.101797251957945090e+00	1.000017792540198069e+00	-9.958047787484032229e-03	3.305091183886976113e-05	2.415652869594374155e-05
3.214281769353608986e+00	1.714422203751992693e-06	-1.562391489357160476e-04	4.609179171907779385e-03	8.467452136222121117e-01	1.101740509791273137e+00	1.000017791520843025e+00	-9.958033729849952859e-03	3.305895534090889427e-05	2.445756771868649082e-05
3.234308447044285995e+00	1.714422192999094505e-06	-1.562393114927590964e-04	4.553676963095830074e-03	8.467443332401910494e-01	1.101692918973134372e+00	1.000017790507517379e+00	-9.958021125089477898e-03	3.306769172810628639e-05	2.476068931840909527e-05
3.254335124734962559e+00	1.714422182018673737e-06	-1.562394618304380613e-04	4.499244354243200211e-03	8.467435113739221197e-01	1.101654359475316758e+00	1.000017789479132668e+00	-9.958009385181572706e-03	3.307711539081073228e-05	2.506589774868396713e-05
3.274361802425639123e+00	1.714422170938058501e-06	-1.562395930349725216e-04	4.445854314522964049e-03	8.467428009436657188e-01	1.101624714755983891e+00	1.000017788458093415e+00	-9.957998943748616605e-03	3.308722038457640255e-05	2.537319731699444846e-05
3.294388480116315687e+00	1.714422159758619084e-06	-1.562397138648027937e-04	4.393480728273753758e-03	8.467421401552537308e-01	1.101603871814853974e+00	1.000017787422819548e+00	-9.957989240366225611e-03	3.309800147779131248e-05	2.568259238416989096e-05
3.314415157806992696e+00	1.714422148568412608e-06	-1.562398175792384879e-04	4.342098246108101745e-03	8.467415783383006600e-01	1.101591720907479699e+00	1.000017786396112163e+00	-9.957980697711777199e-03	3.310945328524561945e-05	2.599408736461208144e-05
3.334441835497669260e+00	1.714422137383386162e-06	-1.562399127706393651e-04	4.291682343346566245e-03	8.467410558650769747e-01	1.101588155615336850e+00	1.000017785355875377e+00	-9.957972770327141315e-03	3.312157092189629013e-05	2.630768672577979859e-05
3.354468513188345824e+00	1.714422126255306376e-06	-1.562399930100538160e-04	4.242209230077216217e-03	8.467406217091453247e-01	1.101593072561926512e+00	1.000017784325335279e+00	-9.957965861405662991e-03	3.313434954083622846e-05	2.662339498844141846e-05
3.374495190879022832e+00	1.714422115214579192e-06	-1.562400660507154968e-04	4.193655856272474058e-03	8.467402201867351152e-01	1.101606371497180659e+00	1.000017783281885064e+00	-9.957959473361990832e-03	3.314778457634991231e-05	2.694121672620178228e-05
3.394521868569699397e+00	1.714422104282052632e-06	-1.562401257243868017e-04	4.145999878287811441e-03	8.467398966807631044e-01	1.101627955017472571e+00	1.000017782249169151e+00	-9.957954001825050291e-03	3.316187168906276533e-05	2.726115656583446369e-05
3.414548546260375961e+00	1.714422093502257335e-06	-1.562401801471766712e-04	4.099219614231398683e-03	8.467395954773310196e-01	1.101657728660192515e+00	1.000017781204077361e+00	-9.957948923566802349e-03	3.317660660742779066e-05	2.758321918677307126e-05
3.434575223951052525e+00	1.714422082865357344e-06	-1.562402220297813961e-04	4.053294065249316187e-03	8.467393683819833816e-01	1.101695600628183946e+00	1.000017780170685766e+00	-9.957944698172649725e-03	3.319198548944609181e-05	2.790740932155685901e-05
3.454601901641729533e+00	1.714422072434779332e-06	-1.562402596607369309e-04	4.008202816989409056e-03	8.467391583360416307e-01	1.101741481896242325e+00	1.000017779125368378e+00	-9.957940800959807354e-03	3.320800431071076241e-05	2.823373175533050938e-05
3.474628579332406098e+00	1.714422062170776067e-06	-1.562402871025823036e-04	3.963926122236021213e-03	8.467390116262462074e-01	1.101795285935674995e+00	1.000017778092655130e+00	-9.957937602988804759e-03	3.322465971748629350e-05	2.856219132632519032e-05
3.494655257023082662e+00	1.714422052151183735e-06	-1.562403111008635033e-04	3.920444746851703237e-03	8.467388746832269497e-01	1.101856928833352844e+00	1.000017777048403556e+00	-9.957934677055467129e-03	3.324194792939558457e-05	2.889279292538912293e-05
3.514681934713759670e+00	1.714422042313464412e-06	-1.562403252141602705e-04	3.877740105867208843e-03	8.467388001889633031e-01	1.101926329016092776e+00	1.000017776017583904e+00	-9.957932427516089438e-03	3.325986604176810619e-05	2.922554149648594506e-05
3.534708612404436234e+00	1.714422032751307776e-06	-1.562403375520360273e-04	3.835794061366395915e-03	8.467387250291565914e-01	1.102003407383405964e+00	1.000017774975543228e+00	-9.957930335565697011e-03	3.327841048385797975e-05	2.956044203632241329e-05
3.554735290095112799e+00	1.714422023376041126e-06	-1.562403412692579515e-04	3.794589114516004440e-03	8.467387069773278929e-01	1.102088087028626484e+00	1.000017773947723621e+00	-9.957928839487069708e-03	3.329757881487141555e-05	2.989749959480045085e-05
3.574761967785789363e+00	1.714422014298936001e-06	-1.562403435672589879e-04	3.754108146578776818e-03	8.467386870493797124e-01	1.102180293384073639e+00	1.000017772908929237e+00	-9.957927478145750522e-03	3.331736764330804233e-05	3.023671927470584605e-05
3.594788645476466371e+00	1.714422005409326490e-06	-1.562403380481065785e-04	3.714334670025455816e-03	8.467387190611798120e-01	1.102279953941858404e+00	1.000017771885093554e+00	-9.957926651770159301e-03	3.333777496602409511e-05	3.057810623219436451e-05
3.614815323167142935e+00	1.714421996834517198e-06	-1.562403317598423983e-04	3.675252515902177261e-03	8.467387455788261130e-01	1.102386998409785379e+00	1.000017770850486709e+00	-9.957925916294720070e-03	3.335879755499147924e-05	3.092166567652237234e-05
3.634842000857819500e+00	1.714421988443440363e-06	-1.562403185835818328e-04	3.636846140813962489e-03	8.467388187310481706e-01	1.102501358430633793e+00	1.000017769831528902e+00	-9.957925658656788248e-03	3.338043383599278085e-05	3.126740287053306693e-05
3.654868678548496508e+00	1.714421980378087507e-06	-1.562403052318629324e-04	3.599100261453831717e-03	8.467388847649720551e-01	1.102622967747086236e+00	1.000017768801941598e+00	-9.957925446839297617e-03	3.340268072830020196e-05	3.161532313040229256e-05
3.674895356239173072e+00	1.714421972488739204e-06	-1.562402856027757855e-04	3.562000216101843513e-03	8.467389932704039168e-01	1.102751761922646123e+00	1.000017767788654366e+00	-9.957925672585661928e-03	3.342553707448568700e-05	3.196543182621785329e-05
3.694922033929849636e+00	1.714421964932263413e-06	-1.562402670657243343e-04	3.525531547515971080e-03	8.467390860602548308e-01	1.102887678513263747e+00	1.000017766764844662e+00	-9.957925860354011408e-03	3.344899992210932801e-05	3.231773438167481830e-05
3.714948711620526201e+00	1.714421957539191926e-06	-1.562402417233281840e-04	3.489680419742816238e-03	8.467392262022630511e-01	1.103030656787981068e+00	1.000017765757942545e+00	-9.957926514381756564e-03	3.347306853613471716e-05	3.267223627471200955e-05
3.734975389311203209e+00	1.714421950485576938e-06	-1.562402184775570991e-04	3.454433142801946292e-03	8.467393456494421988e-01	1.103180637909324968e+00	1.000017764740586568e+00	-9.957927066884322831e-03	3.349774003809192433e-05	3.302894303721054612e-05
3.755002067001879773e+00	1.714421943579199147e-06	-1.562401889224762771e-04	3.419776656972235967e-03	8.467395084226537749e-01	1.103337564653160907e+00	1.000017763740711940e+00	-9.957928053968122944e-03	3.352301414189031998e-05	3.338786025571538078e-05
3.775028744692556337e+00	1.714421937016919173e-06	-1.562401633973502918e-04	3.385697987959737903e-03	8.467396429445204209e-01	1.103501381597300268e+00	1.000017762730404991e+00	-9.957928810297120639e-03	3.354888801737302567e-05	3.374899357110335794e-05
3.795055422383233346e+00	1.714421930579978476e-06	-1.562401286884290350e-04	3.352184805671378810e-03	8.467398307372215882e-01	1.103672034838981464e+00	1.000017761738133837e+00	-9.957930182511946782e-03	3.357536184736422904e-05	3.411234867931643922e-05
3.815082100073909910e+00	1.714421924499752787e-06	-1.562400973953547020e-04	3.319224793935219610e-03	8.467399973804428104e-01	1.103849472192687031e+00	1.000017760735418815e+00	-9.957931361191274533e-03	3.360243272608067042e-05	3.447793133109246900e-05
3.835108777764586474e+00	1.714421918525287209e-06	-1.562400578804481912e-04	3.286806312647191312e-03	8.467402115401528873e-01	1.104033642903794910e+00	1.000017759751258950e+00	-9.957933093683639381e-03	3.363010135898795652e-05	3.484574733267379535e-05
3.855135455455263482e+00	1.714421912908081705e-06	-1.562400428875666619e-04	3.254917669402004714e-03	8.467402906220077297e-01	1.104224497856811649e+00	1.000017758756617026e+00	-9.957933292142562287e-03	3.365836483660493254e-05	3.521580254559594553e-05
3.875162133145940047e+00	1.714421907312976772e-06	-1.562400291944731278e-04	3.223547913819006794e-03	8.467403648423852403e-01	1.104421989286360040e+00	1.000017757781020311e+00	-9.957933361246732590e-03	3.368722482631758823e-05	3.558810288746621861e-05
3.895188810836616611e+00	1.714421902082621380e-06	-1.562399295899979338e-04	3.192685881078016763e-03	8.467409014125233391e-01	1.104626070992855258e+00	1.000017756794873147e+00	-9.957939299729249086e-03	3.371667782458229732e-05	3.596265433160111477e-05
3.915215488527293175e+00	1.714421897212977932e-06	-1.562397517810522253e-04	3.162321008005979182e-03	8.467418637658967739e-01	1.104836698024896258e+00	1.000017755828330079e+00	-9.957938010852604785e-03	3.374672367020769382e-05	3.633946290863198449e-05
3.935242166217970183e+00	1.714421892206416903e-06	-1.562398635646731863e-04	3.132442803382638231e-03	8.467412565632883581e-01	1.105053827196510241e+00	1.000017754851699303e+00	-9.958032760933214350e-03	3.377736010869930794e-05	3.671853469830680669e-05
3.955268843908646748e+00	1.714421887165704987e-06	-1.562404759592749036e-04	3.103042200112035749e-03	8.467379361497221479e-01	1.105277417057825007e+00	1.000017753900772632e+00	-9.957967001959656256e-03	3.380859752275853185e-05	3.709987590065269282e-05
3.975295521599323312e+00	1.714421885251082936e-06	-1.562406160587348773e-04	3.074109540143077184e-03	8.467371761871756997e-01	1.105507421712235150e+00	1.000017752972048868e+00	-9.957148343283029474e-03	3.384043732265430086e-05	3.748349261987514929e-05
3.995322199289999876e+00	1.714584732784533302e-06	-1.562445415764751166e-04	3.045531353289996409e-03	8.467602886658235350e-01	1.105725138389047624e+00	1.000000000000000000e+00	-1.000000000000000021e-02	3.387174561589884471e-05	3.787100112148618141e-05
