# Time=0.0235004700094 and Columns are r	p	Paether	ur	alpha	a	b	K	Sr_tilde	tau_tilde
1.001333884533834630e-02	1.199066691352549362e-02	-1.855280737541846123e-02	2.356713453341218812e-05	6.397320732840208191e-01	1.000104580120077191e+00	1.000057260162736439e+00	-1.282898792073039300e-02	2.661841162438487893e-10	1.503163870811668770e-06
3.004001653601504063e-02	1.196216397006935085e-02	-1.853180625588656330e-02	7.068405892306802005e-05	6.399108515491307436e-01	1.000482987255128631e+00	1.000057275875008589e+00	-1.282314965481040278e-02	7.176611490692028311e-09	1.350142365147151736e-05
5.006669422669172975e-02	1.190531836590039139e-02	-1.848982909554888060e-02	1.177001463572941781e-04	6.402682759941272783e-01	1.001238919991596754e+00	1.000057300047453968e+00	-1.280431246132016955e-02	3.311549843893611517e-08	3.735393686937486433e-05
7.009337191736843276e-02	1.182050909918613314e-02	-1.842696599402867189e-02	1.645249933743029669e-04	6.408038653415640828e-01	1.002370658269899018e+00	1.000057332313138092e+00	-1.277418728552450616e-02	9.040212152058754124e-08	7.277434358930440596e-05
9.012004960804512188e-02	1.170828398563904769e-02	-1.834334189757757388e-02	2.110995095255035147e-04	6.415169473018210722e-01	1.003875597539843234e+00	1.000057374825430223e+00	-1.273507726772344847e-02	1.908247095182898449e-07	1.193372226229501168e-04
1.101467272987218110e-01	1.156936523168167717e-02	-1.823912425013634458e-02	2.573564281613731439e-04	6.424066272788415688e-01	1.005750219603290585e+00	1.000057427410393496e+00	-1.268630456959485980e-02	3.454353993631049595e-07	1.764830047493354303e-04
1.301734049893985001e-01	1.140464263477323527e-02	-1.811452396861643749e-02	3.032330857476112974e-04	6.434717645454826052e-01	1.007990080110879871e+00	1.000057489775131314e+00	-1.262817979310327382e-02	5.643681670964068402e-07	2.435244669501658522e-04
1.502000826800751754e-01	1.121516549157388666e-02	-1.796979632242688349e-02	3.486713451593514003e-04	6.447109877930051747e-01	1.010589769601740517e+00	1.000057561548073570e+00	-1.256091491190638142e-02	8.566728976612912557e-07	3.196547640900205840e-04
1.702267603707518784e-01	1.100213283323786019e-02	-1.780524245399627004e-02	3.936183645367461511e-04	6.461226561719127792e-01	1.013542875284219935e+00	1.000057642307538019e+00	-1.248477856282433941e-02	1.230171306760144926e-06	4.039569352755796594e-04
1.902534380614285814e-01	1.076688229955441271e-02	-1.762121004028674096e-02	4.380273932706953187e-04	6.477048858017570021e-01	1.016841937596327350e+00	1.000057731593845256e+00	-1.240008486643760614e-02	1.691337422816106102e-06	4.954148101635076889e-04
2.102801157521052566e-01	1.051087774555614814e-02	-1.741809519399519987e-02	4.818582989918649513e-04	6.494554958239289189e-01	1.020478403319480032e+00	1.000057828914801883e+00	-1.230719738398253563e-02	2.245203760885149637e-06	5.929252240161995849e-04
2.303067934427819596e-01	1.023569571891500343e-02	-1.719634276759216332e-02	5.250783358427172460e-04	6.513720474828715856e-01	1.024442576312101894e+00	1.000057933757527273e+00	-1.220653148494808826e-02	2.895296249012131514e-06	6.953114341036112367e-04
2.503334711334586626e-01	9.943010943442246591e-03	-1.695644843533022569e-02	5.676625068206169692e-04	6.534517743608676543e-01	1.028723567236653480e+00	1.000058045592713718e+00	-1.209855525191240455e-02	3.643596256464565927e-06	8.013376117092136123e-04
2.703601488241353379e-01	9.634580969367943781e-03	-1.669895838900066140e-02	6.095942890679324376e-04	6.556916365205307518e-01	1.033309243780432540e+00	1.000058163887949991e+00	-1.198379110625102766e-02	4.490533353024515466e-06	9.097242657980988013e-04
2.903868265148120131e-01	9.312230149182676095e-03	-1.642447134647118806e-02	6.508658114006762863e-04	6.580882355074403334e-01	1.038186183134185425e+00	1.000058288110377891e+00	-1.186281485068848250e-02	5.435003388069742639e-06	1.019164434047304746e-03
3.104135042054887439e-01	8.977833120045160611e-03	-1.613363740714538266e-02	6.914785438730131767e-04	6.606378834318598070e-01	1.043339628602163005e+00	1.000058417740953942e+00	-1.173625554291953151e-02	6.474417335755422201e-06	1.128340457726251678e-03
3.304401818961654191e-01	8.633297969707727157e-03	-1.582715968986868685e-02	7.314432725623827352e-04	6.633365079142446996e-01	1.048753452488206506e+00	1.000058552274621260e+00	-1.160479204943441062e-02	7.604770356160866860e-06	1.235941135825499018e-03
3.504668595868420944e-01	8.280549280847154456e-03	-1.550579217461156394e-02	7.707807666100247989e-04	6.661797331525176613e-01	1.054410127453726753e+00	1.000058691234884112e+00	-1.146915051070124258e-02	8.820740163157774491e-06	1.340679035434612712e-03
3.704935372775188251e-01	7.921511241737974260e-03	-1.517034068205823372e-02	8.095215395226776226e-04	6.691627793996235418e-01	1.060290708788451441e+00	1.000058834170554967e+00	-1.133009793475783789e-02	1.011579735278914536e-05	1.441307715907982814e-03
3.905202149681955004e-01	7.558091023692607192e-03	-1.482165955074755265e-02	8.477065142432656372e-04	6.722805554060981015e-01	1.066374829979959582e+00	1.000058980670025965e+00	-1.118843683303753257e-02	1.148234276773960966e-05	1.536638609650007236e-03
4.105468926588721756e-01	7.192162615097297089e-03	-1.446065171482879656e-02	8.853865704741790141e-04	6.755275566282775701e-01	1.072640714142928164e+00	1.000059130353796899e+00	-1.104499567618488429e-02	1.291184586924908532e-05	1.625557287963465053e-03
4.305735703495489064e-01	6.825551307848764723e-03	-1.408826416607450276e-02	9.226232393502762719e-04	6.788979674594780578e-01	1.079065203649159033e+00	1.000059282888029921e+00	-1.090062055742392448e-02	1.439500793857482793e-05	1.707038833212757168e-03
4.506002480402255816e-01	6.460019017018496859e-03	-1.370548693734134280e-02	9.594880525380341304e-04	6.823855628312648358e-01	1.085623810355087704e+00	1.000059437972012910e+00	-1.075616272152310308e-02	1.592191337147664946e-05	1.780162033505539986e-03
4.706269257309022569e-01	6.097250613178503004e-03	-1.331334737082221463e-02	9.960633138669263125e-04	6.859838184024551477e-01	1.092290788380658961e+00	1.000059595350889508e+00	-1.061246751631812757e-02	1.748220461736994609e-05	1.844122120740486958e-03
4.906536034215789877e-01	5.738841426945475235e-03	-1.291290794523674602e-02	1.032441288973925562e-03	6.896858198741061541e-01	1.099039231288036600e+00	1.000059754797555600e+00	-1.047035960212176070e-02	1.906523128882125012e-05	1.898241781567427044e-03
5.106802811122557184e-01	5.386286076106407313e-03	-1.250525944924491505e-02	1.068725124048375275e-03	6.934843789882171317e-01	1.105841194800045502e+00	1.000059916124546922e+00	-1.033062989456038847e-02	2.066022366806416770e-05	1.941980191203308880e-03
5.307069588029323937e-01	5.040968740830387325e-03	-1.209151772769703932e-02	1.105027944755874189e-03	6.973719529486644975e-01	1.112667845916394560e+00	1.000060079160249860e+00	-1.019401945045727946e-02	2.225642647115639198e-05	1.974939845919472265e-03
5.507336364936090689e-01	4.704154995738544023e-03	-1.167281591677745388e-02	1.141474021447317407e-03	7.013407668154559849e-01	1.119489638303437617e+00	1.000060243760295009e+00	-1.006120553881452613e-02	2.384326037970717384e-05	1.996871008384769330e-03
5.707603141842857442e-01	4.376985278379370674e-03	-1.125030033580079122e-02	1.178197880985901169e-03	7.053827427630975366e-01	1.126276513407102886e+00	1.000060409778183113e+00	-9.932785521816304974e-03	2.541043079733150547e-05	2.007673624123004329e-03
5.907869918749625304e-01	4.060470050558428155e-03	-1.082512207102836500e-02	1.215345852258329501e-03	7.094896262340646409e-01	1.132998125526338828e+00	1.000060577076994139e+00	-9.809263421766726068e-03	2.694807063839988083e-05	2.007396622787738314e-03
6.108136695656392057e-01	3.755486676888554910e-03	-1.039843229597327626e-02	1.253075333440841757e-03	7.136529278662194775e-01	1.139624088607233299e+00	1.000060745494769199e+00	-9.691035344358531894e-03	2.844681873206344010e-05	1.996234577535335470e-03
6.308403472563158809e-01	3.462778017650784169e-03	-9.971373585388101229e-03	1.291556886232887117e-03	7.178640489627882149e-01	1.146124241181559089e+00	1.000060914857729522e+00	-9.578377981586691167e-03	2.989794107144433155e-05	1.974521763245230821e-03
6.508670249469925562e-01	3.182952700549847476e-03	-9.545075050422378166e-03	1.330973840954398184e-03	7.221142347950718632e-01	1.152468925498217889e+00	1.000061084941018308e+00	-9.471437050327774151e-03	3.129337764354572765e-05	1.942723722356234656e-03
6.708937026376692314e-01	2.916487007589627870e-03	-9.120643797026569202e-03	1.371525142047555100e-03	7.263946989007196153e-01	1.158629275591096519e+00	1.000061255484736567e+00	-9.370219033684849125e-03	3.262584253530407050e-05	1.901426517315197955e-03
6.909203803283459067e-01	2.663728283495889713e-03	-8.699160323664719210e-03	1.413425512222000330e-03	7.306965826355278359e-01	1.164577508945526363e+00	1.000061426150920862e+00	-9.274583816864372457e-03	3.388884093373257931e-05	1.851323914294967198e-03
7.109470580190225819e-01	2.424899746310827265e-03	-8.281670531870493485e-03	1.456909286202616232e-03	7.350110762739376913e-01	1.170287215323708496e+00	1.000061596543835529e+00	-9.184240593477180359e-03	3.507675016155119155e-05	1.793202803749818688e-03
7.309737357096993682e-01	2.200106557030219109e-03	-7.869181818442656795e-03	1.502231395021432154e-03	7.393293826129777591e-01	1.175733636706311369e+00	1.000061766163876209e+00	-9.098745431281389170e-03	3.618480986560281394e-05	1.727927214260821520e-03
7.510004134003760434e-01	1.989342985453223210e-03	-7.462656026247183917e-03	1.549672464005951919e-03	7.436428312378210448e-01	1.180893931546884934e+00	1.000061934433713162e+00	-9.017501783403509413e-03	3.720918602662179607e-05	1.656421315630782296e-03
7.710270910910527187e-01	1.792500494590243149e-03	-7.063006611764276535e-03	1.599540928486427923e-03	7.479428408319707122e-01	1.185747417533405290e+00	1.000062100649625751e+00	-8.939763217795531486e-03	3.814693711112348580e-05	1.579651832531434909e-03
7.910537687817293939e-01	1.609376555099512832e-03	-6.671092828985455796e-03	1.652179726903510839e-03	7.522210255582255645e-01	1.190275786680409231e+00	1.000062264014866642e+00	-8.864638584142676275e-03	3.899606190303723857e-05	1.498610299476641232e-03
8.110804464724060692e-01	1.439683997064446610e-03	-6.287718232878126805e-03	1.707969930866883729e-03	7.564691528773334062e-01	1.194463288190327210e+00	1.000062423588954141e+00	-8.791099898251325886e-03	3.975544336129234219e-05	1.414295581937520183e-03
8.311071241630827444e-01	1.283060705674755973e-03	-5.913626289786430915e-03	1.767339447875268055e-03	7.606792371622640436e-01	1.198296874470631934e+00	1.000062578329289575e+00	-8.717992134428281803e-03	4.042487971193873658e-05	1.327697065578955322e-03
8.511338018537595307e-01	1.139079474004261712e-03	-5.549500330176254138e-03	1.830768656383271499e-03	7.648434928544570743e-01	1.201766307817185186e+00	1.000062727038921295e+00	-8.644046489750357304e-03	4.100500696975640103e-05	1.239778879703863981e-03
8.711604795444362059e-01	1.007257835031219852e-03	-5.195960618183530742e-03	1.898801655813000351e-03	7.689544127483001201e-01	1.204864225358344809e+00	1.000062868417683326e+00	-8.567895377276155480e-03	4.149731208942542151e-05	1.151465471023464544e-03
8.911871572351128812e-01	8.870677109167932712e-04	-4.853565689664096454e-03	1.972054543804068177e-03	7.730047182425267005e-01	1.207586162279416619e+00	1.000063001008841379e+00	-8.488092305929327910e-03	4.190403529294745580e-05	1.063628786453243514e-03
9.112138349257895564e-01	7.779447342003216644e-04	-4.522810820936962010e-03	2.051229907084714966e-03	7.769874141662023170e-01	1.209930533314692802e+00	1.000063123261549114e+00	-8.403134001505411718e-03	4.222816469447131373e-05	9.770772578572900144e-04
9.312405126164662317e-01	6.792971178305570908e-04	-4.204130476987973791e-03	2.137128545215864501e-03	7.808957444736650544e-01	1.211898574974753506e+00	1.000063233477661351e+00	-8.311490127924805668e-03	4.247332098345766628e-05	8.925467158099620064e-04
9.512671903071429069e-01	5.905139722249751980e-04	-3.897897923160505932e-03	2.230668033154452595e-03	7.847232211953794057e-01	1.213494250575571920e+00	1.000063329888080332e+00	-8.211636891469923510e-03	4.264373459045530307e-05	8.106932920912267738e-04
9.712938679978196932e-01	5.109729927057732150e-04	-3.604428430151721333e-03	2.332898788717458882e-03	7.884635874560270707e-01	1.214724122455186128e+00	1.000063410602336722e+00	-8.102102443712068738e-03	4.274411728025712999e-05	7.320883103612884149e-04
9.913205456884963684e-01	4.400474631786992761e-04	-3.323979600870986990e-03	2.445027516820012358e-03	7.921108261402348694e-01	1.215597194808614390e+00	1.000063473703064476e+00	-7.981519270270472088e-03	4.277962508707632992e-05	6.572151087342601502e-04
1.011347223379172933e+00	3.771125465402282531e-04	-3.056754863278232821e-03	2.568438305628605034e-03	7.956591322842977432e-01	1.216124732598852454e+00	1.000063517202841368e+00	-7.848693765405310649e-03	4.275572319083136377e-05	5.864676944762234031e-04
1.031373901069849497e+00	3.215508529634850902e-04	-2.802903971545940738e-03	2.704721226964819109e-03	7.991029058018491726e-01	1.216320060412802162e+00	1.000063539163072113e+00	-7.702686700674542079e-03	4.267813964098966263e-05	5.201510958054508674e-04
1.051400578760526283e+00	2.727572983917560105e-04	-2.562526149851604516e-03	2.855698101933719542e-03	8.024367609551357194e-01	1.216198346848539558e+00	1.000063537664392488e+00	-7.542916049257933006e-03	4.255273086566998831e-05	4.584832547634734275e-04
1.071427256451203069e+00	2.301432818485735687e-04	-2.335670373101763220e-03	3.023454707678481426e-03	8.056554602025580714e-01	1.215776377830176003e+00	1.000063510957606816e+00	-7.369271929423861812e-03	4.238543200704340759e-05	4.015982928901264582e-04
1.091453934141879634e+00	1.931402255896472880e-04	-2.122337504446894160e-03	3.210367914401668094e-03	8.087539901641518370e-01	1.215072323743538130e+00	1.000063457454519300e+00	-7.182254955701547310e-03	4.218213069376977505e-05	3.495509818514548617e-04
1.111480611832556420e+00	1.612025319217218579e-04	-1.922479378036941969e-03	3.419135343351270388e-03	8.117275816626089435e-01	1.214105502631844358e+00	1.000063375917054964e+00	-6.983121048570305016e-03	4.194861968042631548e-05	3.023222574469899924e-04
1.131507289523232984e+00	1.338100181554251829e-04	-1.736000126724641761e-03	3.652793665459967611e-03	8.145716768911531735e-01	1.212896143143474159e+00	1.000063265471213603e+00	-6.774034508315257032e-03	4.169048502524927527e-05	2.598256291831933253e-04
1.151533967213909770e+00	1.104698925407674115e-04	-1.562754243210688967e-03	3.914729775277461625e-03	8.172817891996201345e-01	1.211465148031643846e+00	1.000063125832672872e+00	-6.558203539075145062e-03	4.141306750145945070e-05	2.219143510604106983e-04
1.171560644904586557e+00	9.071833210806647867e-05	-1.402544893763670638e-03	4.208666452355462780e-03	8.198542422688512854e-01	1.209833860672627548e+00	1.000062957333598179e+00	-6.339995865252650957e-03	4.112137098044724360e-05	1.883892320681695737e-04
1.191587322595263121e+00	7.412171486383965010e-05	-1.255121795878420344e-03	4.538620735370686374e-03	8.222857642128755806e-01	1.208023834245803396e+00	1.000062761164463909e+00	-6.124979100269251249e-03	4.082003491748312896e-05	1.590069693110947161e-04
1.211614000285939907e+00	6.027754673136173424e-05	-1.120181388144248120e-03	4.908810702190590826e-03	8.245726595258803249e-01	1.206056605417076710e+00	1.000062539379787507e+00	-5.919869596973451054e-03	4.051326911781231413e-05	1.334888820171324197e-04
1.231640677976616471e+00	4.881510632172261815e-05	-9.973602389769570167e-04	5.323501624308334644e-03	8.267126847363202025e-01	1.203953471963170596e+00	1.000062295107692067e+00	-5.732372530831288115e-03	4.020484599279165223e-05	1.115299056515041035e-04
1.251667355667293258e+00	3.939581199046738208e-05	-8.862341651062644477e-04	5.786760897140481863e-03	8.287061710458788477e-01	1.201735276790879103e+00	1.000062032472303963e+00	-5.570869964014931244e-03	3.989805683138522959e-05	9.280767451058541417e-05
1.271694033357969822e+00	3.171329627892814179e-05	-7.863226309416834455e-04	6.302112851514688092e-03	8.305510548151749939e-01	1.199422199019565038e+00	1.000061756699928583e+00	-5.443902615308744523e-03	3.959572352499017431e-05	7.699147993058231773e-05
1.291720711048646608e+00	2.549315815314368247e-05	-6.970860616032700926e-04	6.872071824937839822e-03	8.322461031674232013e-01	1.197033556597761450e+00	1.000061473886197039e+00	-5.359571000855396956e-03	3.930019141161508029e-05	6.375084922119976776e-05
1.311747388739323394e+00	2.049235560687167376e-05	-6.179238447568532674e-04	7.497562590761383539e-03	8.337969932529428752e-01	1.194587623421567324e+00	1.000061190939924849e+00	-5.324864303189925756e-03	3.901335130236749333e-05	5.276345739053256981e-05
1.331774066429999959e+00	1.649820483034964569e-05	-5.481903387763307134e-04	8.177250374143964565e-03	8.352071983443417613e-01	1.192101467779257851e+00	1.000060915163646369e+00	-5.344882144474170926e-03	3.873664559724477512e-05	4.372207413666281132e-05
1.351800744120676745e+00	1.332696762176323493e-05	-4.872019675142128295e-04	8.906858562018289682e-03	8.364759679895741318e-01	1.189590816660151429e+00	1.000060654045689335e+00	-5.422187531490619064e-03	3.847111799698646099e-05	3.634027266306321031e-05
1.371827421811353309e+00	1.082203609765236431e-05	-4.342407024009294287e-04	9.678572361699500082e-03	8.376121124756402692e-01	1.187069953123169874e+00	1.000060414714005752e+00	-5.556457955983824977e-03	3.821743393461437318e-05	3.035669117212316535e-05
1.391854099502030095e+00	8.851757534202540833e-06	-3.885730416931555144e-04	1.048068678999326472e-02	8.386261968140259482e-01	1.184551649833947229e+00	1.000060203684286053e+00	-5.744279228853298863e-03	3.797592159140764068e-05	2.553773800147922962e-05
1.411880777192706660e+00	7.306976855055559526e-06	-3.494685113097902658e-04	1.129765737935091961e-02	8.395219617676135115e-01	1.182047142860585875e+00	1.000060026330347851e+00	-5.979228503366095827e-03	3.774661265712247002e-05	2.167875431821564565e-05
1.431907454883383446e+00	6.098401655296590806e-06	-3.162075612549068520e-04	1.211068797856982258e-02	8.403075157970764097e-01	1.179566144269311501e+00	1.000059886746206272e+00	-6.252399747004213325e-03	3.752930006532822918e-05	1.860377252303272770e-05
1.451934132574060232e+00	5.153909335065600573e-06	-2.880964442897773867e-04	1.289888596677456895e-02	8.409958285435760184e-01	1.177116892451256946e+00	1.000059787382648668e+00	-6.553134619581978126e-03	3.732357764726280160e-05	1.616411184739548757e-05
1.471960810264736796e+00	4.415914384395632171e-06	-2.644814260088981382e-04	1.364090340625135830e-02	8.415954891105591473e-01	1.174706233529386967e+00	1.000059729145470477e+00	-6.869869141489804050e-03	3.712890319142851545e-05	1.423611712635223233e-05
1.491987487955413583e+00	3.838898075466767355e-06	-2.447563120508584595e-04	1.431681923153373115e-02	8.421148343677611336e-01	1.172339728376426748e+00	1.000059711277888397e+00	-7.191138127225337601e-03	3.694464731743295655e-05	1.271836520356183033e-05
1.512014165646090147e+00	3.387176254257255331e-06	-2.283672126261576381e-04	1.490994058570315091e-02	8.425641470924498666e-01	1.170021775320918556e+00	1.000059731720512879e+00	-7.506532508585897143e-03	3.677014417599134486e-05	1.152863942548628269e-05
1.532040843336766933e+00	3.032950240968899317e-06	-2.148168960929527135e-04	1.540818570630121849e-02	8.429527988666959404e-01	1.167755741683543125e+00	1.000059787202816075e+00	-7.807408486190649428e-03	3.660472058199304489e-05	1.060091868178666821e-05
1.552067521027443719e+00	2.754656183790220378e-06	-2.036648946259215413e-04	1.580482536529339080e-02	8.432883463761980947e-01	1.165544094762606120e+00	1.000059873765646978e+00	-8.087322814969944915e-03	3.644772672117317999e-05	9.882559023831558663e-06
1.572094198718120284e+00	2.535604282238969583e-06	-1.945257153214472834e-04	1.609850139074403552e-02	8.435784247131858926e-01	1.163388528148007195e+00	1.000059986911685073e+00	-8.342145315643867409e-03	3.629854397731510093e-05	9.331777421588426485e-06
1.592120876408797070e+00	2.362882404137294278e-06	-1.870655715748962308e-04	1.629262519684974639e-02	8.438297089536882511e-01	1.161290077833470713e+00	1.000060122118679118e+00	-8.569868272709290496e-03	3.615659702310259716e-05	8.915488399485781414e-06
1.612147554099473634e+00	2.226489470215932320e-06	-1.809984360072766196e-04	1.639435148977758799e-02	8.440481561632446894e-01	1.159249228248768082e+00	1.000060274890687495e+00	-8.770218446249743519e-03	3.602135074936368921e-05	8.607499880725013355e-06
1.632174231790150420e+00	2.118660689614507321e-06	-1.760811799904226282e-04	1.641337833643968791e-02	8.442385952516604508e-01	1.157266005936293363e+00	1.000060441149382084e+00	-8.944197309976489874e-03	3.589231658049231146e-05	8.387045077933579656e-06
1.652200909480826985e+00	2.033348133921064140e-06	-1.721087185515073298e-04	1.636077394965068654e-02	8.444056136600601725e-01	1.155340063217809687e+00	1.000060617132321417e+00	-9.093639614397181284e-03	3.576904626663057112e-05	8.237610774977883476e-06
1.672227587171503771e+00	1.965823847753072100e-06	-1.689092482230011730e-04	1.624798380402135353e-02	8.445527025295389567e-01	1.153470750482371576e+00	1.000060799663885502e+00	-9.220837844522518714e-03	3.565113620930992539e-05	8.146015761663893747e-06
1.692254264862180557e+00	1.912377883901669563e-06	-1.663396825052581955e-04	1.608607603940208700e-02	8.446832063428986181e-01	1.151657179895585692e+00	1.000060985939065450e+00	-9.328269757222200018e-03	3.553822004427042709e-05	8.101693356854628198e-06
1.712280942552857121e+00	1.870088723212285050e-06	-1.642815553215308197e-04	1.588524308292381393e-02	8.447995372482495213e-01	1.149898279105570964e+00	1.000061173730425246e+00	-9.418404128342598713e-03	3.542997137765674641e-05	8.096136126681516195e-06
1.732307620243533908e+00	1.836648474020307187e-06	-1.626371995532332668e-04	1.565451849271413259e-02	8.449041392249956317e-01	1.148192837901388152e+00	1.000061361114240821e+00	-9.493590047671149681e-03	3.532609542048321488e-05	8.122466980221599724e-06
1.752334297934210472e+00	1.810229212016463704e-06	-1.613265643453887189e-04	1.540167018593181086e-02	8.449985981501838550e-01	1.146539546316557967e+00	1.000061546662144973e+00	-9.555983020586111473e-03	3.522633068257097758e-05	8.175107364960747028e-06
1.772360975624887258e+00	1.789380269449424534e-06	-1.602841894926463045e-04	1.513320952113909532e-02	8.450847289445962973e-01	1.144937027324056666e+00	1.000061729145943934e+00	-9.607524681913297629e-03	3.513044065175486912e-05	8.249519423861566557e-06
1.792387653315563822e+00	1.772948765281500571e-06	-1.594569005707551889e-04	1.485448030375735237e-02	8.451635106158035260e-01	1.143383862530986450e+00	1.000061907739431932e+00	-9.649923998357550631e-03	3.503821510288165220e-05	8.342004284612436799e-06
1.812414331006240609e+00	1.760017751110540130e-06	-1.588015020308613807e-04	1.456978432060303599e-02	8.452362933574613102e-01	1.141878614077758813e+00	1.000062081717400853e+00	-9.684675644380771192e-03	3.494946273496427866e-05	8.449542987593408762e-06
1.832441008696917395e+00	1.749857724755042975e-06	-1.582831953945041271e-04	1.428252615707950243e-02	8.453036736401720042e-01	1.140419841016407920e+00	1.000062250676931885e+00	-9.713061075627239110e-03	3.486401239035828785e-05	8.569669962338824582e-06
1.852467686387593959e+00	1.741888434911567513e-06	-1.578738648053276076e-04	1.399535410809209755e-02	8.453666173630673963e-01	1.139006113319336544e+00	1.000062414235084685e+00	-9.736180253918747668e-03	3.478170708382795584e-05	8.700371549278056968e-06
1.872494364078270745e+00	1.735648616373107971e-06	-1.575510349207090346e-04	1.371029382985267976e-02	8.454254776728714615e-01	1.137636021589581548e+00	1.000062572271337658e+00	-9.754958354899223930e-03	3.470240508577799861e-05	8.840003992574302038e-06
1.892521041768947310e+00	1.730771938069874999e-06	-1.572966188603996593e-04	1.342886457872549330e-02	8.454810034349475867e-01	1.136308185552362016e+00	1.000062724623657529e+00	-9.770179300541022988e-03	3.462597538382440989e-05	8.987226741166649946e-06
1.912547719459624096e+00	1.726967811607062543e-06	-1.570962869630731921e-04	1.315218100254473069e-02	8.455333189963900598e-01	1.135021259183725428e+00	1.000062871351047988e+00	-9.782491063910317072e-03	3.455229847169499519e-05	9.140947924548653526e-06
1.932574397150300882e+00	1.724006062853743671e-06	-1.569385181921878025e-04	1.288103699549959097e-02	8.455830552466083727e-01	1.133773935494737817e+00	1.000063012426268161e+00	-9.792439009726898111e-03	3.448126326850821453e-05	9.300279612998925302e-06
1.952601074840977446e+00	1.721704662298887158e-06	-1.568142831534729111e-04	1.261597581558172518e-02	8.456301960746718249e-01	1.132564948617010181e+00	1.000063148016521630e+00	-9.800466184195119959e-03	3.441276722178144871e-05	9.464501015511602556e-06
1.972627752531654233e+00	1.719919906712241459e-06	-1.567163129784736450e-04	1.235734637565450052e-02	8.456752561760030318e-01	1.131393076180344570e+00	1.000063278170777004e+00	-9.806944238727806351e-03	3.434671482235579357e-05	9.633028164722853707e-06
1.992654430222330797e+00	1.718538560058483019e-06	-1.566389826983132806e-04	1.210534852421181820e-02	8.457181514564248159e-01	1.130257139462030436e+00	1.000063403116945526e+00	-9.812169856517576408e-03	3.428301670090458571e-05	9.805388934869411612e-06
2.012681107913007583e+00	1.717471565734453109e-06	-1.565777422116068466e-04	1.186006932537534038e-02	8.457593236727813935e-01	1.129156004268919933e+00	1.000063522941929017e+00	-9.816392302290010904e-03	3.422158977554380801e-05	9.981202460709233675e-06
2.032707785603684147e+00	1.716649026096189032e-06	-1.565291306355323989e-04	1.162151083105110103e-02	8.457986125213100559e-01	1.128088579891366683e+00	1.000063637903830793e+00	-9.819806544482905311e-03	3.416235512941279752e-05	1.016016219847684739e-05
2.052734463294360712e+00	1.716016190343927596e-06	-1.564903144512283897e-04	1.138961303304585580e-02	8.458364496529076071e-01	1.127053819113623234e+00	1.000063748103362515e+00	-9.822577632280509938e-03	3.410523983458571681e-05	1.034202200365402942e-05
2.072761140985037720e+00	1.715530266028111563e-06	-1.564591926320208089e-04	1.116426994989081975e-02	8.458726417364026418e-01	1.126050716481630021e+00	1.000063853809969538e+00	-9.824831494249687200e-03	3.405017340298857679e-05	1.052658470878463896e-05
2.092787818675714284e+00	1.715157873251516773e-06	-1.564340101811304885e-04	1.094534421452211283e-02	8.459075289077223614e-01	1.125078307836218983e+00	1.000063955123566384e+00	-9.826676291501353772e-03	3.399709138862098848e-05	1.071369277139571235e-05
2.112814496366390848e+00	1.714873035906413981e-06	-1.564135070844039754e-04	1.073267558651370621e-02	8.459409736869225593e-01	1.124135668218337436e+00	1.000064052313804019e+00	-9.828191914830324352e-03	3.394593024395339511e-05	1.090322063418613311e-05
2.132841174057067857e+00	1.714655576654910491e-06	-1.563966003770723826e-04	1.052609051844301258e-02	8.459732450777290858e-01	1.123221911198713174e+00	1.000064145471418087e+00	-9.829448719343724522e-03	3.389663272274998914e-05	1.109506849870001826e-05
2.152867851747744421e+00	1.714489863703863019e-06	-1.563825440012193643e-04	1.032540584722601434e-02	8.460042159502504377e-01	1.122336186614943276e+00	1.000064234860182033e+00	-9.830496782516592522e-03	3.384914109838841272e-05	1.128915726375963347e-05
2.172894529438420985e+00	1.714363805381542119e-06	-1.563706739763648661e-04	1.013043546950771930e-02	8.460341168616728469e-01	1.121477679854974818e+00	1.000064320557186637e+00	-9.831381180001997830e-03	3.380340432342493473e-05	1.148542442118262765e-05
2.192921207129097994e+00	1.714268077181897966e-06	-1.563605543795730914e-04	9.940990996601190705e-03	8.460628371836035333e-01	1.120645609556942812e+00	1.000064402817287368e+00	-9.832132924495784118e-03	3.375936965626585645e-05	1.168382073637052831e-05
2.212947884819774558e+00	1.714195495442543905e-06	-1.563517773645083705e-04	9.756886831924884221e-03	8.460905696125410325e-01	1.119839226936427012e+00	1.000064481701962604e+00	-9.832780876249272092e-03	3.371699144999662560e-05	1.188430757075923291e-05
2.232974562510451122e+00	1.714140547104314061e-06	-1.563440906941399348e-04	9.577938921109445045e-03	8.461172258312911199e-01	1.119057813519856781e+00	1.000064557456036507e+00	-9.833343992177530704e-03	3.367622127424214158e-05	1.208685472766312520e-05
2.253001240201127686e+00	1.714099000935556574e-06	-1.563372446774384300e-04	9.403969006384191656e-03	8.461429575755307075e-01	1.118300680571221450e+00	1.000064630124826603e+00	-9.833840528243717807e-03	3.363701822385065457e-05	1.229143872372961018e-05
2.273027917891804695e+00	1.714067626331157814e-06	-1.563310968471995084e-04	9.234802183028942985e-03	8.461676916869870224e-01	1.117567166892703856e+00	1.000064699943126190e+00	-9.834281924322396673e-03	3.359933764867884068e-05	1.249804140553131474e-05
2.293054595582481259e+00	1.714043952040296961e-06	-1.563254925406971571e-04	9.070270773020179186e-03	8.461915776555708479e-01	1.116856638376547028e+00	1.000064766940325311e+00	-9.834679757473220249e-03	3.356314285837430384e-05	1.270664884526431290e-05
2.313081273273157823e+00	1.714026101922684366e-06	-1.563203510799500450e-04	8.910211119548023737e-03	8.462145565787421164e-01	1.116168485890922435e+00	1.000064831341767491e+00	-9.835040967208562995e-03	3.352839253140597442e-05	1.291725046146595087e-05
2.333107950963834831e+00	1.714012644381355769e-06	-1.563155773392041102e-04	8.754467334381571195e-03	8.462367324208266428e-01	1.115502124967913788e+00	1.000064893161669799e+00	-9.835372829606812278e-03	3.349505373409290322e-05	1.312983832065175219e-05
2.353134628654511395e+00	1.714002499754164978e-06	-1.563111272994839303e-04	8.602887605463975865e-03	8.462580578742725512e-01	1.114856993773489569e+00	1.000064952616833480e+00	-9.835679333692439949e-03	3.346308810883993429e-05	1.334440658404883975e-05
2.373161306345187960e+00	1.713994845020913730e-06	-1.563069408748567755e-04	8.455327946451032459e-03	8.462786346576393059e-01	1.114232552934635301e+00	1.000065009707152397e+00	-9.835965128814294633e-03	3.343246610636501970e-05	1.356095107018669878e-05
2.393187984035864524e+00	1.713989064640413186e-06	-1.563029918967239178e-04	8.311648180058448659e-03	8.462984434133993261e-01	1.113628283593894430e+00	1.000065064641892487e+00	-9.836232834500397912e-03	3.340315200679348984e-05	1.377946891014154179e-05
2.413214661726541532e+00	1.713984688646417599e-06	-1.562992437543930964e-04	8.171715758127898535e-03	8.463175436055340173e-01	1.113043687362951450e+00	1.000065117407638704e+00	-9.836485221960468081e-03	3.337511930129971290e-05	1.399995827605708034e-05
2.433241339417218096e+00	1.713981369507197283e-06	-1.562956803610288884e-04	8.035401534075906071e-03	8.463359398964492852e-01	1.112478284459931910e+00	1.000065168207117328e+00	-9.836723878869893870e-03	3.334833464243518159e-05	1.422241816829880805e-05
2.453268017107894661e+00	1.713978840241574988e-06	-1.562922807863769380e-04	7.902583671821018438e-03	8.463536503499161645e-01	1.111931613781516726e+00	1.000065217014584285e+00	-9.836950486835636595e-03	3.332277427684922333e-05	1.444684824816230507e-05
2.473294694798571669e+00	1.713976906682077197e-06	-1.562890328097824185e-04	7.773143280226152765e-03	8.463707249586415182e-01	1.111403231110553502e+00	1.000065264027196976e+00	-9.837166231494281696e-03	3.329840700600154559e-05	1.467324870766793137e-05
2.493321372489248233e+00	1.713975417553397221e-06	-1.562859239923967134e-04	7.646968407242408713e-03	8.463871362608111903e-01	1.110892709303293202e+00	1.000065309207730291e+00	-9.837372024387305153e-03	3.327521157137637407e-05	1.490162016714469416e-05
2.513348050179924797e+00	1.713974265678894526e-06	-1.562829448187156613e-04	7.523949587839625329e-03	8.464029764304787928e-01	1.110399636556939518e+00	1.000065352748737979e+00	-9.837568793213022703e-03	3.325315870823076321e-05	1.513196359611896811e-05
2.533374727870601362e+00	1.713973365176152855e-06	-1.562800885634064876e-04	7.403983919854517474e-03	8.464181847587272101e-01	1.109923616698999860e+00	1.000065394602340785e+00	-9.837757052688514067e-03	3.323222943550163346e-05	1.536428025077421749e-05
2.553401405561278370e+00	1.713972657791277683e-06	-1.562773402607941175e-04	7.286970550059432283e-03	8.464328905235719569e-01	1.109464267508756041e+00	1.000065434957308153e+00	-9.837937909657147942e-03	3.321239622857181684e-05	1.559857162634337892e-05
2.573428083251954934e+00	1.713972094346660953e-06	-1.562747109694692259e-04	7.172814815828806000e-03	8.464469621524103315e-01	1.109021221102326926e+00	1.000065473755854750e+00	-9.838110722825596857e-03	3.319364213771504318e-05	1.583483941874097261e-05
2.593454760942631498e+00	1.713971643781600888e-06	-1.562721734488320901e-04	7.061423738028645841e-03	8.464605996160700085e-01	1.108594122298701690e+00	1.000065511183703348e+00	-9.838277326678562112e-03	3.317594134114427534e-05	1.607308549618136946e-05
2.613481438633308507e+00	1.713971277448258638e-06	-1.562697488794376872e-04	6.952710126423078570e-03	8.464736199578429821e-01	1.108182629092876903e+00	1.000065547173817571e+00	-9.838436399363452781e-03	3.315927863397304370e-05	1.631331187538528324e-05
2.633508116323985071e+00	1.713970979254365998e-06	-1.562674025695428323e-04	6.846588182814849870e-03	8.464862520750009445e-01	1.107786411054235920e+00	1.000065581909597379e+00	-9.838590283719124072e-03	3.314362981753940735e-05	1.655552070475658493e-05
2.653534794014661635e+00	1.713970732008009699e-06	-1.562651658818836912e-04	6.742977495784987542e-03	8.464982954352747724e-01	1.107405149885866358e+00	1.000065615315318235e+00	-9.838736874973171009e-03	3.312898120208737244e-05	1.679971424938342617e-05
2.673561471705338199e+00	1.713970527745680102e-06	-1.562629925994000015e-04	6.641798820220827862e-03	8.465100220204714310e-01	1.107038537848496373e+00	1.000065647572655037e+00	-9.838879284647062892e-03	3.311531016542458447e-05	1.704589488114403720e-05
2.693588149396015208e+00	1.713970355714908253e-06	-1.562609283953888032e-04	6.542977885543822467e-03	8.465211594826264063e-01	1.106686278403058665e+00	1.000065678597684693e+00	-9.839014596818939848e-03	3.310260427529138105e-05	1.729406506890789402e-05
2.713614827086691772e+00	1.713970212257413064e-06	-1.562589208579370163e-04	6.446441444434515902e-03	8.465319871999285040e-01	1.106348084641099794e+00	1.000065708571002965e+00	-9.839146068137714224e-03	3.309084251680803184e-05	1.754422737283518663e-05
2.733641504777368336e+00	1.713970090292130384e-06	-1.562570171225404782e-04	6.352120798927009780e-03	8.465422681708194563e-01	1.106023680015653321e+00	1.000065737400863686e+00	-9.839270802143631686e-03	3.308001351393837641e-05	1.779638443756666056e-05
2.753668182468045345e+00	1.713969988400977983e-06	-1.562551591542216763e-04	6.259948173605913921e-03	8.465523048170014997e-01	1.105712796777409856e+00	1.000065765267262430e+00	-9.839392525138908677e-03	3.307009777244343480e-05	1.805053898912119273e-05
2.773694860158721909e+00	1.713969901674081948e-06	-1.562534031323803657e-04	6.169859930405239591e-03	8.465617902984715615e-01	1.105415176776590291e+00	1.000065792071091808e+00	-9.839507584174594923e-03	3.306108477735188064e-05	1.830669382990375530e-05
2.793721537849398473e+00	1.713969829771160980e-06	-1.562516875619539508e-04	6.081793310865037973e-03	8.465710730751376811e-01	1.105130569905067306e+00	1.000065817992153105e+00	-9.839620019997432840e-03	3.305295657828795646e-05	1.856485183703216650e-05
2.813748215540075037e+00	1.713969769122889813e-06	-1.562500686449130806e-04	5.995689278556595551e-03	8.465798185522566133e-01	1.104858734970286971e+00	1.000065842924298121e+00	-9.839726147247479862e-03	3.304570335755114278e-05	1.882501595852286057e-05
2.833774893230752046e+00	1.713969719881100799e-06	-1.562484817868096108e-04	5.911489664170921192e-03	8.465884155402952915e-01	1.104599438129076239e+00	1.000065867047621904e+00	-9.839830015774694849e-03	3.303930864239558343e-05	1.908718921249893228e-05
2.853801570921428610e+00	1.713969679357058310e-06	-1.562469915328862271e-04	5.829139620116744087e-03	8.465964623888631024e-01	1.104352453845975690e+00	1.000065890249130396e+00	-9.839927829414410465e-03	3.303376315598874818e-05	1.935137468404163081e-05
2.873828248612105174e+00	1.713969647832597949e-06	-1.562455247538536572e-04	5.748585199024723418e-03	8.466044182350814795e-01	1.104117563292809079e+00	1.000065912709659832e+00	-9.840024027238094759e-03	3.302905194886267683e-05	1.961757552489158408e-05
2.893854926302782182e+00	1.713969623309337117e-06	-1.562441512622323575e-04	5.669775357825382334e-03	8.466118426890940629e-01	1.103894555396844446e+00	1.000065934309620985e+00	-9.840114085154855889e-03	3.302516606858363823e-05	1.988579495101683165e-05
2.913881603993458747e+00	1.713969605993334156e-06	-1.562427981220549224e-04	5.592660035617354718e-03	8.466191865152203899e-01	1.103683225225028597e+00	1.000065955230867942e+00	-9.840202816386403942e-03	3.302209211615208471e-05	2.015603624229666798e-05
2.933908281684135311e+00	1.713969594414781709e-06	-1.562415341687468299e-04	5.517191663276046348e-03	8.466260232620004267e-01	1.103483375088719409e+00	1.000065975347466329e+00	-9.840285813182558447e-03	3.301982135053558903e-05	2.042830274059355148e-05
2.953934959374811875e+00	1.713969588640839110e-06	-1.562402872947755972e-04	5.443323752318022027e-03	8.466327842141733173e-01	1.103294812914159762e+00	1.000065994842658013e+00	-9.840367604589115788e-03	3.301834189206893770e-05	2.070259784967548244e-05
2.973961637065488883e+00	1.713969587643084485e-06	-1.562391256365581430e-04	5.371011908683660623e-03	8.466390775099598143e-01	1.103117353415203672e+00	1.000066013584277158e+00	-9.840443922984793562e-03	3.301764510258613575e-05	2.097892503342079122e-05
2.993988314756165448e+00	1.713969591303015171e-06	-1.562379758457208413e-04	5.300212932628251862e-03	8.466453195681036270e-01	1.102950816443246218e+00	1.000066031757270935e+00	-9.840519394363396802e-03	3.301772059907875174e-05	2.125728781595840689e-05
3.014014992446842012e+00	1.713969598990114876e-06	-1.562369085073348190e-04	5.230885330935360934e-03	8.466511085185198793e-01	1.102795028216949857e+00	1.000066049223403475e+00	-9.840589564276724585e-03	3.301855971847100866e-05	2.153768977999515015e-05
3.034041670137519020e+00	1.713969610369331884e-06	-1.562358507133803124e-04	5.162988943058202142e-03	8.466568444493269840e-01	1.102649819656991825e+00	1.000066066169566392e+00	-9.840659031164362622e-03	3.302015360336742401e-05	2.182013456712429724e-05
3.054068347828195584e+00	1.713969625168104333e-06	-1.562348723082763611e-04	5.096484931521297682e-03	8.466621532695903785e-01	1.102515027669563441e+00	1.000066082451624316e+00	-9.840723409443443565e-03	3.302249346495274117e-05	2.210462587620792323e-05
3.074095025518872148e+00	1.713969642831260995e-06	-1.562338974222608865e-04	5.031335941678823087e-03	8.466674456127653015e-01	1.102390493465069898e+00	1.000066098258625580e+00	-9.840787490732789619e-03	3.302557196081069369e-05	2.239116746390295347e-05
3.094121703209549157e+00	1.713969663434035971e-06	-1.562330014110180376e-04	4.967505562372060909e-03	8.466723075743892712e-01	1.102276063888256274e+00	1.000066113440677640e+00	-9.840846473015505552e-03	3.302938003217589959e-05	2.267976314300489577e-05
3.114148380900225721e+00	1.713969686173298878e-06	-1.562321080002684957e-04	4.904959047181304405e-03	8.466771605773593112e-01	1.102171589722891198e+00	1.000066128189206927e+00	-9.840905237418522827e-03	3.303391193884752983e-05	2.297041678314145526e-05
3.134175058590902285e+00	1.713969711451401802e-06	-1.562312846807925051e-04	4.843662206160869940e-03	8.466816324103494384e-01	1.102076927070203105e+00	1.000066142348633225e+00	-9.840959519269004349e-03	3.303915823593082799e-05	2.326313230914762713e-05
3.154201736281578849e+00	1.713969738256965805e-06	-1.562304632318711425e-04	4.783582694781429202e-03	8.466860902073011230e-01	1.101991935632611330e+00	1.000066156112992877e+00	-9.841013577060025649e-03	3.304511469519102058e-05	2.355791370197718194e-05
3.174228413972255858e+00	1.713969767268121864e-06	-1.562297140736472424e-04	4.724688376428338478e-03	8.466901640270652063e-01	1.101916480137447474e+00	1.000066169321125686e+00	-9.841063023372257842e-03	3.305177149803762755e-05	2.385476499686672175e-05
3.194255091662932422e+00	1.713969797253322613e-06	-1.562289583610784933e-04	4.666949141441000502e-03	8.466942532986767578e-01	1.101850428607002552e+00	1.000066182169841777e+00	-9.841112785352270145e-03	3.305912599102625625e-05	2.415369028465311449e-05
3.214281769353608986e+00	1.713969829196364210e-06	-1.562282728866382629e-04	4.610334715501063566e-03	8.466979959899888497e-01	1.101793653822868535e+00	1.000066194492445160e+00	-9.841158078000991974e-03	3.306716772844722725e-05	2.445469370973965944e-05
3.234308447044285995e+00	1.713969861625333786e-06	-1.562275809977116858e-04	4.554817079124503891e-03	8.467017401703414992e-01	1.101746031571430029e+00	1.000066206488718690e+00	-9.841203694421440246e-03	3.307589574770657657e-05	2.475777947158779694e-05
3.254335124734962559e+00	1.713969895808241145e-06	-1.562269547880936447e-04	4.500367671393157992e-03	8.467051397720558592e-01	1.101707442158748051e+00	1.000066217986541828e+00	-9.841245098838680497e-03	3.308529891014910692e-05	2.506295182269791062e-05
3.274361802425639123e+00	1.713969930052262567e-06	-1.562263231570458597e-04	4.446960410645926787e-03	8.467085663229638737e-01	1.101677768631892596e+00	1.000066229188742772e+00	-9.841286802034002884e-03	3.309537791636701757e-05	2.537021507024247465e-05
3.294388480116315687e+00	1.713969965879974714e-06	-1.562257487823748791e-04	4.394568317856051114e-03	8.467116933814295976e-01	1.101656898336386137e+00	1.000066239917880129e+00	-9.841324824621940429e-03	3.310612090252477199e-05	2.567957357400216990e-05
3.314415157806992696e+00	1.713970001417605816e-06	-1.562251728288262178e-04	4.343167100777143783e-03	8.467148297647070221e-01	1.101644721109556357e+00	1.000066250380003297e+00	-9.841362887659748857e-03	3.311753013900220428e-05	2.599103174805145918e-05
3.334441835497669260e+00	1.713970038385450992e-06	-1.562246511801481882e-04	4.292731257869944299e-03	8.467176683398668358e-01	1.101641130891109377e+00	1.000066260392294293e+00	-9.841397468580002916e-03	3.312959312446781506e-05	2.630459405882710813e-05
3.354468513188345824e+00	1.713970074755860112e-06	-1.562241233280426843e-04	4.243238153170846537e-03	8.467205352800293294e-01	1.101646023878642300e+00	1.000066270164264415e+00	-9.841432392709669255e-03	3.314231363310323478e-05	2.662026502673541675e-05
3.374495190879022832e+00	1.713970112448691164e-06	-1.562236468124657415e-04	4.194663639966497715e-03	8.467231379276927150e-01	1.101659300191963231e+00	1.000066279507748179e+00	-9.841464032479076141e-03	3.315567840151161292e-05	2.693804922438286238e-05
3.394521868569699397e+00	1.713970149275291054e-06	-1.562231706969859633e-04	4.146986634564963151e-03	8.467257247817616683e-01	1.101680861996254368e+00	1.000066288635782730e+00	-9.841495596026617401e-03	3.316969278390684110e-05	2.725795127820722431e-05
3.414548546260375961e+00	1.713970187317004388e-06	-1.562227364236666994e-04	4.100184255534121414e-03	8.467280964328499637e-01	1.101710615206577870e+00	1.000066297354917699e+00	-9.841524427509061937e-03	3.318434281654992720e-05	2.757997586660251033e-05
3.434575223951052525e+00	1.713970224280493908e-06	-1.562223043680258149e-04	4.054236838676725414e-03	8.467304377172744090e-01	1.101748467590063729e+00	1.000066305881848860e+00	-9.841553131563506029e-03	3.319963521276132252e-05	2.790412772176551563e-05
3.454601901641729533e+00	1.713970262364872080e-06	-1.562219067122218319e-04	4.009122689099759405e-03	8.467326146946136944e-01	1.101794330510295739e+00	1.000066314017851399e+00	-9.841579633715501554e-03	3.321555539342118752e-05	2.823041162782002772e-05
3.474628579332406098e+00	1.713970299210713806e-06	-1.562215184123661024e-04	3.964823454409936894e-03	8.467347172443341341e-01	1.101848116993208837e+00	1.000066321983394957e+00	-9.841605372478882605e-03	3.323211133114734771e-05	2.855883242269060559e-05
3.494655257023082662e+00	1.713970337072317231e-06	-1.562211591248552540e-04	3.921318564082773572e-03	8.467366907113229590e-01	1.101909743528350916e+00	1.000066329574503365e+00	-9.841629468171918943e-03	3.324928800189358023e-05	2.888939499610630599e-05
3.514681934713759670e+00	1.713970373568252187e-06	-1.562208075976117150e-04	3.878590867766016498e-03	8.467385906050604039e-01	1.101979128089738635e+00	1.000066337015522944e+00	-9.841652755502312833e-03	3.326709445292964082e-05	2.922210429187625783e-05
3.534708612404436234e+00	1.713970411005810590e-06	-1.562204799936492839e-04	3.836620841142308804e-03	8.467403939064437335e-01	1.102056191982609734e+00	1.000066344097226612e+00	-9.841674637956756774e-03	3.328551520236050731e-05	2.955696530537140607e-05
3.554735290095112799e+00	1.713970446965779308e-06	-1.562201657613155269e-04	3.795392452924572710e-03	8.467421036911959575e-01	1.102140857855211653e+00	1.000066351047928626e+00	-9.841695777758235550e-03	3.330456034392011351e-05	2.989398308648139534e-05
3.574761967785789363e+00	1.713970483796488367e-06	-1.562198699996341050e-04	3.754887169944702129e-03	8.467437193490546798e-01	1.102233051542770070e+00	1.000066357653220273e+00	-9.841715446128634914e-03	3.332421407487067894e-05	3.023316273669914353e-05
3.594788645476466371e+00	1.713970519076736862e-06	-1.562195881607259093e-04	3.715089985867990954e-03	8.467452638991227465e-01	1.102332700088794804e+00	1.000066364145416165e+00	-9.841734386014322489e-03	3.334448735501894200e-05	3.057450941205880265e-05
3.614815323167142935e+00	1.713970555152674555e-06	-1.562193213211977882e-04	3.675983298963176119e-03	8.467467100992804863e-01	1.102439733614730022e+00	1.000066370304953711e+00	-9.841752228713114906e-03	3.336536411453949389e-05	3.091802832046757117e-05
3.634842000857819500e+00	1.713970589630090823e-06	-1.562190689485134598e-04	3.637553054028926265e-03	8.467480889264542565e-01	1.102554083307246247e+00	1.000066376368204946e+00	-9.841769220152278563e-03	3.338685611818083211e-05	3.126372472476979508e-05
3.654868678548496508e+00	1.713970624838611297e-06	-1.562188279653292330e-04	3.599782523629485847e-03	8.467493976954888479e-01	1.102675683334407353e+00	1.000066382110475383e+00	-9.841785416790213917e-03	3.340894706381291419e-05	3.161160393973548111e-05
3.674895356239173072e+00	1.713970658418695896e-06	-1.562186047701904297e-04	3.562658535107088211e-03	8.467506221262410815e-01	1.102804468792985215e+00	1.000066387772313270e+00	-9.841800451796740151e-03	3.343164945729782225e-05	3.196167133546569449e-05
3.694922033929849636e+00	1.713970692665193830e-06	-1.562183893050565493e-04	3.526165189191749448e-03	8.467517882403052809e-01	1.102940377675175165e+00	1.000066393123865804e+00	-9.841814970898248027e-03	3.345494686157969761e-05	3.231393233418498743e-05
3.714948711620526201e+00	1.713970725266906882e-06	-1.562181922733449650e-04	3.490290125364722568e-03	8.467528667450798796e-01	1.103083348777930128e+00	1.000066398409915180e+00	-9.841828305167327554e-03	3.347885239611658845e-05	3.266839241393247736e-05
3.734975389311203209e+00	1.713970758474867460e-06	-1.562180042120027499e-04	3.455018226097584903e-03	8.467538853708943547e-01	1.103233323708507907e+00	1.000066403395463821e+00	-9.841841036627056033e-03	3.350334954849129484e-05	3.302505710505722439e-05
3.755002067001879773e+00	1.713970790024323764e-06	-1.562178305624380246e-04	3.420337891146801607e-03	8.467548282265124904e-01	1.103390244761945915e+00	1.000066408329606693e+00	-9.841852860413962192e-03	3.352845205426445896e-05	3.338393199418048202e-05
3.775028744692556337e+00	1.713970822141256566e-06	-1.562176649243072904e-04	3.386234722890151504e-03	8.467557304142351304e-01	1.103554056969265673e+00	1.000066412972185903e+00	-9.841864092169376813e-03	3.355414320087486170e-05	3.374502272061644760e-05
3.795055422383233346e+00	1.713970852592358047e-06	-1.562175157620065069e-04	3.352697839152852643e-03	8.467565726253557523e-01	1.103724705943134099e+00	1.000066417576683131e+00	-9.841874299778534049e-03	3.358043739780452671e-05	3.410833498048370608e-05
3.815082100073909910e+00	1.713970883566946007e-06	-1.562173721008821149e-04	3.319713522127530191e-03	8.467573585702705685e-01	1.103902139958808259e+00	1.000066421897775948e+00	-9.841884126407469957e-03	3.360731778111333904e-05	3.447387452283140951e-05
3.835108777764586474e+00	1.713970912878819302e-06	-1.562172514557254625e-04	3.287271554913027451e-03	8.467580266368739395e-01	1.104086307769447828e+00	1.000066426193382929e+00	-9.841892482473033402e-03	3.363479935593388572e-05	3.484164715416477080e-05
3.855135455455263482e+00	1.713970942656797676e-06	-1.562171314841948413e-04	3.255358873139985957e-03	8.467586780555154125e-01	1.104277160731150120e+00	1.000066430213039315e+00	-9.841900794438510416e-03	3.366286526642955500e-05	3.521165873428787341e-05
3.875162133145940047e+00	1.713970970800726251e-06	-1.562170359426107299e-04	3.223965859527676107e-03	8.467592032230433219e-01	1.104474650571551475e+00	1.000066434219166966e+00	-9.841907120680244009e-03	3.369153086523226628e-05	3.558391518108143867e-05
3.895188810836616611e+00	1.713970999307878859e-06	-1.562169090683345894e-04	3.193080068183798935e-03	8.467598940890550541e-01	1.104678731598178087e+00	1.000066437956151466e+00	-9.841917824793676439e-03	3.372077934966772315e-05	3.595842246560282824e-05
3.915215488527293175e+00	1.713971029780771957e-06	-1.562168329355256022e-04	3.162692382048914140e-03	8.467602997671784815e-01	1.104889357109235970e+00	1.000066441691686459e+00	-9.841756896908427851e-03	3.375062575924680846e-05	3.633518665206710377e-05
3.935242166217970183e+00	1.713971026819457105e-06	-1.562168878208477466e-04	3.132791195235432209e-03	8.467600049615525704e-01	1.105106497324851444e+00	1.000066445168789953e+00	-9.843208561352441086e-03	3.378105610027279756e-05	3.671421346897797586e-05
3.955268843908646748e+00	1.713971153961681280e-06	-1.562169877698847491e-04	3.103368358187292772e-03	8.467595047171465605e-01	1.105330068620074213e+00	1.000066448760106308e+00	-9.843982314909557885e-03	3.381209118306194956e-05	3.709551127931217139e-05
3.975295521599323312e+00	1.713971317144534156e-06	-1.562166852728455316e-04	3.074412942114958421e-03	8.467611822556264656e-01	1.105560009389919607e+00	1.000066452274594786e+00	-9.831571801071286448e-03	3.384371707423594182e-05	3.747908353812511208e-05
3.995322199289999876e+00	1.714584732784533302e-06	-1.562476993346666296e-04	3.045531353289996409e-03	8.467602886604003176e-01	1.105725138389047624e+00	1.000000000000000000e+00	-1.000000000000000021e-02	3.387174561589884471e-05	3.787100112148618141e-05
