# Time=0.012400248005 and Columns are r	p	Paether	ur	alpha	a	b	K	Sr_tilde	tau_tilde
1.001333884533834630e-02	1.199356464520830341e-02	-1.855360377870822822e-02	2.105388162475638048e-05	6.417716329755356330e-01	1.000075791717881746e+00	1.000028469960824840e+00	-1.146151447718995846e-02	2.378151398252130902e-10	1.503397288399213601e-06
3.004001653601504063e-02	1.196504490713003709e-02	-1.853259491978095919e-02	6.314613102087671928e-05	6.419510237984108469e-01	1.000454213024896566e+00	1.000028479312703444e+00	-1.145743170298950050e-02	6.411747737935809426e-09	1.350350913910512588e-05
5.006669422669172975e-02	1.190817820650020599e-02	-1.849061044905449952e-02	1.051790501472213809e-04	6.423096284169470538e-01	1.001210191999541754e+00	1.000028496965986280e+00	-1.144737202562563436e-02	2.959477820828063388e-08	3.735968522327680721e-05
7.009337191736843276e-02	1.182333808151606047e-02	-1.842773676403626493e-02	1.471074993602472438e-04	6.428469841714613553e-01	1.002342001254023840e+00	1.000028522817173027e+00	-1.143180394931097958e-02	8.083749785982337052e-08	7.278548388251415095e-05
9.012004960804512188e-02	1.171107259174265607e-02	-1.834409880104825863e-02	1.888955630123272838e-04	6.435624167745778168e-01	1.003847030875263169e+00	1.000028557097654591e+00	-1.141136998057683608e-02	1.707655000914633536e-07	1.193553649702108440e-04
1.101467272987218110e-01	1.157210423648303253e-02	-1.823986403291382938e-02	2.305064576733215282e-04	6.444550275226832436e-01	1.005721766118384597e+00	1.000028599685480302e+00	-1.138592558115793067e-02	3.094179594595384375e-07	1.765096050784216257e-04
1.301734049893985001e-01	1.140732334374282807e-02	-1.811524341741438740e-02	2.719061048471640269e-04	6.455236727823223664e-01	1.007961761924389910e+00	1.000028650417974063e+00	-1.135559748625551355e-02	5.060984649021940081e-07	2.435607968127415535e-04
1.502000826800751754e-01	1.121777982140210322e-02	-1.797049242076131231e-02	3.130636088808393374e-04	6.467669743768331703e-01	1.010561608568127934e+00	1.000028709100110103e+00	-1.132049982173750392e-02	7.692384121584632229e-07	3.197018850998311896e-04
1.702267603707518784e-01	1.100467339070540854e-02	-1.780591224290523425e-02	3.539515773225419587e-04	6.481832862192811184e-01	1.013514892845704951e+00	1.000028775508826184e+00	-1.128077170672292864e-02	1.106275005007744174e-06	4.040156791933997914e-04
1.902534380614285814e-01	1.076934244332709671e-02	-1.762185082510792436e-02	3.945468063698787608e-04	6.497707161243932994e-01	1.016814154669391179e+00	1.000028849396596531e+00	-1.123657676389738444e-02	1.523547039657551002e-06	4.954857649202100076e-04
2.102801157521052566e-01	1.051325163551211465e-02	-1.741870434021614358e-02	4.348304482985165093e-04	6.515270760176256060e-01	1.020450840152695049e+00	1.000028930493077173e+00	-1.118810437560520225e-02	2.026207862695702157e-06	5.930087259887686793e-04
2.303067934427819596e-01	1.023797835021270260e-02	-1.719691798170443556e-02	4.747887139760274648e-04	6.534499156917272789e-01	1.024415252328097381e+00	1.000029018508991507e+00	-1.113557098884306561e-02	2.618159831159818874e-06	6.954075665745776099e-04
2.503334711334586626e-01	9.945198167966311578e-03	-1.695698746490321290e-02	5.144128812558937868e-04	6.555364610711780227e-01	1.028696500847966488e+00	1.000029113137464121e+00	-1.107922068857975471e-02	3.302006421479284911e-06	8.014462094685921405e-04
2.703601488241353379e-01	9.636669502236247867e-03	-1.669945940341338933e-02	5.537000221684508462e-04	6.577836566675591135e-01	1.033282452191778944e+00	1.000029214058557603e+00	-1.101932594767294875e-02	4.079028657635882367e-06	9.098449254007327531e-04
2.903868265148120131e-01	9.314217563283553117e-03	-1.642493251744643612e-02	5.926528464818049419e-04	6.601880961189304786e-01	1.038159682120067373e+00	1.000029320940075683e+00	-1.095618728820751779e-02	4.949177281529128824e-06	1.019296529389204179e-03
3.104135042054887439e-01	8.979717826929533436e-03	-1.613405742050367728e-02	6.312804685033726127e-04	6.627460708771832909e-01	1.043313432278300201e+00	1.000029433442578108e+00	-1.089013301890015724e-02	5.911091385345412010e-06	1.128483160100322543e-03
3.304401818961654191e-01	8.635079190136743521e-03	-1.582753716298779950e-02	6.695980880294557765e-04	6.654535015264148035e-01	1.048727573063731544e+00	1.000029551219399071e+00	-1.082151771283498473e-02	6.962128447711923752e-06	1.236093437917501264e-03
3.504668595868420944e-01	8.282227003941437099e-03	-1.550612633904598775e-02	7.076278165511035948e-04	6.683059858860321834e-01	1.054384574989451595e+00	1.000029673922000706e+00	-1.075072050456046466e-02	8.098422611336468811e-06	1.340839778177477454e-03
3.704935372775188251e-01	7.923086176202147682e-03	-1.517063060827968449e-02	7.453982081732838218e-04	6.712987377296051328e-01	1.060265490945705658e+00	1.000029801198935697e+00	-1.067814221015398433e-02	9.314947740576797589e-06	1.441475617570080149e-03
3.905202149681955004e-01	7.559564540577348030e-03	-1.482190500919980565e-02	7.829451693495120129e-04	6.744266343037220723e-01	1.066349951792956885e+00	1.000029932701379298e+00	-1.060420190853524590e-02	1.060561045878733340e-05	1.536812295968583873e-03
4.105468926588721756e-01	7.193536685557439317e-03	-1.446085223171669938e-02	8.203113632625936170e-04	6.776841645895628208e-01	1.072616177795554737e+00	1.000030068080843604e+00	-1.052933263730138763e-02	1.196333937277717515e-05	1.625735322736547887e-03
4.305735703495489064e-01	6.826828435731653079e-03	-1.408842001794155877e-02	8.575472339412044693e-04	6.810654766270062277e-01	1.079041008297436210e+00	1.000030206994810600e+00	-1.045397618416859034e-02	1.338020627670944401e-05	1.707219748193516528e-03
4.506002480402255816e-01	6.461202169531568562e-03	-1.370559808565560353e-02	8.947103196830910382e-04	6.845643383050814545e-01	1.085599951971066623e+00	1.000030349102927651e+00	-1.037857745418193159e-02	1.484753342042081384e-05	1.780344357158439869e-03
4.706269257309022569e-01	6.098343149688082235e-03	-1.331341454559646295e-02	9.318664323542263667e-04	6.881741846860751632e-01	1.092267259667530688e+00	1.000030494072809084e+00	-1.030357763031551285e-02	1.635603526668392532e-05	1.844304404859811427e-03
4.906536034215789877e-01	5.739847028771132356e-03	-1.291293149905153696e-02	9.690889302989377134e-04	6.918880933372726361e-01	1.099016021634659834e+00	1.000030641574513934e+00	-1.022940751234877217e-02	1.789593518039241191e-05	1.898422625539422431e-03
5.106802811122557184e-01	5.387208677428864841e-03	-1.250524050190201901e-02	1.006460107430462783e-03	6.956988324989787920e-01	1.105818290333013376e+00	1.000030791286508292e+00	-1.015647942977345591e-02	1.945711977891221550e-05	1.942158263159112592e-03
5.307069588029323937e-01	5.041812463050751071e-03	-1.209145695238705159e-02	1.044070494996819165e-03	6.995988492697203798e-01	1.112645229607614583e+00	1.000030942888467944e+00	-1.008518007739628471e-02	2.102925662810930133e-05	1.975113900812879280e-03
5.507336364936090689e-01	4.704924085347591926e-03	-1.167271473324190366e-02	1.082020532014844015e-03	7.035803241360814031e-01	1.119467290198884246e+00	1.000031096067460323e+00	-1.001586178150847516e-02	2.260195342345190214e-05	1.997039902533090730e-03
5.707603141842857442e-01	4.377684050057738079e-03	-1.125015966674019867e-02	1.120419988259561093e-03	7.076351661688835559e-01	1.126254410921185833e+00	1.000031250509003211e+00	-9.948835505341853055e-03	2.416486902465790653e-05	2.007836326478804317e-03
5.907869918749625304e-01	4.061102835416832528e-03	-1.082494355287456564e-02	1.159390009576519859e-03	7.117550752780820167e-01	1.132976243874808997e+00	1.000031405903723858e+00	-9.884362211361132425e-03	2.570787028693553091e-05	2.007552222765965518e-03
6.108136695656392057e-01	3.756057776923815792e-03	-1.039821700951771080e-02	1.199062780557250650e-03	7.159315468218343526e-01	1.139602401305704893e+00	1.000031561936759905e+00	-9.822646861062510337e-03	2.722112979145741674e-05	1.996382289833668021e-03
6.308403472563158809e-01	3.463291666139052625e-03	-9.971123293824936742e-03	1.239584062249575458e-03	7.201559358738057748e-01	1.146102720690142851e+00	1.000031718295116834e+00	-9.763830593731618809e-03	2.869527381635899653e-05	1.974660929721046287e-03
6.508670249469925562e-01	3.183413028843840031e-03	-9.544790918173128719e-03	1.281113245493644900e-03	7.244194710503778500e-01	1.152447543918648121e+00	1.000031874655462838e+00	-9.707986512306164550e-03	3.012146123697071070e-05	1.942853811474398555e-03
6.708937026376692314e-01	2.916898017865345288e-03	-9.120327640766125177e-03	1.323826526601917623e-03	7.287133191674525223e-01	1.158608005505558758e+00	1.000032030692596718e+00	-9.655113367564265373e-03	3.149151672186654174e-05	1.901547121395072990e-03
6.909203803283459067e-01	2.664093827405238264e-03	-8.698813317994996339e-03	1.367917538877296696e-03	7.330286038065623178e-01	1.164556324280587418e+00	1.000032186065718420e+00	-9.605133749288922648e-03	3.279798625250095705e-05	1.851434745046533475e-03
7.109470580190225819e-01	2.425223508965404333e-03	-8.281294482932841095e-03	1.413601347998268013e-03	7.373564686084294051e-01	1.170266092339356412e+00	1.000032340428284483e+00	-9.557889741061335528e-03	3.403425014013021391e-05	1.793303686411702865e-03
7.309737357096993682e-01	2.200392045898893860e-03	-7.868777853784666640e-03	1.461115896160239793e-03	7.416880973321543502e-01	1.175712554969501555e+00	1.000032493412946089e+00	-9.513143921868938771e-03	3.519455152401085730e-05	1.728018080721315484e-03
7.510004134003760434e-01	1.989593523565907646e-03	-7.462225892494169129e-03	1.510727047182674554e-03	7.460147742924500003e-01	1.180872875003699640e+00	1.000032644643086943e+00	-9.470577201502758044e-03	3.627408436067255996e-05	1.656502196863218236e-03
7.710270910910527187e-01	1.792719217408478933e-03	-7.062551365127989721e-03	1.562731142243353310e-03	7.503278970183532293e-01	1.185726375514581488e+00	1.000032793716461477e+00	-9.429792733559523230e-03	3.726899232038787777e-05	1.579722850564641273e-03
7.910537687817293939e-01	1.609566410502167406e-03	-6.670614129923690787e-03	1.617461396649375396e-03	7.546190369501246664e-01	1.190254754972487117e+00	1.000032940218783306e+00	-9.390316001997319958e-03	3.817642787529449609e-05	1.498671659210989212e-03
8.110804464724060692e-01	1.439847747731485845e-03	-6.287217053396405679e-03	1.675291954862091716e-03	7.588799369724225086e-01	1.194442269981627947e+00	1.000033083706119763e+00	-9.351601592339662747e-03	3.899452044269607323e-05	1.414347562855480366e-03
8.311071241630827444e-01	1.283200933442388237e-03	-5.913104196506766344e-03	1.736646046140574978e-03	7.631025711374554987e-01	1.198275881325332914e+00	1.000033223720735664e+00	-9.313035532764911070e-03	3.972240436929630426e-05	1.327740013628198826e-03
8.511338018537595307e-01	1.139198585508816898e-03	-5.548958212003123926e-03	1.802002052495753218e-03	7.672791274621177937e-01	1.201745360459438583e+00	1.000033359772348307e+00	-9.273945018569413820e-03	4.036015723935995327e-05	1.239813199253702279e-03
8.711604795444362059e-01	1.007358068377020273e-03	-5.195399950198801436e-03	1.871903972962654086e-03	7.714020616788269669e-01	1.204843354440764847e+00	1.000033491356634663e+00	-9.233603334826487666e-03	4.090879692144102351e-05	1.151491617147514012e-03
8.911871572351128812e-01	8.871511427875714570e-04	-4.852987322285487806e-03	1.946970179570968029e-03	7.754640613367153046e-01	1.207565408885886260e+00	1.000033617935406349e+00	-9.191243109925332708e-03	4.137019350655259060e-05	1.063647257334923582e-03
9.112138349257895564e-01	7.780132873137688386e-04	-4.522216148969229223e-03	2.027906912500767114e-03	7.794581000068829812e-01	1.209909949389315287e+00	1.000033738958286955e+00	-9.146064994923959815e-03	4.174703841233837214e-05	9.770885875605992213e-04
9.312405126164662317e-01	6.793525682831420441e-04	-4.203520334952232269e-03	2.115520567347779941e-03	7.833773797014886853e-01	1.211878223386639197e+00	1.000033853842257292e+00	-9.097255980450823232e-03	4.204273593606933616e-05	8.925514671561325707e-04
9.512671903071429069e-01	5.905579567638466606e-04	-3.897273641065499439e-03	2.210735095688929133e-03	7.872153876756609048e-01	1.213474205020694141e+00	1.000033961997272902e+00	-9.044004274719229589e-03	4.226135012975521351e-05	8.106920498831862417e-04
9.712938679978196932e-01	5.110070155974423458e-04	-3.603790872490846009e-03	2.314608755879396951e-03	7.909658122308365069e-01	1.214704466854071629e+00	1.000034062806006485e+00	-8.985525592346972970e-03	4.240748390151215854e-05	7.320816746811078428e-04
9.913205456884963684e-01	4.400729028073697264e-04	-3.323330063446856483e-03	2.428356280073162583e-03	7.946226195109447055e-01	1.215578022400216618e+00	1.000034155654677015e+00	-8.921088358976697955e-03	4.248621132418831141e-05	6.572036885564165034e-04
1.011347223379172933e+00	3.771306615063853567e-04	-3.056094275123355172e-03	2.553370794501906658e-03	7.981799323682737812e-01	1.216106144329464067e+00	1.000034239914399325e+00	-8.850052237054225820e-03	4.250295295165627986e-05	5.864521013337366511e-04
1.031373901069849497e+00	3.215627878706633046e-04	-2.802233608600816338e-03	2.691251084406146975e-03	8.016321477973655796e-01	1.216302162815501076e+00	1.000034314979155958e+00	-8.771908843808039202e-03	4.246340198174058819e-05	5.201319377478745348e-04
1.051400578760526283e+00	2.727640891697272045e-04	-2.561847083960228436e-03	2.843828330439806228e-03	8.049737655555340154e-01	1.216181248956202499e+00	1.000034380250692356e+00	-8.686337032069942760e-03	4.237340393524581604e-05	4.584611303730577953e-04
1.071427256451203069e+00	2.301458608250026017e-04	-2.334983873821597656e-03	3.013196989443217132e-03	8.081995801208681218e-01	1.215760187331335507e+00	1.000034435186006432e+00	-8.593263088829357355e-03	4.223888454145807573e-05	4.015737855861187386e-04
1.091453934141879634e+00	1.931394262200886777e-04	-2.121644688384241757e-03	3.201743015632559867e-03	8.113044517318407367e-01	1.215057141908975291e+00	1.000034479287948530e+00	-8.492933861822900624e-03	4.206574039724181877e-05	3.495246542924802585e-04
1.111480611832556420e+00	1.611990933953687494e-04	-1.921781689620869534e-03	3.412172278591971315e-03	8.142835807243123947e-01	1.214091418303798742e+00	1.000034512164227340e+00	-8.385993678041003124e-03	4.185977496283226225e-05	3.022946462536038430e-04
1.131507289523232984e+00	1.338045898375165384e-04	-1.735298917625774763e-03	3.647530051475650955e-03	8.171322501377263903e-01	1.212883225407388466e+00	1.000034533524777336e+00	-8.273565403378221536e-03	4.162660485417074124e-05	2.597972398494703423e-04
1.151533967213909770e+00	1.104630384648153064e-04	-1.562050596810373631e-03	3.911211001724113415e-03	8.198461798993704752e-01	1.211453438089873158e+00	1.000034543252186436e+00	-8.157325172460178075e-03	4.137160860927364226e-05	2.218856532774160029e-04
1.171560644904586557e+00	9.071053551540924243e-05	-1.401840424903913387e-03	4.206946015970051272e-03	8.224212616405960352e-01	1.209823362816602632e+00	1.000034541403240551e+00	-8.039560407167354802e-03	4.109985154046908611e-05	1.883606554001105858e-04
1.191587322595263121e+00	7.411338297760903073e-05	-1.254418526362247174e-03	4.538759660692620254e-03	8.248540047378847273e-01	1.208014506872086669e+00	1.000034528285417279e+00	-7.923197951295006189e-03	4.081605041094910709e-05	1.589788994550837592e-04
1.211614000285939907e+00	6.026901577510177383e-05	-1.119480091472961321e-03	4.910877761683173255e-03	8.271412557438643232e-01	1.206048352443706895e+00	1.000034504453408468e+00	-7.811781961087756535e-03	4.052451868091469956e-05	1.334616576560802848e-04
1.231640677976616471e+00	4.880664691324739695e-05	-9.966620185968338638e-04	5.327572223764029911e-03	8.292807388818395076e-01	1.203946136116623045e+00	1.000034470778293771e+00	-7.709390224159599729e-03	4.022914918059760042e-05	1.115038161270202866e-04
1.251667355667293258e+00	3.938763486984594515e-05	-8.855422750452289016e-04	5.792916807374664037e-03	8.312707902777630720e-01	1.201728635523892974e+00	1.000034428421541444e+00	-7.620468127584560138e-03	3.993338069870940580e-05	9.278295836120012516e-05
1.271694033357969822e+00	3.170555840839106245e-05	-7.856382255730058736e-04	6.310440247217034664e-03	8.331108784604934758e-01	1.199415964756046948e+00	1.000034378876701435e+00	-7.549584899394368685e-03	3.964019947248745068e-05	7.696832447586905116e-05
1.291720711048646608e+00	2.548596908680300958e-05	-6.964088169012164079e-04	6.882657688640429761e-03	8.348014235694258822e-01	1.197027381884053776e+00	1.000034323900189870e+00	-7.501110524038125463e-03	3.935212663479276563e-05	6.372939120885556547e-05
1.311747388739323394e+00	2.048578402713892123e-05	-6.172569592919190671e-04	7.510489443772248516e-03	8.363442065879197473e-01	1.194581112054009298e+00	1.000034265508109810e+00	-7.478850125657930670e-03	3.907123704128626367e-05	5.274378478761615181e-05
1.331774066429999959e+00	1.649228507384731078e-05	-5.475366078968705880e-04	8.192589718279330233e-03	8.377421879666814286e-01	1.192094191323338936e+00	1.000034205853656655e+00	-7.485663538256630278e-03	3.879916459624991812e-05	4.370422899791547911e-05
1.351800744120676745e+00	1.332170607020287463e-05	-4.865605918080740939e-04	8.924659690460837527e-03	8.389998046815316801e-01	1.189582335925840617e+00	1.000034147180192567e+00	-7.523136244406310007e-03	3.853713469990100723e-05	3.632425502639467563e-05
1.371827421811353309e+00	1.081741722720227220e-05	-4.336130575255044443e-04	9.698849405795574932e-03	8.401226847307695644e-01	1.187059842376566587e+00	1.000034091660121804e+00	-7.591333284351946091e-03	3.828598309878520310e-05	3.034246381972297710e-05
1.391854099502030095e+00	8.847749474102901491e-06	-3.879618802177561940e-04	1.050340642872872425e-02	8.411178128020048161e-01	1.184539521948872576e+00	1.000034041332287016e+00	-7.688698510802154801e-03	3.804619929176474637e-05	2.552523193180558921e-05
1.411880777192706660e+00	7.303536367327370539e-06	-3.488742061000922818e-04	1.132272622055165504e-02	8.419931336974411096e-01	1.182032672346674751e+00	1.000033997940205532e+00	-7.812093757859244099e-03	3.781795764872658143e-05	2.166787470012941966e-05
1.431907454883383446e+00	6.095478454820693930e-06	-3.156300673592594042e-04	1.213794339173613485e-02	8.427575327940184380e-01	1.179549086253708357e+00	1.000033962896782924e+00	-7.957011057110418770e-03	3.760117300972406823e-05	1.859440491475631831e-05
1.451934132574060232e+00	5.151449695189253300e-06	-2.875368832583678866e-04	1.292809465290439309e-02	8.434204586839724183e-01	1.177097095056209852e+00	1.000033937163302911e+00	-8.117905665407808627e-03	3.739554435416480237e-05	1.615612841970738269e-05
1.471960810264736796e+00	4.413864033415043257e-06	-2.639401005095523382e-04	1.367176880659491840e-02	8.439916285189758005e-01	1.174683642816649165e+00	1.000033921276527016e+00	-8.288659205751088346e-03	3.720061961541263777e-05	1.422938263748111142e-05
1.491987487955413583e+00	3.837204422377091897e-06	-2.442329022143632658e-04	1.434899557847769958e-02	8.444809637428326576e-01	1.172314384851663283e+00	1.000033915293579545e+00	-8.463079978539988710e-03	3.701584134918611824e-05	1.271274245725673444e-05
1.512014165646090147e+00	3.385789964143365264e-06	-2.278614137819007441e-04	1.494305470402989243e-02	8.448978197277274838e-01	1.169993803188522197e+00	1.000033918893095342e+00	-8.635417504958753029e-03	3.684060390193472518e-05	1.152399398107581558e-05
1.532040843336766933e+00	3.031826249123118948e-06	-2.143283537978322431e-04	1.544186034143098067e-02	8.452515576883269377e-01	1.167725332025228102e+00	1.000033931381110408e+00	-8.800774625969069037e-03	3.667428183610657821e-05	1.059712262920734135e-05
1.552067521027443719e+00	2.753754220181219477e-06	-2.031929095318620862e-04	1.583870193754318562e-02	8.455503023752898306e-01	1.165511485800832192e+00	1.000033951843913416e+00	-8.955393398672982508e-03	3.651626482849316079e-05	9.879493732238398850e-06
1.572094198718120284e+00	2.534889023255699936e-06	-1.940695536958495610e-04	1.613225651178751968e-02	8.458021718528789812e-01	1.163353984827091958e+00	1.000033979176768062e+00	-9.096747274104158287e-03	3.636596370157934086e-05	9.329335266396793013e-06
1.592120876408797070e+00	2.362323328626569060e-06	-1.866244513067268876e-04	1.632598251969215666e-02	8.460136287504504971e-01	1.161253873771532108e+00	1.000034012241849180e+00	-9.223485198798489840e-03	3.622282797337147097e-05	8.913573573884310278e-06
1.612147554099473634e+00	2.226060540880920369e-06	-1.805715890138005189e-04	1.642708534994180222e-02	8.461912760467694694e-01	1.159211630997013520e+00	1.000034049873975261e+00	-9.335245844955413624e-03	3.608634010683997546e-05	8.606028459901595698e-06
1.632174231790150420e+00	2.118339914079538360e-06	-1.756678200363308425e-04	1.644531391745033058e-02	8.463398808179074528e-01	1.157227266774918606e+00	1.000034091008669135e+00	-9.432422989256616930e-03	3.595602688670525028e-05	8.385944536187194519e-06
1.652200909480826985e+00	2.033117094230775851e-06	-1.717081375966452762e-04	1.639178194352987686e-02	8.464645769179925949e-01	1.155300410594222171e+00	1.000034134645528150e+00	-9.515922981255399427e-03	3.583145008143837637e-05	8.236819146014306658e-06
1.672227587171503771e+00	1.965667214614674396e-06	-1.685207694742833556e-04	1.627797512534226096e-02	8.465687045590818416e-01	1.153430387069539709e+00	1.000034179942849155e+00	-9.586953877315430861e-03	3.571221582219637702e-05	8.145480604738341394e-06
1.692254264862180557e+00	1.912282971374709640e-06	-1.659627074327861193e-04	1.611499379522826278e-02	8.466561688563557508e-01	1.151616281708070844e+00	1.000034226146465199e+00	-9.646864108833501025e-03	3.559796330998758973e-05	8.101370649934299146e-06
1.712280942552857121e+00	1.870045070129145952e-06	-1.639155439057283635e-04	1.591305696136223469e-02	8.467291064705138037e-01	1.149856996588440206e+00	1.000034272665365931e+00	-9.697021852465686695e-03	3.548837262622088435e-05	8.095989171037778378e-06
1.732307620243533908e+00	1.836647487187680599e-06	-1.622816669249056145e-04	1.568121768882824174e-02	8.467905707477312305e-01	1.148151297600562337e+00	1.000034318981513515e+00	-9.738747538818306668e-03	3.538315199170114964e-05	8.122465367416256549e-06
1.752334297934210472e+00	1.810263843595994487e-06	-1.609810885486957018e-04	1.542725947266730679e-02	8.468418365825660654e-01	1.146497853431514891e+00	1.000034364720483682e+00	-9.773258257553936457e-03	3.528204445801452538e-05	8.175226034945915027e-06
1.772360975624887258e+00	1.789444753703455566e-06	-1.599483848740967658e-04	1.515770410196935758e-02	8.468851728056513428e-01	1.144895268035640346e+00	1.000034409553274717e+00	-9.801659059067617877e-03	3.518481503126031674e-05	8.249737825525294541e-06
1.792387653315563822e+00	1.773038383983160682e-06	-1.591304394715301333e-04	1.487790367693601727e-02	8.469213255019788500e-01	1.143342106711900064e+00	1.000034453269862400e+00	-9.824919510453450008e-03	3.509125684845699962e-05	8.342305641002499778e-06
1.812414331006240609e+00	1.760128648502533892e-06	-1.584840822344038525e-04	1.459216479428358283e-02	8.469519627002498607e-01	1.141836917452224265e+00	1.000034495678026492e+00	-9.843892186438215480e-03	3.500117924251005473e-05	8.449913660964327721e-06
1.832441008696917395e+00	1.749986742774620262e-06	-1.579745579825169507e-04	1.430389601044799834e-02	8.469774680568034064e-01	1.140378247530811295e+00	1.000034536683043207e+00	-9.859302521922925361e-03	3.491441369735281448e-05	8.570098911648094003e-06
1.852467686387593959e+00	1.742032987630823259e-06	-1.575737595163348524e-04	1.401574721935560514e-02	8.469991417836206793e-01	1.138964656862454072e+00	1.000034576185083290e+00	-9.871776707060282360e-03	3.483080328999545161e-05	8.700849870621810744e-06
1.872494364078270745e+00	1.735806576880739880e-06	-1.572592482171247580e-04	1.372974562987348823e-02	8.470171075465774413e-01	1.137594727901115821e+00	1.000034614165687952e+00	-9.881835096780828415e-03	3.475020844029184594e-05	8.840524532997584526e-06
1.892521041768947310e+00	1.730941555575340237e-06	-1.570129454775181295e-04	1.344741038205325180e-02	8.470323418192182707e-01	1.136267073474145795e+00	1.000034650583851326e+00	-9.889921801138422397e-03	3.467249784496273328e-05	8.987783776242799628e-06
1.912547719459624096e+00	1.727147634899592980e-06	-1.568205385049861603e-04	1.316985641104591320e-02	8.470448303199196172e-01	1.134980342131032494e+00	1.000034685469000095e+00	-9.896398811443444382e-03	3.459755385792671287e-05	9.141536890819352168e-06
1.932574397150300882e+00	1.724194887169470675e-06	-1.566705222047622365e-04	1.289787660802622915e-02	8.470553523709061228e-01	1.133733222297298449e+00	1.000034718815242085e+00	-9.901573220225529104e-03	3.452526481503085103e-05	9.300896887191963501e-06
1.952601074840977446e+00	1.721901477658958749e-06	-1.565538654762680217e-04	1.263201391866604177e-02	8.470638406537981391e-01	1.132524444631698879e+00	1.000034750680385942e+00	-9.905691053627586201e-03	3.445552990739464454e-05	9.465143733140959358e-06
1.972627752531654233e+00	1.720123865119092321e-06	-1.564633226463750266e-04	1.237261581031044201e-02	8.470708295609782335e-01	1.131352783808251106e+00	1.000034781077706825e+00	-9.908960154045146074e-03	3.438825275387427769e-05	9.633694071881300478e-06
1.992654430222330797e+00	1.718748940229068018e-06	-1.563932600270300237e-04	1.211988159159222041e-02	8.470762425559282827e-01	1.130217058985911072e+00	1.000034810080531633e+00	-9.911544150851357010e-03	3.432334574878829293e-05	9.806076267401953983e-06
2.012681107913007583e+00	1.717687753910992854e-06	-1.563391495991290595e-04	1.187389668502233410e-02	8.470805387279251031e-01	1.129116134124213300e+00	1.000034837711014424e+00	-9.913581838113751446e-03	3.426072467549460063e-05	9.981909846389389962e-06
2.032707785603684147e+00	1.716870491436333169e-06	-1.562975174824664758e-04	1.163466256156049997e-02	8.470835728588250735e-01	1.128048917310210841e+00	1.000034864049839989e+00	-9.915179926011111200e-03	3.420031246207058564e-05	1.016088857777234238e-05
2.052734463294360712e+00	1.716242474667333738e-06	-1.562655441142439723e-04	1.140211749955266467e-02	8.470857800188114073e-01	1.127014360216395117e+00	1.000034889121654613e+00	-9.916430683838569488e-03	3.414203478665453370e-05	1.034276656604315416e-05
2.072761140985037720e+00	1.715760966060671716e-06	-1.562411310689701004e-04	1.117615497728660125e-02	8.470868780159881428e-01	1.126011456783455600e+00	1.000034913009546722e+00	-9.917401289385115865e-03	3.408582309059092697e-05	1.052734684149289183e-05
2.092787818675714284e+00	1.715392635960275309e-06	-1.562225151141013535e-04	1.095663594181657888e-02	8.470874154594447702e-01	1.125039242215225554e+00	1.000034935736854536e+00	-9.918153643985176682e-03	3.403161138832261177e-05	1.071447201850755866e-05
2.112814496366390848e+00	1.715111545392873313e-06	-1.562084622082989167e-04	1.074339965614498106e-02	8.470869569544158262e-01	1.124096791331691936e+00	1.000034957386191525e+00	-9.918728208384526568e-03	3.397933804653006668e-05	1.090401666378264754e-05
2.132841174057067857e+00	1.714897552659895732e-06	-1.561978551971416273e-04	1.053627099166451302e-02	8.470861361505668263e-01	1.123183217364225106e+00	1.000034977977481088e+00	-9.919167365011298532e-03	3.392894429250812389e-05	1.109588107700584347e-05
2.152867851747744421e+00	1.714735051925131775e-06	-1.561899957942269618e-04	1.033506629961580825e-02	8.470844276139880558e-01	1.122297670165672390e+00	1.000034997591380259e+00	-9.919494007806298197e-03	3.388037414805828676e-05	1.128998623421044634e-05
2.172894529438420985e+00	1.714611977442899761e-06	-1.561841698239209517e-04	1.013959805568852984e-02	8.470824729790707996e-01	1.121439334965125267e+00	1.000035016243253194e+00	-9.919737364899818347e-03	3.383357521281439784e-05	1.148626968830453692e-05
2.192921207129097994e+00	1.714519023612550649e-06	-1.561799981861632526e-04	9.949677369662970894e-03	8.470797195469877972e-01	1.120607430560176976e+00	1.000035034011101054e+00	-9.919909543061086743e-03	3.378849621921976956e-05	1.168468225253309428e-05
2.212947884819774558e+00	1.714449026135010927e-06	-1.561770118104899969e-04	9.765117402503834323e-03	8.470768431631103823e-01	1.119801208107696677e+00	1.000035050905351719e+00	-9.920031321135985153e-03	3.374509042225619956e-05	1.188518532627390300e-05
2.232974562510451122e+00	1.714396486386256140e-06	-1.561750289204343674e-04	9.585733558867713319e-03	8.470732336126186590e-01	1.119019949378220025e+00	1.000035067001095790e+00	-9.920107673823366085e-03	3.370331049957926017e-05	1.208774874239401803e-05
2.253001240201127686e+00	1.714357187846685525e-06	-1.561737344995333895e-04	9.411346544645250028e-03	8.470695764783543469e-01	1.118262965630413053e+00	1.000035082303797562e+00	-9.920153633436117058e-03	3.366311483707947453e-05	1.229234904115343276e-05
2.273027917891804695e+00	1.714327911480223812e-06	-1.561730481016725851e-04	9.241780859662183240e-03	8.470653012094607748e-01	1.117529595954474653e+00	1.000035096885688590e+00	-9.920170768727086183e-03	3.362445946789677595e-05	1.249896808737302829e-05
2.293054595582481259e+00	1.714306197462812210e-06	-1.561727607030108855e-04	9.076867973165030079e-03	8.470609359663396898e-01	1.116819206261066233e+00	1.000035110747395928e+00	-9.920169598706755562e-03	3.358730735450761039e-05	1.270759196806562110e-05
2.313081273273157823e+00	1.714290179259295520e-06	-1.561728435897218894e-04	8.916443592782048733e-03	8.470561146200989988e-01	1.116131187727599450e+00	1.000035123958538552e+00	-9.920150122087896191e-03	3.355161747821372675e-05	1.291821011307788213e-05
2.333107950963834831e+00	1.714278434321272350e-06	-1.561731553710650640e-04	8.760351136757648163e-03	8.470512375755269163e-01	1.115464955909597933e+00	1.000035136515173173e+00	-9.920119774839990592e-03	3.351735688171351014e-05	1.313081459838277624e-05
2.353134628654511395e+00	1.714269891196047879e-06	-1.561736957293927814e-04	8.608438125220500142e-03	8.470459703829690268e-01	1.114819949289945100e+00	1.000035148484577086e+00	-9.920077670520145718e-03	3.348448715609232804e-05	1.334539959224535872e-05
2.373161306345187960e+00	1.714263734130904487e-06	-1.561743690194281324e-04	8.460560017483430284e-03	8.470406441813397302e-01	1.114195628513454217e+00	1.000035159858522205e+00	-9.920029024504435286e-03	3.345297902283602412e-05	1.356196091940380192e-05
2.393187984035864524e+00	1.714259354742029646e-06	-1.561751834145822567e-04	8.316575950792114841e-03	8.470350162479569622e-01	1.113591475039257928e+00	1.000035170702249010e+00	-9.919972878706335984e-03	3.342279641295524363e-05	1.378049571540954747e-05
2.413214661726541532e+00	1.714256288970533190e-06	-1.561760755753481480e-04	8.176352939379034207e-03	8.470293566353367387e-01	1.113006990484809666e+00	1.000035181003594786e+00	-9.919912763957674379e-03	3.339391333816145257e-05	1.400100215662236260e-05
2.433241339417218096e+00	1.714254195601430250e-06	-1.561770562051855988e-04	8.039761144368134937e-03	8.470234498207981355e-01	1.112441695380750994e+00	1.000035190826024545e+00	-9.919847847992536299e-03	3.336629585072319097e-05	1.422347924627217938e-05
2.453268017107894661e+00	1.714252812508304231e-06	-1.561780813554303757e-04	7.906678389169941382e-03	8.470175415780971662e-01	1.111895128616164463e+00	1.000035200153758463e+00	-9.919780586037877518e-03	3.333992092634780846e-05	1.444792664872053226e-05
2.473294694798571669e+00	1.714251951174507764e-06	-1.561791604751145844e-04	7.776985083806688299e-03	8.470114185267962892e-01	1.111366846278976084e+00	1.000035209048780960e+00	-9.919710359355725718e-03	3.331475652079179852e-05	1.467434455786217536e-05
2.493321372489248233e+00	1.714251464328834235e-06	-1.561802666093301656e-04	7.650569019423002562e-03	8.470053270248999455e-01	1.110856421202700561e+00	1.000035217491916484e+00	-9.919638659220698582e-03	3.329078228887294362e-05	1.490273359635729116e-05
2.513348050179924797e+00	1.714251249867851871e-06	-1.561813987701157248e-04	7.527320036800920489e-03	8.469990910838575138e-01	1.110363441883403857e+00	1.000035225543987938e+00	-9.919565595154698073e-03	3.326796792703885851e-05	1.513309473500739805e-05
2.533374727870601362e+00	1.714251225270413824e-06	-1.561825554178095804e-04	7.407135032879328188e-03	8.469928400172774818e-01	1.109887512108843621e+00	1.000035233182701377e+00	-9.919491094744093546e-03	3.324629545927395609e-05	1.536542923188376298e-05
2.553401405561278370e+00	1.714251336755812280e-06	-1.561837164224410982e-04	7.289912501233350786e-03	8.469865612313646208e-01	1.109428249951580403e+00	1.000035240467891162e+00	-9.919416507007686179e-03	3.322573629714466143e-05	1.559973858309520036e-05
2.573428083251954934e+00	1.714251538044419475e-06	-1.561849037704275223e-04	7.175557603815857499e-03	8.469801964311288733e-01	1.108985287472937564e+00	1.000035247374377434e+00	-9.919340306191177029e-03	3.320627447476160414e-05	1.583602448617856955e-05
2.593454760942631498e+00	1.714251802015286311e-06	-1.561860729638439766e-04	7.063976753684253485e-03	8.469739129712301473e-01	1.108558269779454708e+00	1.000035253961259807e+00	-9.919265393506234568e-03	3.318788311805819316e-05	1.607428880997120030e-05
2.613481438633308507e+00	1.714252102592578893e-06	-1.561872731669838117e-04	6.955082583877995883e-03	8.469675116230216405e-01	1.108146854794931802e+00	1.000035260200633935e+00	-9.919188534684150044e-03	3.317054787193639238e-05	1.631453357261286778e-05
2.633508116323985071e+00	1.714252427058883775e-06	-1.561884452338073448e-04	6.848788767097815575e-03	8.469612187502347789e-01	1.107750712372736590e+00	1.000035266151077629e+00	-9.919113564782443271e-03	3.315424367082814533e-05	1.655676092299824436e-05
2.653534794014661635e+00	1.714252760564307108e-06	-1.561896444686154824e-04	6.745014696322874058e-03	8.469548360330532155e-01	1.107369524130832117e+00	1.000035271782160340e+00	-9.919036889299119586e-03	3.313895746373690280e-05	1.680097312748715595e-05
2.673561471705338199e+00	1.714253098043177031e-06	-1.561908047282203741e-04	6.643680664245045150e-03	8.469486187879541328e-01	1.107002982610229891e+00	1.000035277152073965e+00	-9.918962761925177382e-03	3.312466591591854790e-05	1.704717255834868091e-05
2.693588149396015208e+00	1.714253430877957368e-06	-1.561919969462207769e-04	6.544712192307469700e-03	8.469422563896277234e-01	1.106650791169980552e+00	1.000035282228005418e+00	-9.918886608577124481e-03	3.311135705354702262e-05	1.729536168561812427e-05
2.713614827086691772e+00	1.714253757866972220e-06	-1.561931444933752999e-04	6.448035639396920357e-03	8.469361417774680101e-01	1.106312663182232647e+00	1.000035287067966294e+00	-9.918813357308592718e-03	3.309900933525464510e-05	1.754554306974901031e-05
2.733641504777368336e+00	1.714254073920564717e-06	-1.561943186262387720e-04	6.353582074330368229e-03	8.469298317018165712e-01	1.105988321984602285e+00	1.000035291636840018e+00	-9.918738417959175810e-03	3.308761159878548811e-05	1.779771935650504360e-05
2.753668182468045345e+00	1.714254379696433709e-06	-1.561954434122666798e-04	6.261283392684820724e-03	8.469238265388256970e-01	1.105677500105557653e+00	1.000035295992637518e+00	-9.918666658832016314e-03	3.307714401353040520e-05	1.805189327215949552e-05
2.773694860158721909e+00	1.714254672118327480e-06	-1.561965957948006683e-04	6.171075709034851489e-03	8.469176492173556836e-01	1.105379939268402056e+00	1.000035300098054192e+00	-9.918593144998750707e-03	3.306759608789313005e-05	1.830806762015234137e-05
2.793721537849398473e+00	1.714254952593846863e-06	-1.561976963862011006e-04	6.082895993150800804e-03	8.469117708362310371e-01	1.105095389641095549e+00	1.000035304011196891e+00	-9.918522963079315011e-03	3.305894970905585777e-05	1.856624527782758764e-05
2.813748215540075037e+00	1.714255219266135337e-06	-1.561988185901725594e-04	5.996684943066945238e-03	8.469057450947190535e-01	1.104823609891136593e+00	1.000035307692685782e+00	-9.918451402330179592e-03	3.305119486984893490e-05	1.882642919416888872e-05
2.833774893230752046e+00	1.714255473748629307e-06	-1.561998848420305516e-04	5.912384166815374577e-03	8.469000393264884963e-01	1.104564366455236479e+00	1.000035311200868859e+00	-9.918383424478947885e-03	3.304431508450806287e-05	1.908862238750479910e-05
2.853801570921428610e+00	1.714255714949095669e-06	-1.562009814501499124e-04	5.829938542814822391e-03	8.468941712670825517e-01	1.104317433638977830e+00	1.000035314494320815e+00	-9.918313520962009425e-03	3.303830072468429482e-05	1.935282794384314746e-05
2.873828248612105174e+00	1.714255944333762642e-06	-1.562020100485789187e-04	5.749293957987177371e-03	8.468886525881191840e-01	1.104082592900200499e+00	1.000035317631786880e+00	-9.918247948986203683e-03	3.303313704155577023e-05	1.961904901516432962e-05
2.893854926302782182e+00	1.714256161442262103e-06	-1.562030712119973671e-04	5.670399059469598962e-03	8.468829661000802922e-01	1.103859632997458151e+00	1.000035320569855779e+00	-9.918180317610684679e-03	3.302881441403599595e-05	1.988728881821771207e-05
2.913881603993458747e+00	1.714256367385830974e-06	-1.562040644592568991e-04	5.593203694572813044e-03	8.468776693056120353e-01	1.103648349281485697e+00	1.000035323367745921e+00	-9.918117009278732896e-03	3.302531997511967953e-05	2.015755063318304540e-05
2.933908281684135311e+00	1.714256562212340594e-06	-1.562050880514404059e-04	5.517659942814568015e-03	8.468721463421615692e-01	1.103448543882854294e+00	1.000035325980119572e+00	-9.918051773652816067e-03	3.302264395645170339e-05	2.042983780265530890e-05
2.953934959374811875e+00	1.714256746627198093e-06	-1.562060465850378715e-04	5.443721294745762843e-03	8.468670358579627466e-01	1.103260025016664203e+00	1.000035328466803763e+00	-9.917990675159884389e-03	3.302077534989711897e-05	2.070415373069072783e-05
2.973961637065488883e+00	1.714256921096642172e-06	-1.562070248911710509e-04	5.371342968113570517e-03	8.468617690549036237e-01	1.103082607204250554e+00	1.000035330780558285e+00	-9.917928329887342603e-03	3.301970414915967217e-05	2.098050188186212841e-05
2.993988314756165448e+00	1.714257085956397302e-06	-1.562079462125687778e-04	5.300481788622745348e-03	8.468568287167730357e-01	1.102916110587640830e+00	1.000035332981894065e+00	-9.917869604002154879e-03	3.301942105800251411e-05	2.125888578059496902e-05
3.014014992446842012e+00	1.714257241969384153e-06	-1.562088780336175393e-04	5.231095875250476104e-03	8.468518204760147050e-01	1.102760361183384719e+00	1.000035335021698613e+00	-9.917810215844896637e-03	3.301991592417380963e-05	2.153930901025343569e-05
3.034041670137519020e+00	1.714257389167574832e-06	-1.562097601477681710e-04	5.163145101154279458e-03	8.468470991011382010e-01	1.102615190205628704e+00	1.000035336961279109e+00	-9.917753977459094206e-03	3.302118097227807150e-05	2.182177521273167414e-05
3.054068347828195584e+00	1.714257528517649500e-06	-1.562106505386158387e-04	5.096590271686674695e-03	8.468423100183831709e-01	1.102480434347699045e+00	1.000035338749681202e+00	-9.917697226677846256e-03	3.302320599636176542e-05	2.210628808751472169e-05
3.074095025518872148e+00	1.714257659788702530e-06	-1.562114963313130842e-04	5.031394058552667720e-03	8.468377679427971927e-01	1.102355935116340557e+00	1.000035340449035193e+00	-9.917643303366323673e-03	3.302598463827347963e-05	2.239285139156345976e-05
3.094121703209549157e+00	1.714257784117192945e-06	-1.562123405445884608e-04	4.967519740417035076e-03	8.468332196352301722e-01	1.102241539135196735e+00	1.000035342006607264e+00	-9.917589485451142051e-03	3.302950661460069199e-05	2.268146893826974124e-05
3.114148380900225721e+00	1.714257901077039878e-06	-1.562131458693461871e-04	4.904932547068264689e-03	8.468288945104875953e-01	1.102137097487024375e+00	1.000035343485441430e+00	-9.917538130956504369e-03	3.303376678894883085e-05	2.297214459757887474e-05
3.134175058590902285e+00	1.714258011904966702e-06	-1.562139425919167001e-04	4.843598056722840141e-03	8.468245856797790294e-01	1.102042466042163715e+00	1.000035344831005757e+00	-9.917487329505801988e-03	3.303875490867786422e-05	2.326488229490950856e-05
3.154201736281578849e+00	1.714258116033905823e-06	-1.562147076205590778e-04	4.783483842864892296e-03	8.468204751039704048e-01	1.101957504805691768e+00	1.000035346107322365e+00	-9.917438537140957355e-03	3.304446690050370333e-05	2.355968601149094295e-05
3.174228413972255858e+00	1.714258214744446543e-06	-1.562154577550643167e-04	4.724557625334279906e-03	8.468164197720778885e-01	1.101882078267272025e+00	1.000035347258118712e+00	-9.917390695225755323e-03	3.305089265321517700e-05	2.385655978320185464e-05
3.194255091662932422e+00	1.714258307386262163e-06	-1.562161769080004658e-04	4.666789120019786824e-03	8.468125623705030636e-01	1.101816054753280927e+00	1.000035348348434772e+00	-9.917344815318085427e-03	3.305802896211352436e-05	2.415550770109813733e-05
3.214281769353608986e+00	1.714258395257705328e-06	-1.562168795442495355e-04	4.610148033120533770e-03	8.468087426204808921e-01	1.101759306798393512e+00	1.000035349320256728e+00	-9.917299990483628355e-03	3.306586588633338093e-05	2.445653391021531910e-05
3.234308447044285995e+00	1.714258477633792489e-06	-1.562175572824436062e-04	4.554606061614560782e-03	8.468051130757162648e-01	1.101711710498668895e+00	1.000035350239687482e+00	-9.917256738169913377e-03	3.307440105839109617e-05	2.475964261026069669e-05
3.254335124734962559e+00	1.714258555801619433e-06	-1.562182185532367748e-04	4.500134760906185534e-03	8.468015197543421468e-01	1.101673145905265550e+00	1.000035351047022125e+00	-9.917214541747879780e-03	3.308362477328476517e-05	2.506483805436139032e-05
3.274361802425639123e+00	1.714258628989346445e-06	-1.562188556929305623e-04	4.446707651042263766e-03	8.467981161188938843e-01	1.101643496377414211e+00	1.000035351809444695e+00	-9.917173871458096271e-03	3.309353539616727047e-05	2.537212454991528320e-05
3.294388480116315687e+00	1.714258698479818053e-06	-1.562194671302002198e-04	4.394297994598295350e-03	8.467947918762885884e-01	1.101622648998288989e+00	1.000035352465580507e+00	-9.917134835343347637e-03	3.310412339889638695e-05	2.568150645734122099e-05
3.314415157806992696e+00	1.714258763492104396e-06	-1.562200618573449757e-04	4.342880982480491411e-03	8.467916070742612655e-01	1.101610493921472811e+00	1.000035353083755574e+00	-9.917096857830464893e-03	3.311538771518916807e-05	2.599298819091495877e-05
3.334441835497669260e+00	1.714258825243215213e-06	-1.562206295601098460e-04	4.292431491276329711e-03	8.467885146483710157e-01	1.101606924815898836e+00	1.000035353600888577e+00	-9.917060604241826824e-03	3.312731921368654704e-05	2.630657421772456957e-05
3.354468513188345824e+00	1.714258882973347338e-06	-1.562211820743674448e-04	4.242926245174210090e-03	8.467855474463518162e-01	1.101611838200451832e+00	1.000035354086522332e+00	-9.917025313258458555e-03	3.313991725425767868e-05	2.662226905837597192e-05
3.374495190879022832e+00	1.714258937830169429e-06	-1.562217094666880422e-04	4.194341622884788755e-03	8.467826689851473132e-01	1.101625133916645849e+00	1.000035354475881766e+00	-9.916991611048413258e-03	3.315317311554343140e-05	2.694007728615259868e-05
3.394521868569699397e+00	1.714258989076822114e-06	-1.562222144801312426e-04	4.146655769257875240e-03	8.467799535291994362e-01	1.101646714453918374e+00	1.000035354839750257e+00	-9.916959335400545375e-03	3.316708654868188647e-05	2.726000352763392081e-05
3.414548546260375961e+00	1.714259037824583609e-06	-1.562227012804928738e-04	4.099846441090323861e-03	8.467773006527288260e-01	1.101676485442770748e+00	1.000035355111662749e+00	-9.916928218212264431e-03	3.318164908424564108e-05	2.758205246191467613e-05
3.434575223951052525e+00	1.714259083309032726e-06	-1.562231707332629343e-04	4.053893131808776820e-03	8.467747859185068560e-01	1.101714354978906574e+00	1.000035355363684042e+00	-9.916898200448550499e-03	3.319686108110860945e-05	2.790622882137047526e-05
3.454601901641729533e+00	1.714259126611979827e-06	-1.562236229804651866e-04	4.008774875821551238e-03	8.467723412940725281e-01	1.101760234132805438e+00	1.000035355527652436e+00	-9.916869277892708875e-03	3.321271428131654141e-05	2.823253739081271689e-05
3.474628579332406098e+00	1.714259166965646933e-06	-1.562240459390920762e-04	3.964472408117480917e-03	8.467700431861114874e-01	1.101814036266690611e+00	1.000035355676957671e+00	-9.916842218835075426e-03	3.322920953232243125e-05	2.856098300829400090e-05
3.494655257023082662e+00	1.714259205471007891e-06	-1.562244532567880868e-04	3.920965922652514500e-03	8.467678760795873671e-01	1.101875677564668976e+00	1.000035355741763166e+00	-9.916816148077978871e-03	3.324633852624876072e-05	2.889157056430486666e-05
3.514681934713759670e+00	1.714259241309976470e-06	-1.562248339061271757e-04	3.878237338702466772e-03	8.467657626589839559e-01	1.101945076344700070e+00	1.000035355796773384e+00	-9.916791772305488112e-03	3.326410282250840018e-05	2.922430500267891556e-05
3.534708612404436234e+00	1.714259275593492285e-06	-1.562251985582688285e-04	3.836267932103371026e-03	8.467638017271691409e-01	1.102022153603958721e+00	1.000035355770482415e+00	-9.916768419890927000e-03	3.328249407377008702e-05	2.955919131970924377e-05
3.554735290095112799e+00	1.714259307463602440e-06	-1.562255443581493934e-04	3.795040722989540156e-03	8.467618974025161727e-01	1.102106832327478525e+00	1.000035355738969178e+00	-9.916746266202028023e-03	3.330151451346596977e-05	2.989623456522703710e-05
3.574761967785789363e+00	1.714259338020601251e-06	-1.562258641607014551e-04	3.754538006706539376e-03	8.467602131446971825e-01	1.102199038047098512e+00	1.000035355629040223e+00	-9.916725756751442258e-03	3.332115584665933014e-05	3.023543984158693393e-05
3.594788645476466371e+00	1.714259366422627965e-06	-1.562261764139611622e-04	3.714743796920579825e-03	8.467584678004798082e-01	1.102298698143845623e+00	1.000035355518177127e+00	-9.916705734440409148e-03	3.334142067423620027e-05	3.057681230484559363e-05
3.614815323167142935e+00	1.714259393697112160e-06	-1.562264554343952255e-04	3.675641379345786445e-03	8.467570042586595180e-01	1.102405742427625235e+00	1.000035355331524212e+00	-9.916687822136829519e-03	3.336230109526185870e-05	3.092035716383132913e-05
3.634842000857819500e+00	1.714259419072455737e-06	-1.562267340087266883e-04	3.637215658804449428e-03	8.467554955349758661e-01	1.102520102428393933e+00	1.000035355147945948e+00	-9.916669939361211564e-03	3.338379974713016234e-05	3.126607968128036774e-05
3.654868678548496508e+00	1.714259443466492798e-06	-1.562269724292429825e-04	3.599450873148530607e-03	8.467542498528295436e-01	1.102641711994934770e+00	1.000035354890913775e+00	-9.916654608779780500e-03	3.340590935725428834e-05	3.161398517299218649e-05
3.674895356239173072e+00	1.714259466215418446e-06	-1.562272184071143819e-04	3.562332729874536329e-03	8.467528984866696806e-01	1.102770506573956366e+00	1.000035354640753660e+00	-9.916638805219847586e-03	3.342863232664265168e-05	3.196407900887232828e-05
3.694922033929849636e+00	1.714259488088371419e-06	-1.562274228535051612e-04	3.525846389601151269e-03	8.467518194451022495e-01	1.102906423831160998e+00	1.000035354319232406e+00	-9.916625631381481912e-03	3.345196229949752830e-05	3.231636661228887370e-05
3.714948711620526201e+00	1.714259508552714529e-06	-1.562276359976208810e-04	3.489978286393121375e-03	8.467506575052023976e-01	1.103049402917813948e+00	1.000035354008160793e+00	-9.916611910450802078e-03	3.347590122601471461e-05	3.267085346100484131e-05
3.734975389311203209e+00	1.714259528227776034e-06	-1.562278094535628464e-04	3.454714453599851045e-03	8.467497348474116725e-01	1.103199385106893970e+00	1.000035353627622303e+00	-9.916600713834121394e-03	3.350044373516717575e-05	3.302754508653531679e-05
3.755002067001879773e+00	1.714259546709374893e-06	-1.562279884854732368e-04	3.420041998654747405e-03	8.467487588931988940e-01	1.103356313054950633e+00	1.000035353260886106e+00	-9.916589173670702778e-03	3.352559127778525979e-05	3.338644707524444862e-05
3.775028744692556337e+00	1.714259564484553568e-06	-1.562281345639762904e-04	3.385947768722725060e-03	8.467479883346977765e-01	1.103520131452261133e+00	1.000035352826369905e+00	-9.916579711119161838e-03	3.355133941292326119e-05	3.374756506764079128e-05
3.795055422383233346e+00	1.714259581249713851e-06	-1.562282733704830522e-04	3.352419511527181869e-03	8.467472351088942695e-01	1.103690786277301772e+00	1.000035352408836120e+00	-9.916570716342807540e-03	3.357768920235214462e-05	3.411090475954881956e-05
3.815082100073909910e+00	1.714259597416938965e-06	-1.562283857122087095e-04	3.319444803680674481e-03	8.467466385265332018e-01	1.103868225456656083e+00	1.000035351925032678e+00	-9.916563415034372955e-03	3.360463678349279637e-05	3.447647190125141271e-05
3.835108777764586474e+00	1.714259612724980020e-06	-1.562284948413912068e-04	3.287012027891380358e-03	8.467460832959636807e-01	1.104052398116627476e+00	1.000035351461206368e+00	-9.916556315538600438e-03	3.363218318921976053e-05	3.484427229892522293e-05
3.855135455455263482e+00	1.714259627509561703e-06	-1.562286061601694852e-04	3.255109450169210456e-03	8.467454824291157367e-01	1.104243255255745515e+00	1.000035350932473754e+00	-9.916549088247916116e-03	3.366032518340065995e-05	3.521431181362501511e-05
3.875162133145940047e+00	1.714259641515962570e-06	-1.562286451175987274e-04	3.223726075019478152e-03	8.467452769684875591e-01	1.104440748985875853e+00	1.000035350426547121e+00	-9.916546316114020418e-03	3.368906405355742288e-05	3.558659636288089316e-05
3.895188810836616611e+00	1.714259655291073044e-06	-1.562285865131006013e-04	3.192850591925583317e-03	8.467456068090725152e-01	1.104644833229854184e+00	1.000035349856913669e+00	-9.916550497433864603e-03	3.371839483658647891e-05	3.596113191945565519e-05
3.915215488527293175e+00	1.714259669125487047e-06	-1.562285841766986147e-04	3.162472575525518241e-03	8.467456239470206869e-01	1.104855462746192840e+00	1.000035349313063593e+00	-9.916504075200062787e-03	3.374831886996955524e-05	3.633792451831008101e-05
3.935242166217970183e+00	1.714259677426661711e-06	-1.562292278097020086e-04	3.132581792279581518e-03	8.467421094991577357e-01	1.105072596168622301e+00	1.000035348708138150e+00	-9.916869588904092189e-03	3.377883674986579415e-05	3.671698019291677454e-05
3.955268843908646748e+00	1.714259706717275326e-06	-1.562295685239813354e-04	3.103169597731217193e-03	8.467402736613809378e-01	1.105296186150960258e+00	1.000035348154310721e+00	-9.916249620498815767e-03	3.380996374367046739e-05	3.709830553256862205e-05
3.975295521599323312e+00	1.714259734406261870e-06	-1.562275835389718298e-04	3.074224013988859083e-03	8.467510668684633535e-01	1.105526185517266669e+00	1.000035347623749571e+00	-9.913702057377323310e-03	3.384167570949090027e-05	3.748190597868472841e-05
3.995322199289999876e+00	1.714584732784533302e-06	-1.562422304190657577e-04	3.045531353289996409e-03	8.467602886425520392e-01	1.105725138389047624e+00	1.000000000000000000e+00	-1.000000000000000021e-02	3.387174561589884471e-05	3.787100112148618141e-05
