# Time=0.0488009760195 and Columns are r	p	Paether	ur	alpha	a	b	K	Sr_tilde	tau_tilde
1.001333884533834630e-02	1.198286979972497390e-02	-1.854811304384358997e-02	2.924889778886436795e-05	6.385241379037848164e-01	1.000182071274170026e+00	1.000134751980382264e+00	-1.592657077034029256e-02	3.302925624602990983e-10	1.502535639734470755e-06
3.004001653601504063e-02	1.195441281436035279e-02	-1.852713465173991617e-02	8.776074313805121781e-05	6.387024386373798546e-01	1.000560439389720058e+00	1.000134794212001577e+00	-1.592413696180206353e-02	8.908669743407036679e-09	1.349581178218113566e-05
5.006669422669172975e-02	1.189763029704414381e-02	-1.848518436197651993e-02	1.460928811877321132e-04	6.390590014453587653e-01	1.001316119135608362e+00	1.000134810901033733e+00	-1.588697532878723465e-02	4.109590044406184084e-08	3.733848174332260900e-05
7.009337191736843276e-02	1.181291450863595528e-02	-1.842236113687980431e-02	2.040198328063397586e-04	6.395933052484145120e-01	1.002447462483634144e+00	1.000134799966748034e+00	-1.582286403658759999e-02	1.120817877289815475e-07	7.274443283278417445e-05
9.012004960804512188e-02	1.170081095712453140e-02	-1.833878896641484915e-02	2.614490488510164633e-04	6.403046792506588147e-01	1.003951915284051921e+00	1.000134782915681031e+00	-1.574162672518947259e-02	2.362932809403345465e-07	1.192885978341711519e-04
1.101467272987218110e-01	1.156204141687539218e-02	-1.823463550780172679e-02	3.182412518225352953e-04	6.411922356960241265e-01	1.005825925035449986e+00	1.000134759860344502e+00	-1.563988759662559083e-02	4.270772592323489657e-07	1.764118694628075124e-04
1.301734049893985001e-01	1.139749382677152957e-02	-1.811011138289755906e-02	3.742700923021822883e-04	6.422548283974738315e-01	1.008065053634508157e+00	1.000134730505712666e+00	-1.551874438933139276e-02	6.964511435844973449e-07	2.434275725151160974e-04
1.502000826800751754e-01	1.120821549285869710e-02	-1.796547110529442617e-02	4.294155102202241374e-04	6.434911049855114307e-01	1.010663892001899322e+00	1.000134694068858909e+00	-1.537852646159365219e-02	1.054867160305908004e-06	3.195294828377634065e-04
1.702267603707518784e-01	1.099540317823387812e-02	-1.780101555326315740e-02	4.835668312613084830e-04	6.448994152975656702e-01	1.013616029280450581e+00	1.000134649683543486e+00	-1.521982163407555565e-02	1.511018870689650696e-06	4.038013144970859988e-04
1.902534380614285814e-01	1.076039206343063458e-02	-1.761709142073478174e-02	5.366240293120207779e-04	6.464778987712369585e-01	1.016914008173451567e+00	1.000134596441436763e+00	-1.504328018005377833e-02	2.071687765593249154e-06	4.952276070580737249e-04
2.102801157521052566e-01	1.050464339108107652e-02	-1.741409441348876208e-02	5.884984603006584991e-04	6.482243672951729652e-01	1.020549278429377038e+00	1.000134533411270565e+00	-1.484966044008350500e-02	2.741632082792113291e-06	5.927059204763619185e-04
2.303067934427819596e-01	1.022973099517417855e-02	-1.719246827460418903e-02	6.391145423632407785e-04	6.501364078317016792e-01	1.024512147592540057e+00	1.000134459696674361e+00	-1.463982804855223745e-02	3.523525462349674738e-06	6.950602317229996781e-04
2.503334711334586626e-01	9.937326829653441232e-03	-1.695270818794876108e-02	6.884100434701421762e-04	6.522112448837591447e-01	1.028791730893195755e+00	1.000134374438174767e+00	-1.441475811083050944e-02	4.417937450653204480e-06	8.010554074797666783e-04
2.703601488241353379e-01	9.629185668636502243e-03	-1.669535911427497132e-02	7.363377932653931458e-04	6.544458684217338007e-01	1.033375901498539751e+00	1.000134276881718298e+00	-1.417553897485327070e-02	5.423368328365028763e-06	9.094126101822365112e-04
2.903868265148120131e-01	9.307129125206092812e-03	-1.642101915162827441e-02	7.828655154105637224e-04	6.568368747949544506e-01	1.038251243157905179e+00	1.000134166367431465e+00	-1.392336980518150275e-02	6.536319060713092155e-06	1.018825472995427877e-03
3.104135042054887439e-01	8.973029179154934365e-03	-1.613033711860995673e-02	8.279775575854390066e-04	6.593806061391496165e-01	1.043403006796020049e+00	1.000134042407724300e+00	-1.365956061216304883e-02	7.751417046611230218e-06	1.127976861455727868e-03
3.304401818961654191e-01	8.628791379929392005e-03	-1.582401550757476377e-02	8.716742088367030470e-04	6.620729849618827156e-01	1.048815073557392008e+00	1.000133904657996675e+00	-1.338552487435448746e-02	9.061562996451325209e-06	1.235556016683546322e-03
3.504668595868420944e-01	8.276337928195204655e-03	-1.550280691028699948e-02	9.139734404666761524e-04	6.649096711223793088e-01	1.054469926074097286e+00	1.000133753002737658e+00	-1.310277454113390437e-02	1.045813297918833033e-05	1.340275858381914523e-03
3.704935372775188251e-01	7.917590814552549067e-03	-1.516751657422161191e-02	9.549096494188616651e-04	6.678858786102962464e-01	1.060348630868805930e+00	1.000133587502877397e+00	-1.281290648572669388e-02	1.193118051853649125e-05	1.440890204254151796e-03
3.905202149681955004e-01	7.554455223502536641e-03	-1.481899747843635345e-02	9.945354174971665628e-04	6.709965531437946940e-01	1.066430833734604455e+00	1.000133408488417475e+00	-1.251759163155682225e-02	1.346969261063323342e-05	1.536210649793567137e-03
4.105468926588721756e-01	7.188803384567841667e-03	-1.445815201077373796e-02	1.032919634933258295e-03	6.742361866053263597e-01	1.072694771252880486e+00	1.000133216477511633e+00	-1.221855505506945321e-02	1.506181852418893431e-05	1.625122835596621088e-03
4.305735703495489064e-01	6.822459073166772456e-03	-1.408592583397723016e-02	1.070149296096415455e-03	6.775990033087421205e-01	1.079117300109984301e+00	1.000133012274628141e+00	-1.191755880358558173e-02	1.669515249495152684e-05	1.706601824444450508e-03
4.506002480402255816e-01	6.457182935696192949e-03	-1.370330863012307783e-02	1.106326990315175925e-03	6.810787697491130777e-01	1.085673947356915026e+00	1.000132796857005957e+00	-1.161637593122730877e-02	1.835695760302172153e-05	1.779726302757868393e-03
4.706269257309022569e-01	6.094658824170025822e-03	-1.331132640281513201e-02	1.141572783335599497e-03	6.846690110943135510e-01	1.092338982732951935e+00	1.000132571478445476e+00	-1.131676787175836182e-02	2.003444691568518615e-05	1.843691328131933900e-03
4.906536034215789877e-01	5.736481295130101653e-03	-1.291104150048657043e-02	1.176021095014930570e-03	6.883627979736136604e-01	1.099085515816789815e+00	1.000132337519759496e+00	-1.102045342167569039e-02	2.171497205984595553e-05	1.897819350721789960e-03
5.106802811122557184e-01	5.384144428223617586e-03	-1.250354349474884844e-02	1.209822765787182085e-03	6.921529960053151020e-01	1.105885618140967086e+00	1.000132096599367859e+00	-1.072908208086420859e-02	2.338627825924362874e-05	1.941569259165274721e-03
5.307069588029323937e-01	5.039032086552840996e-03	-1.208994829383311723e-02	1.243141397522597212e-03	6.960320467278880985e-01	1.112710472231389858e+00	1.000131850385903354e+00	-1.044420028752454828e-02	2.503663335627144654e-05	1.974543225074185462e-03
5.507336364936090689e-01	4.702409731700629182e-03	-1.167138792331280303e-02	1.276155751783720517e-03	6.999922328255894222e-01	1.119530546253414416e+00	1.000131600718477953e+00	-1.016722287893944213e-02	2.665503989953312144e-05	1.996491160936631620e-03
5.707603141842857442e-01	4.375417870860316520e-03	-1.124900910542290036e-02	1.309055700317608749e-03	7.040254508591609062e-01	1.126315795027654776e+00	1.000131349380987800e+00	-9.899399216314736655e-03	2.823129051486113469e-05	2.007312648073953255e-03
5.907869918749625304e-01	4.059067195738142245e-03	-1.082396180405857493e-02	1.342045166338162038e-03	7.081235179622377141e-01	1.133035884246353042e+00	1.000131098236732408e+00	-9.641785962350029465e-03	2.975613095291119829e-05	2.007056248962395088e-03
6.108136695656392057e-01	3.754235436529355062e-03	-1.039739792252360878e-02	1.375337887960546585e-03	7.122779096616070893e-01	1.139660437197742793e+00	1.000130848965457453e+00	-9.395215970873581346e-03	3.122123956546062713e-05	1.995916175914031095e-03
6.308403472563158809e-01	3.461665930355478475e-03	-9.970459018806812970e-03	1.409161180802814698e-03	7.164801007811615330e-01	1.146159298776681101e+00	1.000130603218627234e+00	-9.160275343774750695e-03	3.261934656885431057e-05	1.974226357434131704e-03
6.508670249469925562e-01	3.181967868480230829e-03	-9.544275190750102847e-03	1.443751779570997444e-03	7.207212985761927149e-01	1.152502814635447015e+00	1.000130362321818733e+00	-8.937278445625135639e-03	3.394414672852682238e-05	1.942452010180343008e-03
6.708937026376692314e-01	2.915618159915913873e-03	-9.119952583047832850e-03	1.479360734993629637e-03	7.249927944150637016e-01	1.158662118306184485e+00	1.000130127457894202e+00	-8.726251753471428452e-03	3.519038864807205172e-05	1.901178896029290374e-03
6.909203803283459067e-01	2.662964818124176781e-03	-8.698572895452189729e-03	1.516249650808123650e-03	7.292856856671872112e-01	1.164609423044035363e+00	1.000129899337849348e+00	-8.526917502963133125e-03	3.635373770389738803e-05	1.851100508551827874e-03
7.109470580190225819e-01	2.424231751953005720e-03	-8.281181129859409989e-03	1.554697054955069858e-03	7.335912414425926897e-01	1.170318309743336949e+00	1.000129678420246915e+00	-8.338686202840608561e-03	3.743085317508089617e-05	1.793003494861525066e-03
7.309737357096993682e-01	2.199524818287090441e-03	-7.868785967985840457e-03	1.594995380015630819e-03	7.379006258856936062e-01	1.175764007277350087e+00	1.000129464553541014e+00	-8.160650671225448682e-03	3.841922099778370491e-05	1.727751669394056054e-03
7.510004134003760434e-01	1.988838973322933253e-03	-7.462348517215221765e-03	1.637459155065502285e-03	7.422052343932762364e-01	1.180923655924604132e+00	1.000129257239832814e+00	-7.991587746166409559e-03	3.931723474795036354e-05	1.656269015785179731e-03
7.710270910910527187e-01	1.792066345587421672e-03	-7.062783477843669576e-03	1.682423113253083725e-03	7.464964539273892807e-01	1.185776550801025619e+00	1.000129055251141930e+00	-7.829963752180863282e-03	4.012401521379151408e-05	1.579522098631565459e-03
7.910537687817293939e-01	1.609005041287404859e-03	-6.670949401728869591e-03	1.730252545523076630e-03	7.507659647914903811e-01	1.190304356236083549e+00	1.000128856944860978e+00	-7.673945273065524778e-03	4.083950450419697697e-05	1.498502315857012934e-03
8.110804464724060692e-01	1.439368490144159966e-03	-6.287651093103156265e-03	1.781342962067382785e-03	7.550055014119323449e-01	1.194491289613872187e+00	1.000128659855803459e+00	-7.521415917983719467e-03	4.146428314816734222e-05	1.414208417243701960e-03
8.311071241630827444e-01	1.282795136959380671e-03	-5.913631343703619307e-03	1.836132988631170720e-03	7.592071400562143690e-01	1.198324266806830352e+00	1.000128461069592190e+00	-7.369996319050037444e-03	4.199967833906650635e-05	1.327629690757440055e-03
8.511338018537595307e-01	1.138858292971885004e-03	-5.549574607178658740e-03	1.895106068953661058e-03	7.633630687521006930e-01	1.201793010181769539e+00	1.000128256791846360e+00	-7.217072830438223119e-03	4.244758180883038371e-05	1.239730183648176396e-03
8.711604795444362059e-01	1.007075967605462188e-03	-5.196100551761893491e-03	1.958806355387329376e-03	7.674658328321857237e-01	1.204890113120889117e+00	1.000128042785808802e+00	-7.059827557193471340e-03	4.281056570509857444e-05	1.151434273800490968e-03
8.911871572351128812e-01	8.869205195053866519e-04	-4.853768646933851599e-03	2.027843068700948669e-03	7.715081397634531157e-01	1.207611064964999814e+00	1.000127813920114850e+00	-6.895281937624921781e-03	4.309169948393146794e-05	1.063613850994572264e-03
9.112138349257895564e-01	7.778279799286465061e-04	-4.523073583259135284e-03	2.102909940509314554e-03	7.754830360424530555e-01	1.209954232308553257e+00	1.000127564678790604e+00	-6.720340753353478552e-03	4.329466251030197871e-05	9.770773001182664168e-04
9.312405126164662317e-01	6.792069263087779614e-04	-4.204450618929316853e-03	2.184793003064170423e-03	7.793837652105638503e-01	1.211920803449740847e+00	1.000127288691802674e+00	-6.531857030084905341e-03	4.342355656526063575e-05	8.925604143719744832e-04
9.512671903071429069e-01	5.904468026820671941e-04	-3.898272442527412653e-03	2.274394263940027281e-03	7.832038648534670466e-01	1.213514693586243975e+00	1.000126979328754384e+00	-6.326699283741909173e-03	4.348300433290991612e-05	8.107192971484569917e-04
9.712938679978196932e-01	5.109256112367082390e-04	-3.604854871333029384e-03	2.372743782794155092e-03	7.869371155241285942e-01	1.214742419953054098e+00	1.000126629221787189e+00	-6.101849952849887869e-03	4.347795544942516135e-05	7.321252529882041988e-04
9.913205456884963684e-01	4.400169195168678092e-04	-3.324455091251238368e-03	2.481028229041224061e-03	7.905774767793776192e-01	1.215612945418965252e+00	1.000126230961268181e+00	-5.854510352762283196e-03	4.341376327117136365e-05	6.572616102390532126e-04
1.011347223379172933e+00	3.770961546658086936e-04	-3.057276773547058703e-03	2.600607923869056783e-03	7.941192329134165728e-01	1.216137501296468137e+00	1.000125776627977636e+00	-5.582250961295861895e-03	4.329598626201216138e-05	5.865223765598733636e-04
1.031373901069849497e+00	3.215461747267260627e-04	-2.803469351289668635e-03	2.733050372213333395e-03	7.975567265607124146e-01	1.216329387844313326e+00	1.000125258616940460e+00	-5.283172852907648195e-03	4.313043979624207647e-05	5.202125911816547765e-04
1.051400578760526283e+00	2.727621301746525938e-04	-2.563132076006623822e-03	2.880151936656361478e-03	8.008847000685456186e-01	1.216203763806501081e+00	1.000124669203673600e+00	-4.956127936560633142e-03	4.292299857844961126e-05	4.585502187421647410e-04
1.071427256451203069e+00	2.301556433545093772e-04	-2.336313738357281150e-03	3.043974636707285058e-03	8.040978201058621710e-01	1.215777422439927369e+00	1.000124001527656237e+00	-4.600950793411244175e-03	4.267962529179967107e-05	4.016694154449456495e-04
1.091453934141879634e+00	1.931583506029617252e-04	-2.123014931399348163e-03	3.226869191141233315e-03	8.071912807469674433e-01	1.215068565053889493e+00	1.000123249218724863e+00	-4.218753139717206120e-03	4.240618243835190138e-05	3.496250004407636374e-04
1.111480611832556420e+00	1.612248601234679600e-04	-1.923187583560659244e-03	3.431508802097267292e-03	8.101601263495858962e-01	1.214096567656754999e+00	1.000122407564657090e+00	-3.812213188786766228e-03	4.210844346392543654e-05	3.023979699872974994e-04
1.131507289523232984e+00	1.338351877220561701e-04	-1.736735401052622637e-03	3.660903490102683337e-03	8.130000612896105538e-01	1.212881750744722487e+00	1.000121473205223932e+00	-3.385903096566602374e-03	4.179192373552111908e-05	2.599019071998162904e-04
1.151533967213909770e+00	1.104967326667706171e-04	-1.563512745769429259e-03	3.918414838697731328e-03	8.157065235458246244e-01	1.211445145495904319e+00	1.000120445473554165e+00	-2.946558587683127152e-03	4.146188319752759920e-05	2.219901522989036120e-04
1.171560644904586557e+00	9.074585513663191493e-05	-1.403322523116301611e-03	4.207738002236392424e-03	8.182760612021179325e-01	1.209808265231165691e+00	1.000119326109682572e+00	-2.503314557556913806e-03	4.112318620263789555e-05	1.884636123564773619e-04
1.191587322595263121e+00	7.414910730298524758e-05	-1.255915415746919122e-03	4.532863492834732916e-03	8.207047478884247349e-01	1.207992873266669598e+00	1.000118120685257184e+00	-2.067774684152824324e-03	4.078030589960261753e-05	1.590790928809872025e-04
1.211614000285939907e+00	6.030415893484263994e-05	-1.120986137624657578e-03	4.897981035800748686e-03	8.229899599329468796e-01	1.206020755544510825e+00	1.000116838185941992e+00	-1.653923619715308001e-03	4.043722221927837138e-05	1.335580299280424231e-04
1.231640677976616471e+00	4.884044040748581630e-05	-9.981704480258256872e-04	5.307329048284129686e-03	8.251302198509227193e-01	1.203913488342712723e+00	1.000115492309652465e+00	-1.277740369796950522e-03	4.009743802362773058e-05	1.115954815884209614e-04
1.251667355667293258e+00	3.941950804775097366e-05	-8.870473438586656822e-04	5.764948963934372200e-03	8.271235564911790794e-01	1.201692210959884433e+00	1.000114100647307547e+00	-9.565208480423900922e-04	3.976391931183382347e-05	9.286920766474916083e-05
1.271694033357969822e+00	3.173511689491468051e-05	-7.871409033462971544e-04	6.274345177384234654e-03	8.289633710778160358e-01	1.199377395408638414e+00	1.000112685550021085e+00	-7.078411340382242739e-04	3.943913229113673083e-05	7.704862453663857604e-05
1.291720711048646608e+00	2.551297174328508760e-05	-6.978949139844382735e-04	6.838018945660859042e-03	8.306643616086232251e-01	1.196988627269564898e+00	1.000111272601922341e+00	-5.482794356851055468e-04	3.912502326395737254e-05	6.380338078696870085e-05
1.311747388739323394e+00	2.051011901264765947e-05	-6.187143597994495918e-04	7.456896477704084807e-03	8.322303865071739581e-01	1.194544393840321961e+00	1.000109890812078461e+00	-4.918689648300810782e-04	3.882306878662119219e-05	5.281126568967531130e-05
1.331774066429999959e+00	1.651394592676403084e-05	-5.489792685013330413e-04	8.129666013300874960e-03	8.336301432930325328e-01	1.192061898926579211e+00	1.000108570258284590e+00	-5.485921069527114257e-04	3.853429504903073356e-05	4.376515343712883226e-05
1.351800744120676745e+00	1.334076863176729459e-05	-4.879770049449205110e-04	8.852102173773173516e-03	8.348997769228559962e-01	1.189556903305813984e+00	1.000107341670202210e+00	-7.231207998335844028e-04	3.825933634903255000e-05	3.637870969262703598e-05
1.371827421811353309e+00	1.083401827634036808e-05	-4.349923268656458630e-04	9.616473966340289420e-03	8.360528893472225498e-01	1.187043611629880369e+00	1.000106233529821198e+00	-1.013904656281506720e-03	3.799845957894304856e-05	3.039065153473895662e-05
1.391854099502030095e+00	8.862067618107813199e-06	-3.893054324253139814e-04	1.041120037119526963e-02	8.370708686160841516e-01	1.184534601649642527e+00	1.000105271545973951e+00	-1.412863603435370779e-03	3.775163352604763312e-05	2.556745167300706503e-05
1.411880777192706660e+00	7.315775627136339382e-06	-3.501788420824032992e-04	1.122089653224764630e-02	8.379749180181287338e-01	1.182040811272732972e+00	1.000104475862888531e+00	-1.905857942608203031e-03	3.751856386344207169e-05	2.170450086130446847e-05
1.431907454883383446e+00	6.105854672327181893e-06	-3.168934860236953055e-04	1.202695186121252591e-02	8.387712490342495997e-01	1.179571570613483500e+00	1.000103861138169181e+00	-2.473716973976272399e-03	3.729875288693170046e-05	1.862586652055487978e-05
1.451934132574060232e+00	5.160179722259743585e-06	-2.887576345297136575e-04	1.280867079629172470e-02	8.394717930685057228e-01	1.177134686499496485e+00	1.000103434517229273e+00	-3.093865236364230602e-03	3.709154586831550247e-05	1.618288902350557468e-05
1.471960810264736796e+00	4.421157534949220299e-06	-2.651180723421602079e-04	1.354489236140906522e-02	8.400824239780131375e-01	1.174736557938242942e+00	1.000103196828042273e+00	-3.742290278700080922e-03	3.689619048382542296e-05	1.425192154347640583e-05
1.491987487955413583e+00	3.843258029059278981e-06	-2.453682379352349770e-04	1.421585018988509759e-02	8.406166928706297892e-01	1.172382323797971138e+00	1.000103141615653612e+00	-4.395629430844549129e-03	3.671188174488181533e-05	1.273153793215857553e-05
1.512014165646090147e+00	3.390783504378480669e-06	-2.289553858109438268e-04	1.480495617624950216e-02	8.410802695296960563e-01	1.170076015883053211e+00	1.000103257486566921e+00	-5.033034144450949064e-03	3.653780865644830773e-05	1.153950902895431850e-05
1.532040843336766933e+00	3.035920709443346436e-06	-2.153825041006006099e-04	1.530017585210686343e-02	8.414851839988342075e-01	1.167820717607972680e+00	1.000103527950646720e+00	-5.637600322232802497e-03	3.637318343549957695e-05	1.060979379647447439e-05
1.552067521027443719e+00	2.757091140699187032e-06	-2.042093220006326287e-04	1.569476856671588039e-02	8.418368319324327498e-01	1.165618703430896019e+00	1.000103934402053696e+00	-6.197118373882856690e-03	3.621726362329293655e-05	9.889723155347921935e-06
1.572094198718120284e+00	2.537590940313310098e-06	-1.950505580607118700e-04	1.598731680618564743e-02	8.421449278045135545e-01	1.163471567093832260e+00	1.000104456067183234e+00	-6.704136987408916212e-03	3.606936063545652558e-05	9.337485904124740498e-06
1.592120876408797070e+00	2.364494987319876173e-06	-1.875724667286060934e-04	1.618113694587482859e-02	8.424136184597952326e-01	1.161380322628485562e+00	1.000105072873952450e+00	-7.155459503043478699e-03	3.592884439380060729e-05	8.919967272375338945e-06
1.612147554099473634e+00	2.227790533274932859e-06	-1.814890339363206691e-04	1.628326967538450826e-02	8.426512704544703025e-01	1.159345495890404587e+00	1.000105764858223889e+00	-7.551265792584628718e-03	3.579514044452175396e-05	8.610946312542411390e-06
1.632174231790150420e+00	2.119702551317137868e-06	-1.765570159884917911e-04	1.630329191019435492e-02	8.428600742428735693e-01	1.157367195156628448e+00	1.000106514500969768e+00	-7.894139949140718815e-03	3.566772973300651374e-05	8.389628906521114720e-06
1.652200909480826985e+00	2.034174285031122256e-06	-1.725711866904676352e-04	1.625215522313344305e-02	8.430474570795152278e-01	1.155445180747502798e+00	1.000107305432090143e+00	-8.188159688030135011e-03	3.554614296728127821e-05	8.239476754865019491e-06
1.672227587171503771e+00	1.966470278608641144e-06	-1.693596927938991826e-04	1.614119808464256622e-02	8.432134698071153123e-01	1.153578919567690653e+00	1.000108124304941448e+00	-8.438159515583852285e-03	3.542995976498629254e-05	8.147286170554800998e-06
1.692254264862180557e+00	1.912874270119470166e-06	-1.667792226646526497e-04	1.598139629095934183e-02	8.433647440033286147e-01	1.151767642778265932e+00	1.000108959003543685e+00	-8.649220537558408375e-03	3.531880310585790151e-05	8.102470705298058892e-06
1.712280942552857121e+00	1.870459477154951327e-06	-1.647112219759379044e-04	1.578286371102914643e-02	8.435004282283165011e-01	1.150010389283733891e+00	1.000109800317379394e+00	-8.826309566452139599e-03	3.521233684662558551e-05	8.096505792478460271e-06
1.732307620243533908e+00	1.836913637138707535e-06	-1.630578455729391222e-04	1.555457069867500867e-02	8.436260137301530015e-01	1.148306052906840291e+00	1.000110639896839793e+00	-8.974092326136492298e-03	3.511026102730421708e-05	8.122499665718437784e-06
1.752334297934210472e+00	1.810405225541198427e-06	-1.617389240407614173e-04	1.530423364157820418e-02	8.437402003878514689e-01	1.146653414800492543e+00	1.000111471929016282e+00	-9.096817345296832891e-03	3.501230804972905233e-05	8.174861318795696759e-06
1.772360975624887258e+00	1.789480609249732252e-06	-1.606888913842351456e-04	1.503832461080026328e-02	8.438474457256094352e-01	1.145051179916379169e+00	1.000112290982914542e+00	-9.198284224072660747e-03	3.491823906482878525e-05	8.249042411124569673e-06
1.792387653315563822e+00	1.772984484462192261e-06	-1.598544816320413421e-04	1.476215618580389334e-02	8.439459711854145896e-01	1.143497998822813333e+00	1.000113093780722107e+00	-9.281832233308249733e-03	3.482783979653801884e-05	8.341335302885869856e-06
1.812414331006240609e+00	1.759997917819566473e-06	-1.591924142017015593e-04	1.448000761538429694e-02	8.440398439505805150e-01	1.141992494641842049e+00	1.000113876986847394e+00	-9.350372010354513277e-03	3.474091822520062998e-05	8.448713746946104241e-06
1.832441008696917395e+00	1.749789795835783183e-06	-1.586678384260815770e-04	1.419526576753425001e-02	8.441268510741404274e-01	1.140533276011337360e+00	1.000114639105458503e+00	-9.406403581542734788e-03	3.465730026229417167e-05	8.568706145413721771e-06
1.852467686387593959e+00	1.741778550995938485e-06	-1.582525570674775438e-04	1.391056716464952707e-02	8.442106872051912125e-01	1.139118956536093297e+00	1.000115378225234553e+00	-9.452070433511965825e-03	3.457682923756360719e-05	8.699293879108957456e-06
1.872494364078270745e+00	1.735501855771850093e-06	-1.579240238868635305e-04	1.362792808960982746e-02	8.442892785699263047e-01	1.137748161016980175e+00	1.000116094047319049e+00	-9.489184328707479105e-03	3.449936098386526619e-05	8.838829126950621651e-06
1.892521041768947310e+00	1.730592511871084279e-06	-1.576641616688671907e-04	1.334886249589193122e-02	8.443654927446215819e-01	1.136419539460240991e+00	1.000116785581398826e+00	-9.519272406282393642e-03	3.442476528885041913e-05	8.985968021176344594e-06
1.912547719459624096e+00	1.726759233347199608e-06	-1.574585831046482209e-04	1.307448075158853217e-02	8.444373653727529350e-01	1.135131768478658154e+00	1.000117453299088188e+00	-9.543610626801210875e-03	3.435292081593379623e-05	9.139615993276062876e-06
1.932574397150300882e+00	1.723771275976440102e-06	-1.572957149355111602e-04	1.280557519146002451e-02	8.445077014729640563e-01	1.133883561565354636e+00	1.000118096773098930e+00	-9.563267677838979686e-03	3.428371754879680537e-05	9.298882928550678920e-06
1.952601074840977446e+00	1.721446153092099766e-06	-1.571665748822899714e-04	1.254268758881238802e-02	8.445740805100386828e-01	1.132673667152390040e+00	1.000118716948526387e+00	-9.579116115498376854e-03	3.421705115942760692e-05	9.463046270123478973e-06
1.972627752531654233e+00	1.719639784812375663e-06	-1.570637766632784597e-04	1.228616755593366777e-02	8.446395959237656959e-01	1.131500876424941016e+00	1.000119313716384628e+00	-9.591891024632122689e-03	3.415282783337732930e-05	9.631520629961678223e-06
1.992654430222330797e+00	1.718238635168701630e-06	-1.569817764150362876e-04	1.203621480451439428e-02	8.447015886633109094e-01	1.130364019131228304e+00	1.000119888296206572e+00	-9.602177692381679702e-03	3.409095596201122523e-05	9.803832740476573580e-06
2.012681107913007583e+00	1.717153395839256206e-06	-1.569159456609068519e-04	1.179291841831372166e-02	8.447627669821407004e-01	1.129261969882555894e+00	1.000120440735769334e+00	-9.610469511206060078e-03	3.403135489947932489e-05	9.979600823339485982e-06
2.032707785603684147e+00	1.716313970724866493e-06	-1.568628819043910844e-04	1.155628097055118667e-02	8.448209242593410773e-01	1.128193642493361404e+00	1.000120972400105224e+00	-9.617153913737434487e-03	3.397394312973381700e-05	1.015851760435336026e-05
2.052734463294360712e+00	1.715665437917111187e-06	-1.568196502842926585e-04	1.132624514887140520e-02	8.448784878247772578e-01	1.127157995384064026e+00	1.000121483391131383e+00	-9.622560374506846162e-03	3.391865072264930406e-05	1.034033635812842193e-05
2.072761140985037720e+00	1.715164872283444493e-06	-1.567842177201330279e-04	1.110270564152959251e-02	8.449335188604341074e-01	1.126154025006602888e+00	1.000121975138870578e+00	-9.626939358385796022e-03	3.386540394786680970e-05	1.052485945425259317e-05
2.092787818675714284e+00	1.714778774412090376e-06	-1.567548102738596698e-04	1.088552815592926278e-02	8.449876138745840981e-01	1.125180770798644536e+00	1.000122447736473630e+00	-9.630503488997851219e-03	3.381414200630401248e-05	1.071192898410118061e-05
2.112814496366390848e+00	1.714481077406206852e-06	-1.567301409132596836e-04	1.067455318878682453e-02	8.450396887692267489e-01	1.124237308008397829e+00	1.000122902631123800e+00	-9.633417687821371062e-03	3.376479789683109586e-05	1.090141909933845940e-05
2.132841174057067857e+00	1.714251518426335547e-06	-1.567091261808790253e-04	1.046961025960353904e-02	8.450909551006101639e-01	1.123322752527918578e+00	1.000123339870458095e+00	-9.635818474754150043e-03	3.371731805961146065e-05	1.109322977241591599e-05
2.152867851747744421e+00	1.714074401865525184e-06	-1.566910600040400477e-04	1.027051691118836818e-02	8.451401931120473554e-01	1.122436253333237932e+00	1.000123760892019709e+00	-9.637807008353200047e-03	3.367164116865670453e-05	1.128728172036852888e-05
2.172894529438420985e+00	1.713937572230053871e-06	-1.566752039134776560e-04	1.007709014509289291e-02	8.451887844603159783e-01	1.121576997365089978e+00	1.000124165678094590e+00	-9.639475117859218692e-03	3.362772033656826170e-05	1.148351229259244825e-05
2.192921207129097994e+00	1.713831659484574391e-06	-1.566611710468341636e-04	9.889142021003285987e-03	8.452355946732915681e-01	1.120744201749412694e+00	1.000124555643118640e+00	-9.640884137477117102e-03	3.358549854286506262e-05	1.168187214152942817e-05
2.212947884819774558e+00	1.713749430299659240e-06	-1.566485432489309016e-04	9.706490060752581694e-03	8.452815850766920436e-01	1.119937118817673882e+00	1.000124930694658687e+00	-9.642090158495920243e-03	3.354493485205259086e-05	1.188232254036485326e-05
2.232974562510451122e+00	1.713685337877368652e-06	-1.566370665560348784e-04	9.528950507898552649e-03	8.453259517932232292e-01	1.119155028201517244e+00	1.000125292218708495e+00	-9.643133646433939277e-03	3.350597629235793650e-05	1.208483322238125665e-05
2.253001240201127686e+00	1.713635111214953441e-06	-1.566264789927241340e-04	9.356348113579807460e-03	8.453696224096551859e-01	1.118397242051606622e+00	1.000125640045151698e+00	-9.644049460236930188e-03	3.346858689316625969e-05	1.228938064956371570e-05
2.273027917891804695e+00	1.713595494083289972e-06	-1.566166376751760290e-04	9.188508093475255059e-03	8.454118684927298677e-01	1.117663097062816746e+00	1.000125975530884448e+00	-9.644862253275534800e-03	3.343271711941592710e-05	1.249594662513647915e-05
2.293054595582481259e+00	1.713563982290833413e-06	-1.566074051974825955e-04	9.025265676477465387e-03	8.454532889087732483e-01	1.116951959928378368e+00	1.000126298428717808e+00	-9.645592735265605053e-03	3.339833547498834577e-05	1.270451718720804724e-05
2.313081273273157823e+00	1.713538679547779174e-06	-1.565987073206134101e-04	8.866457219613864751e-03	8.454932100503178560e-01	1.116263219288094577e+00	1.000126610068676758e+00	-9.646255320778555908e-03	3.336539564678695587e-05	1.291508172736447374e-05
2.333107950963834831e+00	1.713518126233630201e-06	-1.565903801264151166e-04	8.711929645239115810e-03	8.455327293703646108e-01	1.115596291478216484e+00	1.000126910128931401e+00	-9.646867607814222506e-03	3.333387017628590041e-05	1.312763229064606117e-05
2.353134628654511395e+00	1.713501227120347806e-06	-1.565824640888195652e-04	8.561530874785099748e-03	8.455707313749473153e-01	1.114950612366695015e+00	1.000127199916316600e+00	-9.647433179014985524e-03	3.330371492219525196e-05	1.334216302133146044e-05
2.373161306345187960e+00	1.713487134243124826e-06	-1.565748403720265876e-04	8.415119810638383227e-03	8.456082287011005283e-01	1.114325643436262947e+00	1.000127479037606459e+00	-9.647963966925224635e-03	3.327490672683452538e-05	1.355866972415552558e-05
2.393187984035864524e+00	1.713475219915810947e-06	-1.565675264586334763e-04	8.272555766076451420e-03	8.456443598341607526e-01	1.113720863512945636e+00	1.000127748780625714e+00	-9.648463009355782993e-03	3.324740336937423375e-05	1.377714951934087691e-05
2.413214661726541532e+00	1.713464991847344594e-06	-1.565604067863401322e-04	8.133709075317477333e-03	8.456801934084440253e-01	1.113135775127873428e+00	1.000128008684595837e+00	-9.648939619130237136e-03	3.322118533372982109e-05	1.399760056983393219e-05
2.433241339417218096e+00	1.713456093212680292e-06	-1.565535925676089985e-04	7.998449811244305596e-03	8.457144225083145228e-01	1.112569896181193840e+00	1.000128260022511428e+00	-9.649389952166067749e-03	3.319621185461230903e-05	1.422002186901285271e-05
2.453268017107894661e+00	1.713448236154726914e-06	-1.565469365995107590e-04	7.866659202583094201e-03	8.457484226987952436e-01	1.112022766577870359e+00	1.000128502269790776e+00	-9.649824186600181042e-03	3.317246753800109883e-05	1.444441307165647575e-05
2.473294694798571669e+00	1.713441219914597269e-06	-1.565405036324478004e-04	7.738217210546650786e-03	8.457811171451313781e-01	1.111493939776690310e+00	1.000128736688778552e+00	-9.650240082296437927e-03	3.314991237528834751e-05	1.467077436512704761e-05
2.493321372489248233e+00	1.713434873751934817e-06	-1.565342534480011413e-04	7.613015039995247452e-03	8.458133148791784350e-01	1.110982989741648552e+00	1.000128962694461832e+00	-9.650640951526774300e-03	3.312853448446855729e-05	1.489910636491509967e-05
2.513348050179924797e+00	1.713429085583590799e-06	-1.565281934942326972e-04	7.490941917909564422e-03	8.458443786096978556e-01	1.110489502346072799e+00	1.000129181542545709e+00	-9.651027231285467731e-03	3.310829516923635186e-05	1.512941003738225096e-05
2.533374727870601362e+00	1.713423751556205509e-06	-1.565222961934560229e-04	7.371898085794944926e-03	8.458749139976644571e-01	1.110013082620066704e+00	1.000129392590780375e+00	-9.651401184774355962e-03	3.308918540971586124e-05	1.536168663478283572e-05
2.553401405561278370e+00	1.713418809947089264e-06	-1.565165308604115550e-04	7.255781224414342354e-03	8.459045857622833342e-01	1.109553346019465536e+00	1.000129597091784284e+00	-9.651765310394433764e-03	3.307116757453804268e-05	1.559593765019692927e-05
2.573428083251954934e+00	1.713414195032176994e-06	-1.565109686737328374e-04	7.142499755976101233e-03	8.459335375283814074e-01	1.109109925959807841e+00	1.000129794348982415e+00	-9.652115397176261671e-03	3.305423503518595377e-05	1.583216477615816554e-05
2.593454760942631498e+00	1.713409873028939202e-06	-1.565055156945305964e-04	7.031959249773980965e-03	8.459616591757814774e-01	1.108682464933014700e+00	1.000129985615234807e+00	-9.652457645440332829e-03	3.303835191629430750e-05	1.607036987944959917e-05
2.613481438633308507e+00	1.713405800298841535e-06	-1.565002148104687656e-04	6.924075440296926544e-03	8.459894303130001125e-01	1.108270622322924170e+00	1.000130170142080166e+00	-9.652789478273035920e-03	3.302351321047358810e-05	1.631055497362047979e-05
2.633508116323985071e+00	1.713401958853241155e-06	-1.564950278990214839e-04	6.818761017300866041e-03	8.460162223178340213e-01	1.107874065371342809e+00	1.000130349185632150e+00	-9.653113920237765821e-03	3.300968434290275526e-05	1.655272220617962881e-05
2.653534794014661635e+00	1.713398317495303693e-06	-1.564900468781201611e-04	6.715938485511956449e-03	8.460423507900252105e-01	1.107492477254564678e+00	1.000130521947883766e+00	-9.653424744434507820e-03	3.299686236523246706e-05	1.679687383918290124e-05
2.673561471705338199e+00	1.713394866863513232e-06	-1.564851308014947068e-04	6.615527113783339040e-03	8.460678253358020484e-01	1.107125547897274798e+00	1.000130689690789110e+00	-9.653731130950270189e-03	3.298501436276292885e-05	1.704301224409845495e-05
2.693588149396015208e+00	1.713391583582664690e-06	-1.564804059192114578e-04	6.517455347971085229e-03	8.460926438464800858e-01	1.106772982327966837e+00	1.000130851568736601e+00	-9.654025424964162924e-03	3.297413824815954267e-05	1.729113988672789732e-05
2.713614827086691772e+00	1.713388462939737154e-06	-1.564757424064835609e-04	6.421648514318949695e-03	8.461169023843418957e-01	1.106434491274661314e+00	1.000131008852221726e+00	-9.654315423953464467e-03	3.296420294759864567e-05	1.754125932719962749e-05
2.733641504777368336e+00	1.713385486388950385e-06	-1.564712418714920867e-04	6.328040472171118230e-03	8.461405426091230808e-01	1.106109799844913644e+00	1.000131160649460504e+00	-9.654595000572958538e-03	3.295520717219040558e-05	1.779337320695903037e-05
2.753668182468045345e+00	1.713382651815573126e-06	-1.564667968978098551e-04	6.236562040907550966e-03	8.461636809670537440e-01	1.105798637916119542e+00	1.000131308241692718e+00	-9.654871123471927760e-03	3.294712140462429056e-05	1.804748425240120779e-05
2.773694860158721909e+00	1.713379943712487652e-06	-1.564626008004906909e-04	6.147152062464235518e-03	8.461857469418964106e-01	1.105500749070073674e+00	1.000131450692706148e+00	-9.655131537661792648e-03	3.293994533384047473e-05	1.830359526266898783e-05
2.793721537849398473e+00	1.713377360944963309e-06	-1.564584006187940237e-04	6.059746557689978802e-03	8.462076617943680157e-01	1.105215880801371009e+00	1.000131589296302526e+00	-9.655392191812273150e-03	3.293365190595349293e-05	1.856170911551433515e-05
2.813748215540075037e+00	1.713374890907630266e-06	-1.564543891064087045e-04	5.974288586964350729e-03	8.462288271267394135e-01	1.104943793728435875e+00	1.000131723073088175e+00	-9.655640900210251884e-03	3.292823996371597864e-05	1.882182875557773593e-05
2.833774893230752046e+00	1.713372532858989951e-06	-1.564503786949978672e-04	5.890718936122236668e-03	8.462497464459488583e-01	1.104684251581410370e+00	1.000131853331412524e+00	-9.655889205771869127e-03	3.292368482028479277e-05	1.908395720199553626e-05
2.853801570921428610e+00	1.713370276070262380e-06	-1.564466239470746977e-04	5.808984639766187619e-03	8.462695439451394241e-01	1.104437030723107949e+00	1.000131979049592834e+00	-9.656121774688502732e-03	3.291998511543007443e-05	1.934809753607346809e-05
2.873828248612105174e+00	1.713368119540581564e-06	-1.564428142527835703e-04	5.729030999810809203e-03	8.462894480500336991e-01	1.104201909872093434e+00	1.000132101552426489e+00	-9.656357839525732747e-03	3.291711930378983254e-05	1.961425291109986809e-05
2.893854926302782182e+00	1.713366054779599889e-06	-1.564392609227020618e-04	5.650808404212259370e-03	8.463082097166630957e-01	1.103978679912875904e+00	1.000132219776887599e+00	-9.656577783619996538e-03	3.291508419901994099e-05	1.988242653905563252e-05
2.913881603993458747e+00	1.713364080046474489e-06	-1.564356671267374947e-04	5.574266436900692304e-03	8.463270407355744096e-01	1.103767133430592517e+00	1.000132335065499367e+00	-9.656799936274659130e-03	3.291386208250318370e-05	2.015262170157176060e-05
2.933908281684135311e+00	1.713362188710090623e-06	-1.564323243392944584e-04	5.499358542017149243e-03	8.463446634784129730e-01	1.103567074787195290e+00	1.000132446314778267e+00	-9.657006726411135333e-03	3.291344788457005688e-05	2.042484173641832192e-05
2.953934959374811875e+00	1.713360378357888393e-06	-1.564289194229648056e-04	5.426038235713566069e-03	8.463625753452913569e-01	1.103378309373182597e+00	1.000132554886603575e+00	-9.657217264513804147e-03	3.291382759389425451e-05	2.069909004928387924e-05
2.973961637065488883e+00	1.713358644171932113e-06	-1.564257261026960296e-04	5.354261669888026910e-03	8.463793885876776946e-01	1.103200654032661543e+00	1.000132659637507082e+00	-9.657414674416454556e-03	3.291499370796047787e-05	2.097537009981442389e-05
2.993988314756165448e+00	1.713356983027705917e-06	-1.564225376462726911e-04	5.283986001519672474e-03	8.463961505187473922e-01	1.103033926043280211e+00	1.000132761950109028e+00	-9.657611893203445208e-03	3.291693595013944117e-05	2.125368541434773681e-05
3.014014992446842012e+00	1.713355391317390704e-06	-1.564195489334101012e-04	5.215170033402970369e-03	8.464119269913795707e-01	1.102877953831216340e+00	1.000132860641454791e+00	-9.657796552499252687e-03	3.291964545254025964e-05	2.153403957121215260e-05
3.034041670137519020e+00	1.713353865558304844e-06	-1.564165128337095410e-04	5.147774148983744538e-03	8.464279295618225563e-01	1.102732565692595923e+00	1.000132957116175225e+00	-9.657983847818414624e-03	3.292311480029463982e-05	2.181643621437458794e-05
3.054068347828195584e+00	1.713352403463925035e-06	-1.564136571304527220e-04	5.081759453617645111e-03	8.464429832243549612e-01	1.102597600827865509e+00	1.000133050152297587e+00	-9.658160319427282203e-03	3.292733290294774681e-05	2.210087903821635763e-05
3.074095025518872148e+00	1.713351000967435187e-06	-1.564108263045192488e-04	5.017089419496877957e-03	8.464579145832010765e-01	1.102472897768933535e+00	1.000133141177605545e+00	-9.658335353970296314e-03	3.293229585042285046e-05	2.238737180180406364e-05
3.094121703209549157e+00	1.713349656659137636e-06	-1.564081475617428785e-04	4.953727420394229627e-03	8.464719980166821589e-01	1.102358305726940157e+00	1.000133228931402884e+00	-9.658500697298282034e-03	3.293799134972844267e-05	2.267591831345306677e-05
3.114148380900225721e+00	1.713348366306474389e-06	-1.564054715851017025e-04	4.891639607700434822e-03	8.464861252639359623e-01	1.102253672762750547e+00	1.000133314865723433e+00	-9.658665791661058195e-03	3.294441779631586263e-05	2.296652244538883750e-05
3.134175058590902285e+00	1.713347129275600951e-06	-1.564029865693289552e-04	4.830791424218458183e-03	8.464992886081911250e-01	1.102158857425733052e+00	1.000133397681438385e+00	-9.658819307005605745e-03	3.295156154751237120e-05	2.325918811778977352e-05
3.154201736281578849e+00	1.713345940936126376e-06	-1.564004579740161662e-04	4.771151631812028428e-03	8.465126958569240134e-01	1.102073716636393641e+00	1.000133478855858904e+00	-9.658975433876053340e-03	3.295942417307313815e-05	2.355391931438313618e-05
3.174228413972255858e+00	1.713344801724264799e-06	-1.563981415052375431e-04	4.712687392428025965e-03	8.465248838175664092e-01	1.101998117645903275e+00	1.000133557051684940e+00	-9.659118372034239744e-03	3.296798939126419325e-05	2.385072006562966103e-05
3.194255091662932422e+00	1.713343706342578570e-06	-1.563957530082734748e-04	4.655370032309059762e-03	8.465375314713743382e-01	1.101931925642362975e+00	1.000133633772411601e+00	-9.659265709520796495e-03	3.297726291102357209e-05	2.414959446523932463e-05
3.214281769353608986e+00	1.713342656412735347e-06	-1.563935775496660561e-04	4.599168170513913585e-03	8.465489764722674559e-01	1.101875016011078401e+00	1.000133707642588243e+00	-9.659400164057970611e-03	3.298722493664285366e-05	2.445054665272388555e-05
3.234308447044285995e+00	1.713341645880033298e-06	-1.563913377035766649e-04	4.544055604700040010e-03	8.465608703886066122e-01	1.101827261638900879e+00	1.000133780192950406e+00	-9.659538492078805286e-03	3.299788591120872742e-05	2.475358083051144249e-05
3.254335124734962559e+00	1.713340677473625496e-06	-1.563893029973509471e-04	4.490002271017740250e-03	8.465715977339614007e-01	1.101788545517676798e+00	1.000133850009989223e+00	-9.659663861891851916e-03	3.300922237738733970e-05	2.505870124628193488e-05
3.274361802425639123e+00	1.713339744413886913e-06	-1.563872223115296372e-04	4.436984273384562971e-03	8.465825898363381619e-01	1.101758747742849209e+00	1.000133918652391429e+00	-9.659792341036589972e-03	3.302124953098664069e-05	2.536591221014840327e-05
3.294388480116315687e+00	1.713338850423738686e-06	-1.563852823880015604e-04	4.384972756706127447e-03	8.465928319500182209e-01	1.101737758416672763e+00	1.000133984668799325e+00	-9.659912258718376249e-03	3.303394024651599498e-05	2.567521807694730574e-05
3.314415157806992696e+00	1.713337988323735485e-06	-1.563833438538655572e-04	4.333945852475794454e-03	8.466031361527343035e-01	1.101725464365782337e+00	1.000134049646660195e+00	-9.660031892673656695e-03	3.304731353031702845e-05	2.598662326400232346e-05
3.334441835497669260e+00	1.713337162351983155e-06	-1.563815649820495945e-04	4.283876011198148141e-03	8.466125774349974042e-01	1.101721762354594958e+00	1.000134112096653594e+00	-9.660141687735266866e-03	3.306134005293696133e-05	2.630013223238332308e-05
3.354468513188345824e+00	1.713336364989655250e-06	-1.563798130110881683e-04	4.234743235660406134e-03	8.466218369018189138e-01	1.101726545520397060e+00	1.000134173635770063e+00	-9.660249808267028920e-03	3.307604250079323555e-05	2.661574950601013114e-05
3.374495190879022832e+00	1.713335601031691571e-06	-1.563780951453939635e-04	4.186521134515682786e-03	8.466308948721458227e-01	1.101739716882117248e+00	1.000134232736766382e+00	-9.660356036527182472e-03	3.309138896934122530e-05	2.693347965204659106e-05
3.394521868569699397e+00	1.713334863148314108e-06	-1.563764565784589141e-04	4.139191176262591726e-03	8.466396095955370793e-01	1.101761175481050570e+00	1.000134291046869350e+00	-9.660457399283527147e-03	3.310740359072638381e-05	2.725332730053627091e-05
3.414548546260375961e+00	1.713334156032802401e-06	-1.563748649001891512e-04	4.092728380441323748e-03	8.466480560474327621e-01	1.101790830202645566e+00	1.000134347000890100e+00	-9.660555662204778349e-03	3.312405455635980615e-05	2.757529712429708941e-05
3.434575223951052525e+00	1.713333472600743134e-06	-1.563733626273730506e-04	4.047115532591785345e-03	8.466560210164255640e-01	1.101828585639639035e+00	1.000134402276910084e+00	-9.660648397045753025e-03	3.314136708788033634e-05	2.789939385937037524e-05
3.454601901641729533e+00	1.713332817456313912e-06	-1.563719195281591660e-04	4.002328953938211718e-03	8.466636190743596080e-01	1.101874356189617155e+00	1.000134455271791900e+00	-9.660737708177087255e-03	3.315930937169628956e-05	2.822562228387731189e-05
3.474628579332406098e+00	1.713332183791947782e-06	-1.563705477652184330e-04	3.958352648058399530e-03	8.466709455806223916e-01	1.101928051645866269e+00	1.000134507695060293e+00	-9.660822557360660562e-03	3.317790766677513941e-05	2.855398724006201806e-05
3.494655257023082662e+00	1.713331576204117526e-06	-1.563692228550082441e-04	3.915164080113606344e-03	8.466779131419669424e-01	1.101989591605611052e+00	1.000134557905641541e+00	-9.660904550831659471e-03	3.319712956600087337e-05	2.888449361117073979e-05
3.514681934713759670e+00	1.713330988147835136e-06	-1.563679357012070842e-04	3.872748387427519395e-03	8.466847605083095418e-01	1.102058890750059694e+00	1.000134607644997287e+00	-9.660984161173601439e-03	3.321700235130025660e-05	2.921714634584563370e-05
3.534708612404436234e+00	1.713330424271754857e-06	-1.563667372171124569e-04	3.831084068751408871e-03	8.466910054938525665e-01	1.102135873563223178e+00	1.000134655234043990e+00	-9.661058441662949414e-03	3.323749272273811246e-05	2.955195043262776736e-05
3.554735290095112799e+00	1.713329877972535523e-06	-1.563655477842653741e-04	3.790157468398920940e-03	8.466973388098356645e-01	1.102220459343669301e+00	1.000134702446793478e+00	-9.661132238802033062e-03	3.325863028352677169e-05	2.988891092620395650e-05
3.574761967785789363e+00	1.713329354223429864e-06	-1.563644846865798888e-04	3.749947915623654589e-03	8.467029125308936921e-01	1.102312577160186491e+00	1.000134747566098437e+00	-9.661197995944510730e-03	3.328037968272537750e-05	3.022803292134158254e-05
3.594788645476466371e+00	1.713328846168521440e-06	-1.563633983575618287e-04	3.710443008580449186e-03	8.467087456201140006e-01	1.102412150652316125e+00	1.000134792398873707e+00	-9.661265500919178142e-03	3.330277394980068513e-05	3.056932157877385506e-05
3.614815323167142935e+00	1.713328359230803382e-06	-1.563624258835097239e-04	3.671622696120234192e-03	8.467137551509872351e-01	1.102519113265073791e+00	1.000134835189893767e+00	-9.661325798394296976e-03	3.332577432203631668e-05	3.091278209983249983e-05
3.634842000857819500e+00	1.713327886310068386e-06	-1.563614640062473680e-04	3.633475806388440556e-03	8.467189572750216664e-01	1.102633392694590597e+00	1.000134877779561338e+00	-9.661385657041660427e-03	3.334941772800880186e-05	3.125841975200031349e-05
3.654868678548496508e+00	1.713327433117871049e-06	-1.563605569662433628e-04	3.595982928236931067e-03	8.467236099696607843e-01	1.102754926522286238e+00	1.000134918374323556e+00	-9.661442038146131339e-03	3.337366260767258809e-05	3.160623984346203497e-05
3.674895356239173072e+00	1.713326992558030862e-06	-1.563597267058039974e-04	3.559133892848369372e-03	8.467280513272789078e-01	1.102883646274639418e+00	1.000134958848745148e+00	-9.661493622044187157e-03	3.339854837878172291e-05	3.195624774898365842e-05
3.694922033929849636e+00	1.713326570263278806e-06	-1.563589248907721197e-04	3.522910107941313197e-03	8.467321904401551302e-01	1.103019493439780119e+00	1.000134997370632162e+00	-9.661543693522300219e-03	3.342403277777231476e-05	3.230844888402439581e-05
3.714948711620526201e+00	1.713326159391872904e-06	-1.563581728981766747e-04	3.487302172696742173e-03	8.467362112324153811e-01	1.103162403168680195e+00	1.000135035849203158e+00	-9.661590621597861139e-03	3.345015610227036501e-05	3.266284873128063633e-05
3.734975389311203209e+00	1.713325765501477962e-06	-1.563575607155622590e-04	3.452292268082736600e-03	8.467393866765912103e-01	1.103312320645712719e+00	1.000135072413449455e+00	-9.661628890440162806e-03	3.347687542853722032e-05	3.301945281440428259e-05
3.755002067001879773e+00	1.713325381620681210e-06	-1.563568640467328900e-04	3.417871961804278425e-03	8.467431705933211594e-01	1.103469184455091012e+00	1.000135109007784795e+00	-9.661672536380994797e-03	3.350423438266416590e-05	3.337826672483270901e-05
3.775028744692556337e+00	1.713325013930932585e-06	-1.563563286730301630e-04	3.384023670457250374e-03	8.467458957162614652e-01	1.103632943275720590e+00	1.000135143722220565e+00	-9.661706097039113664e-03	3.353218460451241195e-05	3.373929609496251685e-05
3.795055422383233346e+00	1.713324654875404144e-06	-1.563558185789719432e-04	3.350740203577986121e-03	8.467486283367458011e-01	1.103803538937014217e+00	1.000135178536786906e+00	-9.661738288659918461e-03	3.356077627277709438e-05	3.410254662573881354e-05
3.815082100073909910e+00	1.713324310974872304e-06	-1.563553674255819333e-04	3.318004345399428942e-03	8.467509127446787298e-01	1.103980923448211859e+00	1.000135211502254151e+00	-9.661766800460411947e-03	3.358995718170856832e-05	3.446802405936957771e-05
3.835108777764586474e+00	1.713323974710847104e-06	-1.563549704153569182e-04	3.285809678663164073e-03	8.467529797238360079e-01	1.104165041698556227e+00	1.000135244634816623e+00	-9.661791980912165165e-03	3.361978003975443920e-05	3.483573420710925469e-05
3.855135455455263482e+00	1.713323652594656944e-06	-1.563546155990668809e-04	3.254139545491376972e-03	8.467547985811471056e-01	1.104355848860919753e+00	1.000135275945782665e+00	-9.661814917238548475e-03	3.365019098603130914e-05	3.520568292174148850e-05
3.875162133145940047e+00	1.713323337346532429e-06	-1.563542978356089732e-04	3.222988187563476884e-03	8.467564208622269106e-01	1.104553292693405853e+00	1.000135307488009717e+00	-9.661832602241101145e-03	3.368124456682555009e-05	3.557787612702078769e-05
3.895188810836616611e+00	1.713323034831960512e-06	-1.563540589778260553e-04	3.192339470133218147e-03	8.467576558483002058e-01	1.104757331587459035e+00	1.000135337233499344e+00	-9.661858731752818660e-03	3.371288525283218515e-05	3.595231978108941634e-05
3.915215488527293175e+00	1.713322769176998206e-06	-1.563538403372959767e-04	3.162188312699596923e-03	8.467587422892832727e-01	1.104967904988940486e+00	1.000135367277532827e+00	-9.661176193850026794e-03	3.374517006116303753e-05	3.632902022201626524e-05
3.935242166217970183e+00	1.713322218971729211e-06	-1.563535937210260365e-04	3.132519670374710012e-03	8.467598964424604135e-01	1.105185090091912015e+00	1.000135395582405939e+00	-9.667346055372805572e-03	3.377804820405490462e-05	3.670798038288753561e-05
3.955268843908646748e+00	1.713321963223950766e-06	-1.563533067856478554e-04	3.103330328226853747e-03	8.467613708813447326e-01	1.105408707355725495e+00	1.000135425134880407e+00	-9.676100518322960919e-03	3.381159520498760394e-05	3.708921466247279154e-05
3.975295521599323312e+00	1.713323794912184700e-06	-1.563530836589139151e-04	3.074601655534468445e-03	8.467630833672505908e-01	1.105637849216405177e+00	1.000135454232500276e+00	-9.617978924149853115e-03	3.384570795015741222e-05	3.747273894439809890e-05
3.995322199289999876e+00	1.714584732784533302e-06	-1.564170251937346617e-04	3.045531353289996409e-03	8.467602886577301202e-01	1.105725138389047624e+00	1.000000000000000000e+00	-1.000000000000000021e-02	3.387174561589884471e-05	3.787100112148618141e-05
