# Time=0.000535353535354 and Columns are r	p	Paether	ur	alpha	a	b	K	Sr_tilde	tau_tilde
1.001333884533834630e-02	1.199631316457206581e-02	-1.849186022880369012e-02	1.823950255380370284e-05	6.446429072485643230e-01	1.000048477144250603e+00	1.000001154190572006e+00	-1.002532956270565934e-02	2.060395565611628906e-10	1.503618598453528343e-06
3.004001653601504063e-02	1.196777855218278397e-02	-1.847102132746173547e-02	5.471516495683647339e-05	6.448175844009428337e-01	1.000426900166627275e+00	1.000001154682104598e+00	-1.002521696516405457e-02	5.556067031459691329e-09	1.350548740312232665e-05
5.006669422669172975e-02	1.191089384691663977e-02	-1.842938049481625262e-02	9.118091259132670334e-05	6.451668236521210797e-01	1.001182885509012799e+00	1.000001155663727159e+00	-1.002499033524701863e-02	2.565781807714576774e-08	3.736514214983419302e-05
7.009337191736843276e-02	1.182602750697501690e-02	-1.836701674744780841e-02	1.276305960110019685e-04	6.456902480136874622e-01	1.002314704551829250e+00	1.000001157132701879e+00	-1.002465165683196456e-02	7.013948813056003091e-08	7.279607151288420923e-05
9.012004960804512188e-02	1.171372761015447746e-02	-1.828405248775464079e-02	1.640588174821857790e-04	6.463871681040314066e-01	1.003819746448499028e+00	1.000001159084964009e+00	-1.002420203963046326e-02	1.483226386043757504e-07	1.193726331429722224e-04
1.101467272987218110e-01	1.157471692651496596e-02	-1.818065164254657057e-02	2.004611992057062423e-04	6.472566702934369198e-01	1.005694496966840434e+00	1.000001161515095660e+00	-1.002364149321529826e-02	2.691050923184148152e-07	1.765349712000627552e-04
1.301734049893985001e-01	1.140988618144151215e-02	-1.805701893701227786e-02	2.368346381944191621e-04	6.482976688612166472e-01	1.007934510855731602e+00	1.000001164416360666e+00	-1.002297170482211765e-02	4.408492194980258388e-07	2.435955189985209324e-04
1.502000826800751754e-01	1.122028575340722374e-02	-1.791340228411503893e-02	2.731775430181119114e-04	6.495088530596082599e-01	1.010534378246933152e+00	1.000001167780736111e+00	-1.002219489841497599e-02	6.712769435278847380e-07	3.197470390970197297e-04
1.702267603707518784e-01	1.100711589571390370e-02	-1.775009503422636178e-02	3.094900675422012086e-04	6.508886404902278766e-01	1.013487685748151401e+00	1.000001171598944749e+00	-1.002131336941395993e-02	9.673727193271970510e-07	4.040721396462929049e-04
1.902534380614285814e-01	1.077171558225873370e-02	-1.756743661010783109e-02	3.457743222017075073e-04	6.524351896538685969e-01	1.016786973038906083e+00	1.000001175860492975e+00	-1.002032988874409711e-02	1.335295559463987956e-06	4.955541913085736300e-04
2.102801157521052566e-01	1.051555009189416787e-02	-1.736581329766185774e-02	3.820345571146881039e-04	6.541464079893437589e-01	1.020423685947589254e+00	1.000001180553706126e+00	-1.001924804798112224e-02	1.780301009367106707e-06	5.930895534809594010e-04
2.303067934427819596e-01	1.024019746014469615e-02	-1.714565984273157262e-02	4.182773279253524474e-04	6.560199286663346285e-01	1.024388127165323903e+00	1.000001185665771564e+00	-1.001807212768417166e-02	2.306673869715807480e-06	6.955010018454613457e-04
2.503334711334586626e-01	9.947333940416639569e-03	-1.690746081442799295e-02	4.545116511690215351e-04	6.580530912048794256e-01	1.028669405938376302e+00	1.000001191182789073e+00	-1.001680702272183220e-02	2.917672352803555707e-06	8.015522314566689071e-04
2.703601488241353379e-01	9.638718629164577320e-03	-1.665175139973353383e-02	4.907491465635650633e-04	6.602429373844638238e-01	1.033255388273201181e+00	1.000001197089809724e+00	-1.001545838808175909e-02	3.615484197403366940e-06	9.099632907738633902e-04
2.903868265148120131e-01	9.316177420577002183e-03	-1.637911810417953806e-02	5.270041712944166642e-04	6.625862027591165049e-01	1.038132649382362604e+00	1.000001203370897596e+00	-1.001403269713614479e-02	4.401195174758185081e-06	1.019426782458889924e-03
3.104135042054887439e-01	8.981586466025370807e-03	-1.609019932518130150e-02	5.632939545944762490e-04	6.650793023165025852e-01	1.043286430289571909e+00	1.000001210009175523e+00	-1.001253718246448640e-02	5.274770351630049794e-06	1.128624646718429190e-03
3.304401818961654191e-01	8.636855321572458472e-03	-1.578568548568012875e-02	5.996387406854837522e-04	6.677183202365231107e-01	1.048700600690460227e+00	1.000001216986878383e+00	-1.001097980257499576e-02	6.235048409407467075e-06	1.236245322920669337e-03
3.504668595868420944e-01	8.283909973047974551e-03	-1.546631869131841891e-02	6.360619457806668308e-04	6.704990037191705943e-01	1.054357630322850348e+00	1.000001224285417933e+00	-1.000936922471593916e-02	7.279749227752282892e-06	1.341001065747232830e-03
3.704935372775188251e-01	7.924675932338602971e-03	-1.513289198313701699e-02	6.725903393558476046e-04	6.734167561360647758e-01	1.060238571225368798e+00	1.000001231885435438e+00	-1.000771474576651367e-02	8.405494909351222518e-06	1.441645173974411562e-03
3.905202149681955004e-01	7.561061600378638295e-03	-1.478624809056574077e-02	7.092542591195269246e-04	6.764666317423797537e-01	1.066323053343734228e+00	1.000001239766868055e+00	-1.000602617832033712e-02	9.607844348805191301e-06	1.536988873969237892e-03
4.105468926588721756e-01	7.194942091637728833e-03	-1.442727761457439188e-02	7.460878706998952002e-04	6.796433337920465556e-01	1.072589295966472012e+00	1.000001247909019231e+00	-1.000431372348904897e-02	1.088134138254728481e-05	1.625917587106987753e-03
4.305735703495489064e-01	6.828143711468753763e-03	-1.405691663340221352e-02	7.831294819740506523e-04	6.829412156523316790e-01	1.079014137422397157e+00	1.000001256290612872e+00	-1.000258782026405141e-02	1.221957643493884680e-05	1.707406301629598973e-03
4.506002480402255816e-01	6.462429271310075538e-03	-1.367614373525806795e-02	8.204219247959370926e-04	6.863542843120062908e-01	1.085573085337428800e+00	1.000001264889885721e+00	-1.000085895918914440e-02	1.361526147254712135e-05	1.780533766077365332e-03
4.706269257309022569e-01	6.099484417285723839e-03	-1.328597645260250724e-02	8.580130155990018260e-04	6.898762075384438086e-01	1.092240389516015764e+00	1.000001273684645753e+00	-9.999137478187446193e-03	1.506031788603263313e-05	1.844495224438987826e-03
4.906536034215789877e-01	5.740905135106017659e-03	-1.288746711513019498e-02	8.959561085648092135e-04	6.935003246843286506e-01	1.098989139173232044e+00	1.000001282652362766e+00	-9.997433339978011035e-03	1.654597673221435645e-05	1.898613423596548630e-03
5.106802811122557184e-01	5.388186578326513952e-03	-1.248169814590789801e-02	9.343107541993093870e-04	6.972196612596404108e-01	1.105791385791702108e+00	1.000001291770248990e+00	-9.995755896315525538e-03	1.806289049272340099e-05	1.942347642349152251e-03
5.307069588029323937e-01	5.042713348021396307e-03	-1.206977684490251335e-02	9.731434786804267750e-04	7.010269471293391064e-01	1.112618292312216761e+00	1.000001301015347899e+00	-9.994113639973682336e-03	1.960125524353130503e-05	1.975300518882345657e-03
5.507336364936090689e-01	4.705751329938382375e-03	-1.165282970496141733e-02	1.012528698732601245e-03	7.049146386641392814e-01	1.119440308694330755e+00	1.000001310364622586e+00	-9.992513956932191216e-03	2.115094178031253795e-05	1.997222490264516370e-03
5.707603141842857442e-01	4.378441170499770829e-03	-1.123199633360674916e-02	1.052549789615371415e-03	7.088749444575581649e-01	1.126227373116083008e+00	1.000001319795050581e+00	-9.990962879542120492e-03	2.270163393341005691e-05	2.008013703214669987e-03
5.907869918749625304e-01	4.061793445995763065e-03	-1.080842305523260598e-02	1.093300324013788197e-03	7.128998545226092887e-01	1.132949137241611393e+00	1.000001329283720430e+00	-9.989464851090533101e-03	2.424297193714565406e-05	2.007723309311446134e-03
6.108136695656392057e-01	3.756685550507591828e-03	-1.038325628763736748e-02	1.134885503167719703e-03	7.169811725048027551e-01	1.139575213100628037e+00	1.000001338807928075e+00	-9.988022504207603666e-03	2.576469842411317312e-05	1.996546118764767203e-03
6.308403472563158809e-01	3.463860298137259701e-03	-9.957635787344555275e-03	1.177423802932198735e-03	7.211105506004906740e-01	1.146075438230718557e+00	1.000001348345275654e+00	-9.986636463232856711e-03	2.725680430498130801e-05	1.974816653052555507e-03
6.508670249469925562e-01	3.183926204758154126e-03	-9.532687872901995235e-03	1.221048862278793041e-03	7.252795265100212552e-01	1.152420154874492564e+00	1.000001357873761654e+00	-9.985305171687561612e-03	2.870967160591362242e-05	1.943000705821824230e-03
6.708937026376692314e-01	2.917359384558767220e-03	-9.109518731445933812e-03	1.265911644928469125e-03	7.294795618772117463e-01	1.158580498244422774e+00	1.000001367371878613e+00	-9.984024753050392206e-03	3.011421017856709607e-05	1.901684590713884331e-03
6.909203803283459067e-01	2.664506968012291931e-03	-8.689207921014675123e-03	1.312182911582890832e-03	7.337020814481537423e-01	1.164528688215611840e+00	1.000001376818699050e+00	-9.982788904759211379e-03	3.146198520205807338e-05	1.851562321151190666e-03
7.109470580190225819e-01	2.425591921449251048e-03	-8.272802172787568215e-03	1.360056046005252454e-03	7.379385122231215677e-01	1.170238318324817950e+00	1.000001386193963837e+00	-9.981588831096071743e-03	3.274533246825376615e-05	1.793421027451325839e-03
7.309737357096993682e-01	2.200719124997160912e-03	-7.861309596966813140e-03	1.409750287808293452e-03	7.421803217910400985e-01	1.175684635680966705e+00	1.000001395478146371e+00	-9.980413213023767507e-03	3.395745869406334368e-05	1.728124967842594416e-03
7.510004134003760434e-01	1.989882546046996357e-03	-7.455694382434310472e-03	1.461514434101028473e-03	7.464190550407479030e-01	1.180844805356508154e+00	1.000001404652528514e+00	-9.979248218381529464e-03	3.509252443396157115e-05	1.656598529295246315e-03
7.710270910910527187e-01	1.792973330263406039e-03	-7.056872072657674640e-03	1.515631085498185928e-03	7.506463685020233756e-01	1.185698153046177206e+00	1.000001413699250774e+00	-9.978077549527897272e-03	3.614570766084665649e-05	1.579808639349026449e-03
7.910537687817293939e-01	1.609788621951964340e-03	-6.665705482244024295e-03	1.572421525666104240e-03	7.548540615423650069e-01	1.190226380250869687e+00	1.000001422601358492e+00	-9.976882530941319840e-03	3.711324663077369409e-05	1.498747019838908220e-03
8.110804464724060692e-01	1.440040920619744570e-03	-6.283001305041406928e-03	1.632251341421938175e-03	7.590341038320899125e-01	1.194413746954847255e+00	1.000001431342833369e+00	-9.975642234875223280e-03	3.799246130965529538e-05	1.414412707003332489e-03
8.311071241630827444e-01	1.283367780887573889e-03	-5.909507443490952770e-03	1.695536908904339904e-03	7.631786584509255844e-01	1.198247217683557242e+00	1.000001439908608125e+00	-9.974333649429777474e-03	3.878175330032795237e-05	1.327795240256087481e-03
8.511338018537595307e-01	1.139341668382337419e-03	-5.545911071538982794e-03	1.762752893639956764e-03	7.672801003095969241e-01	1.201716567913236444e+00	1.000001448284577155e+00	-9.972931891668802146e-03	3.948058490987595365e-05	1.239858885213328352e-03
8.711604795444362059e-01	1.007479794501337910e-03	-5.192837421051870947e-03	1.834440934772312839e-03	7.713310295092353774e-01	1.204814448996521126e+00	1.000001456457581872e+00	-9.971410476083360230e-03	4.008943862790534764e-05	1.151528207549408402e-03
8.911871572351128812e-01	8.872537674516783358e-04	-4.850849262678339109e-03	1.911219708241109665e-03	7.753242796483639232e-01	1.207536411008731436e+00	1.000001464415396057e+00	-9.969741650027263632e-03	4.060975888221207258e-05	1.063675255771777926e-03
9.112138349257895564e-01	7.780989150332401133e-04	-4.520447030333792256e-03	1.993796585605455557e-03	7.792529210424965491e-01	1.209880884142398250e+00	1.000001472146685444e+00	-9.967896817345554480e-03	4.104387840376706866e-05	9.771085464109969306e-04
9.312405126164662317e-01	6.794231554520862790e-04	-4.202069519960229503e-03	2.082981124027972596e-03	7.831102592879122248e-01	1.211849120420643411e+00	1.000001479640969748e+00	-9.965847075674346897e-03	4.139493190702273827e-05	8.925639780163522295e-04
9.512671903071429069e-01	5.906153151606556660e-04	-3.896095073723072379e-03	2.179700631066620528e-03	7.868898295462035675e-01	1.213445098507065723e+00	1.000001486888567381e+00	-9.963563903702019400e-03	4.166676000391202116e-05	8.106977343182780391e-04
9.712938679978196932e-01	5.110528164478558410e-04	-3.602843144421323963e-03	2.285018039809413783e-03	7.905853874959870575e-01	1.214675395215025100e+00	1.000001493880546599e+00	-9.961020040383449306e-03	4.186380636903261782e-05	7.320811752976865089e-04
9.913205456884963684e-01	4.401086813964127454e-04	-3.322576119161930151e-03	2.400152291073175560e-03	7.941908978385461282e-01	1.215549027929754500e+00	1.000001500608657778e+00	-9.958190607224427435e-03	4.199101111556025951e-05	6.571976605502513136e-04
1.011347223379172933e+00	3.771578220973204293e-04	-3.055501268980536592e-03	2.526501333867048598e-03	7.977005219084527532e-01	1.216077272533733877e+00	1.000001507065282791e+00	-9.955054526804807749e-03	4.205370318476564316e-05	5.864412044756250626e-04
1.031373901069849497e+00	3.215826089457463652e-04	-2.801772681252581373e-03	2.665667694379782009e-03	8.011086059117235036e-01	1.216273461566006908e+00	1.000001513243383489e+00	-9.951596290528941235e-03	4.205749427449881968e-05	5.201168289213018705e-04
1.051400578760526283e+00	2.727777288013598454e-04	-2.561493026696338906e-03	2.819486291465427268e-03	8.044096720359706909e-01	1.216152767260457734e+00	1.000001519136463735e+00	-9.947808115353212050e-03	4.200817649711828663e-05	4.584424565969132592e-04
1.071427256451203069e+00	2.301543622108936764e-04	-2.334715013325345395e-03	2.990053738449585229e-03	8.075984146663297558e-01	1.215731973821233103e+00	1.000001524738550085e+00	-9.943692504043080346e-03	4.191162555670716186e-05	4.015521776004049841e-04
1.091453934141879634e+00	1.931437232380972633e-04	-2.121442388533968312e-03	3.179757698844343575e-03	8.106697046472381984e-01	1.215029242842835755e+00	1.000001530044196230e+00	-9.939265175024417781e-03	4.177371083089996833e-05	3.495007206236550794e-04
1.111480611832556420e+00	1.612000162295697053e-04	-1.921630370227488767e-03	3.391303866613930816e-03	8.136186044146841434e-01	1.214063875215355193e+00	1.000001535048514967e+00	-9.934558254922280784e-03	4.160021333162740282e-05	3.022689678128940758e-04
1.131507289523232984e+00	1.338028705755169533e-04	-1.735185421854148601e-03	3.627736717895582719e-03	8.164403972974458856e-01	1.212856072229595128e+00	1.000001539747251922e+00	-9.929623521355530197e-03	4.139675215605320837e-05	2.597703649838719437e-04
1.151533967213909770e+00	1.104593167364152065e-04	-1.561964337738111453e-03	3.892448223177640606e-03	8.191306338123308661e-01	1.211426697976705880e+00	1.000001544136888798e+00	-9.924535351411110234e-03	4.116871972004060737e-05	2.218580933218225080e-04
1.171560644904586557e+00	9.070536411164912259e-05	-1.401772677167305867e-03	4.189166142427397377e-03	8.216851975690400156e-01	1.209797044592467286e+00	1.000001548214803249e+00	-9.919392878080399156e-03	4.092122583230619411e-05	1.883328806776670349e-04
1.191587322595263121e+00	7.410723353479985653e-05	-1.254362678559290106e-03	4.521910362724968629e-03	8.241003921367378027e-01	1.207988601498269698e+00	1.000001551979448289e+00	-9.914320715564348130e-03	4.065905050520088359e-05	1.589513357933169837e-04
1.211614000285939907e+00	6.026228448876360815e-05	-1.119430896356932940e-03	4.894902186623969337e-03	8.263730488718675771e-01	1.206022829604868951e+00	1.000001555430582112e+00	-9.909467523191979252e-03	4.038660532364449684e-05	1.334346834165428498e-04
1.231640677976616471e+00	4.879966036639012231e-05	-9.966159242446419320e-04	5.312408091872344168e-03	8.285006532081994335e-01	1.203920941521930521e+00	1.000001558569505677e+00	-9.905001706146655122e-03	4.010790317407532412e-05	1.114777598529086925e-04
1.251667355667293258e+00	3.938065594156665307e-05	-8.854966836683072356e-04	5.778497358278997242e-03	8.304814842389034446e-01	1.201703689179410395e+00	1.000001561399299854e+00	-9.901103764859201656e-03	3.982653615296143876e-05	9.275809709821390453e-05
1.271694033357969822e+00	3.169879232238798382e-05	-7.855918431973809299e-04	6.296693924686781046e-03	8.323147592164189534e-01	1.199391160896372321e+00	1.000001563925038583e+00	-9.897955266032548369e-03	3.954566147707228979e-05	7.694488290210252997e-05
1.291720711048646608e+00	2.547956953695912631e-05	-6.963609650424096255e-04	6.869509514036364027e-03	8.340007714107072756e-01	1.197002590753266649e+00	1.000001566153944088e+00	-9.895725103787729460e-03	3.926799518141598226e-05	6.370754166021808074e-05
1.311747388739323394e+00	2.047985939209021777e-05	-6.172079209825325754e-04	7.497860526327993630e-03	8.355410076054956559e-01	1.194556183996966281e+00	1.000001568095469473e+00	-9.894554562338914866e-03	3.899581330588595127e-05	5.272364830262892324e-05
1.331774066429999959e+00	1.648690461135127511e-05	-5.474869638411707443e-04	8.180397989817770124e-03	8.369382305183761250e-01	1.192068962941358112e+00	1.000001569761268971e+00	-9.894543435285486910e-03	3.873096019561864361e-05	4.368587743575182223e-05
1.351800744120676745e+00	1.331690605344369213e-05	-4.865115809946658613e-04	8.912818059448112534e-03	8.381965126390855669e-01	1.189556638200262473e+00	1.000001571165070713e+00	-9.895739782554912115e-03	3.847486357838954165e-05	3.630771429844211444e-05
1.371827421811353309e+00	1.081320687635353295e-05	-4.335659208454038490e-04	9.687265128697105515e-03	8.393212113657370077e-01	1.187033509904142914e+00	1.000001572322447796e+00	-9.898135473706735910e-03	3.822855633770301162e-05	3.032771818194766804e-05
1.391854099502030095e+00	8.844116620993243004e-06	-3.879182237342213165e-04	1.049197817856473494e-02	8.403188807318406894e-01	1.184512402685532484e+00	1.000001573250519415e+00	-9.901668375804749053e-03	3.799270534818721798e-05	2.551222923718054374e-05
1.411880777192706660e+00	7.300452699438344915e-06	-3.488353783128246197e-04	1.131134412317169255e-02	8.411971216206057811e-01	1.182004636678259724e+00	1.000001573967604251e+00	-9.906230170633986351e-03	3.776764809738342404e-05	2.165653241686428949e-05
1.431907454883383446e+00	6.092904289769596697e-06	-3.155975317749041479e-04	1.212648877667278982e-02	8.419643789338548956e-01	1.179520034723269051e+00	1.000001574492850764e+00	-9.911677121065906246e-03	3.755343758264040820e-05	1.858461666711477923e-05
1.451934132574060232e+00	5.149338156473101682e-06	-2.875116571343412511e-04	1.291644566460940433e-02	8.426296999549797162e-01	1.177066963702677160e+00	1.000001574845865937e+00	-9.917840564756447153e-03	3.734989470690921163e-05	1.614777074158812236e-05
1.471960810264736796e+00	4.412164621823334836e-06	-2.639231286175026080e-04	1.365980686801190024e-02	8.432024718108999117e-01	1.174652405794362142e+00	1.000001575046344682e+00	-9.924535037033752755e-03	3.715666524908811766e-05	1.422232160732644004e-05
1.491987487955413583e+00	3.835865898683967828e-06	-2.442246431335320781e-04	1.433661761192469609e-02	8.436921580638007123e-01	1.172282053788472389e+00	1.000001575113668162e+00	-9.931564174836562259e-03	3.697327639054039160e-05	1.270683986828116013e-05
1.512014165646090147e+00	3.384762598426960758e-06	-2.278621815920850999e-04	1.493018259985776607e-02	8.441080534247559219e-01	1.169960423661522642e+00	1.000001575066512771e+00	-9.938726534577295782e-03	3.679918707185001977e-05	1.151911273961293772e-05
1.532040843336766933e+00	3.031063409014012694e-06	-2.143380532708210565e-04	1.542845166768483031e-02	8.444590732906672725e-01	1.167690977431912192e+00	1.000001574922457115e+00	-9.945823702680557307e-03	3.663382782946684123e-05	1.059313114185354287e-05
1.552067521027443719e+00	2.753213418222549363e-06	-2.032113440880209778e-04	1.582475241169933877e-02	8.447535888691911632e-01	1.165476249835250444e+00	1.000001574697656048e+00	-9.952671397687145108e-03	3.647662865840986936e-05	9.876269156064755797e-06
1.572094198718120284e+00	2.534532445826321615e-06	-1.940962634935627094e-04	1.611780093977090850e-02	8.449993132391115935e-01	1.163317973363172442e+00	1.000001574406595539e+00	-9.959111826602803225e-03	3.632703634062108412e-05	9.326765617978800257e-06
1.592120876408797070e+00	2.362118008656184465e-06	-1.866589501689600332e-04	1.631108675806299327e-02	8.452032365939834424e-01	1.161217197467619089e+00	1.000001574061967435e+00	-9.965024122287819905e-03	3.618452427341954306e-05	8.911558807711881760e-06
1.612147554099473634e+00	2.225978212233358534e-06	-1.806132770234196525e-04	1.641183945454552026e-02	8.453716046923088756e-01	1.159174399027067537e+00	1.000001573674673017e+00	-9.970330027749595495e-03	3.604859781828331159e-05	8.604480702839996682e-06
1.632174231790150420e+00	2.118356707896749642e-06	-1.757161201381111796e-04	1.642981980993517971e-02	8.455099305606078586e-01	1.157189582343505663e+00	1.000001573253914255e+00	-9.974993724765828657e-03	3.591879722602875401e-05	8.384787697837372866e-06
1.652200909480826985e+00	2.033213092475714375e-06	-1.717624571973396929e-04	1.637614637863867365e-02	8.456230305839999017e-01	1.155262367901263243e+00	1.000001572807356798e+00	-9.979016587600255186e-03	3.579469911038893386e-05	8.235988117661252779e-06
1.672227587171503771e+00	1.965825987979710305e-06	-1.685805593641208475e-04	1.626229990707932227e-02	8.457150751000632738e-01	1.153392069844107803e+00	1.000001572341318701e+00	-9.982428834793980257e-03	3.567591677423894814e-05	8.144920226150646541e-06
1.692254264862180557e+00	1.912491081640786829e-06	-1.660274522149198222e-04	1.609937296054641045e-02	8.457896473208437182e-01	1.151577762629885315e+00	1.000001571860972938e+00	-9.985280221100347256e-03	3.556209946135029814e-05	8.101034580688057249e-06
1.712280942552857121e+00	1.870291628560321218e-06	-1.639847494507032323e-04	1.589757147241860347e-02	8.458498043775392050e-01	1.149818337638787380e+00	1.000001571370525255e+00	-9.987631452614957953e-03	3.545293065893665991e-05	8.095838759609838467e-06
1.732307620243533908e+00	1.836923723625013878e-06	-1.623549105556695718e-04	1.566593658090513139e-02	8.458981383953646516e-01	1.148112550684559086e+00	1.000001570873388701e+00	-9.989547247164710236e-03	3.534812566918309575e-05	8.122468577520624135e-06
1.752334297934210472e+00	1.810562753061729182e-06	-1.610579357837911270e-04	1.541223773774979752e-02	8.459368338473390869e-01	1.146459061447435035e+00	1.000001570372307524e+00	-9.991091334104387073e-03	3.524742873814117722e-05	8.175356461007579289e-06
1.772360975624887258e+00	1.789760765454431564e-06	-1.600284875572959616e-04	1.514298581092973078e-02	8.459677214273541024e-01	1.144856465846397109e+00	1.000001569869491069e+00	-9.992323239899830040e-03	3.515061000597041936e-05	8.249973812870514475e-06
1.792387653315563822e+00	1.773367104319070463e-06	-1.592134116175869204e-04	1.486352130555295206e-02	8.459923264471173043e-01	1.143303322321702620e+00	1.000001569366699927e+00	-9.993296524053920521e-03	3.505746250128390047e-05	8.342629513240437271e-06
1.812414331006240609e+00	1.760466623405385170e-06	-1.585696232304920951e-04	1.457814272274394855e-02	8.460119129974580376e-01	1.141798172925190702e+00	1.000001568865333423e+00	-9.994058059766084551e-03	3.496779931562684946e-05	8.450311051760487114e-06
1.832441008696917395e+00	1.750331281549323172e-06	-1.580623195842006208e-04	1.429025021667145075e-02	8.460275222396699268e-01	1.140339560028701404e+00	1.000001568366495563e+00	-9.994648014179303638e-03	3.488145104717142134e-05	8.570558192629941483e-06
1.852467686387593959e+00	1.742381999776168332e-06	-1.576634791680007943e-04	1.400248839793814121e-02	8.460400070441069786e-01	1.138926039368915566e+00	1.000001567871051211e+00	-9.995100245571977501e-03	3.479826353552554981e-05	8.701361666792456807e-06
1.872494364078270745e+00	1.736158456117319424e-06	-1.573506101684508972e-04	1.371687883311583853e-02	8.460500610806747090e-01	1.137556190055899918e+00	1.000001567379664502e+00	-9.995442919420702982e-03	3.471809589674548899e-05	8.841081315000662405e-06
1.892521041768947310e+00	1.731295070984774224e-06	-1.571057126061052220e-04	1.343493752450112405e-02	8.460582450343452354e-01	1.136228622086493445e+00	1.000001566892846583e+00	-9.995699211321869976e-03	3.464081882896563759e-05	8.988379520166677901e-06
1.912547719459624096e+00	1.727501857105086127e-06	-1.569144222197335636e-04	1.315777578396542039e-02	8.460650081061709127e-01	1.134941981824204582e+00	1.000001566410982701e+00	-9.995888012028395289e-03	3.456631317072308561e-05	9.142166795717903032e-06
1.932574397150300882e+00	1.724549117143161426e-06	-1.567653075514513820e-04	1.288618480367979650e-02	8.460707076076098287e-01	1.133694955835954588e+00	1.000001565934355297e+00	-9.996024594087427745e-03	3.449446867008953212e-05	9.301557142106056764e-06
1.952601074840977446e+00	1.722255200982917490e-06	-1.566492954785198499e-04	1.262070527388946782e-02	8.460756241956339796e-01	1.132486273412800060e+00	1.000001565463164654e+00	-9.996121204780413286e-03	3.442518294472857654e-05	9.465831325743470558e-06
1.972627752531654233e+00	1.720476706080122197e-06	-1.565592033914361427e-04	1.236168386221708944e-02	8.460799763356258163e-01	1.131314708046729844e+00	1.000001564997551995e+00	-9.996187594127511206e-03	3.435836059446625222e-05	9.634406632125821612e-06
1.992654430222330797e+00	1.719100634263422964e-06	-1.564893598590918241e-04	1.210931849918052590e-02	8.460839310262536772e-01	1.130179078088202393e+00	1.000001564537606358e+00	-9.996231460240100758e-03	3.429391245142229247e-05	9.806811940269596580e-06
2.012681107913007583e+00	1.718038118282167321e-06	-1.564352978912073500e-04	1.186369432878204427e-02	8.460876143354048029e-01	1.129078246768634219e+00	1.000001564083378591e+00	-9.996258835177374361e-03	3.423175493671582733e-05	9.982667188698959019e-06
2.032707785603684147e+00	1.717219409025380331e-06	-1.563935080017133999e-04	1.162481200933519407e-02	8.460911185286071889e-01	1.128011121737924283e+00	1.000001563634889346e+00	-9.996274396438310436e-03	3.417180951446264678e-05	1.016166647489372795e-05
2.052734463294360712e+00	1.716589875444936048e-06	-1.563612396636790826e-04	1.139260982169569558e-02	8.460945099393429869e-01	1.126976654238357023e+00	1.000001563192136622e+00	-9.996281740808039135e-03	3.411400221943774021e-05	1.034356416476674140e-05
2.072761140985037720e+00	1.716106817646659495e-06	-1.563363425790046085e-04	1.116698082108691717e-02	8.460978335719123722e-01	1.125973838012492179e+00	1.000001562755103102e+00	-9.996283594192547500e-03	3.405826325250259947e-05	1.052816349625348391e-05
2.092787818675714284e+00	1.715736932360354998e-06	-1.563171397262044576e-04	1.094778605241325704e-02	8.461011186677648288e-01	1.125001708022795421e+00	1.000001562323754367e+00	-9.996281998247449202e-03	3.400452662747094226e-05	1.071530724824452122e-05
2.112814496366390848e+00	1.715454301123763435e-06	-1.563023264816218027e-04	1.073486466432239418e-02	8.461043816735384082e-01	1.124059339044612749e+00	1.000001561898048896e+00	-9.996278449755995402e-03	3.395272986483603857e-05	1.090487011769443435e-05
2.132841174057067857e+00	1.715238796633103155e-06	-1.562908903086143578e-04	1.052804159341025857e-02	8.461076303408024968e-01	1.123145844180832187e+00	1.000001561477939171e+00	-9.996274027497529732e-03	3.390281372186288957e-05	1.109675250703808004e-05
2.152867851747744421e+00	1.715074823021306416e-06	-1.562820474069033733e-04	1.032713335650206447e-02	8.461108651941229297e-01	1.122260373335751904e+00	1.000001561063369238e+00	-9.996269478740597847e-03	3.385472195483461741e-05	1.129087547359521179e-05
2.172894529438420985e+00	1.714950322271717255e-06	-1.562751924161690073e-04	1.013195237700896187e-02	8.461140825908971541e-01	1.121402111677012314e+00	1.000001560654283139e+00	-9.996265305507366639e-03	3.380840110827075572e-05	1.148717663409655376e-05
2.192921207129097994e+00	1.714855992296253066e-06	-1.562698590388187888e-04	9.942310180590586965e-03	8.461172754172643362e-01	1.120570278107418272e+00	1.000001560250619148e+00	-9.996261817781352393e-03	3.376380032537840646e-05	1.168560685234937680e-05
2.212947884819774558e+00	1.714784672978665216e-06	-1.562656888765129846e-04	9.758019724285029242e-03	8.461204351842782634e-01	1.119764123762887476e+00	1.000001559852315314e+00	-9.996259190003067494e-03	3.372087117978373746e-05	1.188612756727949986e-05
2.232974562510451122e+00	1.714730865218286654e-06	-1.562624072278701883e-04	9.578897062734920836e-03	8.461235521615331212e-01	1.118982930548328758e+00	1.000001559459311462e+00	-9.996257491528067959e-03	3.367956752064849788e-05	1.208870864322504659e-05
2.253001240201127686e+00	1.714690355027224831e-06	-1.562598039521240938e-04	9.404762512905852009e-03	8.461266169115388980e-01	1.118226009719749392e+00	1.000001559071540980e+00	-9.996256724221433063e-03	3.363984533575032721e-05	1.229332664493415980e-05
2.273027917891804695e+00	1.714659920427603570e-06	-1.562577187451226956e-04	9.235441437964493280e-03	8.461296200990107153e-01	1.117492700518114779e+00	1.000001558688940584e+00	-9.996256839225130600e-03	3.360166262193180350e-05	1.249996345695214313e-05
2.293054595582481259e+00	1.714637103439509812e-06	-1.562560295404653865e-04	9.070764748255282645e-03	8.461325534404282589e-01	1.116782368858424412e+00	1.000001558311446104e+00	-9.996257759045177119e-03	3.356497927180198727e-05	1.270860518151928521e-05
2.313081273273157823e+00	1.714620033129446326e-06	-1.562546436445603776e-04	8.910569188853025360e-03	8.461354093396120657e-01	1.116094406075743395e+00	1.000001557938993368e+00	-9.996259386152339665e-03	3.352975696350562725e-05	1.291924126101372826e-05
2.333107950963834831e+00	1.714607288600599334e-06	-1.562534907272643216e-04	8.754697473049377968e-03	8.461381817399007410e-01	1.115428227728773924e+00	1.000001557571516875e+00	-9.996261618723198752e-03	3.349595906564546710e-05	1.313186378095491520e-05
2.353134628654511395e+00	1.714597793168944323e-06	-1.562525175865798045e-04	8.602998300130986625e-03	8.461408654710732558e-01	1.114783272460551533e+00	1.000001557208952896e+00	-9.996264351572933457e-03	3.346355054171418783e-05	1.334646691776719351e-05
2.373161306345187960e+00	1.714590732810056688e-06	-1.562516840044082540e-04	8.455326294044201302e-03	8.461434566858534456e-01	1.114159000915219577e+00	1.000001556851236595e+00	-9.996267483636684173e-03	3.343249786982810883e-05	1.356304650228053553e-05
2.393187984035864524e+00	1.714585493472395422e-06	-1.562509595985358353e-04	8.311541882392504965e-03	8.461459526136719811e-01	1.113554894709305465e+00	1.000001556498305577e+00	-9.996270921508997390e-03	3.340276895906993138e-05	1.378159967552077543e-05
2.413214661726541532e+00	1.714581612991527731e-06	-1.562503214205851921e-04	8.171511138862230100e-03	8.461483517208772120e-01	1.112970455455640550e+00	1.000001556150093451e+00	-9.996274581072470827e-03	3.337433308061417902e-05	1.400212461786011790e-05
2.433241339417218096e+00	1.714578744307394862e-06	-1.562497521542630411e-04	8.035105597710777425e-03	8.461506531996706437e-01	1.112405203837782963e+00	1.000001555806537157e+00	-9.996278386633134297e-03	3.334716079404786044e-05	1.422462033635529328e-05
2.453268017107894661e+00	1.714576627380042810e-06	-1.562492386922012728e-04	7.902202055370361605e-03	8.461528572635182988e-01	1.111858678732723593e+00	1.000001555467573189e+00	-9.996282273018528355e-03	3.332122388828889819e-05	1.444908649808791801e-05
2.473294694798571669e+00	1.714575067813497156e-06	-1.562487710760405003e-04	7.772682361329432896e-03	8.461549648328173800e-01	1.111330436379578401e+00	1.000001555133136488e+00	-9.996286185841233088e-03	3.329649531586956538e-05	1.467552329979949011e-05
2.493321372489248233e+00	1.714573920607457419e-06	-1.562483417366370070e-04	7.646433208929465097e-03	8.461569774687808243e-01	1.110820049591944025e+00	1.000001554803164439e+00	-9.996290078492448342e-03	3.327294914185675330e-05	1.490393136607297210e-05
2.513348050179924797e+00	1.714573077850967546e-06	-1.562479448549014690e-04	7.523345924635770586e-03	8.461588972276059550e-01	1.110327107011660042e+00	1.000001554477593979e+00	-9.996293914084406970e-03	3.325056048536023326e-05	1.513431166990429234e-05
2.533374727870601362e+00	1.714572459413736637e-06	-1.562475759506601130e-04	7.403316263586450473e-03	8.461607266125280580e-01	1.109851212401718357e+00	1.000001554156362493e+00	-9.996297662034726861e-03	3.322930547501377712e-05	1.536666547082968833e-05
2.553401405561278370e+00	1.714572005928380774e-06	-1.562472314977808347e-04	7.286244208226482812e-03	8.461624684824430309e-01	1.109391983976209639e+00	1.000001553839406032e+00	-9.996301300409439483e-03	3.320916119665051695e-05	1.560099426672978957e-05
2.573428083251954934e+00	1.714571673505872548e-06	-1.562469087349560126e-04	7.172033776111407313e-03	8.461641258995545867e-01	1.108949053765196480e+00	1.000001553526663089e+00	-9.996304811025383263e-03	3.319010565431119276e-05	1.583729975631158735e-05
2.593454760942631498e+00	1.714571429773443653e-06	-1.562466054191029470e-04	7.060592832884196590e-03	8.461657021356728814e-01	1.108522067012577050e+00	1.000001553218071493e+00	-9.996308182581684770e-03	3.317211772347219252e-05	1.607558380988496468e-05
2.613481438633308507e+00	1.714571250903200511e-06	-1.562463197417913877e-04	6.951832915348074050e-03	8.461672005428247934e-01	1.108110681605031234e+00	1.000001552913570402e+00	-9.996311406322285625e-03	3.315517711667452728e-05	1.631584844658622081e-05
2.633508116323985071e+00	1.714571119395912533e-06	-1.562460501718889632e-04	6.845669060437312679e-03	8.461686246040847070e-01	1.107714567530298400e+00	1.000001552613096534e+00	-9.996314478975613579e-03	3.313926434154350272e-05	1.655809581656612038e-05
2.653534794014661635e+00	1.714571022426129552e-06	-1.562457954549919203e-04	6.742019644240526514e-03	8.461699776567933595e-01	1.107333406363072870e+00	1.000001552316590825e+00	-9.996317397284367953e-03	3.312436067042460054e-05	1.680232818707175970e-05
2.673561471705338199e+00	1.714570950614465161e-06	-1.562455544621618177e-04	6.640806226967195872e-03	8.461712632238895804e-01	1.106966890776986290e+00	1.000001552023993101e+00	-9.996320163675499748e-03	3.311044810282213444e-05	1.704854793147197759e-05
2.693588149396015208e+00	1.714570897114252732e-06	-1.562453262474373830e-04	6.541953407306783444e-03	8.461724845966770436e-01	1.106614724081116607e+00	1.000001551735244298e+00	-9.996322779461068800e-03	3.309750933805205282e-05	1.729675752060956916e-05
2.713614827086691772e+00	1.714570856938684468e-06	-1.562451099469228013e-04	6.445388682580598626e-03	8.461736450633516871e-01	1.106276619779683168e+00	1.000001551450282022e+00	-9.996325249037405630e-03	3.308552774189174443e-05	1.754695951592158591e-05
2.733641504777368336e+00	1.714570826460822675e-06	-1.562449048067816263e-04	6.351042317407013318e-03	8.461747477474680368e-01	1.105952301153562578e+00	1.000001551169052094e+00	-9.996327576305212917e-03	3.307448732199744137e-05	1.779915656392424324e-05
2.753668182468045345e+00	1.714570803048140834e-06	-1.562447101019568264e-04	6.258847217726188315e-03	8.461757958320916817e-01	1.105641500862434734e+00	1.000001550891494784e+00	-9.996329768603290367e-03	3.306437269786412111e-05	1.805335139176650233e-05
2.773694860158721909e+00	1.714570784792891625e-06	-1.562445252236519140e-04	6.168738812499405429e-03	8.461767921133048764e-01	1.105343960566333106e+00	1.000001550617552581e+00	-9.996331830079717429e-03	3.305516907863352110e-05	1.830954680360122509e-05
2.793721537849398473e+00	1.714570770313619792e-06	-1.562443495671651350e-04	6.080654940411709015e-03	8.461777394808666086e-01	1.105059430565587641e+00	1.000001550347170642e+00	-9.996333768130411315e-03	3.304686223660080485e-05	1.856774567758387220e-05
2.813748215540075037e+00	1.714570758611163577e-06	-1.562441825964294489e-04	5.994535743217998917e-03	8.461786405659526000e-01	1.104787669458070720e+00	1.000001550080290347e+00	-9.996335588668022604e-03	3.303943848659643152e-05	1.882795096337950218e-05
2.833774893230752046e+00	1.714570748964231649e-06	-1.562440237947359471e-04	5.910323563779512103e-03	8.461794979760788316e-01	1.104528443812817118e+00	1.000001549816859958e+00	-9.996337298845395583e-03	3.303288466245329707e-05	1.909016568005108096e-05
2.853801570921428610e+00	1.714570740850762027e-06	-1.562438727103046586e-04	5.827962849948100515e-03	8.461803140043032689e-01	1.104281527859125589e+00	1.000001549556823299e+00	-9.996338903764195871e-03	3.302718809828923734e-05	1.935439291425627411e-05
2.873828248612105174e+00	1.714570733893586823e-06	-1.562437288798440148e-04	5.747400062707603598e-03	8.461810910708438271e-01	1.104046703190276535e+00	1.000001549300127301e+00	-9.996340411106641177e-03	3.302233660748226085e-05	1.962063581868535886e-05
2.893854926302782182e+00	1.714570727819595085e-06	-1.562435919128389215e-04	5.668583589387069140e-03	8.461818312005744414e-01	1.103823758481072836e+00	1.000001549046719118e+00	-9.996341825508559681e-03	3.301831846520634893e-05	1.988889761070088236e-05
2.913881603993458747e+00	1.714570722430842202e-06	-1.562434614106895784e-04	5.591463660910117074e-03	8.461825365144847177e-01	1.103612489218492643e+00	1.000001548796546125e+00	-9.996343153559813718e-03	3.301512239015926779e-05	2.015918157112825794e-05
2.933908281684135311e+00	1.714570717582911809e-06	-1.562433370184724299e-04	5.515992273303045069e-03	8.461832088736567226e-01	1.103412697444697166e+00	1.000001548549557029e+00	-9.996344400341179368e-03	3.301273752802031997e-05	2.043149104318454961e-05
2.953934959374811875e+00	1.714570713169736534e-06	-1.562432183933677905e-04	5.442123113018892955e-03	8.461838501314953298e-01	1.103224191511795516e+00	1.000001548305702981e+00	-9.996345571317625384e-03	3.301115343539200912e-05	2.070582943151270201e-05
2.973961637065488883e+00	1.714570709113597929e-06	-1.562431052301269140e-04	5.369811485923223909e-03	8.461844618946514629e-01	1.103046785847707767e+00	1.000001548064933576e+00	-9.996346670610880766e-03	3.301036006452264210e-05	2.098220020130940486e-05
2.993988314756165448e+00	1.714570705356460471e-06	-1.562429972125101174e-04	5.299014249780367725e-03	8.461850458947066667e-01	1.102880300732560714e+00	1.000001547827198189e+00	-9.996347704015496119e-03	3.301034774899681178e-05	2.126060687753811797e-05
3.014014992446842012e+00	1.714570701854374375e-06	-1.562428940761607216e-04	5.229689749874414338e-03	8.461856034978003649e-01	1.102724562085059423e+00	1.000001547592450635e+00	-9.996348674893582378e-03	3.301110718929847271e-05	2.154105304419608625e-05
3.034041670137519020e+00	1.714570698574116256e-06	-1.562427955549624420e-04	5.161797757974997958e-03	8.461861362010502097e-01	1.102579401258351410e+00	1.000001547360642951e+00	-9.996349587539865578e-03	3.301262944061780015e-05	2.182354234366526169e-05
3.054068347828195584e+00	1.714570695489843560e-06	-1.562427014024496701e-04	5.095299413862204238e-03	8.461866452644897230e-01	1.102444654844846994e+00	1.000001547131728064e+00	-9.996350445757851838e-03	3.301490589899570296e-05	2.210807847609787591e-05
3.074095025518872148e+00	1.714570692580747867e-06	-1.562426113822509366e-04	5.030157170017381628e-03	8.461871320329817925e-01	1.102320164489584364e+00	1.000001546905660899e+00	-9.996351253404438600e-03	3.301792829059741168e-05	2.239466519886339872e-05
3.094121703209549157e+00	1.714570689830613787e-06	-1.562425252889270333e-04	4.966334738507969387e-03	8.461875975341304201e-01	1.102205776711692842e+00	1.000001546682395936e+00	-9.996352013019181235e-03	3.302168865885945158e-05	2.268330632604172105e-05
3.114148380900225721e+00	1.714570687225859996e-06	-1.562424429117455411e-04	4.903797040810527370e-03	8.461880429947509219e-01	1.102101342733540656e+00	1.000001546461887880e+00	-9.996352728089028319e-03	3.302617935515120599e-05	2.297400572795103239e-05
3.134175058590902285e+00	1.714570684754307218e-06	-1.562423640647891249e-04	4.842510159440289487e-03	8.461884693225053544e-01	1.102006718317201761e+00	1.000001546244096540e+00	-9.996353401083317089e-03	3.303139302640456255e-05	2.326676733071340801e-05
3.154201736281578849e+00	1.714570682406611621e-06	-1.562422885603086088e-04	4.782441292393293727e-03	8.461888776343272633e-01	1.101921763607865534e+00	1.000001546028975508e+00	-9.996354035121406481e-03	3.303732260718777872e-05	2.356159511587921091e-05
3.174228413972255858e+00	1.714570680174560796e-06	-1.562422162456933482e-04	4.723558709049686249e-03	8.461892686568225352e-01	1.101846342983863858e+00	1.000001545816484150e+00	-9.996354631579391914e-03	3.304396130786155559e-05	2.385849312005937443e-05
3.194255091662932422e+00	1.714570678050089509e-06	-1.562421469603074886e-04	4.665831708792469654e-03	8.461896433442057663e-01	1.101780324912973619e+00	1.000001545606580500e+00	-9.996355192804281392e-03	3.305130260810253584e-05	2.415746543459562523e-05
3.214281769353608986e+00	1.714570676026587302e-06	-1.562420805618240974e-04	4.609230580699727638e-03	8.461900023880675192e-01	1.101723581814721076e+00	1.000001545399226144e+00	-9.996355720413950888e-03	3.305934024520144877e-05	2.445851620526889053e-05
3.234308447044285995e+00	1.714570674098009960e-06	-1.562420169141805453e-04	4.553726565902878505e-03	8.461903465905348254e-01	1.101675989928360799e+00	1.000001545194380004e+00	-9.996356216034623862e-03	3.306806820883016100e-05	2.476164963204543893e-05
3.254335124734962559e+00	1.714570672258186636e-06	-1.562419559134393032e-04	4.499291820755096580e-03	8.461906764491002875e-01	1.101637429186301809e+00	1.000001544992001445e+00	-9.996356679619986668e-03	3.307748072986178357e-05	2.506686996881576048e-05
3.274361802425639123e+00	1.714570670502503118e-06	-1.562418974487813565e-04	4.445899382558468962e-03	8.461909926325444919e-01	1.101607783092686033e+00	1.000001544792052499e+00	-9.996357111925908631e-03	3.308757227634565257e-05	2.537418152321228856e-05
3.294388480116315687e+00	1.714570668825428493e-06	-1.562418414361431982e-04	4.393523135800431537e-03	8.461912955204102804e-01	1.101586938606905486e+00	1.000001544594498082e+00	-9.996357512334189815e-03	3.309833754232168319e-05	2.568358865639711655e-05
3.314415157806992696e+00	1.714570667222787735e-06	-1.562417878011949088e-04	4.342137780945040659e-03	8.461915855788391116e-01	1.101574786031805697e+00	1.000001544399297115e+00	-9.996357879923168169e-03	3.310977144508615410e-05	2.599509578291872379e-05
3.334441835497669260e+00	1.714570665689455871e-06	-1.562417365084276476e-04	4.291718803477962037e-03	8.461918629527147573e-01	1.101571218906371552e+00	1.000001544206416071e+00	-9.996358211583577374e-03	3.312186911430076787e-05	2.630870737055834087e-05
3.354468513188345824e+00	1.714570664221549044e-06	-1.562416875408765237e-04	4.242242445466732313e-03	8.461921277667167063e-01	1.101576133902688603e+00	1.000001544015816757e+00	-9.996358503303361120e-03	3.313462589049643843e-05	2.662442794022922037e-05
3.374495190879022832e+00	1.714570662814476123e-06	-1.562416409112482780e-04	4.193685677126017530e-03	8.461923799231133581e-01	1.101589430726974239e+00	1.000001543827466755e+00	-9.996358749435288460e-03	3.314803731431753797e-05	2.694226206586730190e-05
3.394521868569699397e+00	1.714570661463757787e-06	-1.562415966698175551e-04	4.146026170854707690e-03	8.461926191762377814e-01	1.101611012024510172e+00	1.000001543641329649e+00	-9.996358942176812590e-03	3.316209912597274851e-05	2.726221437436814201e-05
3.414548546260375961e+00	1.714570660164936312e-06	-1.562415549315615017e-04	4.099242275140380434e-03	8.461928448669515657e-01	1.101640783288280412e+00	1.000001543457371467e+00	-9.996359069819795579e-03	3.317680725507590462e-05	2.758428954551996133e-05
3.434575223951052525e+00	1.714570658912830610e-06	-1.562415158678323081e-04	4.053312990881453165e-03	8.461930561040347243e-01	1.101678652771168387e+00	1.000001543275558680e+00	-9.996359117268163730e-03	3.319215782136278656e-05	2.790849231197621423e-05
3.454601901641729533e+00	1.714570657702204747e-06	-1.562414796944874167e-04	4.008217947369703202e-03	8.461932516719581354e-01	1.101724531401542029e+00	1.000001543095859091e+00	-9.996359066785292374e-03	3.320814712477430247e-05	2.823482745923048957e-05
3.474628579332406098e+00	1.714570656527155326e-06	-1.562414467282797993e-04	3.963937380609086625e-03	8.461934299117771507e-01	1.101778332702073593e+00	1.000001542918238062e+00	-9.996358894377509879e-03	3.322477164679119547e-05	2.856329982562705116e-05
3.494655257023082662e+00	1.714570655381367929e-06	-1.562414173571610894e-04	3.920452111317823500e-03	8.461935886528562101e-01	1.101839972711674109e+00	1.000001542742665839e+00	-9.996358571674720042e-03	3.324202804185186520e-05	2.889391430236564891e-05
3.514681934713759670e+00	1.714570654256993949e-06	-1.562413920431543121e-04	3.877743525016007133e-03	8.461937254648894680e-01	1.101909369910377245e+00	1.000001542569109336e+00	-9.996358065743423185e-03	3.325991313895241977e-05	2.922667583353839187e-05
3.534708612404436234e+00	1.714570653145815471e-06	-1.562413712859169119e-04	3.835793551735314656e-03	8.461938375631506970e-01	1.101986445147067561e+00	1.000001542397536136e+00	-9.996357341402620569e-03	3.327842393327265741e-05	2.956158941617488154e-05
3.554735290095112799e+00	1.714570652038574002e-06	-1.562413556044339171e-04	3.794584647663485927e-03	8.461939222119747583e-01	1.102071121569913936e+00	1.000001542227918039e+00	-9.996356362392615560e-03	3.329755758757274917e-05	2.989866010031692694e-05
3.574761967785789363e+00	1.714570650925101124e-06	-1.562413453753908814e-04	3.754099776310337953e-03	8.461939772977988827e-01	1.102163324559409574e+00	1.000001542060220183e+00	-9.996355101698906412e-03	3.331731142307769403e-05	3.023789298908341716e-05
3.594788645476466371e+00	1.714570649795127197e-06	-1.562413407192869013e-04	3.714322391214354684e-03	8.461940022297185227e-01	1.102262981663891139e+00	1.000001541894413259e+00	-9.996353548842352998e-03	3.333768291741348583e-05	3.057929323877263281e-05
3.614815323167142935e+00	1.714570648639511253e-06	-1.562413411528707885e-04	3.675236418086938028e-03	8.461939995509311085e-01	1.102370022537442207e+00	1.000001541730467070e+00	-9.996351732104698587e-03	3.335866969136326522e-05	3.092286605896696637e-05
3.634842000857819500e+00	1.714570647451086547e-06	-1.562413451464650892e-04	3.636826237854554316e-03	8.461939776242539679e-01	1.102484378880073335e+00	1.000001541568348529e+00	-9.996349746851696666e-03	3.338026949722811123e-05	3.126861671264718356e-05
3.654868678548496508e+00	1.714570646229310977e-06	-1.562413493484289800e-04	3.599076668655772342e-03	8.461939545077694635e-01	1.102605984380105042e+00	1.000001541408028549e+00	-9.996347805151141117e-03	3.340248019123045033e-05	3.161655051633723885e-05
3.674895356239173072e+00	1.714570644983519270e-06	-1.562413475349599815e-04	3.561972947751258604e-03	8.461939640194705570e-01	1.102734774658622685e+00	1.000001541249475379e+00	-9.996346302976541129e-03	3.342529969792953822e-05	3.196667284023759848e-05
3.694922033929849636e+00	1.714570643742053573e-06	-1.562413289124339342e-04	3.525500711346452216e-03	8.461940645148178231e-01	1.102870687215960155e+00	1.000001541092662150e+00	-9.996345928830122421e-03	3.344872594746642189e-05	3.231898910839665277e-05
3.714948711620526201e+00	1.714570642562866396e-06	-1.562412757916153993e-04	3.489645972410773851e-03	8.461943519202785868e-01	1.103013661380107147e+00	1.000001540937561550e+00	-9.996347812577585992e-03	3.347275678464180351e-05	3.267350479886236219e-05
3.734975389311203209e+00	1.714570641550725763e-06	-1.562411601615823443e-04	3.454395094277369193e-03	8.461949778729223048e-01	1.103163638256962731e+00	1.000001540784150711e+00	-9.996353744685866280e-03	3.349738982666740079e-05	3.303022544387767797e-05
3.755002067001879773e+00	1.714570640882468014e-06	-1.562409390039706705e-04	3.419734758909140186e-03	8.461961754911824229e-01	1.103320560682379492e+00	1.000001540632414754e+00	-9.996366476096663414e-03	3.352262225527863045e-05	3.338915663007378082e-05
3.775028744692556337e+00	1.714570640841914829e-06	-1.562405476962185188e-04	3.385651926888938370e-03	8.461982947834213453e-01	1.103484373175900313e+00	1.000001540482352569e+00	-9.996390140406954256e-03	3.354845050976002895e-05	3.375030399866277080e-05
3.795055422383233346e+00	1.714570641867649282e-06	-1.562398911883437086e-04	3.352133786281706607e-03	8.462018507383164412e-01	1.103655021896150279e+00	1.000001540333979033e+00	-9.996430818597258280e-03	3.357486984573613089e-05	3.411367324563898329e-05
3.815082100073909910e+00	1.714570644622388679e-06	-1.562388320262487378e-04	3.319167686170772583e-03	8.462075879849626503e-01	1.103832454597810653e+00	1.000001540187339222e+00	-9.996497305722511564e-03	3.360187370841036800e-05	3.447927012202344946e-05
3.835108777764586474e+00	1.714570650084270999e-06	-1.562371746128322382e-04	3.286741049471385030e-03	8.462165663306724372e-01	1.104016620590111186e+00	1.000001540042526171e+00	-9.996602118660272845e-03	3.362945285272870427e-05	3.484710043406758406e-05
3.855135455455263482e+00	1.714570659669742852e-06	-1.562346446394325956e-04	3.254841258732796543e-03	8.462302720876117013e-01	1.104207470696811022e+00	1.000001539899693093e+00	-9.996762813591747107e-03	3.365759412883738199e-05	3.521717004349525379e-05
3.875162133145940047e+00	1.714570675397568777e-06	-1.562308626143796796e-04	3.223455506380929446e-03	8.462507618841850210e-01	1.104404957217584471e+00	1.000001539759088454e+00	-9.997003682521835022e-03	3.368627882169187242e-05	3.558948486773937060e-05
3.895188810836616611e+00	1.714570700100615528e-06	-1.562253100915684872e-04	3.192570599742783257e-03	8.462808458988421156e-01	1.104609033890814329e+00	1.000001539621103275e+00	-9.997357919468654111e-03	3.371548041386571696e-05	3.596405088016403791e-05
3.915215488527293175e+00	1.714570737704367936e-06	-1.562172874132008494e-04	3.162172708139094224e-03	8.463243177594393929e-01	1.104819655857717686e+00	1.000001539486314428e+00	-9.997870334422134797e-03	3.374516159890208236e-05	3.634087411033411040e-05
3.935242166217970183e+00	1.714570793575635648e-06	-1.562058612202853799e-04	3.132247038452979412e-03	8.463862403288419101e-01	1.105036779627793120e+00	1.000001539355570568e+00	-9.998600731099448191e-03	3.377527035070974947e-05	3.671996064421858354e-05
3.955268843908646748e+00	1.714570874970649863e-06	-1.561898001736830826e-04	3.102777421175990924e-03	8.464732969655850425e-01	1.105260363045559968e+00	1.000001539230091163e+00	-9.999628050502286369e-03	3.380573479346964003e-05	3.710131662444904029e-05
3.975295521599323312e+00	1.714570991586993172e-06	-1.561674972707844972e-04	3.073745788241919342e-03	8.465942174600618042e-01	1.105490365258580798e+00	1.000001539111598170e+00	-1.000105540811844530e-02	3.383645659102333081e-05	3.748494825052781115e-05
3.995322199289999876e+00	1.714571156250953248e-06	-1.561368772769723364e-04	3.045131519320984619e-03	8.467602886663367912e-01	1.105726746686743756e+00	1.000001539002493667e+00	-1.000301615180567739e-02	3.386730250474145019e-05	3.787086177903388446e-05
