# Time=0.000363636363636 and Columns are r	p	Paether	ur	alpha	a	b	K	Sr_tilde	tau_tilde
1.001333884533834630e-02	1.199635026952430156e-02	-1.847603708220879257e-02	1.817230028156395551e-05	6.456470986632234510e-01	1.000048107119226426e+00	1.000000784159712497e+00	-1.001271395763583122e-02	2.052806095665059616e-10	1.503621580049934737e-06
3.004001653601504063e-02	1.196781546860014450e-02	-1.845528760179824743e-02	5.451397518590629502e-05	6.458190681197046867e-01	1.000426530029412397e+00	1.000000784492439010e+00	-1.001264024461522885e-02	5.535642315395644414e-09	1.350551406548947853e-05
5.006669422669172975e-02	1.191093053819718313e-02	-1.841379645769913517e-02	9.084686017255753487e-05	6.461638983484661036e-01	1.001182515147375218e+00	1.000000785156933469e+00	-1.001250844789842304e-02	2.556384123843751356e-08	3.736521573144049581e-05
7.009337191736843276e-02	1.182606387075231004e-02	-1.835162626349213372e-02	1.271653285396595547e-04	6.466817617605051804e-01	1.002314333853153272e+00	1.000000786151346466e+00	-1.001232810435508450e-02	6.988386449970592450e-08	7.279621437769403527e-05
9.012004960804512188e-02	1.171376354348340788e-02	-1.826891068348551403e-02	1.634645361782069146e-04	6.473715390951821913e-01	1.003819375299683569e+00	1.000000787472941743e+00	-1.001209226365335457e-02	1.477854947756677627e-07	1.193728663681400791e-04
1.101467272987218110e-01	1.157475232964354402e-02	-1.816582462450769958e-02	1.997407930529385405e-04	6.482318774933718553e-01	1.005694125254237292e+00	1.000000789118083322e+00	-1.001179318884056271e-02	2.681382406782694004e-07	1.765353141926854217e-04
1.301734049893985001e-01	1.140992095912311648e-02	-1.804256659292947929e-02	2.359916685787559270e-04	6.492618465327864019e-01	1.007934138464978702e+00	1.000000791082242158e+00	-1.001143344704014115e-02	4.392804909136886474e-07	2.435959891497641733e-04
1.502000826800751754e-01	1.122031981579091169e-02	-1.789937482215266454e-02	2.722161368856531867e-04	6.504604095500239325e-01	1.010534005062862395e+00	1.000000793360020790e+00	-1.001101764932972246e-02	6.689150795319254942e-07	3.197476514807819190e-04
1.702267603707518784e-01	1.100714915906599208e-02	-1.773654036858822794e-02	3.084148803088126805e-04	6.518259865810114295e-01	1.013487311654732048e+00	1.000000795945182652e+00	-1.001054592458250521e-02	9.640128472603899109e-07	4.040729067682928880e-04
1.902534380614285814e-01	1.077174796956280323e-02	-1.755440123376096270e-02	3.445905490151917401e-04	6.533566963035299935e-01	1.016786597919207003e+00	1.000000798830672721e+00	-1.001001784038902873e-02	1.330725256643243122e-06	4.955551229103346417e-04
2.102801157521052566e-01	1.051558153334167245e-02	-1.735333806340045096e-02	3.807479016267719600e-04	6.550505547592077038e-01	1.020423309683770485e+00	1.000000802008642387e+00	-1.000943564225368482e-02	1.774306616600843633e-06	5.930906564016372564e-04
2.303067934427819596e-01	1.024022789351776430e-02	-1.713377939916451223e-02	4.168939430865430985e-04	6.569053235271103963e-01	1.024387749638665968e+00	1.000000805470475873e+00	-1.000880212819291355e-02	2.299046806273250384e-06	6.955022799429536615e-04
2.503334711334586626e-01	9.947363311362969127e-03	-1.689620518960266438e-02	4.530380983095599369e-04	6.589184096996302253e-01	1.028669027029355254e+00	1.000000809206827768e+00	-1.000811933378249578e-02	2.908215425039029484e-06	8.015536855879700634e-04
2.703601488241353379e-01	9.638746891366149414e-03	-1.664114563857137241e-02	4.891923607201305790e-04	6.610869358308991695e-01	1.033255007861604069e+00	1.000000813207646555e+00	-1.000738979587208199e-02	3.604017745634529772e-06	9.099649188332230255e-04
2.903868265148120131e-01	9.316204535817360771e-03	-1.636918130426312859e-02	5.253714114644913395e-04	6.634077589079115933e-01	1.038132267347446236e+00	1.000000817462217917e+00	-1.000661701941610478e-02	4.387562766498666895e-06	1.019428579471029928e-03
3.104135042054887439e-01	8.981612404159755939e-03	-1.608094479300480398e-02	5.615927489310331561e-04	6.658774152825788217e-01	1.043286046510273790e+00	1.000000821959190267e+00	-1.000580480866703446e-02	5.258843883925511816e-06	1.128626604982945012e-03
3.304401818961654191e-01	8.636880060406660134e-03	-1.577712106219753344e-02	5.978768356249493420e-04	6.684921049601969534e-01	1.048700215045659245e+00	1.000000826686618272e+00	-1.000495716875832164e-02	6.216732547993857351e-06	1.236247432202760774e-03
3.504668595868420944e-01	8.283933498134412460e-03	-1.545844664660921304e-02	6.342472532911461961e-04	6.712477053125741611e-01	1.054357242691678964e+00	1.000000831631999487e+00	-1.000407861212706390e-02	7.258985022365896595e-06	1.341003313509129581e-03
3.704935372775188251e-01	7.924698236696996190e-03	-1.512570904095069876e-02	6.707308797830665182e-04	6.741397618843935069e-01	1.060238181487580755e+00	1.000000836782312108e+00	-1.000317408129756599e-02	8.382262443885492068e-06	1.441647545641211144e-03
3.905202149681955004e-01	7.561082684151061543e-03	-1.477974572368826074e-02	7.073581039103597539e-04	6.771634737178250374e-01	1.066322661380128212e+00	1.000000842124058265e+00	-1.000224874666888128e-02	9.582164380668845474e-06	1.536991353222485904e-03
4.105468926588721756e-01	7.194961961686887827e-03	-1.442144232679837094e-02	7.441630858807177359e-04	6.803136938566206604e-01	1.072588901659364380e+00	1.000000847643312207e+00	-1.000130797769734764e-02	1.085327593254228686e-05	1.625920156199049237e-03
4.305735703495489064e-01	6.828162380929083883e-03	-1.405173023120332397e-02	7.811840713792770350e-04	6.835849329211790559e-01	1.079013740656158848e+00	1.000000853325754502e+00	-1.000035730362531898e-02	1.218922829320157451e-05	1.707408941711792199e-03
4.506002480402255816e-01	6.462446759101379140e-03	-1.367158370193102476e-02	8.184637737485096678e-04	6.869713596010466050e-01	1.085572685999065090e+00	1.000000859156733979e+00	-9.999402270240501100e-03	1.358277263534843266e-05	1.780536457534901990e-03
4.706269257309022569e-01	6.099500747597983406e-03	-1.328201638690726903e-02	8.560498366247594904e-04	6.904668058833722810e-01	1.092239987495799758e+00	1.000000865121308591e+00	-9.998448306068321786e-03	1.502586698709805782e-05	1.844497947225962444e-03
4.906536034215789877e-01	5.740920336864859842e-03	-1.288407718645919083e-02	8.939953893641599137e-04	6.940647778684487790e-01	1.098988734365387909e+00	1.000000871204301367e+00	-9.997500607384777332e-03	1.650977554519047019e-05	1.898616157564563933e-03
5.106802811122557184e-01	5.388200684647272143e-03	-1.247884558293723724e-02	9.323597085077157216e-04	6.977584690703725334e-01	1.105790978095122279e+00	1.000000877390359033e+00	-9.996563999380723986e-03	1.802517961574682056e-05	1.942350367563613033e-03
5.307069588029323937e-01	5.042726395659635243e-03	-1.206742645837877853e-02	9.712090007061772003e-04	7.015407767002632689e-01	1.112617881631218886e+00	1.000000883664005968e+00	-9.995642781276310035e-03	1.956229910387331862e-05	1.975303215920987555e-03
5.507336364936090689e-01	4.705763358744253014e-03	-1.165094442428891638e-02	1.010617322051422318e-03	7.054043223533092988e-01	1.119439894939439517e+00	1.000000890009707932e+00	-9.994740581030473955e-03	2.111102312286383448e-05	1.997225140493384329e-03
5.707603141842857442e-01	4.378452222882295644e-03	-1.123053774661780801e-02	1.050667650837752752e-03	7.093414762866843137e-01	1.126226956204828600e+00	1.000000896411931794e+00	-9.993860211341510508e-03	2.266104796194672637e-05	2.008016289037424257e-03
5.907869918749625304e-01	4.061803566403098149e-03	-1.080735194708214338e-02	1.091453131933044609e-03	7.133443847832183771e-01	1.132948717099338198e+00	1.000000902855213036e+00	-9.993003528642747935e-03	2.420202029443850285e-05	2.007725814388670350e-03
6.108136695656392057e-01	3.756694784928202822e-03	-1.038253316757680074e-02	1.133078513671737127e-03	7.174050005913502615e-01	1.139574789661293996e+00	1.000000909324215925e+00	-9.992171300828999944e-03	2.572368319124277277e-05	1.996548528200685780e-03
6.308403472563158809e-01	3.463868693626334910e-03	-9.957221393415373670e-03	1.175661800166809051e-03	7.215151161099698784e-01	1.146075011437679425e+00	1.000000915803805679e+00	-9.991363090547151007e-03	2.721602220060801214e-05	1.974818953547429097e-03
6.508670249469925562e-01	3.183933808992718637e-03	-9.532543646137965274e-03	1.219336146070486553e-03	7.256663986428645297e-01	1.152419724681254420e+00	1.000000922279103310e+00	-9.990577152409162165e-03	2.866940854509529574e-05	1.943002885789053965e-03
6.708937026376692314e-01	2.917366245424500831e-03	-9.109607252709468403e-03	1.264252024717139791e-03	7.298504271375897412e-01	1.158580064615352345e+00	1.000000928735556904e+00	-9.989810349250421995e-03	3.007473633952403643e-05	1.901686640361697133e-03
6.909203803283459067e-01	2.664513133224051880e-03	-8.689493302693387239e-03	1.310579706624864392e-03	7.340587298339787958e-01	1.164528251126583758e+00	1.000000935158995574e+00	-9.989058088041430361e-03	3.142355071641322130e-05	1.851564232529518631e-03
7.109470580190225819e-01	2.425597438206986145e-03	-8.273250400350585371e-03	1.358512091805527894e-03	7.382828220176383960e-01	1.170237877763792733e+00	1.000000941535690968e+00	-9.988314278196477880e-03	3.270816382938342181e-05	1.793422794465219768e-03
7.309737357096993682e-01	2.200724039677943479e-03	-7.861888815760052426e-03	1.408267948285147177e-03	7.425142431855655811e-01	1.175684191648484589e+00	1.000000947852402566e+00	-9.987571311111206884e-03	3.392175593951978488e-05	1.728126586234151468e-03
7.510004134003760434e-01	1.989886903933486394e-03	-7.456375127394563110e-03	1.460095619188987205e-03	7.467445927864373445e-01	1.180844357866086769e+00	1.000000954096427641e+00	-9.986820062867791253e-03	3.505845913392770409e-05	1.656599996596604639e-03
7.710270910910527187e-01	1.792977175308541624e-03	-7.057627439236616174e-03	1.514277273478919269e-03	7.509655638951433509e-01	1.185697702124603792e+00	1.000000960255637006e+00	-9.986049918772556613e-03	3.611342170636952943e-05	1.579809954809438489e-03
7.910537687817293939e-01	1.609791996579015665e-03	-6.666511239254152912e-03	1.571133789731545514e-03	7.551689739951311653e-01	1.190225925938383611e+00	1.000000966318510764e+00	-9.985248821044623302e-03	3.708285179442250739e-05	1.498748184329269130e-03
8.110804464724060692e-01	1.440043865556789229e-03	-6.283835950823059811e-03	1.631030379621021577e-03	7.593467923652146290e-01	1.194413289305198855e+00	1.000000972274153410e+00	-9.984403339311989298e-03	3.796403951970515336e-05	1.414413722901784872e-03
8.311071241630827444e-01	1.283370335034556128e-03	-5.910352208771217121e-03	1.694383076858291259e-03	7.634911633911917184e-01	1.198246756763949206e+00	1.000000978112314476e+00	-9.983498766873597982e-03	3.875535755616016690e-05	1.327796111318449261e-03
8.511338018537595307e-01	1.139343868709001778e-03	-5.546749873077377879e-03	1.761666239120381538e-03	7.675944255202616917e-01	1.201716103804138625e+00	1.000000983823389644e+00	-9.982519245474632402e-03	3.945624074513304685e-05	1.239859616432116996e-03
8.711604795444362059e-01	1.007481675973903113e-03	-5.193656771503672200e-03	1.833421233494449479e-03	7.716491254237179964e-01	1.204813981791360344e+00	1.000000989398419415e+00	-9.981447925922964232e-03	4.006714602470654886e-05	1.151528805005128933e-03
8.911871572351128812e-01	8.872553629858762623e-04	-4.851638142617558519e-03	1.910266499983464877e-03	7.756480273913645140e-01	1.207535940813451392e+00	1.000000994829076006e+00	-9.980267173345153467e-03	4.058949452987396762e-05	1.063675726479962379e-03
9.112138349257895564e-01	7.781002554712990573e-04	-4.521196729119190266e-03	1.992909210046662962e-03	7.795841178447334707e-01	1.209880411074891970e+00	1.000001000107640703e+00	-9.978958831860220910e-03	4.102559820215315785e-05	9.771088981682073127e-04
9.312405126164662317e-01	6.794242695610955372e-04	-4.202773452158858891e-03	2.082158755487742430e-03	7.834506054035282885e-01	1.211848644610050263e+00	1.000001005226976325e+00	-9.977504566996796623e-03	4.137857361460067925e-05	8.925642192480071069e-04
9.512671903071429069e-01	5.906162296498058701e-04	-3.896748578087108356e-03	2.178942311621907216e-03	7.872409167782628003e-01	1.213444620092922754e+00	1.000001010180496364e+00	-9.975886310519876954e-03	4.165224594458894088e-05	8.106978739307790695e-04
9.712938679978196932e-01	5.110535560019481777e-04	-3.603443271933164799e-03	2.284322710086188288e-03	7.909486894312448557e-01	1.214674914346266954e+00	1.000001014962126344e+00	-9.974086837299209196e-03	4.185104611868314164e-05	7.320812225368798602e-04
9.913205456884963684e-01	4.401092687231798815e-04	-3.323121416517868434e-03	2.399518818283864936e-03	7.945677617762242351e-01	1.215548544763529470e+00	1.000001019566261196e+00	-9.972090508598922820e-03	4.197990410673948565e-05	6.571976248678147075e-04
1.011347223379172933e+00	3.771582779862525572e-04	-3.055991563069675176e-03	2.525928536520974550e-03	7.980921624572608897e-01	1.216076787234021017e+00	1.000001023987731497e+00	-9.969884218816961116e-03	4.204414117823100411e-05	5.864410954045210260e-04
1.031373901069849497e+00	3.215829523361128000e-04	-2.802208869672252224e-03	2.665154363338289884e-03	8.015161001156039244e-01	1.216272974301991328e+00	1.000001028221761290e+00	-9.967458581094877298e-03	4.204936366365182162e-05	5.201166559610047443e-04
1.051400578760526283e+00	2.727779768574447412e-04	-2.561876878432582140e-03	2.819031206887503277e-03	8.048339558660227988e-01	1.216152278204624126e+00	1.000001032263943213e+00	-9.964809379086140770e-03	4.200136042138886711e-05	4.584422291087133778e-04
1.071427256451203069e+00	2.301545304025429779e-04	-2.335048982945627828e-03	2.989655682388520173e-03	8.080402806235460478e-01	1.215731483147139746e+00	1.000001036110219843e+00	-9.961939293935167389e-03	4.190600581438161805e-05	4.015519047127348411e-04
1.091453934141879634e+00	1.931438254249557933e-04	-2.121729446392800911e-03	3.179415463120483041e-03	8.111298001913702649e-01	1.215028750722521256e+00	1.000001039756877708e+00	-9.958859882674976974e-03	4.176916958870507788e-05	3.495004111470811545e-04
1.111480611832556420e+00	1.612000647476077896e-04	-1.921873850317856649e-03	3.391016255757066302e-03	8.140974308723677444e-01	1.214063381816361975e+00	1.000001043200559936e+00	-9.955593733849557939e-03	4.159663463790988464e-05	3.022686301641982348e-04
1.131507289523232984e+00	1.338028763246847509e-04	-1.735388888264827612e-03	3.627502546751921412e-03	8.169383088696582362e-01	1.212855577711610122e+00	1.000001046438310448e+00	-9.952176653526231473e-03	4.139402326635009303e-05	2.597700071185038537e-04
1.151533967213909770e+00	1.104592892685437639e-04	-1.562131469889864238e-03	3.892266308848379291e-03	8.196478362745061030e-01	1.211426202487875470e+00	1.000001049467625913e+00	-9.948659644491292253e-03	4.116673224771513198e-05	2.218577226739826952e-04
1.171560644904586557e+00	9.070531171797890967e-05	-1.401907173499254006e-03	4.189035289853895901e-03	8.222217462763874440e-01	1.209796548265500649e+00	1.000001052286557002e+00	-9.945110335821591083e-03	4.091987673387188865e-05	1.883325041073701444e-04
1.191587322595263121e+00	7.410716333276129756e-05	-1.254468177771602246e-03	4.521829343113873897e-03	8.246561889372673315e-01	1.207988104446548583e+00	1.000001054893811414e+00	-9.941613423738176678e-03	4.065824290908401752e-05	1.589509595400077945e-04
1.211614000285939907e+00	6.026220250794215764e-05	-1.119510914992708113e-03	4.894869707318815974e-03	8.269478376689672894e-01	1.206022331918865209e+00	1.000001057288901984e+00	-9.938269623256191024e-03	4.038624920514592194e-05	1.334343130591953037e-04
1.231640677976616471e+00	4.879957163374183167e-05	-9.966738091190697080e-04	5.312422755940376939e-03	8.290940139293748734e-01	1.203920443266327966e+00	1.000001059472297227e+00	-9.935192652699055202e-03	4.010791587675255207e-05	1.114774002770006355e-04
1.251667355667293258e+00	3.938056456615813167e-05	-8.855355773687871232e-04	5.778557611430163582e-03	8.310928253766290963e-01	1.201703190391397502e+00	1.000001061445579431e+00	-9.932503929303360471e-03	3.982684275195471642e-05	9.275775247050191657e-05
1.271694033357969822e+00	3.169870157999224252e-05	-7.856146610146334548e-04	6.296797986999422107e-03	8.329433091090697738e-01	1.199390661585540307e+00	1.000001063211587438e+00	-9.930324982500423822e-03	3.954619497990834859e-05	7.694455665463814263e-05
1.291720711048646608e+00	2.547948195476887397e-05	-6.963703814043481835e-04	6.869655294277107575e-03	8.346455692048448949e-01	1.197002090903457550e+00	1.000001064774535875e+00	-9.928768096244024177e-03	3.926869656308485166e-05	6.370723648544429651e-05
1.311747388739323394e+00	2.047977683364382394e-05	-6.172063637760685393e-04	7.498045518288877151e-03	8.362008950104828919e-01	1.194555683570168947e+00	1.000001066140084660e+00	-9.927926295557000860e-03	3.899663138014727214e-05	5.272336616155313483e-05
1.331774066429999959e+00	1.648682836148065745e-05	-5.474766149505445618e-04	8.180619153691500584e-03	8.376118462873436421e-01	1.192068461883430963e+00	1.000001067315347436e+00	-9.927864327794778954e-03	3.873185133212753454e-05	4.368561958100218492e-05
1.351800744120676745e+00	1.331683690261694783e-05	-4.864943816927304494e-04	8.913071697341887201e-03	8.388822920311984621e-01	1.189556136447889712e+00	1.000001068308834729e+00	-9.928612496713114938e-03	3.847579128366028587e-05	3.630748131341927915e-05
1.371827421811353309e+00	1.081314520339151434e-05	-4.335435806771732216e-04	9.687546772068043183e-03	8.400173934451137248e-01	1.187033007392153339e+00	1.000001069130333153e+00	-9.930164824392552492e-03	3.822949072647933858e-05	3.032751003630951530e-05
1.391854099502030095e+00	8.844062472755627059e-06	-3.878922319691020543e-04	1.049228251484875772e-02	8.410235261500931259e-01	1.184511899353635878e+00	1.000001069790745545e+00	-9.932481933618101180e-03	3.799362253690389039e-05	2.551204535765033322e-05
1.411880777192706660e+00	7.300405865837568212e-06	-3.488070170479435923e-04	1.131166499637675099e-02	8.419081431169688212e-01	1.182004132476469849e+00	1.000001070301892447e+00	-9.935497495472858653e-03	3.776852955461493618e-05	2.165637177100562691e-05
1.431907454883383446e+00	6.092864372459990211e-06	-3.155678901520407240e-04	1.212681929631309954e-02	8.426795855529836121e-01	1.179519529615754125e+00	1.000001070676300285e+00	-9.939125734919194988e-03	3.755426946881679424e-05	1.858447785645439150e-05
1.451934132574060232e+00	5.149304629743643830e-06	-2.874816461261254434e-04	1.291677844524640774e-02	8.433468541853168521e-01	1.177066457670273181e+00	1.000001070926989755e+00	-9.943267182206901034e-03	3.735066723169500486e-05	1.614765209945182896e-05
1.471960810264736796e+00	4.412136884629974018e-06	-2.638934961761058061e-04	1.366013439528954154e-02	8.439193567001738172e-01	1.174651898836288400e+00	1.000001071067251779e+00	-9.947811112643784037e-03	3.715737206625569752e-05	1.422222129611849835e-05
1.491987487955413583e+00	3.835843317267383827e-06	-2.441959893332947061e-04	1.433693269727529494e-02	8.444066493812641960e-01	1.172281545923669510e+00	1.000001071110398154e+00	-9.952635474130375193e-03	3.697391404348870453e-05	1.270675597081187789e-05
1.512014165646090147e+00	3.384744539543734444e-06	-2.278349737396644765e-04	1.493047885506306773e-02	8.448181905332504682e-01	1.169959914929594502e+00	1.000001071069494873e+00	-9.957607152256756078e-03	3.679975449391759037e-05	1.151904333957699963e-05
1.532040843336766933e+00	3.031049264318378777e-06	-2.143126406454851248e-04	1.542872391802560354e-02	8.451631222047868430e-01	1.167690467893181427e+00	1.000001070957078797e+00	-9.962585690534684485e-03	3.663432589981913687e-05	1.059307438972202487e-05
1.552067521027443719e+00	2.753202620783839986e-06	-2.031879722857593822e-04	1.582499697665278385e-02	8.454500920143986908e-01	1.165475739569288516e+00	1.000001070784889645e+00	-9.967431714781472413e-03	3.647705980886265903e-05	9.876223318344764938e-06
1.572094198718120284e+00	2.534524480030422789e-06	-1.940750881010855507e-04	1.611801574306574378e-02	8.456871220244557286e-01	1.163317462465463192e+00	1.000001070563644179e+00	-9.972018526412745887e-03	3.632740421026299814e-05	9.326729109697504979e-06
1.592120876408797070e+00	2.362112414859551395e-06	-1.866400497181376899e-04	1.631127126739053204e-02	8.458815258193437270e-01	1.161216686044566959e+00	1.000001070302888762e+00	-9.976243449009290776e-03	3.618483340504285089e-05	8.911530209682062199e-06
1.612147554099473634e+00	2.225974587499317647e-06	-1.805966650882002153e-04	1.641199448571642461e-02	8.460398690569287394e-01	1.159173887190082741e+00	1.000001070010932747e+00	-9.980035543750214941e-03	3.604885339405423960e-05	8.604458766427012265e-06
1.632174231790150420e+00	2.118354704007386899e-06	-1.757017565579223795e-04	1.642994724669920997e-02	8.461679664724902628e-01	1.157189070203090475e+00	1.000001069694861577e+00	-9.983357948797878800e-03	3.591900483735210311e-05	8.384771340439077709e-06
1.652200909480826985e+00	2.033212412194140793e-06	-1.717502582723359186e-04	1.637624886207423094e-02	8.462709064749878163e-01	1.155261855561936946e+00	1.000001069360609618e+00	-9.986205105601338172e-03	3.579486456037801756e-05	8.235976412014504581e-06
1.672227587171503771e+00	1.965826380335618454e-06	-1.685704072636096031e-04	1.626238053654424295e-02	8.463530940095196353e-01	1.153391557400657685e+00	1.000001069013072286e+00	-9.988596514908115037e-03	3.567604590821177047e-05	8.144912386100204395e-06
1.692254264862180557e+00	1.912492336786962692e-06	-1.660192033638082938e-04	1.609943503506197637e-02	8.464183053464233719e-01	1.151577250165088051e+00	1.000001068656238168e+00	-9.990569077420859145e-03	3.556219802549401559e-05	8.101029945422017774e-06
1.712280942552857121e+00	1.870293572598660958e-06	-1.639782420809112601e-04	1.589761828417575809e-02	8.464697484501021441e-01	1.149817825222461121e+00	1.000001068293315365e+00	-9.992169701529456452e-03	3.545300418223026694e-05	8.095836777748362457e-06
1.732307620243533908e+00	1.836926213643535028e-06	-1.623499713642936339e-04	1.566597126426299419e-02	8.465101248978162962e-01	1.148112038373665378e+00	1.000001067926866272e+00	-9.993449190458480319e-03	3.534817936986945627e-05	8.122468791933036995e-06
1.752334297934210472e+00	1.810565672546577301e-06	-1.610543858099666226e-04	1.541226316719309340e-02	8.465416905225938704e-01	1.146458549286898165e+00	1.000001067558906831e+00	-9.994457785194723470e-03	3.524746744982388104e-05	8.175358494850362741e-06
1.772360975624887258e+00	1.789764020145375131e-06	-1.600261471905522971e-04	1.514300454127274348e-02	8.465663129995002478e-01	1.144855953870348220e+00	1.000001067191017778e+00	-9.995242296264025134e-03	3.515063812518744364e-05	8.249977357076685832e-06
1.792387653315563822e+00	1.773370618547701425e-06	-1.592121048702903959e-04	1.486353554350883753e-02	8.465855252063075875e-01	1.143302810554906568e+00	1.000001066824415474e+00	-9.995844536464543184e-03	3.505748395102705942e-05	8.342634315520616555e-06
1.812414331006240609e+00	1.760470336903327910e-06	-1.585691812214720523e-04	1.457815432321072843e-02	8.466005738086080923e-01	1.141797661384504670e+00	1.000001066460034505e+00	-9.996300701069615186e-03	3.496781752716778766e-05	8.450316907073706938e-06
1.832441008696917395e+00	1.750335146709598473e-06	-1.580625833394712560e-04	1.429026069464908386e-02	8.466124627582497508e-01	1.140339048724454463e+00	1.000001066098576086e+00	-9.996641373461945951e-03	3.488146895400508424e-05	8.570564935023553563e-06
1.852467686387593959e+00	1.742385979320488996e-06	-1.576643017274413313e-04	1.400249895238295759e-02	8.466219920100959140e-01	1.138925528306149237e+00	1.000001065740563133e+00	-9.996891901986838455e-03	3.479828358217977358e-05	8.701369162482032024e-06
1.872494364078270745e+00	1.736162521137009369e-06	-1.573518580745825711e-04	1.371689037633273649e-02	8.466297913438983747e-01	1.137555679235458195e+00	1.000001065386371790e+00	-9.997072963306739141e-03	3.471812005570813406e-05	8.841089456549349799e-06
1.892521041768947310e+00	1.731299199298207482e-06	-1.571072668174584798e-04	1.343495071597613187e-02	8.466363499172275819e-01	1.136228111505944049e+00	1.000001065036270287e+00	-9.997201193764865962e-03	3.464084862879971961e-05	8.988388221624626380e-06
1.912547719459624096e+00	1.727506031901408589e-06	-1.569161785038161391e-04	1.315779106421268406e-02	8.466420416373139357e-01	1.134941471478613240e+00	1.000001064690441144e+00	-9.997289814119805773e-03	3.456634972832767861e-05	9.142175988588746385e-06
1.932574397150300882e+00	1.724553325860028933e-06	-1.567671764748823540e-04	1.288620242862184399e-02	8.466471469742261613e-01	1.133694445718518740e+00	1.000001064349000934e+00	-9.997349208718933622e-03	3.449451273053942790e-05	9.301566772019021157e-06
1.952601074840977446e+00	1.722259434392207201e-06	-1.566512019650493682e-04	1.262072534662206889e-02	8.466518713383262007e-01	1.132485763515364674e+00	1.000001064012016494e+00	-9.997387438873741108e-03	3.442523492181217019e-05	9.465841349721386655e-06
1.972627752531654233e+00	1.720480957539614557e-06	-1.565610860242529548e-04	1.236170636339281072e-02	8.466563607763194499e-01	1.131314198360199086e+00	1.000001063679518465e+00	-9.997410687939963653e-03	3.435842061536659110e-05	9.634417016353052151e-06
1.992654430222330797e+00	1.719104899117738498e-06	-1.564911698922093804e-04	1.210934331369566477e-02	8.466607149015096256e-01	1.130178568602868250e+00	1.000001063351512176e+00	-9.997423636281654175e-03	3.429398039924891117e-05	9.806822658275974019e-06
2.012681107913007583e+00	1.718042393376288083e-06	-1.564369981931547381e-04	1.186372127033956392e-02	8.466649975574367382e-01	1.129077737474430299e+00	1.000001063027979864e+00	-9.997429772529068878e-03	3.423183049445591175e-05	9.982678219888169125e-06
2.032707785603684147e+00	1.717223692322050840e-06	-1.563950717291607065e-04	1.162484084118985996e-02	8.466692458766158502e-01	1.128010612624622544e+00	1.000001062708893773e+00	-9.997431653975869317e-03	3.417189220501070664e-05	1.016167780335499881e-05
2.052734463294360712e+00	1.716594165720019207e-06	-1.563626490354907484e-04	1.139264027490713427e-02	8.466734773698536554e-01	1.126976145295720766e+00	1.000001062394214157e+00	-9.997431115137232413e-03	3.411409144443491577e-05	1.034357577831862793e-05
2.072761140985037720e+00	1.716111114252883854e-06	-1.563375875388824457e-04	1.116701260943211288e-02	8.466776954735620864e-01	1.125973329230386177e+00	1.000001062083896386e+00	-9.997429434889071320e-03	3.405835832667267345e-05	1.052817538567681683e-05
2.092787818675714284e+00	1.715741235043148828e-06	-1.563182167080666559e-04	1.094781888491341663e-02	8.466818943288992871e-01	1.125001199391266526e+00	1.000001061777889388e+00	-9.997427474503998296e-03	3.400462681027015282e-05	1.071531940666887568e-05
2.112814496366390848e+00	1.715458609882890201e-06	-1.563032371442895816e-04	1.073489825495338966e-02	8.466860622130258918e-01	1.124058830553946065e+00	1.000001061476141428e+00	-9.997425784028020346e-03	3.395283438728280727e-05	1.090488254010880240e-05
2.132841174057067857e+00	1.715243111618462067e-06	-1.562916404876159044e-04	1.052807566872117871e-02	8.466901842131241418e-01	1.123145335821592594e+00	1.000001061178600104e+00	-9.997424686243303049e-03	3.390292180986711448e-05	1.109676518990156242e-05
2.152867851747744421e+00	1.715079144456814233e-06	-1.562826460244109874e-04	1.032716766119109661e-02	8.466942441933897889e-01	1.122259865098805154e+00	1.000001060885209236e+00	-9.997424341961323388e-03	3.385483284845272427e-05	1.129088841452805588e-05
2.172894529438420985e+00	1.714954650401554306e-06	-1.562756506561313130e-04	1.013198667764823521e-02	8.466982261929453246e-01	1.121401603553536797e+00	1.000001060595915536e+00	-9.997424799785300034e-03	3.380851407678960643e-05	1.148718983163549490e-05
2.192921207129097994e+00	1.714860327347784806e-06	-1.562701895098587534e-04	9.942344268139089586e-03	8.467021154010679895e-01	1.120569770088909900e+00	1.000001060310663048e+00	-9.997426034125728514e-03	3.376391467970939685e-05	1.168562030575435383e-05
2.212947884819774558e+00	1.714789015140200197e-06	-1.562659050083178207e-04	9.758053414998815733e-03	8.467058988167277533e-01	1.119763615841156135e+00	1.000001060029398259e+00	-9.997427973881234040e-03	3.372098628038042764e-05	1.188614127638116887e-05
2.232974562510451122e+00	1.714735214623678105e-06	-1.562625226648959578e-04	9.578930198581173464e-03	8.467095655548233513e-01	1.118982422715492753e+00	1.000001059752066990e+00	-9.997430522547487777e-03	3.367968278418214664e-05	1.208872260830478007e-05
2.253001240201127686e+00	1.714694711751566034e-06	-1.562598321870467132e-04	9.404794960580350680e-03	8.467131069282479716e-01	1.118225501968223679e+00	1.000001059478615950e+00	-9.997433572141044625e-03	3.363996023718933079e-05	1.229334086662966683e-05
2.273027917891804695e+00	1.714664284485102233e-06	-1.562576727352413524e-04	9.235473088088405613e-03	8.467165165263861315e-01	1.117492192840598975e+00	1.000001059208991183e+00	-9.997437014200050501e-03	3.360177669714407221e-05	1.249997793618347260e-05
2.293054595582481259e+00	1.714641474787367265e-06	-1.562559214961705485e-04	9.070795513296018089e-03	8.467197900338671035e-01	1.116781861247889474e+00	1.000001058943139398e+00	-9.997440745574414506e-03	3.356509211539342581e-05	1.270861991943068207e-05
2.313081273273157823e+00	1.714624411672012432e-06	-1.562544848236295514e-04	8.910599001702500938e-03	8.467229250447462219e-01	1.116093898525418293e+00	1.000001058681007970e+00	-9.997444672218358530e-03	3.352986822861918462e-05	1.291925625892823424e-05
2.333107950963834831e+00	1.714611674196605092e-06	-1.562532913828768076e-04	8.754726284444371703e-03	8.467259208778972202e-01	1.115427720232130993e+00	1.000001058422543831e+00	-9.997448711801025165e-03	3.349606845903637861e-05	1.313187904033864271e-05
2.353134628654511395e+00	1.714602185638162933e-06	-1.562522868854199416e-04	8.603026077135794009e-03	8.467287782868017088e-01	1.114782765011291588e+00	1.000001058167694801e+00	-9.997452793694619130e-03	3.346365782224286636e-05	1.334648244020157676e-05
2.373161306345187960e+00	1.714595131941178205e-06	-1.562514300109518327e-04	8.455353017356394621e-03	8.467314993266736867e-01	1.114158493507260150e+00	1.000001057916407365e+00	-9.997456860213053617e-03	3.343260284192392355e-05	1.356306228944037550e-05
2.393187984035864524e+00	1.714589899028961705e-06	-1.562506893185079573e-04	8.311567544909161803e-03	8.467340870202556546e-01	1.113554387336766371e+00	1.000001057668631788e+00	-9.997460864528497082e-03	3.340287147045699887e-05	1.378161572915725515e-05
2.413214661726541532e+00	1.714586024719920598e-06	-1.562500408666057841e-04	8.171535743209466796e-03	8.467365451422572686e-01	1.112969948112833229e+00	1.000001057424314554e+00	-9.997464769682905261e-03	3.337443301543202594e-05	1.400214093978728717e-05
2.433241339417218096e+00	1.714583161940945895e-06	-1.562494663825427887e-04	8.035129155116950764e-03	8.467388781227149774e-01	1.112404696519197600e+00	1.000001057183404152e+00	-9.997468548392125787e-03	3.334725807075949609e-05	1.422463692843964679e-05
2.453268017107894661e+00	1.714581050646180831e-06	-1.562489518989204716e-04	7.902224583425036808e-03	8.467410907751101723e-01	1.111858171433020015e+00	1.000001056945849287e+00	-9.997472180640476838e-03	3.332131845260296655e-05	1.444910336223999449e-05
2.473294694798571669e+00	1.714579496436038813e-06	-1.562484866953559991e-04	7.772703883237447320e-03	8.467431882130018739e-01	1.111329929093574309e+00	1.000001056711598002e+00	-9.997475653064831838e-03	3.329658713931114980e-05	1.467554043796743653e-05
2.493321372489248233e+00	1.714578354312280616e-06	-1.562480625127267648e-04	7.646453751629866957e-03	8.467451756718471501e-01	1.110819542314607444e+00	1.000001056480599448e+00	-9.997478957240634595e-03	3.327303821521841590e-05	1.490394878023723960e-05
2.513348050179924797e+00	1.714577516367543511e-06	-1.562476729287948370e-04	7.523365518368559622e-03	8.467470585451581933e-01	1.110326599738100439e+00	1.000001056252803666e+00	-9.997482090165377144e-03	3.325064681789757082e-05	1.513432936207362801e-05
2.533374727870601362e+00	1.714576902478491588e-06	-1.562473129313873019e-04	7.403334940322026103e-03	8.467488421546257582e-01	1.109850705127177095e+00	1.000001056028160695e+00	-9.997485051664608754e-03	3.322938908842787539e-05	1.536668344303769969e-05
2.553401405561278370e+00	1.714576453285512243e-06	-1.562469785836507119e-04	7.286262001528803940e-03	8.467505316573824548e-01	1.109391476696055756e+00	1.000001055806619688e+00	-9.997487843179362482e-03	3.320924212505207035e-05	1.560101252103241701e-05
2.573428083251954934e+00	1.714576124909814460e-06	-1.562466667277224780e-04	7.172050719922624246e-03	8.467521322044229137e-01	1.108948546474918029e+00	1.000001055588131793e+00	-9.997490469650994679e-03	3.319018393917327219e-05	1.583731829478480699e-05
2.593454760942631498e+00	1.714575884988370813e-06	-1.562463748288756688e-04	7.060608961535704692e-03	8.467536487128783929e-01	1.108521559707774218e+00	1.000001055372647718e+00	-9.997492936608584277e-03	3.317219341389416053e-05	1.607560263462313324e-05
2.613481438633308507e+00	1.714575709705741013e-06	-1.562461008160856988e-04	6.951848262633440224e-03	8.467550859118421203e-01	1.108110174281413229e+00	1.000001055160120389e+00	-9.997495250668463757e-03	3.315525026521275214e-05	1.631586755970053742e-05
2.633508116323985071e+00	1.714575581573298265e-06	-1.562458429625890061e-04	6.845683659776385412e-03	8.467564483947868093e-01	1.107714060183674798e+00	1.000001054950498958e+00	-9.997497419884282879e-03	3.313933500494556660e-05	1.655811522018350510e-05
2.653534794014661635e+00	1.714575487777607353e-06	-1.562455998411023590e-04	6.742033527944755328e-03	8.467577404005259822e-01	1.107332898989351389e+00	1.000001054743738793e+00	-9.997499451116824420e-03	3.312442890603956030e-05	1.680234788333370154e-05
2.673561471705338199e+00	1.714575418950539996e-06	-1.562453702248436807e-04	6.640819426517612957e-03	8.467589660269584373e-01	1.106966383372165907e+00	1.000001054539791712e+00	-9.997501352243663708e-03	3.311051396976695381e-05	1.704856792253381628e-05
2.693588149396015208e+00	1.714575368256913640e-06	-1.562451530612064831e-04	6.541965952810477498e-03	8.467601291110182782e-01	1.106614216641286452e+00	1.000001054338612638e+00	-9.997503130748328429e-03	3.309757289432874264e-05	1.729677780863966160e-05
2.713614827086691772e+00	1.714575330720284993e-06	-1.562449474198977328e-04	6.445400603074422433e-03	8.467612333420058146e-01	1.106276112301014525e+00	1.000001054140153389e+00	-9.997504794697627956e-03	3.308558904563340238e-05	1.754698010310067603e-05
2.733641504777368336e+00	1.714575302724705980e-06	-1.562447524852362212e-04	6.351053640409972181e-03	8.467622821499205532e-01	1.105951793632307778e+00	1.000001053944371776e+00	-9.997506351475926242e-03	3.307454642892589271e-05	1.779917745244494697e-05
2.753668182468045345e+00	1.714575281647254164e-06	-1.562445675416063390e-04	6.258857969592757260e-03	8.467632787021784901e-01	1.105640993294920937e+00	1.000001053751222280e+00	-9.997507807384158757e-03	3.306442966278348174e-05	1.805337258383277229e-05
2.773694860158721909e+00	1.714575265589827602e-06	-1.562443919197647525e-04	6.168749018123063227e-03	8.467642261033599960e-01	1.105343452948962968e+00	1.000001053560660935e+00	-9.997509170072735318e-03	3.305522395358229690e-05	1.830956830142792708e-05
2.793721537849398473e+00	1.714575253179889235e-06	-1.562442250397742404e-04	6.080664623457060665e-03	8.467651271266281032e-01	1.105058922894832429e+00	1.000001053372646442e+00	-9.997510445016453626e-03	3.304691507174892668e-05	1.856776748339642605e-05
2.813748215540075037e+00	1.714575243426716717e-06	-1.562440663559439230e-04	5.994544925997658848e-03	8.467659844546689962e-01	1.104787161730468537e+00	1.000001053187133060e+00	-9.997511638448895038e-03	3.303948932926800962e-05	1.882797307941348533e-05
2.833774893230752046e+00	1.714575235616572558e-06	-1.562439153713492774e-04	5.910332267434428681e-03	8.467668005900043093e-01	1.104527936024971124e+00	1.000001053004082152e+00	-9.997512755981211724e-03	3.303293355778651392e-05	1.909018810855195403e-05
2.853801570921428610e+00	1.714575229235033110e-06	-1.562437716293466018e-04	5.827971094375540735e-03	8.467675778624355054e-01	1.104281020007699565e+00	1.000001052823451753e+00	-9.997513802781691356e-03	3.302723508853940216e-05	1.935441565747910309e-05
2.873828248612105174e+00	1.714575223911725592e-06	-1.562436347126128732e-04	5.747407866701694304e-03	8.467683184374795724e-01	1.104046195271992437e+00	1.000001052645201449e+00	-9.997514783361837951e-03	3.302238173250089822e-05	1.962065887889449998e-05
2.893854926302782182e+00	1.714575219380254755e-06	-1.562435042158891489e-04	5.668590970662057936e-03	8.467690244338693661e-01	1.103823250492709906e+00	1.000001052469291274e+00	-9.997515703089649222e-03	3.301836176229435040e-05	1.988892099016982966e-05
2.913881603993458747e+00	1.714575215448294991e-06	-1.562433797784929163e-04	5.591470636122111010e-03	8.467696977579145523e-01	1.103611981156883637e+00	1.000001052295682147e+00	-9.997516565933391858e-03	3.301516389390301469e-05	2.015920527213933830e-05
2.933908281684135311e+00	1.714575211977052118e-06	-1.562432610787960890e-04	5.515998858178689825e-03	8.467703401109375472e-01	1.103412189306725910e+00	1.000001052124335654e+00	-9.997517374658622738e-03	3.301277727078214262e-05	2.043151506802880419e-05
2.953934959374811875e+00	1.714575208865551337e-06	-1.562431477822386777e-04	5.442129322366933905e-03	8.467709532822090823e-01	1.103223683294396462e+00	1.000001051955214937e+00	-9.997518134031092157e-03	3.301119144713062940e-05	2.070585378248967619e-05
2.973961637065488883e+00	1.714575206041080163e-06	-1.562430395956655878e-04	5.369817333702876783e-03	8.467715388369513319e-01	1.103046277547862886e+00	1.000001051788283135e+00	-9.997518847238488077e-03	3.301039637296703877e-05	2.098222488072696865e-05
2.993988314756165448e+00	1.714575203450093410e-06	-1.562429362427905015e-04	5.299019749118762980e-03	8.467720982608513136e-01	1.102879792347296606e+00	1.000001051623502279e+00	-9.997519517368051029e-03	3.301038237952099520e-05	2.126063188771233728e-05
3.014014992446842012e+00	1.714575201052638227e-06	-1.562428374648012141e-04	5.229694913191186741e-03	8.467726329427252008e-01	1.102724053611447985e+00	1.000001051460838175e+00	-9.997520147283941311e-03	3.301114016547521395e-05	2.154107838745108057e-05
3.034041670137519020e+00	1.714575198819405369e-06	-1.562427430224126257e-04	5.161802596926724253e-03	8.467731441743626686e-01	1.102578892693504509e+00	1.000001051300255295e+00	-9.997520739431397380e-03	3.301266078367156290e-05	2.182356802233305842e-05
3.054068347828195584e+00	1.714575196728134173e-06	-1.562426526839105388e-04	5.095303939504116676e-03	8.467736332021172929e-01	1.102444146185918461e+00	1.000001051141718333e+00	-9.997521296541916555e-03	3.301493562863359643e-05	2.210810449251833241e-05
3.074095025518872148e+00	1.714575194761181792e-06	-1.562425662259590907e-04	5.030161392720356242e-03	8.467741012348128926e-01	1.102319655733766002e+00	1.000001050985195539e+00	-9.997521821520461566e-03	3.301795642429666648e-05	2.239469155538406002e-05
3.094121703209549157e+00	1.714575192905633936e-06	-1.562424834676733249e-04	4.966338668115224432e-03	8.467745492465053037e-01	1.102205267856213533e+00	1.000001050830652494e+00	-9.997522315220708916e-03	3.302171521271580112e-05	2.268333302501775211e-05
3.114148380900225721e+00	1.714575191150547577e-06	-1.562424042129816211e-04	4.903800686574426478e-03	8.467749782988887031e-01	1.102100833775665256e+00	1.000001050678055448e+00	-9.997522780086283770e-03	3.302620434330101352e-05	2.297403277174509608e-05
3.134175058590902285e+00	1.714575189486864754e-06	-1.562423282663795595e-04	4.842513530152090309e-03	8.467753894470239073e-01	1.102006209254228208e+00	1.000001050527375979e+00	-9.997523219098195663e-03	3.303141646174500244e-05	2.326679472169561094e-05
3.154201736281578849e+00	1.714575187907296962e-06	-1.562422554828009162e-04	4.782444396270597343e-03	8.467757834768793179e-01	1.101921254437125963e+00	1.000001050378578782e+00	-9.997523632550324099e-03	3.303734450045958112e-05	2.356162285642703566e-05
3.174228413972255858e+00	1.714575186406188349e-06	-1.562421857016430948e-04	4.723561553969793901e-03	8.467761612558269979e-01	1.101845833702720823e+00	1.000001050231635435e+00	-9.997524022236792957e-03	3.304398166911637238e-05	2.385852121255760836e-05
3.194255091662932422e+00	1.714575184977695659e-06	-1.562421187565863647e-04	4.665834302068599948e-03	8.467765236848948662e-01	1.101779815518821426e+00	1.000001050086515075e+00	-9.997524390784899920e-03	3.305132144502271192e-05	2.415749388143627585e-05
3.214281769353608986e+00	1.714575183617220350e-06	-1.562420545232167106e-04	4.609232929316702150e-03	8.467768714360641713e-01	1.101723072304981565e+00	1.000001049943189058e+00	-9.997524738584640316e-03	3.305935756461497770e-05	2.445854500885118882e-05
3.234308447044285995e+00	1.714575182320632289e-06	-1.562419928705708857e-04	4.553728676339614465e-03	8.467772052188263787e-01	1.101675480300483789e+00	1.000001049801627628e+00	-9.997525066858246531e-03	3.306808401532876775e-05	2.476167879477571401e-05
3.254335124734962559e+00	1.714575181083648878e-06	-1.562419336714761220e-04	4.499293699189992057e-03	8.467775257200448324e-01	1.101636919437764872e+00	1.000001049661802144e+00	-9.997525376972736175e-03	3.307749502715285678e-05	2.506689949310747349e-05
3.274361802425639123e+00	1.714575179903557917e-06	-1.562418768091067354e-04	4.445901034621091950e-03	8.467778335729330141e-01	1.101607273220991612e+00	1.000001049523683960e+00	-9.997525670000482340e-03	3.308758506531766884e-05	2.537421141148593441e-05
3.294388480116315687e+00	1.714575178776690695e-06	-1.562418221618063787e-04	4.393524566803646766e-03	8.467781294356762078e-01	1.101586428609581558e+00	1.000001049387247987e+00	-9.997525947662223161e-03	3.309834882261388102e-05	2.568361891108023067e-05
3.314415157806992696e+00	1.714575177700363388e-06	-1.562417696407407842e-04	4.342138995566460595e-03	8.467784137888584306e-01	1.101574275906402667e+00	1.000001049252464691e+00	-9.997526209902258404e-03	3.310978121255875821e-05	2.599512640644580086e-05
3.334441835497669260e+00	1.714575176671441974e-06	-1.562417191399401671e-04	4.291719806024766291e-03	8.467786872063822745e-01	1.101570708650464914e+00	1.000001049119309648e+00	-9.997526458061196247e-03	3.312187736286764325e-05	2.630873836537086526e-05
3.354468513188345824e+00	1.714575175687819035e-06	-1.562416705625016544e-04	4.242243239420517842e-03	8.467789502114208000e-01	1.101575623513874058e+00	1.000001048987755770e+00	-9.997526693186939775e-03	3.313463260844602644e-05	2.662445930877554420e-05
3.374495190879022832e+00	1.714575174747026105e-06	-1.562416238261592379e-04	4.193686265369251168e-03	8.467792032513004052e-01	1.101588920202869248e+00	1.000001048857778851e+00	-9.997526915656446134e-03	3.314804248581192846e-05	2.694229381060271619e-05
3.394521868569699397e+00	1.714575173846917861e-06	-1.562415788475088221e-04	4.146026555156890649e-03	8.467794467751181831e-01	1.101610501362753736e+00	1.000001048729353581e+00	-9.997527126171804751e-03	3.316210272672613809e-05	2.726224649775471742e-05
3.414548546260375961e+00	1.714575172985318912e-06	-1.562415355547609904e-04	4.099242456276021643e-03	8.467796811739599638e-01	1.101640272486530403e+00	1.000001048602455533e+00	-9.997527324929382855e-03	3.317680925289584389e-05	2.758432205002662950e-05
3.434575223951052525e+00	1.714575172160144285e-06	-1.562414938730245046e-04	4.053312967954755298e-03	8.467799068502362969e-01	1.101678141827103330e+00	1.000001048477060284e+00	-9.997527512545687292e-03	3.319215817025430228e-05	2.790852520007858819e-05
3.454601901641729533e+00	1.714575171369670481e-06	-1.562414537406588394e-04	4.008217717768661897e-03	8.467801241404505630e-01	1.101724020312857988e+00	1.000001048353145405e+00	-9.997527689001924067e-03	3.320814576392357322e-05	2.823486073341090779e-05
3.474628579332406098e+00	1.714575170612151763e-06	-1.562414151065096555e-04	3.963936939206826396e-03	8.467803333183904213e-01	1.101777821466488172e+00	1.000001048230685363e+00	-9.997527853807130008e-03	3.322476849320978200e-05	2.856333348837441832e-05
3.494655257023082662e+00	1.714575169885657957e-06	-1.562413779237311793e-04	3.920451450188247068e-03	8.467805346406718225e-01	1.101839461326922009e+00	1.000001048109661506e+00	-9.997528006380476326e-03	3.324202298697760785e-05	2.889394835617541555e-05
3.514681934713759670e+00	1.714575169188825551e-06	-1.562413421724558938e-04	3.877742632434424269e-03	8.467807282107442379e-01	1.101908858374213374e+00	1.000001047990048519e+00	-9.997528144591991475e-03	3.325990603898248868e-05	2.922671028091236806e-05
3.534708612404436234e+00	1.714575168519627171e-06	-1.562413078424137482e-04	3.835792411767155290e-03	8.467809140877866625e-01	1.101985933457265698e+00	1.000001047871825754e+00	-9.997528265864443625e-03	3.327841460406271324e-05	2.956162425962122331e-05
3.554735290095112799e+00	1.714575167876375951e-06	-1.562412749586561552e-04	3.794583239103742692e-03	8.467810921318302819e-01	1.102070609724269179e+00	1.000001047754972561e+00	-9.997528365517467305e-03	3.329754579362804241e-05	2.989869534234995333e-05
3.574761967785789363e+00	1.714575167257291217e-06	-1.562412435995951096e-04	3.754098072391303005e-03	8.467812619208602287e-01	1.102162812555737892e+00	1.000001047639467400e+00	-9.997528435604832037e-03	3.331729687280087133e-05	3.023792863222357635e-05
3.594788645476466371e+00	1.714575166659921019e-06	-1.562412138945285780e-04	3.714320359155044368e-03	8.467814227500823909e-01	1.102262469500030928e+00	1.000001047525288289e+00	-9.997528465063841921e-03	3.333766525673505807e-05	3.057932928554646824e-05
3.614815323167142935e+00	1.714575166081899807e-06	-1.562411860724139843e-04	3.675234019879184983e-03	8.467815733811165924e-01	1.102369510211253623e+00	1.000001047412417465e+00	-9.997528436587953607e-03	3.335864850832889403e-05	3.092290251190726240e-05
3.634842000857819500e+00	1.714575165519886670e-06	-1.562411604754108431e-04	3.636823432045399422e-03	8.467817119556643179e-01	1.102483866389442513e+00	1.000001047300832946e+00	-9.997528325749658468e-03	3.338024433607065193e-05	3.126865357429334496e-05
3.654868678548496508e+00	1.714575164970003892e-06	-1.562411376404424163e-04	3.599073414891224617e-03	8.467818355656236973e-01	1.102605471722940322e+00	1.000001047190516967e+00	-9.997528095776879800e-03	3.340245059290308734e-05	3.161658778923598877e-05
3.674895356239173072e+00	1.714575164426371370e-06	-1.562411183420323783e-04	3.561969214911155177e-03	8.467819400084535264e-01	1.102734261832854168e+00	1.000001047081447103e+00	-9.997527694802955597e-03	3.342526527660538948e-05	3.196671052694443531e-05
3.694922033929849636e+00	1.714575163882020353e-06	-1.562411036863120561e-04	3.525496491962197033e-03	8.467820192904637056e-01	1.102870174219534372e+00	1.000001046973606478e+00	-9.997527049844761107e-03	3.344868653078378974e-05	3.231902721147827609e-05
3.714948711620526201e+00	1.714575163326274836e-06	-1.562410952401926555e-04	3.489641306185152243e-03	8.467820649139379263e-01	1.103013148210976846e+00	1.000001046866974885e+00	-9.997526058528041423e-03	3.347271264869483792e-05	3.267354332090061651e-05
3.734975389311203209e+00	1.714575162745536342e-06	-1.562410951559224182e-04	3.454390105575231174e-03	8.467820652129229853e-01	1.103163124913067561e+00	1.000001046761531676e+00	-9.997524581112356840e-03	3.349734207879475560e-05	3.303026438747587500e-05
3.755002067001879773e+00	1.714575162121457289e-06	-1.562411063407830188e-04	3.419729714334949957e-03	8.467820044240212951e-01	1.103320047161611583e+00	1.000001046657257087e+00	-9.997522429625855730e-03	3.352257343357292583e-05	3.338919599786628113e-05
3.775028744692556337e+00	1.714575161429123899e-06	-1.562411326901543527e-04	3.385647321959347079e-03	8.467818614296718227e-01	1.103483859476053652e+00	1.000001046554130690e+00	-9.997519352940704290e-03	3.354840550163285310e-05	3.375034379332940367e-05
3.795055422383233346e+00	1.714575160634344414e-06	-1.562411793084676477e-04	3.352130473218894232e-03	8.467816085549531024e-01	1.103654508014836333e+00	1.000001046452129394e+00	-9.997515022625918721e-03	3.357483726507378075e-05	3.411371346992641228e-05
3.815082100073909910e+00	1.714575159693240623e-06	-1.562412527530711824e-04	3.319167058824748495e-03	8.467812102502593197e-01	1.103831940532330247e+00	1.000001046351228329e+00	-9.997509017340545576e-03	3.360186792057157930e-05	3.447931077877582827e-05
3.835108777764586474e+00	1.714575158547981351e-06	-1.562413612925951222e-04	3.286745307010094635e-03	8.467806216864335322e-01	1.104016106337261993e+00	1.000001046251403514e+00	-9.997500806288544054e-03	3.362949690687912793e-05	3.484714152627048020e-05
3.855135455455263482e+00	1.714575157124346395e-06	-1.562415151369550895e-04	3.254853775781716037e-03	8.467797875094067450e-01	1.104206956252607119e+00	1.000001046152623640e+00	-9.997489734497072567e-03	3.365772393685178995e-05	3.521721157433697381e-05
3.875162133145940047e+00	1.714575155328903362e-06	-1.562417266050778332e-04	3.223481345956492449e-03	8.467786409309941975e-01	1.104404442576847556e+00	1.000001046054852072e+00	-9.997475012081287818e-03	3.368654903558632489e-05	3.558952684069615805e-05
3.895188810836616611e+00	1.714575153044646933e-06	-1.562420101414422236e-04	3.192617214619530939e-03	8.467771036377347293e-01	1.104608519046594406e+00	1.000001045958051060e+00	-9.997455713178813458e-03	3.371597258133944417e-05	3.596409329911622526e-05
3.915215488527293175e+00	1.714575150129731487e-06	-1.562423821147367834e-04	3.162250888868845412e-03	8.467750868828056721e-01	1.104819140800476163e+00	1.000001045862171534e+00	-9.997430788845556443e-03	3.374599534807868066e-05	3.634091697972321316e-05
3.935242166217970183e+00	1.714575146414019447e-06	-1.562428603745748203e-04	3.132372179284437144e-03	8.467724938891957320e-01	1.105036264344272823e+00	1.000001045767156427e+00	-9.997399095422148177e-03	3.377661854369709999e-05	3.672000396925679524e-05
3.955268843908646748e+00	1.714575141700003692e-06	-1.562434633482393898e-04	3.102971192845458727e-03	8.467692247459186472e-01	1.105259847517235050e+00	1.000001045672938238e+00	-9.997359452358071941e-03	3.380784384066274050e-05	3.710136041139587343e-05
3.975295521599323312e+00	1.714575135763862755e-06	-1.562442086507170283e-04	3.074038324202974654e-03	8.467651839432567273e-01	1.105489849459552421e+00	1.000001045579434145e+00	-9.997310731180319987e-03	3.383967338651850147e-05	3.748499250705117716e-05
3.995322199289999876e+00	1.714575128359440390e-06	-1.562451115547982552e-04	3.045564245022315542e-03	8.467602886663435635e-01	1.105726230580920344e+00	1.000001045486548223e+00	-9.997251953395482754e-03	3.387210978969076332e-05	3.787090651467707317e-05
