# Time=0.00040404040404 and Columns are r	p	Paether	ur	alpha	a	b	K	Sr_tilde	tau_tilde
1.001333884533834630e-02	1.199634154157943472e-02	-1.848026982482863304e-02	1.818902658885504433e-05	6.454905090215558028e-01	1.000048194187004302e+00	1.000000871228834187e+00	-1.001540536165918330e-02	2.054695104384283984e-10	1.503620878842538613e-06
3.004001653601504063e-02	1.196780678495823654e-02	-1.845947953246210999e-02	5.456398657142965937e-05	6.456638243982334435e-01	1.000426617123792994e+00	1.000000871598892171e+00	-1.001533271595985222e-02	5.540719526944571055e-09	1.350550779504642939e-05
5.006669422669172975e-02	1.191092190745849690e-02	-1.841793419492950001e-02	9.092978188556509207e-05	6.460103930223751734e-01	1.001182602295002111e+00	1.000000872337949875e+00	-1.001518799623029275e-02	2.558716940279401146e-08	3.736519842648808255e-05
7.009337191736843276e-02	1.182605531697141117e-02	-1.835571121357359309e-02	1.272807520391048869e-04	6.465298746297302168e-01	1.002314421080766627e+00	1.000000873443956939e+00	-1.001497301748238526e-02	6.994728045890022367e-08	7.279618077850799336e-05
9.012004960804512188e-02	1.171375509085131883e-02	-1.827293232524393116e-02	1.636119766993407107e-04	6.472215750785154098e-01	1.003819462634122361e+00	1.000000874913860693e+00	-1.001468773149218755e-02	1.479187613996382401e-07	1.193728115174617042e-04
1.101467272987218110e-01	1.157474400160260139e-02	-1.816976038831671567e-02	1.999195533183017212e-04	6.480845812370708003e-01	1.005694212722461955e+00	1.000000876743603273e+00	-1.001433144047932620e-02	2.683781568005393679e-07	1.765352335258093294e-04
1.301734049893985001e-01	1.140991277805909927e-02	-1.804639788252984309e-02	2.362008397387023700e-04	6.491178415183889161e-01	1.007934226094123087e+00	1.000000878928138714e+00	-1.001390520871284391e-02	4.396697544232082859e-07	2.435958785758425180e-04
1.502000826800751754e-01	1.122031180282309290e-02	-1.790308997929641877e-02	2.724546839195665323e-04	6.503200900628632875e-01	1.010534092880254198e+00	1.000000881461456492e+00	-1.001341056407772760e-02	6.695011205229742809e-07	3.197475074536686038e-04
1.702267603707518784e-01	1.100714133387753133e-02	-1.774012732049543017e-02	3.086816581459683284e-04	6.516897819791906965e-01	1.013487399687899249e+00	1.000000884336607498e+00	-1.001284871176874071e-02	9.648465175847584385e-07	4.040727263455443151e-04
1.902534380614285814e-01	1.077174035026052905e-02	-1.755784637086750186e-02	3.448842697737610017e-04	6.532251169664698986e-01	1.016786686195884748e+00	1.000000887545730022e+00	-1.001222109163342998e-02	1.331859267070365625e-06	4.955549037993079017e-04
2.102801157521052566e-01	1.051557413634087931e-02	-1.735663000814199886e-02	3.810671396316728308e-04	6.549240561796115800e-01	1.020423398231905532e+00	1.000000891080080168e+00	-1.001152984069830602e-02	1.775793933132840092e-06	5.930903969919981960e-04
2.303067934427819596e-01	1.024022073345185954e-02	-1.713690932946290366e-02	4.172371640632802038e-04	6.567842929050077272e-01	1.024387838486408242e+00	1.000000894930058504e+00	-1.001077755292108414e-02	2.300939123897450470e-06	6.955019793252634154e-04
2.503334711334586626e-01	9.947356401018802446e-03	-1.689916515038512174e-02	4.534036687078912614e-04	6.588032295448557063e-01	1.028669116205036538e+00	1.000000899085251582e+00	-1.000996713731324567e-02	2.910561604348822335e-06	8.015533435583503761e-04
2.703601488241353379e-01	9.638740241644506296e-03	-1.664392874965930219e-02	4.895785488467672497e-04	6.609779769772685665e-01	1.033255097393708466e+00	1.000000903534460805e+00	-1.000910200840882981e-02	3.606862238678501936e-06	9.099645358844360866e-04
2.903868265148120131e-01	9.316198155716843426e-03	-1.637178258668813696e-02	5.257764009013231408e-04	6.633053472449990107e-01	1.038132357264572425e+00	1.000000908265747057e+00	-1.000818615950699146e-02	4.390944191101856207e-06	1.019428156770623784e-03
3.104135042054887439e-01	8.981606300783449848e-03	-1.608336097114888494e-02	5.620146550014365559e-04	6.657818372277173324e-01	1.043286136841081513e+00	1.000000913266464009e+00	-1.000722407777764576e-02	5.262793765740726895e-06	1.128626144339372247e-03
3.304401818961654191e-01	8.636874238990477695e-03	-1.577935024880228534e-02	5.983137165021551896e-04	6.684036180545581685e-01	1.048700305818805134e+00	1.000000918523300975e+00	-1.000622071733441379e-02	6.221274196321604900e-06	1.236246936020605949e-03
3.504668595868420944e-01	8.283927962094575839e-03	-1.546048848459780599e-02	6.346971216739482995e-04	6.711665296405386893e-01	1.054357333935741048e+00	1.000000924022328430e+00	-1.000518151258173241e-02	7.264132604664498770e-06	1.341002784734767611e-03
3.704935372775188251e-01	7.924692987695302823e-03	-1.512756476644873220e-02	6.711917177976299467e-04	6.740660734756597217e-01	1.060238273230968531e+00	1.000000929749038203e+00	-1.000411232244162625e-02	8.388020320214906666e-06	1.441646987700375250e-03
3.905202149681955004e-01	7.561077722175659800e-03	-1.478141801438902399e-02	7.078278776201130411e-04	6.770974065784653995e-01	1.066322753650980282e+00	1.000000935688391657e+00	-1.000301934357463937e-02	9.588526688748821180e-06	1.536990769951306502e-03
4.105468926588721756e-01	7.194957285146142897e-03	-1.442293520484369020e-02	7.446397588715834761e-04	6.802553393353670819e-01	1.072588994485435876e+00	1.000000941824874534e+00	-1.000190902687230106e-02	1.086022642636851751e-05	1.625919551770194397e-03
4.305735703495489064e-01	6.828157986756787888e-03	-1.405304901558971677e-02	7.816656189216128177e-04	6.835343362252804811e-01	1.079013834064691757e+00	1.000000948142534707e+00	-1.000078797841156414e-02	1.219674045924972814e-05	1.707408320557361140e-03
4.506002480402255816e-01	6.462442642870574148e-03	-1.367273489911141442e-02	8.189481972236639477e-04	6.869285186302260815e-01	1.085572780016650807e+00	1.000000954625050786e+00	-9.999662829151226284e-03	1.359081008408307288e-05	1.780535824267705279e-03
4.706269257309022569e-01	6.099496903641671297e-03	-1.328300755224447183e-02	8.565351772988561091e-04	6.904316712281398649e-01	1.092240082148229430e+00	1.000000961255778975e+00	-9.998540094213553830e-03	1.503438409734025294e-05	1.844497306560770973e-03
4.906536034215789877e-01	5.740916758401333475e-03	-1.288491679743950305e-02	8.944797416749826046e-04	6.940372520575215365e-01	1.098988829677490564e+00	1.000000968017815683e+00	-9.997426021184337500e-03	1.651871834566198661e-05	1.898615514240839562e-03
5.106802811122557184e-01	5.388197363908073766e-03	-1.247954290328591800e-02	9.328412328687651868e-04	6.977384061697868844e-01	1.105791074090597181e+00	1.000000974894060812e+00	-9.996326428541500719e-03	1.803448687970541351e-05	1.942349726271118014e-03
5.307069588029323937e-01	5.042723324018428231e-03	-1.206799138641120525e-02	9.716859355309635880e-04	7.015279828248373040e-01	1.112617978332459900e+00	1.000000981867282146e+00	-9.995246534697257990e-03	1.957190362092411863e-05	1.975302581229552729e-03
5.507336364936090689e-01	4.705760526844922527e-03	-1.165138733936654271e-02	1.011087994725691497e-03	7.053985565546023739e-01	1.119439992367352366e+00	1.000000988920182410e+00	-9.994190788231051628e-03	2.112085310598504947e-05	1.997224516787963252e-03
5.707603141842857442e-01	4.378449620764625870e-03	-1.123086935729906977e-02	1.051130487626327284e-03	7.093424517550730446e-01	1.126227054378648118e+00	1.000000996035468992e+00	-9.993162698548814157e-03	2.267102854841903067e-05	2.008015680459400779e-03
5.907869918749625304e-01	4.061801183624959288e-03	-1.080758313882033625e-02	1.091906666618316013e-03	7.133517706678877968e-01	1.132948816036442485e+00	1.000001003195927218e+00	-9.992164674427922791e-03	2.421207509305025530e-05	2.007725224784208742e-03
6.108136695656392057e-01	3.756692610682684820e-03	-1.038267485411536149e-02	1.133521394813160861e-03	7.174184243740151512e-01	1.139574889377023670e+00	1.000001010384489852e+00	-9.991197871809276085e-03	2.573373582877658833e-05	1.996547961076732512e-03
6.308403472563158809e-01	3.463866716853157470e-03	-9.957284375611335711e-03	1.176092796841420648e-03	7.215341664610513961e-01	1.146075111945157987e+00	1.000001017584315255e+00	-9.990262058278246565e-03	2.722599782058155674e-05	1.974818412035779340e-03
6.508670249469925562e-01	3.183932018482900101e-03	-9.532538480198176484e-03	1.219754152075099018e-03	7.256906287692389546e-01	1.152419825991223057e+00	1.000001024778850223e+00	-9.989355494379341394e-03	2.867923521676921989e-05	1.943002372618712892e-03
6.708937026376692314e-01	2.917364629917575548e-03	-9.109544129491551831e-03	1.264656061134244221e-03	7.298793586391514321e-01	1.158580166736009831e+00	1.000001031951908592e+00	-9.988474837616889701e-03	3.008434633739954031e-05	1.901686157839571796e-03
6.909203803283459067e-01	2.664511681497540741e-03	-8.689381940602348975e-03	1.310968922776851488e-03	7.340918569855076070e-01	1.164528354063445681e+00	1.000001039087730748e+00	-9.987615068852697883e-03	3.143288163857915188e-05	1.851563782529298385e-03
7.109470580190225819e-01	2.425596139157461511e-03	-8.273099953179605462e-03	1.358885764581972168e-03	7.383196164366506720e-01	1.170237981519566484e+00	1.000001046171054231e+00	-9.986769444899640941e-03	3.271715952860468037e-05	1.793422378424134938e-03
7.309737357096993682e-01	2.200722882393686339e-03	-7.861707796616915558e-03	1.408625479931685694e-03	7.425541588222418499e-01	1.175684296222963887e+00	1.000001053187162148e+00	-9.985929476020220796e-03	3.393036725061563541e-05	1.728126205157145146e-03
7.510004134003760434e-01	1.989885877758589602e-03	-7.456171349370955929e-03	1.460436533605270065e-03	7.467870711636745984e-01	1.180844463256071286e+00	1.000001060121937790e+00	-9.985084930419827962e-03	3.506664438757946202e-05	1.656599651067323454e-03
7.710270910910527187e-01	1.792976269898537275e-03	-7.057407973136736040e-03	1.514601211175741575e-03	7.510100395098008308e-01	1.185697808323840308e+00	1.000001066961906604e+00	-9.984223864148532648e-03	3.612114702949579197e-05	1.579809645007332211e-03
7.910537687817293939e-01	1.609791201948140025e-03	-6.666282388141135488e-03	1.571440501552418640e-03	7.552148797919149281e-01	1.190226032937535594e+00	1.000001073694272602e+00	-9.983332677854107190e-03	3.709009120331201176e-05	1.498747910052006553e-03
8.110804464724060692e-01	1.440043172117161895e-03	-6.283603240730539254e-03	1.631319719427203356e-03	7.593935651925529662e-01	1.194413397091843354e+00	1.000001080306938350e+00	-9.982396199908542128e-03	3.797077482072449823e-05	1.414413483592135735e-03
8.311071241630827444e-01	1.283369733627734866e-03	-5.910120394602327853e-03	1.694654993320754074e-03	7.635382493378196633e-01	1.198246865322599941e+00	1.000001086788523397e+00	-9.981397798895431939e-03	3.876157807288102363e-05	1.327795906094749248e-03
8.511338018537595307e-01	1.139343350630185820e-03	-5.546522958244575613e-03	1.761920766852557302e-03	7.676412850496264761e-01	1.201716213116299059e+00	1.000001093128368934e+00	-9.980319528527193881e-03	3.946194289698039709e-05	1.239859444121428709e-03
8.711604795444362059e-01	1.007481232989401385e-03	-5.193438039747239228e-03	1.833658483686174175e-03	7.716952382091779583e-01	1.204814091835603396e+00	1.000001099316531805e+00	-9.979142312671948969e-03	4.007233278329624558e-05	1.151528664178230396e-03
8.911871572351128812e-01	8.872549873443282302e-04	-4.851430200087314230e-03	1.910486650788119226e-03	7.756928967803277120e-01	1.207536051565528901e+00	1.000001105343772290e+00	-9.977846180253970021e-03	4.059417478271726184e-05	1.063675615487348841e-03
9.112138349257895564e-01	7.780999399092572823e-04	-4.521001554722075752e-03	1.993112496882307443e-03	7.796272748880013204e-01	1.209880522507871037e+00	1.000001111201527237e+00	-9.976410566225540205e-03	4.102978605143199620e-05	9.771088151763395943e-04
9.312405126164662317e-01	6.794240073035446833e-04	-4.202592454195701668e-03	2.082345461499800383e-03	7.834916123855902859e-01	1.211848756694478224e+00	1.000001116881878538e+00	-9.974814698518325029e-03	4.138228763952391860e-05	8.925641622751384098e-04
9.512671903071429069e-01	5.906160144061715390e-04	-3.896582655024472593e-03	2.179112758463156406e-03	7.872793702322729015e-01	1.213444732797025027e+00	1.000001122377519369e+00	-9.973038098720930777e-03	4.165550845172793229e-05	8.106978408817728295e-04
9.712938679978196932e-01	5.110533819583351059e-04	-3.603292875518148992e-03	2.284477249235689848e-03	7.909842225952121719e-01	1.214675027636172411e+00	1.000001127681710233e+00	-9.971061228539445861e-03	4.185388240315756237e-05	7.320812112365382299e-04
9.913205456884963684e-01	4.401091305312671616e-04	-3.322986615250282140e-03	2.399657823052801613e-03	7.946000465196245699e-01	1.215548658603536669e+00	1.000001132788230773e+00	-9.968866321021873853e-03	4.198234174213897392e-05	6.571976330923423202e-04
1.011347223379172933e+00	3.771581707494749938e-04	-3.055872104597769524e-03	2.526052394926952670e-03	7.981209106693655242e-01	1.216076901586902625e+00	1.000001137691344910e+00	-9.966438436658857716e-03	4.204620935007236977e-05	5.864411209108532069e-04
1.031373901069849497e+00	3.215828715936880637e-04	-2.802104240561701341e-03	2.665263471986103593e-03	8.015410646163216857e-01	1.216273089129347840e+00	1.000001142385751107e+00	-9.963766784655029088e-03	4.205109255651461161e-05	5.201166965138346102e-04
1.051400578760526283e+00	2.727779185666482351e-04	-2.561786360295864248e-03	2.819125965994369581e-03	8.048549308798373936e-01	1.216152393467292647e+00	1.000001146866558166e+00	-9.960846338978496944e-03	4.200278066623603035e-05	4.584422825051438842e-04
1.071427256451203069e+00	2.301544909197418348e-04	-2.334971703929695271e-03	2.989736492077311840e-03	8.080571019033376823e-01	1.215731598805667613e+00	1.000001151129263244e+00	-9.957679760170395911e-03	4.190714799902849584e-05	4.015519688045681899e-04
1.091453934141879634e+00	1.931438014857540710e-04	-2.121664427502551690e-03	3.179482721079166397e-03	8.111423448702806960e-01	1.215028866737711599e+00	1.000001155169749634e+00	-9.954279596224104715e-03	4.177006383123522092e-05	3.495004838608314858e-04
1.111480611832556420e+00	1.612000534464416777e-04	-1.921820046137066688e-03	3.391070356380507071e-03	8.141056171394095431e-01	1.214063498149895670e+00	1.000001158984301419e+00	-9.950670681099130221e-03	4.159731022094146616e-05	3.022687095189611215e-04
1.131507289523232984e+00	1.338028750941745368e-04	-1.735345221916152671e-03	3.627543881847142618e-03	8.169420956001339773e-01	1.212855694326743006e+00	1.000001162569654545e+00	-9.946892568773240892e-03	4.139450832806334829e-05	2.597700912418536871e-04
1.151533967213909770e+00	1.104592958587402514e-04	-1.562096862336817202e-03	3.892295270022968871e-03	8.196472226871974742e-01	1.211426319350200842e+00	1.000001165923059432e+00	-9.943001740048033193e-03	4.116705352521797713e-05	2.218578098160730325e-04
1.171560644904586557e+00	9.070532417574125688e-05	-1.401880567328290346e-03	4.189052272710409343e-03	8.222167717715895829e-01	1.209796665343752409e+00	1.000001169042395111e+00	-9.939073203992194322e-03	4.092005935422411933e-05	1.883325926533911102e-04
1.191587322595263121e+00	7.410717998128774065e-05	-1.254448555918367351e-03	4.521834753417069801e-03	8.246469331491267374e-01	1.207988221713401256e+00	1.000001171926287569e+00	-9.935201007057352374e-03	4.065831022394562200e-05	1.589510480211025058e-04
1.211614000285939907e+00	6.026222192650705146e-05	-1.119497314704609491e-03	4.894863969380382554e-03	8.269344208908453453e-01	1.206022449351672243e+00	1.000001174574279172e+00	-9.931497097664575280e-03	4.038622266621108098e-05	1.334344001618537230e-04
1.231640677976616471e+00	4.879959263761861755e-05	-9.966653318939132714e-04	5.312406323472864365e-03	8.290765978291284588e-01	1.203920560847713928e+00	1.000001176986994533e+00	-9.928088013602382952e-03	4.010781494973416142e-05	1.114774848508390465e-04
1.251667355667293258e+00	3.938058618666446771e-05	-8.855313952118097328e-04	5.778530981283534936e-03	8.310716140872274060e-01	1.201703308109616897e+00	1.000001179166321474e+00	-9.925109035164388430e-03	3.982668486884272319e-05	9.275783353421152163e-05
1.271694033357969822e+00	3.169872304457741093e-05	-7.856140197798737197e-04	6.296761716010720877e-03	8.329185504907198334e-01	1.199390779434508225e+00	1.000001181115566906e+00	-9.922695799843251133e-03	3.954599552838005051e-05	7.694463339976357469e-05
1.291720711048646608e+00	2.547950266709080722e-05	-6.963726015919867365e-04	6.869610019508313320e-03	8.346175561654323172e-01	1.197002208882390395e+00	1.000001182839588276e+00	-9.920973930267066102e-03	3.926846891346468861e-05	6.370730827755874545e-05
1.311747388739323394e+00	2.047979635360902071e-05	-6.172108395565599958e-04	7.497991980218566763e-03	8.361699663854523790e-01	1.194555801682815055e+00	1.000001184344866179e+00	-9.920047878467988869e-03	3.899638694758653226e-05	5.272343253835870997e-05
1.331774066429999959e+00	1.648684638529438151e-05	-5.474828116296170987e-04	8.180558221425339102e-03	8.375783869777679858e-01	1.192068580136940614e+00	1.000001185639508572e+00	-9.919990781815943640e-03	3.873159967244952712e-05	4.368568024692820977e-05
1.351800744120676745e+00	1.331685324298558629e-05	-4.865018322015231570e-04	8.913004393086645244e-03	8.388467317746582941e-01	1.189556254851448891e+00	1.000001186733178837e+00	-9.920837350981436681e-03	3.847554021691239562e-05	3.630753613043117076e-05
1.371827421811353309e+00	1.081315977012852671e-05	-4.335518814313745134e-04	9.687474290772704263e-03	8.399802034222136893e-01	1.187033125955564650e+00	1.000001187636955002e+00	-9.922581418014770130e-03	3.822924648327469108e-05	3.032755901086993177e-05
1.391854099502030095e+00	8.844075254095237813e-06	-3.879010383379860095e-04	1.049220623253364210e-02	8.409852130011002957e-01	1.184512018086036456e+00	1.000001188363141669e+00	-9.925178642672881704e-03	3.799338991912151351e-05	2.551208862406876583e-05
1.411880777192706660e+00	7.300416910853354514e-06	-3.488160386344261185e-04	1.131158645979297647e-02	8.418692398340519301e-01	1.182004251385328608e+00	1.000001188925038642e+00	-9.928553249650928086e-03	3.776831210349957421e-05	2.165640957173022030e-05
1.431907454883383446e+00	6.092873774958071855e-06	-3.155768860538244163e-04	1.212674018668006247e-02	8.426406392694112402e-01	1.179519648706183421e+00	1.000001189336696461e+00	-9.932606249800739195e-03	3.755406963227683249e-05	1.858451052015777487e-05
1.451934132574060232e+00	5.149312513967017653e-06	-2.874904203759946482e-04	1.291670051252688002e-02	8.433084108027143477e-01	1.177066576944575171e+00	1.000001189612668373e+00	-9.937222240115218402e-03	3.735048652539074162e-05	1.614768001800258063e-05
1.471960810264736796e+00	4.412143393015445474e-06	-2.639018932020050141e-04	1.366005936544952698e-02	8.438819438735509770e-01	1.174652018293604439e+00	1.000001189767752319e+00	-9.942273121325681876e-03	3.715721122371842404e-05	1.422224490167984146e-05
1.491987487955413583e+00	3.835848600379140296e-06	-2.442038896843407047e-04	1.433686216285247166e-02	8.443707585831813356e-01	1.172281665559625319e+00	1.000001189816707159e+00	-9.947619384684351640e-03	3.697377315263969535e-05	1.270677571433884434e-05
1.512014165646090147e+00	3.384748748178564480e-06	-2.278422899384667814e-04	1.493041416612921578e-02	8.447842602260093869e-01	1.169960034735958887e+00	1.000001189773950694e+00	-9.953111671151596701e-03	3.679963311950634313e-05	1.151905967186617027e-05
1.532040843336766933e+00	3.031052543663543998e-06	-2.143193133311481154e-04	1.542866609256449313e-02	8.451315232369079888e-01	1.167690587857672435e+00	1.000001189653253242e+00	-9.958595543381807205e-03	3.663422319161898353e-05	1.059308774589448053e-05
1.552067521027443719e+00	2.753205106405554561e-06	-2.031939664385882052e-04	1.582494664637905737e-02	8.454211172232137805e-01	1.165475859675704662e+00	1.000001189467447427e+00	-9.963920595487861520e-03	3.647697459740804031e-05	9.876234106244579321e-06
1.572094198718120284e+00	2.534526295421195000e-06	-1.940803895916641173e-04	1.611797314171312459e-02	8.456609800985265268e-01	1.163317582694246566e+00	1.000001189228196363e+00	-9.968952288898706715e-03	3.632733509016939760e-05	9.326737702239767675e-06
1.592120876408797070e+00	2.362113670229050459e-06	-1.866446620514481932e-04	1.631123626000288707e-02	8.458583399399237646e-01	1.161216806373778887e+00	1.000001188945848440e+00	-9.973583150899197058e-03	3.618477880854384404e-05	8.911536940784110146e-06
1.612147554099473634e+00	2.225975379513292328e-06	-1.806006064048930684e-04	1.641196662847621904e-02	8.460196799096839637e-01	1.159174007596629696e+00	1.000001188629382476e+00	-9.977740063579904062e-03	3.604881165427273408e-05	8.604463929882480715e-06
1.632174231790150420e+00	2.118355116192332532e-06	-1.757050567615861124e-04	1.642992586445377740e-02	8.461507392888500956e-01	1.157189190663992839e+00	1.000001188286438136e+00	-9.981386049608905603e-03	3.591897424362949982e-05	8.384775190978788670e-06
1.652200909480826985e+00	2.033212515786377392e-06	-1.717529565942582377e-04	1.637623312947888987e-02	8.462565399088731732e-01	1.155261976055439677e+00	1.000001187923408086e+00	-9.984516919691448569e-03	3.579484340453734098e-05	8.235979167820990844e-06
1.672227587171503771e+00	1.965826235379931409e-06	-1.685725498486367261e-04	1.626236955386558408e-02	8.463414315009571975e-01	1.153391677907061430e+00	1.000001187545567660e+00	-9.987154538823291364e-03	3.567603252500019863e-05	8.144914232155497143e-06
1.692254264862180557e+00	1.912491993361791884e-06	-1.660208412108925692e-04	1.609942789079590181e-02	8.464091467674572655e-01	1.151577370667262512e+00	1.000001187157222082e+00	-9.989338760774455969e-03	3.556219082425750094e-05	8.101031037216559918e-06
1.712280942552857121e+00	1.870293072056452814e-06	-1.639794291014784672e-04	1.589761410382007495e-02	8.464628620727395747e-01	1.149817945706059552e+00	1.000001186761847016e+00	-9.991119741959311393e-03	3.545300167420745190e-05	8.095837245024853598e-06
1.732307620243533908e+00	1.836925589815462029e-06	-1.623507627759445283e-04	1.566596924338170549e-02	8.465052583379051310e-01	1.148112158827106599e+00	1.000001186362230676e+00	-9.992551610035456736e-03	3.534818018716801664e-05	8.122468742258815214e-06
1.752334297934210472e+00	1.810564952856006624e-06	-1.610548366273544646e-04	1.541226259282075205e-02	8.465385811270710326e-01	1.146458669701188260e+00	1.000001185960580852e+00	-9.993687868249494233e-03	3.524747036137723080e-05	8.175358016902711667e-06
1.772360975624887258e+00	1.789763226624758806e-06	-1.600263109987452457e-04	1.514300480158285375e-02	8.465646967955264834e-01	1.144856074238804089e+00	1.000001185558641481e+00	-9.994578429669696146e-03	3.515064204463115880e-05	8.249976523586418129e-06
1.792387653315563822e+00	1.773369768733135877e-06	-1.592120327500906639e-04	1.486353613093960822e-02	8.465851446188783491e-01	1.143302930872841738e+00	1.000001185157769257e+00	-9.995267995412858431e-03	3.505748794279427621e-05	8.342633185860076368e-06
1.812414331006240609e+00	1.760469444621914707e-06	-1.585689209894926678e-04	1.457815483054475565e-02	8.466011835449620548e-01	1.141797781648906440e+00	1.000001184759014006e+00	-9.995795397948713940e-03	3.496782080510458824e-05	8.450315529498723802e-06
1.832441008696917395e+00	1.750334222749174218e-06	-1.580621788644039928e-04	1.429026080893129602e-02	8.466138348043804607e-01	1.140339168933681258e+00	1.000001184363177753e+00	-9.996193601684123103e-03	3.488147087987969160e-05	8.570563348593389962e-06
1.852467686387593959e+00	1.742385032007612237e-06	-1.576637925127864054e-04	1.400249844483871832e-02	8.466239190516806623e-01	1.138925648459657491e+00	1.000001183970864460e+00	-9.996490076600436300e-03	3.479828365703137717e-05	8.701367398687324812e-06
1.872494364078270745e+00	1.736161556814449161e-06	-1.573512789548710484e-04	1.371688909285486216e-02	8.466320891749494759e-01	1.137555799333565210e+00	1.000001183582518882e+00	-9.996707374501636809e-03	3.471811791275278557e-05	8.841087540681554104e-06
1.892521041768947310e+00	1.731298222732845449e-06	-1.571066479570493266e-04	1.343494856536228341e-02	8.466388581478913045e-01	1.136228231549629042e+00	1.000001183198463650e+00	-9.996863766871566179e-03	3.464084401986798021e-05	8.988386173919313572e-06
1.912547719459624096e+00	1.727505046611196175e-06	-1.569155453389939987e-04	1.315778800864236819e-02	8.466446244031559099e-01	1.134941591469350142e+00	1.000001182818926360e+00	-9.996973899496348209e-03	3.456634251397264971e-05	9.142173825174589296e-06
1.932574397150300882e+00	1.724552334393786957e-06	-1.567665499102169682e-04	1.288619847235572373e-02	8.466496922666653102e-01	1.133694565658141196e+00	1.000001182444059555e+00	-9.997049383006134660e-03	3.449450286346115665e-05	9.301564505700459304e-06
1.952601074840977446e+00	1.722258438545388226e-06	-1.566505986510788903e-04	1.262072052789083541e-02	8.466542896838523680e-01	1.132485883405957017e+00	1.000001182073956274e+00	-9.997099326171718717e-03	3.442522243600441980e-05	9.465838990621431068e-06
1.972627752531654233e+00	1.720479958541276306e-06	-1.565605186946681954e-04	1.236170074484056400e-02	8.466585836276769861e-01	1.131314318204010849e+00	1.000001181708668474e+00	-9.997130801486552379e-03	3.435840560917368145e-05	9.634414572438174755e-06
1.992654430222330797e+00	1.719103897766768776e-06	-1.564906477559182814e-04	1.210933697624000036e-02	8.466626925776313817e-01	1.130178688402246223e+00	1.000001181348217472e+00	-9.997149237489774687e-03	3.429396302522060193e-05	9.806820135783473022e-06
2.012681107913007583e+00	1.718041390162898740e-06	-1.564365272671522800e-04	1.186371430561378865e-02	8.466666975642642701e-01	1.129077857231766790e+00	1.000001180992596161e+00	-9.997158753167059014e-03	3.423181094339711465e-05	9.982675623672200612e-06
2.032707785603684147e+00	1.717222687511205639e-06	-1.563946554698045666e-04	1.162483334728734753e-02	8.466706494952903617e-01	1.128010732342317413e+00	1.000001180641783671e+00	-9.997162415241827443e-03	3.417187069730693303e-05	1.016167513716628227e-05
2.052734463294360712e+00	1.716593159425453921e-06	-1.563622885675845461e-04	1.139263235119057985e-02	8.466745784913498607e-01	1.126976264976150999e+00	1.000001180295744696e+00	-9.997162486828784292e-03	3.411406821729567575e-05	1.034357304502933688e-05
2.072761140985037720e+00	1.716110106485979853e-06	-1.563372822496836040e-04	1.116700435372901951e-02	8.466784973604190023e-01	1.125973448875885241e+00	1.000001179954437491e+00	-9.997160582879494398e-03	3.405833362690760627e-05	1.052817258746115611e-05
2.092787818675714284e+00	1.715740225755807557e-06	-1.563179644468131032e-04	1.094781039035393547e-02	8.466824085856848869e-01	1.125001319004110378e+00	1.000001179617811209e+00	-9.997157843630800206e-03	3.400460088505453135e-05	1.071531654514745140e-05
2.112814496366390848e+00	1.715457598994937028e-06	-1.563030348219427172e-04	1.073488960832829665e-02	8.466863055142679340e-01	1.124058950136344048e+00	1.000001179285812558e+00	-9.997155023588050540e-03	3.395280747861264349e-05	1.090487961646383201e-05
2.132841174057067857e+00	1.715242099038194029e-06	-1.562914841578591746e-04	1.052806694915408951e-02	8.466901778962249159e-01	1.123145455375680335e+00	1.000001178958387360e+00	-9.997152615590998784e-03	3.390289414942205377e-05	1.109676220496858462e-05
2.152867851747744421e+00	1.715078130096237523e-06	-1.562825313693120416e-04	1.032715893917334274e-02	8.466940116061526522e-01	1.122259984626643226e+00	1.000001178635477439e+00	-9.997150895909301394e-03	3.385480465314645251e-05	1.129088536886866875e-05
2.172894529438420985e+00	1.714953634183588926e-06	-1.562755730119881365e-04	1.013197801508751786e-02	8.466977925734380239e-01	1.121401723057108724e+00	1.000001178317025952e+00	-9.997150007956897080e-03	3.380848554727363076e-05	1.148718672559509138e-05
2.192921207129097994e+00	1.714859309213881721e-06	-1.562701442513963839e-04	9.942335717768084613e-03	8.467015057837059544e-01	1.120569889570124378e+00	1.000001178002973834e+00	-9.997149981299701532e-03	3.376388599666363762e-05	1.168561713950758195e-05
2.212947884819774558e+00	1.714787995050012687e-06	-1.562658875678505645e-04	9.758045021446188488e-03	8.467051379335178707e-01	1.119763735301848140e+00	1.000001177693263132e+00	-9.997150786544390169e-03	3.372095760623035750e-05	1.188613804996804078e-05
2.232974562510451122e+00	1.714734192559269401e-06	-1.562625287037181236e-04	9.578921997975132011e-03	8.467086769049188000e-01	1.118982542157427318e+00	1.000001177387837448e+00	-9.997152348406698058e-03	3.367965425997395724e-05	1.208871932165884602e-05
2.253001240201127686e+00	1.714693687712049927e-06	-1.562598576175608259e-04	9.404786982073814680e-03	8.467121126576193646e-01	1.118225621393097002e+00	1.000001177086638382e+00	-9.997154570919401448e-03	3.363993198606566134e-05	1.229333751960044635e-05
2.273027917891804695e+00	1.714663258489602609e-06	-1.562577138921433762e-04	9.235465353567689009e-03	8.467154364997736549e-01	1.117492312250044861e+00	1.000001176789608648e+00	-9.997157340754845786e-03	3.360174882172202915e-05	1.249997452855377288e-05
2.293054595582481259e+00	1.714640446868241841e-06	-1.562559750533440829e-04	9.070788039293011321e-03	8.467186422799295453e-01	1.116781980643480221e+00	1.000001176496691180e+00	-9.997160550272613661e-03	3.356506470306030055e-05	1.270861645093052999e-05
2.313081273273157823e+00	1.714623381876873990e-06	-1.562545478086149156e-04	8.910591798893615148e-03	8.467217256871529818e-01	1.116094017908670244e+00	1.000001176207830023e+00	-9.997164096383874196e-03	3.352984134840133188e-05	1.291925272924540499e-05
2.333107950963834831e+00	1.714610642581579517e-06	-1.562533612571356660e-04	8.754719359577728052e-03	8.467246836825798040e-01	1.115427839604506532e+00	1.000001175922967889e+00	-9.997167879465014215e-03	3.349604216747512466e-05	1.313187544912729443e-05
2.353134628654511395e+00	1.714601152268830269e-06	-1.562523614734441209e-04	8.603019432645160960e-03	8.467275150664419492e-01	1.114782884374203364e+00	1.000001175642048823e+00	-9.997171813935263815e-03	3.346363216093763907e-05	1.334647878708865243e-05
2.373161306345187960e+00	1.714594096888071731e-06	-1.562515074502436282e-04	8.455346653094834158e-03	8.467302201872516365e-01	1.114158612862073072e+00	1.000001175365016426e+00	-9.997175828401273431e-03	3.343257784325200847e-05	1.356305857403095447e-05
2.393187984035864524e+00	1.714588862367783721e-06	-1.562507680635806485e-04	8.311561457569961384e-03	8.467328003634987388e-01	1.113554506684802270e+00	1.000001175091817185e+00	-9.997179860781182578e-03	3.340284715458785646e-05	1.378161195103839023e-05
2.413214661726541532e+00	1.714584986527202649e-06	-1.562501197125810786e-04	8.171529928041888421e-03	8.467352575125465242e-01	1.112970067455371082e+00	1.000001174822393146e+00	-9.997183856113993697e-03	3.337440939646133474e-05	1.400213709853137749e-05
2.433241339417218096e+00	1.714582122295117726e-06	-1.562495443154054801e-04	8.035123605308081354e-03	8.467375950434350429e-01	1.112404815857479079e+00	1.000001174556690353e+00	-9.997187777949438636e-03	3.334723515376398535e-05	1.422463302360674513e-05
2.453268017107894661e+00	1.714580009624681158e-06	-1.562490281332022982e-04	7.902219291456480735e-03	8.467398165171785562e-01	1.111858290768249491e+00	1.000001174294653294e+00	-9.997191593920026764e-03	3.332129623876600906e-05	1.444909939337992486e-05
2.473294694798571669e+00	1.714578454115784370e-06	-1.562485606481220563e-04	7.772698840270882148e-03	8.467419259642949836e-01	1.111330048426921513e+00	1.000001174036226903e+00	-9.997195279556827727e-03	3.329656562308425284e-05	1.467553640462116468e-05
2.493321372489248233e+00	1.714577310767074229e-06	-1.562481337700173602e-04	7.646448948792011237e-03	8.467439276877490872e-01	1.110819661647209688e+00	1.000001173781356556e+00	-9.997198816977326610e-03	3.327301738950309780e-05	1.490394468193827229e-05
2.513348050179924797e+00	1.714576471669557682e-06	-1.562477411726323115e-04	7.523360945993178527e-03	8.467458265774445714e-01	1.110326719071064172e+00	1.000001173529988741e+00	-9.997202198176855306e-03	3.325062667067272643e-05	1.513432519834881094e-05
2.533374727870601362e+00	1.714575856696036348e-06	-1.562473779852215289e-04	7.403330589061808513e-03	8.467476271721907644e-01	1.109850824461580121e+00	1.000001173282070388e+00	-9.997205414745066743e-03	3.322936960746911166e-05	1.536667921340814077e-05
2.553401405561278370e+00	1.714575406484580352e-06	-1.562470403346020694e-04	7.286257861637971886e-03	8.467493342975962456e-01	1.109391596032948124e+00	1.000001173037545765e+00	-9.997208464759385974e-03	3.320922329473505820e-05	1.560100822501397423e-05
2.573428083251954934e+00	1.714575077151974414e-06	-1.562467251570025012e-04	7.172046782204642701e-03	8.467509525765135603e-01	1.108948665815323364e+00	1.000001172796363802e+00	-9.997211347635464457e-03	3.319016574469468107e-05	1.583731393188872200e-05
2.593454760942631498e+00	1.714574836332923388e-06	-1.562464299418391510e-04	7.060605216637711422e-03	8.467524868134025384e-01	1.108521679052692166e+00	1.000001172558470763e+00	-9.997214067811866292e-03	3.317217583810232542e-05	1.607559820435632106e-05
2.613481438633308507e+00	1.714574660207626248e-06	-1.562461526821142335e-04	6.951844701850320475e-03	8.467539413715654550e-01	1.108110293631818344e+00	1.000001172323816467e+00	-9.997216628116966167e-03	3.315523329234516239e-05	1.631586306156602011e-05
2.633508116323985071e+00	1.714574531284778729e-06	-1.562458916604388495e-04	6.845680274393871161e-03	8.467553208100535578e-01	1.107714179540520760e+00	1.000001172092346291e+00	-9.997219036304265047e-03	3.313931861762136363e-05	1.655811065368059470e-05
2.653534794014661635e+00	1.714574436747051803e-06	-1.562456455233135466e-04	6.742030309943757710e-03	8.467566289512664657e-01	1.107333018353569898e+00	1.000001171864011607e+00	-9.997221294714487769e-03	3.312441308867526235e-05	1.680234324795835585e-05
2.673561471705338199e+00	1.714574367223695623e-06	-1.562454129925977000e-04	6.640816368012216094e-03	8.467578701840093869e-01	1.106966502744668013e+00	1.000001171638760900e+00	-9.997223414715183595e-03	3.311049870596127894e-05	1.704856321777872016e-05
2.693588149396015208e+00	1.714574315876083175e-06	-1.562451930468566907e-04	6.541963046498949254e-03	8.467590481625448806e-01	1.106614336022963885e+00	1.000001171416545986e+00	-9.997225401935486838e-03	3.309755816914777496e-05	1.729677303399447771e-05
2.713614827086691772e+00	1.714574277725476556e-06	-1.562449847614863214e-04	6.445397841829216858e-03	8.467601665570492209e-01	1.106276231692740142e+00	1.000001171197314243e+00	-9.997227264223451301e-03	3.308557484366458456e-05	1.754697525805214644e-05
2.733641504777368336e+00	1.714574249152622143e-06	-1.562447873835053644e-04	6.351051017706292080e-03	8.467612284445205084e-01	1.105951913034937562e+00	1.000001170981020371e+00	-9.997229005054021275e-03	3.307453273652651233e-05	1.779917253647704905e-05
2.753668182468045345e+00	1.714574227532922916e-06	-1.562446000728281146e-04	6.258855479174104709e-03	8.467622376774719406e-01	1.105641112709292884e+00	1.000001170767615077e+00	-9.997230638798457886e-03	3.306441646648819503e-05	1.805336759642682372e-05
2.773694860158721909e+00	1.714574210965226554e-06	-1.562444222367729066e-04	6.168746654058894843e-03	8.467631969364172173e-01	1.105343572375899752e+00	1.000001170557051067e+00	-9.997232168293870153e-03	3.305521124045666004e-05	1.830956324206266039e-05
2.793721537849398473e+00	1.714574198074815311e-06	-1.562442533141680529e-04	6.080662380222420088e-03	8.467641089002961863e-01	1.105059042335140074e+00	1.000001170349282598e+00	-9.997233597890840470e-03	3.304690282990965696e-05	1.856776235154812755e-05
2.813748215540075037e+00	1.714574187869328470e-06	-1.562440927105312994e-04	5.994542798420166192e-03	8.467649765066581624e-01	1.104787281184939074e+00	1.000001170144261931e+00	-9.997234937015413853e-03	3.303947754770142223e-05	1.882796787455604591e-05
2.833774893230752046e+00	1.714574179632907781e-06	-1.562439398843484112e-04	5.910330250609204493e-03	8.467658025068379724e-01	1.104528055494381711e+00	1.000001169941945767e+00	-9.997236194196247247e-03	3.303292222595810074e-05	1.909018283015693357e-05
2.853801570921428610e+00	1.714574172849680534e-06	-1.562437944511149213e-04	5.827969183635173592e-03	8.467665888342389424e-01	1.104281139492814479e+00	1.000001169742289253e+00	-9.997237370046227131e-03	3.302722419629683636e-05	1.935441030501579477e-05
2.873828248612105174e+00	1.714574167147276221e-06	-1.562436559812165591e-04	5.747406057785246249e-03	8.467673377235216403e-01	1.104046314773561965e+00	1.000001169545247759e+00	-9.997238469913098322e-03	3.302237127109714160e-05	1.962065345183003538e-05
2.893854926302782182e+00	1.714574162257880600e-06	-1.562435239830367031e-04	5.668589259496709630e-03	8.467680517576270383e-01	1.103823370011472793e+00	1.000001169350778873e+00	-9.997239504741815830e-03	3.301835172323493644e-05	1.988891548796918550e-05
2.913881603993458747e+00	1.714574157987522492e-06	-1.562433981578011642e-04	5.591469018838326685e-03	8.467687325114560126e-01	1.103612100693565967e+00	1.000001169158839520e+00	-9.997240474586447517e-03	3.301515426907851094e-05	2.015919969426539405e-05
2.933908281684135311e+00	1.714574154196468988e-06	-1.562432781785841188e-04	5.515997331203629540e-03	8.467693817112723620e-01	1.103412308862042224e+00	1.000001168969388177e+00	-9.997241382593514622e-03	3.301276805308636279e-05	2.043150941394239966e-05
2.953934959374811875e+00	1.714574150782932352e-06	-1.562431636701010196e-04	5.442127882308255699e-03	8.467700013680085069e-01	1.103223802869050640e+00	1.000001168782384875e+00	-9.997242236177251301e-03	3.301118262983988015e-05	2.070584805164965559e-05
2.973961637065488883e+00	1.714574147672092257e-06	-1.562430543412645354e-04	5.369815977361177238e-03	8.467705930335351905e-01	1.103046397142547486e+00	1.000001168597789425e+00	-9.997243038428605191e-03	3.301038794984944121e-05	2.098221907259020089e-05
2.993988314756165448e+00	1.714574144810158087e-06	-1.562429499429710857e-04	5.299018473464788166e-03	8.467711580491195100e-01	1.102879911962694637e+00	1.000001168415559860e+00	-9.997243790732662783e-03	3.301037434476613371e-05	2.126062600173377360e-05
3.014014992446842012e+00	1.714574142155895008e-06	-1.562428501755511743e-04	5.229693715431395218e-03	8.467716980237419699e-01	1.102724173248232908e+00	1.000001168235659765e+00	-9.997244498599976159e-03	3.301113251414238600e-05	2.154107242308377825e-05
3.034041670137519020e+00	1.714574139679224033e-06	-1.562427548046204035e-04	5.161801474341685438e-03	8.467722142200523328e-01	1.102579012352340015e+00	1.000001168058049839e+00	-9.997245164196194925e-03	3.301265351072972483e-05	2.182356197902819771e-05
3.054068347828195584e+00	1.714574137356851968e-06	-1.562426636258067451e-04	5.095302889610096864e-03	8.467727077401486779e-01	1.102444265867459361e+00	1.000001167882692554e+00	-9.997245788530792834e-03	3.301492873002097452e-05	2.210809836972526396e-05
3.074095025518872148e+00	1.714574135170687883e-06	-1.562425763453705030e-04	5.030160413145304092e-03	8.467731801684751369e-01	1.102319775438658001e+00	1.000001167709551719e+00	-9.997246379043199169e-03	3.301794989618311328e-05	2.239468535255032862e-05
3.094121703209549157e+00	1.714574133107063208e-06	-1.562424928238782091e-04	4.966337756568535607e-03	8.467736322611406630e-01	1.102205387585095231e+00	1.000001167538591140e+00	-9.997246933961629820e-03	3.302170905132816432e-05	2.268332674158907972e-05
3.114148380900225721e+00	1.714574131153908993e-06	-1.562424128914598859e-04	4.903799840958384011e-03	8.467740649299535516e-01	1.102100953529166594e+00	1.000001167369773514e+00	-9.997247454077299103e-03	3.302619854568929420e-05	2.297402640716547333e-05
3.134175058590902285e+00	1.714574129301984957e-06	-1.562423362885722244e-04	4.842512748495932107e-03	8.467744795847919059e-01	1.102006329032971577e+00	1.000001167203067531e+00	-9.997247946493098211e-03	3.303141102540148164e-05	2.326678827540726326e-05
3.154201736281578849e+00	1.714574127543631379e-06	-1.562422628374309506e-04	4.782443676639712947e-03	8.467748771805256869e-01	1.101921374241726204e+00	1.000001167038435224e+00	-9.997248413619807053e-03	3.303733942272640497e-05	2.356161632787044357e-05
3.174228413972255858e+00	1.714574125872025834e-06	-1.562421925144926143e-04	4.723560894495417752e-03	8.467752578501192007e-01	1.101845953533786115e+00	1.000001166875844838e+00	-9.997248848502886254e-03	3.304397694739060864e-05	2.385851460117152106e-05
3.194255091662932422e+00	1.714574124281260266e-06	-1.562421250534127605e-04	4.665833701199181491e-03	8.467756230282358354e-01	1.101779935376953290e+00	1.000001166715263290e+00	-9.997249260188474651e-03	3.305131707856531417e-05	2.415748718665778572e-05
3.214281769353608986e+00	1.714574122766218173e-06	-1.562420602648821816e-04	4.609232385341700822e-03	8.467759737469880976e-01	1.101723192190774636e+00	1.000001166556659049e+00	-9.997249653240095416e-03	3.305935355123652163e-05	2.445853823011564338e-05
3.234308447044285995e+00	1.714574121322395880e-06	-1.562419981312973647e-04	4.553728187719283636e-03	8.467763100920092656e-01	1.101675600214527151e+00	1.000001166399999253e+00	-9.997250021644591561e-03	3.306808035372359612e-05	2.476167193151680398e-05
3.254335124734962559e+00	1.714574119945179177e-06	-1.562419385427608941e-04	4.499293264470306461e-03	8.467766326672147015e-01	1.101637039380641170e+00	1.000001166245253037e+00	-9.997250365680991624e-03	3.307749171632964967e-05	2.506689254475720228e-05
3.274361802425639123e+00	1.714574118630813377e-06	-1.562418812210827012e-04	4.445900652544573090e-03	8.467769429691323069e-01	1.101607393193277495e+00	1.000001166092388871e+00	-9.997250696760837455e-03	3.308758210544234982e-05	2.537420437747467237e-05
3.294388480116315687e+00	1.714574117376290667e-06	-1.562418261566446659e-04	4.393524235849001133e-03	8.467772410593779053e-01	1.101586548611849015e+00	1.000001165941379000e+00	-9.997251009455058665e-03	3.309834621162635756e-05	2.568361179083663036e-05
3.314415157806992696e+00	1.714574116178084212e-06	-1.562417733168481356e-04	4.342138714645928099e-03	8.467775271043628260e-01	1.101574395939218132e+00	1.000001165792191671e+00	-9.997251300122711806e-03	3.310977895137313471e-05	2.599511919939691902e-05
3.334441835497669260e+00	1.714574115032525726e-06	-1.562417224988728196e-04	4.291719573913182866e-03	8.467778022099610169e-01	1.101570828714389716e+00	1.000001165644799794e+00	-9.997251576315178273e-03	3.312187545112408655e-05	2.630873107094208830e-05
3.354468513188345824e+00	1.714574113937237163e-06	-1.562416735645115093e-04	4.242243055105757339e-03	8.467780671169757856e-01	1.101575743609464419e+00	1.000001165499173617e+00	-9.997251841736493408e-03	3.313463104719589417e-05	2.662445192639063222e-05
3.374495190879022832e+00	1.714574112890069600e-06	-1.562416265738403353e-04	4.193686127611605599e-03	8.467783215075739278e-01	1.101589040330676950e+00	1.000001165355286936e+00	-9.997252087669158266e-03	3.314804127411695884e-05	2.694228633968374876e-05
3.394521868569699397e+00	1.714574111887598484e-06	-1.562415814089231460e-04	4.146026463245818146e-03	8.467785660110088708e-01	1.101610621523326339e+00	1.000001165213111332e+00	-9.997252317035951186e-03	3.316210186760475674e-05	2.726223893772220883e-05
3.414548546260375961e+00	1.714574110928018786e-06	-1.562415379032250243e-04	4.099242409197199032e-03	8.467788015380303124e-01	1.101640392680410807e+00	1.000001165072620823e+00	-9.997252536106721391e-03	3.317680874679612447e-05	2.758431440029939993e-05
3.434575223951052525e+00	1.714574110008892536e-06	-1.562414960732387721e-04	4.053312965022128934e-03	8.467790279909724882e-01	1.101678262054830215e+00	1.000001164933788100e+00	-9.997252739663156987e-03	3.319215802010337381e-05	2.790851746007387560e-05
3.454601901641729533e+00	1.714574109128159112e-06	-1.562414559403809333e-04	4.008217758201635707e-03	8.467792452586697660e-01	1.101724140574966926e+00	1.000001164796588959e+00	-9.997252922379611800e-03	3.320814597174769436e-05	2.823485290254427977e-05
3.474628579332406098e+00	1.714574108283093822e-06	-1.562414174080535936e-04	3.963937022765124697e-03	8.467794538595808662e-01	1.101777941763509849e+00	1.000001164660995645e+00	-9.997253086684506143e-03	3.322476906540964870e-05	2.856332556605989409e-05
3.494655257023082662e+00	1.714574107472126267e-06	-1.562413804462136463e-04	3.920451576457192021e-03	8.467796539616273543e-01	1.101839581659384004e+00	1.000001164526986397e+00	-9.997253230927979212e-03	3.324202392849029734e-05	2.889394034182533381e-05
3.514681934713759670e+00	1.714574106692793487e-06	-1.562413451944261276e-04	3.877742801622804589e-03	8.467798448004102418e-01	1.101908978742639711e+00	1.000001164394534348e+00	-9.997253342789877428e-03	3.325990736004028769e-05	2.922670217393752591e-05
3.534708612404436234e+00	1.714574105942363589e-06	-1.562413117224545139e-04	3.835792624317012345e-03	8.467800260040493354e-01	1.101986053862176185e+00	1.000001164263616404e+00	-9.997253414575095823e-03	3.327841631705648730e-05	2.956161605943080851e-05
3.554735290095112799e+00	1.714574105217962378e-06	-1.562412801663720598e-04	3.794583496358232971e-03	8.467801968276915670e-01	1.102070730166180956e+00	1.000001164134210807e+00	-9.997253434509306355e-03	3.329754791905636832e-05	2.989868704835163912e-05
3.574761967785789363e+00	1.714574104516933346e-06	-1.562412507761955693e-04	3.754098376275390170e-03	8.467803559238005207e-01	1.102162933035163439e+00	1.000001164006291798e+00	-9.997253383667990823e-03	3.331729943680122072e-05	3.023792024382348422e-05
3.594788645476466371e+00	1.714574103834439302e-06	-1.562412240152408975e-04	3.714320713050223155e-03	8.467805007711018961e-01	1.102262590017479171e+00	1.000001163879836730e+00	-9.997253229621919784e-03	3.333766829915816947e-05	3.057932080214928987e-05
3.614815323167142935e+00	1.714574103165983346e-06	-1.562412004110747498e-04	3.675234428697140600e-03	8.467806285168489877e-01	1.102369630767229935e+00	1.000001163754825395e+00	-9.997252935957183159e-03	3.335865208400690319e-05	3.092289393291628341e-05
3.634842000857819500e+00	1.714574102504695619e-06	-1.562411807598057751e-04	3.636823903118400775e-03	8.467807348413702861e-01	1.102483986984447162e+00	1.000001163631232703e+00	-9.997252449202203087e-03	3.338024852361057450e-05	3.126864489911056010e-05
3.654868678548496508e+00	1.714574101842508131e-06	-1.562411661372729355e-04	3.599073958439469659e-03	8.467808139082455554e-01	1.102605592357468911e+00	1.000001163509038671e+00	-9.997251698096867173e-03	3.340245550002803921e-05	3.161657901726220015e-05
3.674895356239173072e+00	1.714574101168347832e-06	-1.562411581360464367e-04	3.561969845261201209e-03	8.467808570897633613e-01	1.102734382507396083e+00	1.000001163388217984e+00	-9.997250578428503939e-03	3.342527105279644516e-05	3.196670165757943538e-05
3.694922033929849636e+00	1.714574100467760952e-06	-1.562411586612568457e-04	3.525497228705430728e-03	8.467808540525614269e-01	1.102870294934571671e+00	1.000001163268751103e+00	-9.997248966080602914e-03	3.344869337998971845e-05	3.231901824412104416e-05
3.714948711620526201e+00	1.714574099721705978e-06	-1.562411703110920492e-04	3.489642175499742174e-03	8.467807907109107246e-01	1.103013268966982707e+00	1.000001163150614270e+00	-9.997246692679564312e-03	3.347272084425617362e-05	3.267353425494951523e-05
3.734975389311203209e+00	1.714574098905488725e-06	-1.562411964797239536e-04	3.454391141998178639e-03	8.467806486637052821e-01	1.103163245710504947e+00	1.000001163033781948e+00	-9.997243539008464006e-03	3.349735198344096416e-05	3.303025522232890112e-05
3.755002067001879773e+00	1.714574097987702692e-06	-1.562412414546715208e-04	3.419730962673833610e-03	8.467804046618538916e-01	1.103320168000929913e+00	1.000001162918231046e+00	-9.997239228760302146e-03	3.352258552177523183e-05	3.338918673292141784e-05
3.775028744692556337e+00	1.714574096928027629e-06	-1.562413103514093365e-04	3.385648839396262783e-03	8.467800309761691624e-01	1.103483980357685468e+00	1.000001162803934918e+00	-9.997233432723486718e-03	3.354842038493043683e-05	3.375033442798495943e-05
3.795055422383233346e+00	1.714574095675222066e-06	-1.562414096430104278e-04	3.352132330885717552e-03	8.467794925022090746e-01	1.103654628939194637e+00	1.000001162690864476e+00	-9.997225734873094877e-03	3.357485571330256520e-05	3.411370400358120376e-05
3.815082100073909910e+00	1.714574094165946150e-06	-1.562415469907975699e-04	3.319169344080893404e-03	8.467787477127551865e-01	1.103832061499803174e+00	1.000001162578987524e+00	-9.997215643222027992e-03	3.360189089112665704e-05	3.447930121082960726e-05
3.835108777764586474e+00	1.714574092323004263e-06	-1.562417309595588288e-04	3.286748124080022225e-03	8.467777501587784306e-01	1.104016227348209700e+00	1.000001162468271643e+00	-9.997202608015107184e-03	3.362952555854676847e-05	3.484713185612394717e-05
3.855135455455263482e+00	1.714574090053996756e-06	-1.562419708868315125e-04	3.254857245529832032e-03	8.467764492185576586e-01	1.104207077307356011e+00	1.000001162358675533e+00	-9.997186030115979075e-03	3.365775963518802445e-05	3.521720180139175759e-05
3.875162133145940047e+00	1.714574087252115528e-06	-1.562422761303497725e-04	3.223485602595253102e-03	8.467747941462332451e-01	1.104404563675686290e+00	1.000001162250151454e+00	-9.997165309140262565e-03	3.368659332627523917e-05	3.558951696435419239e-05
3.895188810836616611e+00	1.714574083797353374e-06	-1.562426539064602424e-04	3.192622398397122144e-03	8.467727458041873767e-01	1.104608640189771451e+00	1.000001162142650779e+00	-9.997139981797437125e-03	3.371602711945154162e-05	3.596408331877852912e-05
3.915215488527293175e+00	1.714574079567661318e-06	-1.562431055850347218e-04	3.162257128803279155e-03	8.467702967389360014e-01	1.104819261988200463e+00	1.000001162036112667e+00	-9.997109958958749765e-03	3.374606171728149136e-05	3.634090689478692269e-05
3.935242166217970183e+00	1.714574074454377525e-06	-1.562436202813693737e-04	3.132379560471648498e-03	8.467675059223640499e-01	1.105036385576722235e+00	1.000001161930469396e+00	-9.997075935730214899e-03	3.377669789974459681e-05	3.671999377910963437e-05
3.955268843908646748e+00	1.714574068398212866e-06	-1.562441632528693022e-04	3.102979694275972717e-03	8.467645616301801015e-01	1.105259968794576109e+00	1.000001161825648799e+00	-9.997040133911177726e-03	3.380793621553518770e-05	3.710135011540571163e-05
3.975295521599323312e+00	1.714574061450018540e-06	-1.562446569042711493e-04	3.074047706908977426e-03	8.467618844015685209e-01	1.105489970781987852e+00	1.000001161721574050e+00	-9.997007517674651872e-03	3.383977641105449986e-05	3.748498210454726600e-05
3.995322199289999876e+00	1.714574053875404175e-06	-1.562449509688134243e-04	3.045573854701362406e-03	8.467602886663436745e-01	1.105726351948777664e+00	1.000001161618176315e+00	-9.996987700805145399e-03	3.387221640193541022e-05	3.787089600491690356e-05
