\relax 
\providecommand\HyperFirstAtBeginDocument{\AtBeginDocument}
\HyperFirstAtBeginDocument{\ifx\hyper@anchor\@undefined
\global\let\oldcontentsline\contentsline
\gdef\contentsline#1#2#3#4{\oldcontentsline{#1}{#2}{#3}}
\global\let\oldnewlabel\newlabel
\gdef\newlabel#1#2{\newlabelxx{#1}#2}
\gdef\newlabelxx#1#2#3#4#5#6{\oldnewlabel{#1}{{#2}{#3}}}
\AtEndDocument{\ifx\hyper@anchor\@undefined
\let\contentsline\oldcontentsline
\let\newlabel\oldnewlabel
\fi}
\fi}
\global\let\hyper@last\relax 
\gdef\HyperFirstAtBeginDocument#1{#1}
\providecommand\HyField@AuxAddToFields[1]{}
\citation{niayesh}
\citation{niayesh}
\citation{niayesh}
\citation{farbod}
\newlabel{FirstPage}{{}{1}{\relax }{Doc-Start}{}}
\@writefile{toc}{\contentsline {title}{Neutron Star Collapse in the Gravitational Aether}{1}{section*.1}}
\@writefile{toc}{\contentsline {section}{\numberline {I}Fluid equations}{1}{section*.2}}
\newlabel{aether1}{{1}{1}{\relax }{equation.1.1}{}}
\newlabel{aether}{{2}{1}{\relax }{equation.1.2}{}}
\newlabel{aetherT}{{3}{1}{\relax }{equation.1.3}{}}
\newlabel{aether_cont}{{4}{1}{\relax }{equation.1.4}{}}
\newlabel{gamma}{{10}{2}{\relax }{equation.1.10}{}}
\newlabel{continuity}{{13}{2}{\relax }{equation.1.13}{}}
\newlabel{divergence}{{14}{2}{\relax }{equation.1.14}{}}
\newlabel{eqcontin}{{17}{2}{\relax }{equation.1.17}{}}
\newlabel{gammaT}{{19}{2}{\relax }{equation.1.19}{}}
\newlabel{aT}{{20}{2}{\relax }{equation.1.20}{}}
\newlabel{kT}{{21}{2}{\relax }{equation.1.21}{}}
\newlabel{FIRSTeq}{{23}{3}{\relax }{equation.1.23}{}}
\newlabel{euler}{{27}{3}{\relax }{equation.1.27}{}}
\newlabel{bgh}{{29}{3}{\relax }{equation.1.29}{}}
\newlabel{urt}{{33}{3}{\relax }{equation.1.33}{}}
\newlabel{eos}{{34}{3}{\relax }{equation.1.34}{}}
\newlabel{SECONDeq}{{35}{3}{\relax }{equation.1.35}{}}
\newlabel{rhodot}{{39}{4}{\relax }{equation.1.39}{}}
\newlabel{expressions}{{41}{4}{\relax }{equation.1.41}{}}
\newlabel{rhodotfinal}{{47}{4}{\relax }{equation.1.47}{}}
\newlabel{aetherequal}{{49}{5}{\relax }{equation.1.49}{}}
\newlabel{sdf}{{50}{5}{\relax }{equation.1.50}{}}
\newlabel{pong}{{53}{5}{\relax }{equation.1.53}{}}
\newlabel{1over4}{{54}{5}{\relax }{equation.1.54}{}}
\newlabel{Paether}{{57}{5}{\relax }{equation.1.57}{}}
\newlabel{alphafindaa}{{59}{6}{\relax }{equation.1.59}{}}
\newlabel{alphafind}{{59}{6}{\relax }{equation.1.59}{}}
\@writefile{toc}{\contentsline {section}{\numberline {II}Constraint equations}{6}{section*.3}}
\bibdata{CollapseNotes,References}
\bibcite{niayesh}{{1}{}{{}}{{}}}
\bibcite{farbod}{{2}{}{{}}{{}}}
\bibstyle{plain}
\providecommand\NAT@force@numbers{}\NAT@force@numbers
\@writefile{toc}{\contentsline {section}{\numberline {III}Evolution equations}{7}{section*.4}}
\@writefile{toc}{\contentsline {section}{\numberline {}References}{7}{section*.5}}
\newlabel{LastBibItem}{{2}{7}{\relax }{section*.5}{}}
\newlabel{LastPage}{{}{7}{}{}{}}
