\BOOKMARK [0][-]{section*.1}{Neutron Star Collapse in the Gravitational Aether}{}% 1
\BOOKMARK [1][-]{section*.2}{Fluid equations}{section*.1}% 2
\BOOKMARK [1][-]{section*.3}{Constraint equations}{section*.1}% 3
\BOOKMARK [1][-]{section*.4}{Evolution equations}{section*.1}% 4
\BOOKMARK [1][-]{section*.5}{References}{section*.1}% 5
